g6,attribute,time,total - 0.001997
g6,isDistanceRegular
~?@c??????a????O??????CO@???OG@????AA???E???G???@?????P?????????C?????G??????@?????O????????A??O????A???O??_??????I?_??G??????@A????C?G????????_A??????O?????O???C???O??????????C?C??????G?q???????????????_????_?@_O?aA????A???@?@?????????????G???OO?O?G???@????????C?????O????GD??E????????????????A_??A???????G?????????G???????@??????????C????@@CG?C???A????C??OG????A?HQ??A@??C?????G??????O?????????OGA?A?????C??????A??C???G?@????????C???O????????????A?????@??C?GO??O?AO??_A?????????_???????G?????oG?G????????????@?_P?????????a??A?A?O???@???O@??O?G??@?????????C????????C__??@?@????_?G?????A??KA???????@__??C???@?G???????GO?????C??C??A???C?O???@???A??__A@???C????????????????A??_P?C?A?????_??_?C?@?O???AG?W?@???????????A@???????????????GC??_???????@??GC??????????????G_??_?????A?????????????A??????????P??_??C????_@??_G?????OA?_?????,False
~?@cH?G@?G???@?C?O???????????????_?????????_???????????@????????C?????G??????????????@??A????????A?CG??G???????@CCA??O?_???C?AG?@?B??????_???CG??A??A??@O????Gg???C???GA?????????C????@?????@?CA?????A?????C?PP?????????????`???A?O?@????O?????AO??????????????GG??_??@????@???????G??O???GO?_???@????????_??????@_????????H??????_?????_@?????@??C?????????????A?????????_???G???????????C_????DG????a????o??c?A???W???G@???@??????@O??AQ?B??_????C?A?OC_??????_???OC?O???C??????A???G?????_???g?_???G???O??G????@A??G????A???g??????????G???????????????C???A??????G?????G??????_??@?????@?AO??GA?????????????AO????????C???O?GC????C??????O????_?_????O?A???@??????_?????????????G?O?I????W_??C???????????????C?C??G?G??D??@?A???_???????????_??????aO@???C???@?????A?????g???????A?????O????_??@????@???CC?CO????_??O_???A??A??????????A_???G???_?????CC?,False
~?@c?????A??????@???????????OG?C?O?AOA??????????O?????????G??Oc_???DC?`??o?C???????_?????_???????_???AG_???AO???????????CS???????@A?g`?????????A????C???_?O??????_???@?????O??????O????O_?????_??????????A????????G????G??????????O???????????O??A??_O?O?A@???C????????????G?G??H???A?O???G?__C??????@A????_???O?GCA??????????????_????????C?O??WO????O?O?A@??????O???????K??G???C??C????A??????????@???@?A???CA?O?????C????????_?@????H???????@@??_?CD???@???O??@@?????O????????OA???????????????__???A????b??c?????????Q??@??G????????G???G?????????????????@???_??????????A????_A?@?O?G??????????A??O?H???AA???OC?_???G????Q?G???A@?C?@???O?O??A?????AG?G????????????C????C???????????????@??@??O?@G?????O?????O???????????????????????????OA?A?O???A???O???S??????C?a?A???A???????E?O?????O_K?O?????A??O???G??????@?_???????Q@????O?_????G??G??@C????????,False
~?@cA?A??????_????????OOG?G??????????_?O???_???K?????I?????O?_??G????????C??_??A?????@?H?O???????A??????????O??O?C_GOG????????????C_??????@?o???????????_???????????_?O?o??O@????????????@?C???????C@????G??????@????????_G??A??????_???_??????O_?C??????????_?@???_??GD?O?????@??OO?_?O??C??_???????????G?`???_??A?Q???????COG?c???O????????A??@?AA?AC?A???????G??_???????A?O?C??????????????A??????????????????????????A???@??????`??????C?????????A?A??_??`??@??????_???O?AOHC??OOA?A?A?_????A??G??GA???????`??C???c????O???????A???A???????CA??????????????????????_??????OM???????A???????_?????????????G????C???H?_?OAOG???????@??????_??????????????g_??????C?_????????A???@O????G?????????AG???A???A??A?????????Q?O??????A??????_i@C??@??C????????CC???????G?C_AC?S??`?O??O???????O?G???@????A???????_???GG????GC??C??????????_G@O??G????????????B???,False
~?@c?????O??????C?_???????C`?O?AG????h???_????????GA??_G????_??_?_?????????A???????_?????C???????G????????_???????????????_?O??@G?????D???A??????o?????O??CG???????????????????_?O??C??_??_?G????AC???????`?????O???G??A??A?????G????G??????????????_O?????O???P?O???_???_@??O?Og???A???????`A?A??????O??????????????A?A????_G??O@????G?????_@@?????C????O?????O_???GA?G?C??????O????@?C?@???AG?AO?????C???????????@A??????A?????A????@??A??I??_???@?????A??????G?????@?@?G?????_???????G?????????????I????@@?????AK?g?@A?????_?_?A????@????Ga??A??????O????@???CC????????c?OA???????????@?A?C?????C??@?????????????O??H?????????????????AA??O??????????????_????@??B_?C???????????A@?E?????@C?G????_A????OA?????@?_??A????@??C???W??_???@@???A???C????H??????C?????C????A??O?g????????O??????O???G????AgGA???A?G??????@??@?A?A?????C??A?G???????G??????A????,False
~?@c@_?O???????_?C????@O?G????????????G_?@??????C?????????????@????@?@C??????A?C???AG?g???????BG???@?_G??O???J?_????????O??_?????????C_?_????O???_???A???O_??@???????????C????_??C@?O??O??E????????@O???C??O?????????h??????????G??A??????CO???G?G????K??G_?????????????????_?C????A????????_?@C???????????_A????????O??G??A?????????@????A??????????A??????????????G??`@`??@????A???????OG??????@?????O?????@???G????_???gC??_?????????_??@P????????C???????C?_O???c????????????@_?A???_?@??G????C???????O?????@??????O?O?????????@G??G??????????GI????Ao@??_??A?C???????@_?G??????????C???@????????_?O?G???????????????W?_??????G???C?C??C???AAG??C?????O@O??_?W????C?????G???COG???O??????????@??C?G?G??C??A?@O?????????C??????A??_??GG???????_????A???@?@??_????_?G????C??@??O???C??????H?C??C@???G??????_?O??@????????@??????A??OG??@???????O????@??_O?G,False
~?@c_???????A??????A???C??????_???A????C???O??????????????@??A????????G@??????A_?????C?@???@O??G???A??C?C??I?O????????????C?????@@??C???O???_?????_???????????_????C_@??G??????????G?????_?O????Ao????????C?????????????@??G@????A???G_??GO??????????AASO??????O??????OCGO?@???????a????????O????????????G???????C?????C??@?????????????O?????????????I??O@???????W???????_??????????????GPC?_C?@?????????@?C?C??A????_??c???????O???G???????C?????????O?KC??????C??????????AO??K?D_?C????_?Ac??@??????S????_P???????????????O????g?@?????CG?A????@???@?A?_G????A?_?_??O?@??O???O?G?O?????@??????O???G?O???OA?G??_A?A?a????O??G_????????sg??AB?????O?????B_?????C??????????????????c???????@???????C_?C?GA?G???????????@?C???????????????B?O_???_????O?C????O?Q?I?????????@o@?@?@??????????????C?????C???a_???????C?A?????????C????_A???_?????????????C??_?@?,False
~?@c??????????????Aa_????????@?????O?????O?????_??A?????C??A?C?_??????????Oc????A??G???_?O????@??G??O??????C??O??_???????????C?????????P???????????????????????????????C?C?O?A????????????G???????G@??@@A???@?O??`???OG???_?O??A???_?G?A?????QA??C?_@??????B??_???????????GG????????????????????????HAC?????????????@??A@?A???O???????????G???????????C??????C????O??_???E????@CO???????G????@??O????K??C?@??@??G??????G?O??C@C??G??????O?O??@??CG?@????????_???C??O???G?D?@??__?_?C?????O?D???H?_A?????O?G????CG?GO????????OG??O_?????????????????_?C????C?@???????G???????????????A?????CO?@??????A???G???O?????????????????????????????A?????AC_?@WAA?@??G???U?Ac????OR?C??@??GA?????O???`???P?????O?_??CG?G????????????cC???G@A????CGG??A??????A?????@???????????G???__????@????_??_?????G?????????????@?O??O?O??G??C????????C?_?O????S@??????G????C?????,False
~?@c??????????G?C?C???__?????????????O??OI?A_????C??????C?C???????GO??@??C??O?A????@????C???_O??g??????C???????O???????O????@?G_????Ag@O?C??????????????@?????Q?????G??W??????A????C???????O???A?????O???A????AG?_???C????@???C?A??@?????????I@??C??????????????????????C???C??????G???@???GG_?@?@?C?????_A?????????????G?O?_?A?????????????_?AA?@???????O?@??_??A?@???@_????_??A??Ao???????????????????A??????@?????G????A?OA??G?????o?????C????????????A?????O???C?????????????????C??G??_??????O????@?O@??_G?????CC?O???C?_@??G??C_??W???@C???O?A?_????????A????@A_???C@????A???_iA??APO??@_A?O???CG_??????????A?????????H?C?A????????C?A????Q???OG??????????O??????????G???O??????O@????????????@???GQ??AC??????C????A@????O@?????????C????A?O?@??????????I???????????_??O?????a?_C???????????a????????????O???????AAAAG?C?_?@???G_????A??????????????A?G,False
~?@c@????????C?G???G???C??G??????GOC?????????????@????????G??????C???????O_??IA????O????@???@@_??@?????_??@?????A?????_@???????O?????????OB?G??@oAO?_????@???G??C????CCD??????@??O?????C????????A???_????OG?A???O?_?B_C??Q?C?@?_????????????????????????_??????_????C????_??AC??C????????P??_O???@O?O????G??O??????G?C??C@K?A??A??Og????O??@_??G??O????????????????_???????@O??CHG??????@????OG@?_C???@??G???????_??????????????@A?????????G?????????h???????????O?????????A????????????C??C??????????????AC?????A?????C???????G???_??_???????OC??????????_CO????@@????????C???????A??????@?????????C??@?????????A??O?@?C????O????C??A???C@_G???????C???G?????????A????????GG???????O??????O??OGo????C?????????Q??G??CG???????CC??G????AO??WG????`?AO??A?@G??????@??????_?A@?_???O???@???????????_O???A??O?C??????????G?_??AG??G?C@???????ACOA?????@????_????,False
~?@c_???W???G???????_????????????O?C????C???????_A?????CO?????AGO??@A_???O?????O?????????_?????????O_??????????????@??C?????_????GG????????G??c?_?A???C??O??????O??@?????????????G????????GOCO????G????????@???????C??OAG?O???G???O??????@a???AP?O????A_????A??????_E?????D??@???_????AQ?????@????A????????@??C@????A????A?A???????@_HG??????????B?A??C????????????C???A??A???G?@???????C??????A???O??_???G???????O????????@O??O????O????????_???@C?????D?O??O???D??@@?AG???????@A_??????@????????????_G_@???????O@????@??????G?K?@?C?????A???????_?????_???A?????A????G?????????G??????@??????gG???????????????OC_?_C?_?????C??@A?G?G_??O?C??????????????g?????A?c@????????????CG?`C??I??_CC?????????????@???OO??C?????????????W?A?_????G??@?????OC??G??O???O??C??????_????O?A???_??????C??????????????O_@???????????????O_O????_G????AG@???_??O???@?@@?????,False
~?@c??@@?C?_?@???????????????_C?O???o???????@?BXC???@D????G?C?G_?????????G??????C_?C???G??G?A???G?CO????????????_??????O?G??????W???Oo???G?G???????O??g??????G????????GO?G???????A?@???G??????????????CC??C[A???C?O?O?T?????E??CO?????G?@???????O?@_C?@?????@???????C?????_????_?G?????G?_????????????C????AA???G????A?O???C???C????????????GC?C??G????GC??Cc????@?????????????_G??????C????O??C????C?OA????_????A??@?????@???W??OGC?A?????_?O@?????O@??????A?????@?????@?@?????????????C@O?????????????GA?C????O_O??????G??_???A?????_?????????_??????_????c?G???_??????????????_?G??????????????????????????????G??C????A?G??????O???O??????????GA?C???????C?G???A????????A????OO????????@??W?????S?K?_C??????G??_??C??@O???A?@?W????_A??_?B???????O?CO?????????????????????????O?A?_?????OG?OA??G??G?G??????????????C??????????CA??????G_??@??A???????@???,False
~?@cC?????G???????????G_??GA????????@?S????????G??????CG??O??????A????@?@????A??GA?G???A??????????????R?_?AC?G?????????????@????????????OG@_???O?C????C????a????W??C??o??@?GC??G?O??G??????????@??C_??????O?G????A??C?@???_A?????c???G_?????????Q??????????A????C????_???C??G??_??O?????O??????????O????????_@?@G???????????@??_?_??????O???@??C??@?A???????P????K????G????????K????C@O??G???????????A?????AC_?????G??O????O??????????_??_???I??C?Q???a????????????O?_C??A?????????G?????O?A???????A????????????_?????WO@??_??C???@???O????A?O?H???????????_C?G?????_?????@?????????G????_?????C?A????????@??_?@?????????A??CO?H?_O????_?COA????????????????GC??A??C??O??G_??A?????O?????????????????O?O??A??O?PA????G???O???????????O????P???_??I??G?@??@???C????????@????G????C??O???C??O??????G?????A?O??AQ??????_?_OC?????O??????????A????A?@????@GA??C?O,False
~?@c?????G???????????????G????G?G@?_OG??????A?????AG???A?????G?C????????????@????????G?????@A?@??????????_????A??A???A?_????_??G?????????OA?O??????CA@??O?????????GG??H????H??OC???AA?????????????????OO??c???A@?C?@`??C???gG???C????O???????C?_@??_C?????A??@C??O?G??????AA_???????????@@??????CC@O???????????@????????_????????????_?C???_???_????C???CCO???????????O??????????AA??C???A_?????G???G?A?@_?A???A????_???A????????????O???G??@C?G?????@???????c?G?G?_??????????????????????????C?CA_????????????W?????O??A?O??O??@???@??C????????O???_E??GA??????????_GH????G_?G??????????A??AC?????????????????????CCH??C???O??Og???????_????O_????????????GC`??C????_?????????@??_O????__?_????@?C??C??O????????M?_O?A??O??????C??O??????????@???????G????O?????????????????`????????????????G?G??????B?G?S?A??_?A@??QG??S???G??????????C???@?A@?A???O?@??A?,False
~?@cO???????AO???@?C????A????@??@?????_a?????????GECG????????????????????@???G???`?????_OO?C?C?????_?_?@@?C??????H??????A???????_??????????B????????G??A???_???????????__??_C?@?C??OC????@@?????????????A??O?@?@?????????????????G????????????????O??SCC??H??@?????????K??????AC@?????A_@???@@?????????A??G???G?@O??@?????G???_?@?A?G???????G???_???G????@?????????A????G?A???o?@a?W??W????O?A??@@@??G?????????????_??G????????????????ECA???A??A?????????????????A???C????C??C???@??????A???@???????????????C???D???O??@?G?G?????_?C?????G??????????C????O?A??????A?_?A???OC?@?A?A?_????????C???????G???G??_????_?C?_C?????A??????????@??oC?????@????????G????G???S??????DCCE??C??G??C?_?O????G??????A?????????????????G???a??A?????????O?????OP??????????C?????????A?@??????A???????O?O????????P_G?A?C?OG??@????????O@B?????O??G?PC??_?_???????B??O????????,False
~?@c???_W???C@????????G?O?????G?_?@??G????????AG????????C?G???C???A@?????O?O?@??A?_????A?????AG??????G?@??_?_??@??????C???A?ACA@??@????????????C???_?A??????@???@??O??????????_???????????GO???C?????G?C???????????_???G????C?O????A?????_??????????S??????G????O??O?????C?A_??????C???@?GG???_???OA?????@???A???@????????A?Gc?????????G??????O????A_????C??????O??G????A?????A??O???????@???????????Ca?@???@????O_?G???C??a?C???????C???AC??@?_?H?@????C?_??_?_???????????H?C????????????????@????????????C??D???????????A???@??A????@??????????g@??????_?@??CI???A@?????????A???G???C?A@?????A?A??O???__?G?@????????C?_@???A?O@?W?_GO_???OO?_??????????????G???????????AC@???????O??O????????????????@??A????????????C???????C?G??????G????A????G???C?????_??????OOAC??SA???A?G??CC@????O?C?@DC???????A????G@??G?@??@?_O??@??_???????A?O??@????????????S???,False
~?@c???G???G???A??G??C?C?@?O?????B????????[??g??_?????????????????O???????O?H??????A?????????A??????C?B?@@@????_??????A??C???????G?????????????@??G??????O???????A?_??????????O?@??@????????????Oo?@?A?????C_?B_?G????????O?????@????A??_?????A????_????@????AC????????G?????_??C?OO?O?A_??C??G?P??_?C??????????????_??O????????????O@??C??`@??@????O??A?O????A??CCO??????????A?@????????????C??????????CO???????C?@?????????G?????????A?G?B???Q???????????A?CG?G???@???????O?????????G?????C@G???_?C?????????_??O?????O?????G?_?O????G??GG@?O????????????A???_???_??A@??_???_?????W@???O@O??o???O?O?????AA????C?@????_??AI??G???@???????C????@??????????????@??@S???C?????O?A??Oc@?O??A??A?O@????O??????G??G?@_?????????????????????G_????????_A??C??Pg?@?@_????AC??GO?????????????O?????O????????????????O?????G???A??O?C???@C?????????C?????OA?O??_AC????A,False
~?@c?????????????????????H?????Q?@??A???????????O???????O?????C??????????A??????_?oG?_?C@??????????????????@G????????@????_???????????????A??@?K????C?CA`???_?A_?_??_???????????????O?iC???????O???????????G_O????A??????????A??????O?_CA???GC???_????????O?????????SA?A_P?C?@?W????????????????????????@???????????O_????E??????????C?O????G_???_?C????A??A?C?GA??_????????`?????C??????G????C???G??????G?G????O??C??@_??A???A??_?O?Ag???@??????????????A?@???O??E@????C???O?@????_???G?a???????G??A????O??I?A??????@?????_???C??AC???????O?@??????_?@????G???????A?SA@??C?G???_????@C?_A??????O????????A???O_@?????@??????_??@?A???????A???????G@G?G?A?????????@C???q???AC?@???G??G???G@?CO_???_??????A?@????_????????@?_???O?????O????????A?A???O???C?@???????C?@????C????????????_????SC??????O@????G??????O??@???AG?????C?????Q????????_??O?A?A@?????@?C,False
~?@cA???????CO?????O?????A??_?????????????G?_???????A??O????K????A???O????@??????C??AO??????@?A???@????????_O????C???S??_??OCGAO???G?CAA??_?????_A@?????S????G???????????G?G??G??O??_@????A?C?????C????C????CW?????_?O?C???P??CG????????O???C???A?C????A??????@???O@@?O??G?????????????????????O???CP??g??O????_??_???A????_???@?@??????@@O??O?????????O??C??G???????@???????P????A?C??????C?????H???@?????????_??@?A????????O???@??c??????????A_@?????G?T?G??O_?G???????A?OA???_???????@?@@???C?????G?????C?????A????C????????????????????G_?A????AO????_??CA@?A@?_????????????????_????A????????@G??G??O???O?????O??_?CG?@_???G???O??????????C?????GAO?C?A?@???????C???@????O??O??O???????G??????A?@?????A????A??????C?C??GC???????????@?????C??_????_????@CO??AG???????????GQ???O?????O?????_???@?????A???_????????@??gg??????????O?????????????O??@OG?C??,False
~?@c?_??????????????CC?O??@???OO?G@????????_???H???????CG??A????A???_??A?????????O?_???AA_?_A_G?????AA??A?????O??_?????????????O??g????C?g?????????C?????????????????G??O???E???G???@??????C_????????G??_??_A?_A@?????????????O??????_???C?C???O?g????????????g??????????A?????GC__G???C?????A????C??C??O??????????@??@?_???ACI?????@?O???????O??C?AC??C?????????????????O?????????@@??G????????@??C?????C?????A????????OA????_??O?_?A????????E?_??????H?G?G??O?A??D?AA?????_??C??????@???o?????A???????P???_???O??_?O??O????`Q?A?G???@??G?O?????A????G??G?G_D?O??????W?????Q????O?A????O?_??_???????G??_?????????????A?@?????????@?@??G_??????AA????@?C?????VC?????@???????C????G???C??C?C??A??G???????????????A????@?A???????????_??A_?????_???\??????A?????_?@?????O???_????g@@??@???????O????????????????A????B??O????_?A???????????A????????C?C?????????,False
~?@c?AO??O@?????????????A?E@??G?AaQ?C???????????????S@???????_?D??G?@????@??G?????G???_????_?????@??????????O?????G??O?@?A????A?_????G?????C??G???????@?????B??C??@?O??@C?????????_OG?_???_?@????G???O???????A????_?????????????H???C_?@?G??????@??????A?_????`?Q_????@??????O_??_????????????????O?C?G???@??A???????AO????????????G????????A?Q????@?????_?AC???A_??@????O????C??????@???????????G????????????O??????O?G??C???????_??A??O?????O?_??O?DA?_??C??CGC??C??W_?????????????k_??@??????O?@???????????a?E?O??AA????@????@??????A???????????????@?????_?@?????C????????_??????C??A?????????_?????A??@??????_?G?O?S?????O??GC?E?C?_????G@???O??G??????C??????@?O??@?????G??????_??????@C?C?????_O????C???????G?????@??????????C?????????????_A???????AS@?G???`?O?O??C?????????????C?G?????AA??C????C??C`?????????_??A?AO?@??A?????????_?@??@A???_??G???,False
~?@c?@???A?????????OG?_???????????O???_?GC_C?????GA??????CG????????a????A?????C??A?G?C???C?G?C????C??O????C?@GO??G_?????_?????A????CC??K???G???????_??????C???P?@G?_?@??????CICC?G??????????????????_????????@??????CCA@?????G??C???_???????????@????????CG?AG???A??OO?G??A???????????????G?????@?A?P???????????@???@????????O?????@@???C??????????G?????_??????@???????`?A?????@??O??????`????A?A??OA?@A???@??????@?????????????_C?C?????_?A_?_?G??G???G?G??_o?@?@O??????????O????C???O??G??c?GG_??AO???_???????A?A??_?O???????@??????A??H???????OC?@O????_???????G????_??????????_?????A?_?A???????????G???G????????????D?????C??A?????G????GC??@?????B??_????C?G???_?@?????????G??????????????????G???A??_??????@??????O?_?__?O???CC???_????@??????H???@?C_???A_???A??_?????G?_??RC????C?????@????C??????@??A???????????????_????a???_C?????????D??CC?????,False
~?@c????A?_???O?OC?@C???@????G@??????Go?O??_???C?@??A?A?A???_G@G????????H??GO??????A?A???_?@@?C??CG????????O????__?_????GO??a???A?????K?????????????????_??????A?C@@G???????OA?C?C???G???CC???A?G????_?????????????O??CG???_???A??????G???O??????A??G?_?_?gC????O????_???G@???O_???????_??????GQ???G????G??B????????G???c??@?AG????????@?????????????@?????????????CC???????O?G_?@?@????B??O??W?????O?????A?G???????O??G?@?????????????????????????O??@??????OOaA_?O?????W?O??_????????W????????A?????????????C?????I???A???????????????????_?o??????A?@AGO?H????????????????_A@??????????c??_?A????????_??????@?C????????o????@?A???A?O?O????A??_??????????????O???_??????OC????????????O??_??W?????????????@_???A?????@?????O???D????@AO@@@????_A????????@??????G??@?????@??????????@????O?_g?G@?????G??A???????GC?????C????_?A??????????????@????A????@???,False
~?@c?E?G?A???@??@A??A?OG????????????C?????C?????G?G????AC???@?O?A??????????A?G?A???????????_??????????Q???????????????O????C_??????A???_@?????????C@@A?????_???CCA????????@E?O@?O??@??@????`??@????????O?C???????O?????????OO???_Q????????A???@_?GC???@???@?G?_C???????????_?__????????GAS??????O_?A?@O?@????????????GQA???@?AA??A?CO?????@?_??G_?A?GAA@W????????_??????????G???????C??????GGA?????????@@_?????????@@O??@?_????????????????????????????H???????O????????????@???????????G?????@????c?@????O?????C?G?_@?CA??A?AC?????A???????????????????CO?H?A??A??????O??????????@??????O????C_?@?????O??E??C???@?????@???????O???????@?_??@?k??o????G?????????????@?O???????????@??????H??????????O???C??W??O?G@??????A??@??????A???GG??C????????????C??A?????????`??C???????A???????@C?????_?C?A?@??G????OQGA???????????GC?O????OCQ?????????????????GS????,False
~?@c???C?C_????@????G??AO?@??????????????G???e??@??????`?????????????????P??????O?@?__OO???????????G??@??????C???A??G?_????????????GA??@?????G??G??????????CC????????GA?O???C?????C?@??C?????@C_???_????????_A???O?G??????@????????C????@????A????g?_???????b?????@A@????_??_G????_?_?CG??????O???O?G???A???????_????????????????OGP????HO?_?????G????O????G???C@?CM??????????????h?@???O??????_??@??O???G????@?OAG?W????CC?@??G??????C?A_??@?C?A?@?????????????O????????@_??_???????@?@?????????_?G?_??O??_?A?????A????????A??A?SO????G??G???????O??????????Q?@???CO??C??A???O???????S@_??@??O???_C?????????????@_O?g??A_??????D?????????G??????????C_??P???O????O????????C??A???G????P?G??????W???????????????????????_????O?????@??C???S???A??????A???????@??AO??_O?????????????G?C?????@????????????????????????????_?A?@O?i?????W???????_?O_@????_??????,False
~?@c??O??????_@C??@????????????g????OO??_?_????????A?@????G?CW?????O??C??????????_?????????A????@??????????????G???????G?C??????????????_??????C????A?C_??????a???_???G??????????BO_???_???C????????_???@????A???O???C??_GP?C??O????????C?@????K@?????G?????H?A@??C??C??????????????c?????G???A?__??O?????A?????OG?????A?????C?G???????G????A???G?@????@@???G???G`???????????O?G??G??G??A?@???????????C???@????????????????@??GO??G??O????e????E??_???A??????????A???G???????EO??O???K????G??????C????A?????_?C?_??AG?A???S?Q???????O?????????????_??????O@??G????G?OQ???o??????C_?????????@A???G????????a????????a?????????@????????I????O???A?????CA?@?_?O??_??C???G????S????A??????????A?????A?????_???_?B???????G??????????????C?A??????A??_??@_??C??_???@?OAGO?O??C???A?C????????G??G???????K?@?P?AGC????????GG?????????_??G????O?C?G??H_@?????A?_??????,False
~?@cg????_G_???`?AC??A?GO?CA?_????????A?_?????????C?C??A?????CO??????DO????@?????????G??????A??????@????????A???CA?????????????????@?@??????A_O?_?A????@CA??????????A??CC???????OG@???????C?@?@?C????@?A??GC?O????C????@?CA??O??????????????C?C??????????????????`???G????????C????????A???@C?_???O??C?????????@???????O?C??O?OG??????????????O????G????G????C_?C@??OO???O?????????O@???C?????DO???G?O??????A???????????????C???????C???A@?@?????A????D?@?????????OA????O?????????G__??OE??????????A??G??????????G@_A??GG??C?????C???????@A???GG?_???dK???????O??@???OO????O??????_?C??W?????C?????????G?OG????????_???@?A??A??????E?????@?????CG??BA@??@??O??G????C???OC???@??G??G?????????OAA_?????O???????A?????G??@??_???????O???OA??????G?????????????C??A??A?O????O??@????@??????G???????????C??@????????????G_??DG???????_?G?a?????O?????????@?G@A@???,False
~?@c?????????????_??O????O??????????AG?a@O???G??????????????D???A????OA??????D??????????@???O????_@@????????????_????A?????????CG_?G_?__?SA??O???P??O?A@_????OG?C?C????c???G??H?????????S??????????????????Q??CH??cC????????A?????C???????A???O?S?@??????C??C?_???G??C????_?????G??_?????C????????????????__????D?????C????????O????C?????????_????D?GK_????????????O???C?????@?a?????c???G??OG???????O@???A??C?A?G??@????G?_?G????_?????????Q?G?A????O?????B??????@????GA??_?AO???C???G?ASO??@?_???CO???????????_C?????@?@???C?G??_?OA????????????o?????????@?O@???O????GG???????G??????O????_G?G???@???P??????????O@?O??G??_????@????????????_?????O?????D???????????A????OC??G??C?G?A????_????????????A??????_???????@????_??@??????????????????????C_?A??E???O?????c????_??????_O?????_@GG????O????S???G?O???_???_C???????G?@??????GA??C?????????????????,False
~?@c?????Q?GO??????C??_GA????????????A??????@???K????O????O?C??@T??G???G?_H???C????@???Q?O???_???O????o??????????_????C????????@?WC????__???C??@?????@??A?C?????????????O??????C??o_?????????????????_??W??G???C??C?????G??????????@G??B???@?C?????????aB?C?@?A?c?B????_?A???@??_???G????????????????????????????O???CA?????_???????O?@????_?QC?_????GI??A??????OA??CG?G???_O??@??IC??A?O?A???????G????C??O??@???G????_????O@A?C???G?H???OA???_?_O?`????????@????G??????????C??????O??CA?G???????O?????????C????_???????O???????????_?????AO???A????O???g??????????????C???G????????Q????@?????A?A??????????OOA??????A???@????A@?C??O??????G????C@G???????@?????@?C??A_??????A?AG????O?_??????G????????????????G?????G???C???C??????????????CCA?O???????O????????G???????GD???????C????GA??????????G?????????????????G?_@?????A??AC?@???????a_?C???W?@A??????,False
~?@c???A????????C??????A??????_???????@G???OC??@???????????c?@????????Og???????Q???@__???O?AO??G???????????????????????GCC??CG???G????????????????????C??????????????GA???OG????O?????????????????????????????O?????w?????@O??i???G@?_???C???O???????_?????@???@@???????_???????C_??????????????_??????????@@?_G?GC?????_WGO???????????????C?C?????O`????????@???G???G?C_?????OC?h@??@?C??_????C?C????????AO??????A?H??@C????????A?????E????@??O??O??G@?????????GG???????????????????AC?A????A???????????_?????????C????????A????????????C_??_????G_G????_???????G?_H??????A??@???G??G?????????B?__?????O????_??_@????G?I??K??P????@E??????????C_??_?_??????G@???CA??G????????????W_?E?H??A@?G_??_G????g??C?G?????G??????????C?????????????G????G??@?Q?GC???C_?G??????G?@??????????A????_?S??A????E???@????G????C?????_@???_?@_?_O???A?O?G?@??A?????????????C,False
~?@c?@????????@??CC??_????????A??????????_?CG???@?A??O???????????O?@???AOGA?G?????@BG??A????A??????????????wC???a???_???????A???@OGGCg????O?C???@o???????_???G?????????????P????GA?C??????G?????c??G?C???O????????????G???????A????@??????C??C??E??C????????A??????O??@?C??A??B????A?_?O?A_??????CAGi?_????A???????????g??????A@???????????????O??OC???@G????@???????????????????????????_??????C?C??????A??????A?@C??????????????A?????_?????@OW???O??????G??C?_GA????A???C?A???G@??OO?????E?G??o?????@???A??AS??O??????@??????GA?G???????????G???C@?A??????????????@??C??_?????????CG???A????A????????????_Q????C???G?????G?AG???C??G???????@O@???????C???_?G??@????G????????H??????????_????C@g????????E?G??????????A????????AC???O??G??@???_?o?O?????_????????G??O??A?P??????@???????A??A??G????????A???????O???????A??G?????????Oa????O??OO@?_?A??????_?,False
~?@c?W?G?????????C??????A????O????????@???G???C???O_?GOEQ????????@?CO???AGA???@E??C?????`????????A??I?????????C?????A??_??@?G`??G????????????????????A?C?????????O?C????G?G???????????O???A?????????@@G??????Q?????????G?????G??????@G???@?A??OG?????????@?G_????O??@O?????O@_C@??WB??OO?G??@??C??????????C?CO???G??P?O?????????C?????????C??????A?A@A??????@O????????_???????_??????????????@_OA????????????????@??????_OO?????_??????????GO@@??AO?????S???????????G?AG?@?????????G?C??C?GA?????_?_A????@?_????O?????????CA????????G??????????I?C@?G???????O??CO??_????_?_AA??IA???????C?????A??_???@???@?AO???GC?AAG?????????????O???A??G????C????W????????_????G????????@C??C???A???A?_?o?????????????@C?_???@???????G????OA???QAA???????_G??G??C?????????????????????????????G?O??A????G???????@???????????CC??__O??_???????@?O??????????????E?????@A?C??,False
~?@c?????????o?AG?????C??C??_???????A?O?????????G??O?????@???????????G??O???@??_??????_??A??G?A??GG?????C??????G@??G?????I???????????A??G_?A????????g?OA?????E??????????????C????????A??_???????G??????_????????Q???????????C?A?????_???IOG@`?O@G?????GC???????C?_C@??????CO????????A?????????????O??P?@????????C??C???_??@?G?C??????G_??OB???G??????G?????_??A???A?OO??AA??O????????????O???????CA???_??@?????????????????????????C?@???????????????GO????????_?G????C??G??????_C??????C????O????E_C??????????????CG_????_KO????G??O???@????E??C??????????????@????`??????G????O?G@????O?O?????_????A??O???C???_A????_???????C?????C?????????G@?C?O??_???O@A?????@GC??@_?_??_??A??@_?C?C_??_?????????O?????????_?????????_WA??@G??O????O??C?????O_???A??_???????????O?????@?G?O????C?E_??@?C_?@??ACAO??????????A??_?O????aC?C???O?????C?????????@?G?@A??????,False
~?@c??G?S?G???OG??@???_?O???@G@??????OC???C????@???@????????A??_?@?G@?gA????C??????a???G???@?C?????????_????A??g@?????O@????????QG?_??????O??O???GA??_??????????????????????G???????@O???????????CC????_??a????g??G_GG???????????????B?@?__???????????????????A???G?W???W????????@B?????????_???WG?????@?A??@???_???c????_???_???_?@??????A?????????A_??????????C???????????????IO???o?????GCC?????@????????Q???O????????AOC?????C??A?????????OG???????O???C????GG??_O?G?????????????G????O????????C?_??????@?P????????????????@_??C??????????GO?O???G?AC?????????i??O???????C??A????????G????????????????P???A???????O?????BA???????A@???O??@????s??`???K?????????I???????_???G???@??A??__???????????@?????D?@?????????_????????O???????O_??C????CB?G?????_??????????????`g_????C????????C???????????AC?_??????G?@?G??@??O??@???????A????C?AO????M????@`G??G,False
~?@c?O??????????????O_???aH?_?A?C??G_????????G???@??C?????C??????A???G?Ac???C???O?@?????_????????@??C????????K??????????G??oo???????????????OAo????A?S???G????_AA??????AC?????@????????C???O??@?O???C??GA?@?O???@???_??????O????O??_????????????C?_?E`???C??????????_???C??A?????_??O????A??????????????O?????G??G??Q??@??????????????G????AC???@???_??O??G?D???@C?o???_G?????????????A?????_??????????????_??????????C?CC?????????_????????????????????????G??????C?_????????@A?`?????O?_?I?g????AS???@??_CC?CK???CAOC?@_???????????????__@????_??????_OG???CA@??O???????_??????OGC???????C??????@???C???OA????????_??@E`??c?????_?_??_O???a??G???O?I??????????D?C???????O_?????_?G???@?_O?C???@?CA????C???????_?????G??C_???????AA???O?O???????A_????????????????D@?????A???O?????O??????A???????_??G?O?????@???????????????????@?A????_????@??????????????,False
~?@c@C??AC????C???O??????????O?_????G?P?????C??_???@????AC????C?A??????????G????????GC???G?@?????G??@A?G?CO`???O_??C?????????G?_@??????_?????????????A????C?G???C???????????G?O@??????O???????O??????q???A??AO???????@?????????G???????????@????@G??C?_????W?C???A?????????_????G?G?K@??????G????????????????A??????G??????????O??????O?O???@????G???gC?????????D??@???????_???_??@??????????gG?cO?????O_????A????@??a????????c???@G??????_??????OC?@A??????@??????????????AC?CC???_???????????C?G????C???C@?K????????@G?????A??????@????D??????G?????@S??????@??????????O?OAAG??O_??????@????_A??O@?G????????_???G????????G?gO?O??C????G?A?O?GAC@??_D@Ag?__????_??O????????????????C?????O?????G??E?G??@???????C?C????_???????A????@?@??a??@C?????A?????A???????C??A??????O?????????????G??_?????_?????????O????C???@????HC??_????????G????P?__G???????_????,False
~?@c??@??K?@???Ac???????????????C??????A@@??Q??????????@?????????_?????H?G?A???????@?OI?C_???G?O@`_??????_?O?????OP????????C???G?A???A??@?@?A?K?gCAA?????G??C?????????????????@?C?@???CC??_OO??A?G@O?O?????@??O????C???C???O@@O?????????C??AA??????C???A???????G?????C??O_????A??A????_?????????C?????????OA???O?P??G???G?A?C??_?GC??@??G?G?O??????????@??????_C?????@@???@?????????????@O@O???????????G?@???S?G????o??????G????????@??????C???G??????E?????_H???G???A??W??CO??A??????@??????C?????_????????G?G????????_??@?A??g?@??@??????G??????????_?????????B??????????????G????G?????????A?????_??????????_?G???C???????_GW???@??A???G_?C_????????@?C????G????@?_?D?@??@???????_??????_???A?????O???????????????????????G??????G??_???????AA?H?????????????????G????????A??????O?????_A???????@????????????@G??????_e?C?OA?????C@A?????????_??AO???????A,False
~?@c????O???????g???OO???@?????O????A???A?????????G?@?GD?????b__@???????O@??AC??_??????OA????O??P?G???CW??C_????????@???G?????????????__?@?@?C??D?A??_???G?Q??OG???C??????????_Q????C???????????????@??@????????????C?G??????????C??????????@????@?_?CO@????????????????????G?@???_???A??????????_????AO???????????????O???????C?????g?O??_?OA?????_??????????????G???????gg???O?G??C????O?O????????GCO?????O?????????????????@???????__?C???????@??O?O???CO???E??????D@Q????????G???@OG??OC???????C?@???????????????C_?_?A?????O??@???O????_D@??@???A?_?C??C?G???C?G?????@?????h?????????????G??_???????????C???@???@?C_AG@?????G??????????????G??C??@?????AE?????W?????????@A??@???_GC??????????O???C???_A????????C?O???OG???G_??????Gc_??G@G????_G_????G????????????G??A???????A_??????_????g????????????O???????_???????_???@G?????C_O???_IC?????????????,False
~?@cO_A?????AOC??????O?CPGB???????????????GO??@?@O?D????WK_???????????C????????@??K?C???????C???AO??A?O?_??G????????????CCG?C?A??????????K?????O???A?AA??_A??G?AG?????????_???????????A?????????????????????C???A?_??????A???Q???????G?H????????????????A?????????O?A???????????@?????G`????G?GG?OO???@O??????@?????????A??O?C_?A??@???_I??G?A???C????G?H???????_??@O??O????C?G???????_?G??O??????????g??????????????O_?????????????G???O?????OC???????A?????????????A???G????G??????????A??_?WA?[????G??????O??C@C???@A????????????OO?????????_????????????@A???G???C???????????@??@??Q?????@?AG?O?????_@O???????C????????????GDC????GCG?G??????K?_??G?_??????A??C??????O@A??????A?????????K?????C??H????@?????@@?CO???O?_?@G??A????????W???AC????????`?_?O?????????@?_??????_??A???????????G??`???????????O?AA????@????????????@???G??_?@?_A???_@??????????,False
~?@c?@AOE?G??H?????C????????G????????A?@?C@?C@@_??CC????????C??????????@??????@??????????A???@??G???@?C??@?OO???_???W?????G???I?_W????A?????????@???@????C???????????????????C@?A????A?G??G?A?????????????@?G?????????????G???????????????@??G?@G??????A?????BA????@???A???C?????_????_????????G@?AC?C?G???????????E?W????@?A_??????????o??????G?G?C?B????@????A????O???A?G?G?@????C????????????_??@?_?G?_??????O??C??A??_C?O???B????????G?@??CC??A?????G????O???_?OG???????OC???????????????C?O???C??O??_??_?A???DK???C??_?A?????A???????C????CO??_??????Q?A???G????Q?@??????????A??GO?????????????G?????_????G???@?@??@O??@??????GGO??????????????G??G???O?W???_????????O_??G?C????O?????O@?_??????????????????`????@@????????????C???__O???@@?_G????????A??C????`?C?@???????@AO????A?????_?????????_???O???C_?A?_?@???????@?C???????_??@????@???????????O?,False
~?@c?A??????O@?G@????C??A?_????????P??GG??_???????????A?@?G?A?????????????A???????G??????A????O????C????????????OCGA?A???O?????oO_??_?????????A???O????????_???G??????AC????C??_?????????G??G??OO?@???????G?????_?@?I?G??C??@@??GOC???????C??G????@??IO??_??????G?CO????????????G?????C??G????@????O??C?????????O??O?????@O??@?????????????@??_?@?_O???AG?????_????????G?@???????C????CG????O???B????????????G???O_???_?????????A????A_???O?A????A_?C?????????????OD??????o???????????O?O??C_?????@?????A?_??_???????O?@???C_?C???????????o?_??O?P?_??????OW???G???????A???????_C???oCM????O????K?????C???????????@C???G????A??????????G????????????W?AG????G??????A@?_???AG?????@??O??G??????@?_?OC????_???A?CG???????a?A????@??G??????__???C????E?@???????????O??O??w???????????_??A?_@???@_???????GW???????CC??@_????????????????????C???G????????CC??C@??,False
~?@c??AO?G???C???????????????_?????_???_???????@???O???_?????????@???????`???O?G_?@????AG???@?????C??????C??@C?@???????????H???_G?????????_??@?oA?@?_?W?????O????A????_???????A?g?????O??????O?OC??_G??????G??G??????????????A??_???G??O?????G?????_A?????O?@??P??O?OP?O????????????O?????_??G???C??A?@??_@??G?????@????G?__????C??????????A???O????A?????????_?????G??G????????@_@?C???@@?????_C??????????GG???????????C??@_?C????????????????????_@A??_??g??????AGG??????@?C@??_????`?GO@?G?G?_O????@GA?????@??????EC?_?O????@?A????????????G??????????A??G???_?_?O?C??@???A????????O@?@??????????????????C?@?????A?C?????????gA??????Hc?C??????CC?????????c???????@?G?A????@?A?G@O????????@?OC????D?????S???O_??????O??????????A???O????????O?_??C?o?G??????_?????????????????G???C?_?????????????C??????????????A?@?????O??CG????O??@@???C?????G_??G@_C?O,False
~?@c??@???_??A???AG?O??????A???_????????????a???O??????_?O?A?C??B?H??A??????GG???????????G?G?A????_?????G?G_????CC_??????C???????????AA?C?G@?G??A?????O?????????????????G??O_??_GA??C?????????????A????@??O??A?????A?OI??????????G???????Q???O????????@???@?G????_?O????????A????@???A???A??_???Aa?????@???O??@???????G??G?_??C??????????????????_??_C????@?@??????????AAioG??????C?@???G???O???A?????O??G??O????_C??_?A??K????????????D?G?O????CG_????CO???????CBA??_?????_O?_???????O?GC?@??_????C???C?@??????????A??????????A???????????????C????O??????CG????????@??G@???A??K???O????AA?_???A????aA@A???????_A?_????@????????G????????????SC?GO???_?????????????@GA????????_CAA????_C???????@?O?A?C?G@????????@??????G?????G?C?_????????A??A??@C?@????_???????????????C??OG?????_??A???_??_C???????_B????????O_?G??H????????????????C?O?????????????@????,False
~?@c???G??????????G??_????????G???O_???????????????G@???CG????g????????C@??????@??GA?????O?_D???????????A???@A?C??????KG?@?a??O???A?G?H?????????C????????`???_O????????OC??OG????__?@???C???????_?G@??A?@?????c?????AG?_?CA?????C?AG??_??????H??????@??DGA_??C??????AA??_?C????O_????????@?????????_????@C??_????????????????????A?_O??????????G??O?A?????K??????CCC????_??@?_????A???@C???H?W????GG@????c@?q?C??_?????O??????????G????????G??A???????GC??????@??C?AO?G?????????????????@??_??_?C??OG?????????????a???@??O?O???A?G????@?K@?G?A??B???????????_????C????COA????????@?_C????G?_???????@??C??A??????????????????c?GG???A??G??????@??G?????????????????A???C????O???C?@????????A?????_????_????????O?????????G???GA?????o?@??A????????@?????G??????@?????????????@GG_?????????????O????_???????C@???Q???c????K_????A?@???@A??????O?????????????_??,False
~?@c????@O@???PG????AC????????A?????????????????A?????G???_??G????_?????@???G??_G??@gG??@??A_???OO?????W??G???_?_?????@??????@???????A???C????C?????O??A??C`??`O??????????_A???????C??O??O????????C@O?C??O?GO??????@???????????c??????O?????OO??O??`O?G??G???O????@?????_a???????O?__???__??D?????G@??O??O???????????@???@???????G???????@?????G????CA?????????A??G????O????????????A???????????G???D??KC????@A??A?O?E?????@??GG??????_???A?G?A????????????????C????Y??????????O??A?@_??O?_?C????@????????C????C??@??_AGC??A?_??_?HA?A???????@A??E?GG???a???C_???????????????????G??_??_??????????CO??????O??????O_?????????O????G?????????G?G????@?????A???_??_????@?C??????????????G?A??c???A??A???C????_???G?????????????????????O?C??@C?????_??_???_?C?????????????????O???O?????????????????????W@????O????@?OA????K????K??G?O???D????O???????_??GCW??A?,False
~?@c?????@_?????????C??????GC__???????@?????G?G??A?_????A?O?CG??_O?????????W??C@@??C??_???????????G????A?O?O?OC??_?G????????OO??O????????a?_o?????C??A????@?C???A?????????OO_???????_??????????O??C?_?????G????????????C?????C??_???O??????????G????????@GO?_??????G??@?G??A_?P?_??G?C????????@?_??????????????G????G????????O?????_??_??@????_??O?O?C????O???????AC??_A?O???O????_??A????C?C??@GA?????????_??G?????A??????????????_?A???C@?A?A???C@I??O??O???O?O????????G?O?O?G????O???K??????OC?W?????C_GCC@_O?????O??????????O?G??_????CH???_???OG????O?C?????O????_A???????G??@??_???????????A???????????????????ACO??????G????_????????A??G???????A???_????????????_???@???OOo?A???A??@?A??Y??C?O?C?_?G????????A??????????C???@????C???????G???_?????????????GA??@A????G????Ga?C???O?O???G????????????B????_G??AA?????A????C????????????O????C?????????G,False
~?@c??????????@???A?????????AG????O??Q????????@?????C????Q?????????O?O?_@?A???@??????c?CO????G??????????O_?????A?O??????????C?O??A_E???????O?_?????????@??_??????A??G?A??CC???_O??A?G??????????????o?????@???A?C???@?A???R??C??????G??????C???????C?C???@?????G???A?????@C??????????????A????????????????????????W???@???A?????O???_?G????????G_AO??O??A@???????????A_???A??_??????????????A???G??@?????????????A?_???C??C????__???@_???????B??G_????????????@A?????W?@???????G???A_????A@??????O?????A?@??@?C???_A?????G????????@??@???G_A??_??E?AO????_??CA_G???????_@??????A??G????@????I??OG????I???_????G????????????_?OK?A?AA????????@?????@A??C?G???????O???????????????????????????_?OA??IG??????G???AO?????A?_??????A???GG???????GG??C__??????OQ?__??C?@????C??????G??C????__???C???A@????@???AA?????_@C??_???O????@GE????????_???O?_???O?????`?????,False
~?@c??C???????@_@?@A???AG??@????OHCA???????@?????CG@????_???A??K???C??GC?C_???????????AA??A?????????????@_?R??????????_????__?C`_??C??__?????G_?C???@????????_??_?????????????????G??_?G????P?OC?A??I??A???????GC?????????A????????_?????_????????@?????????H???O???OC???????????????O???????G???????a?????G?H???WA?????C???????????@?@?A??O@?????@_??????OO??O???I??????G???_A??????????G?O?????O?????????@?@?D????????G??????@???@??G?P?C????????_?O???????_?_?????_O?a????A?????G??_???O@?????WG??C????????@_????@??G????C???@C????O??C??@O??????????_???_?????@????G??????g?????A?????GC@??@???Q????G???_??W?GG???OG????g?G??K?OK@_???????O???????????????????????A??C??@?_?O?????????@?G??CA????????????@?????????@G??O???????@???G??????OB??????????G??????????C?G??????????????GS????????G?G??A???DO??@??A_??????????????A??????????_?????????????@??C,False
~?@c???CC?????o?_???????P???????_????O?P?@????C????CO???????@??O?G@??????@G????_???????A???????OC??A?????C???????A??????A???C??OC???????????_????A????O??A?????G??__???????C?C?C??????C???????C????????????OO?GO???C????_A?_???@??G?????????O@?G??_???O??_???????@@G?O????C???????O???A?@O????????_??????C????OG@????????_???????????OC?C?????_?O?OgP??????????@A????_??????_?A?????W??G????????????????OG?????????_G???@_?????????????_AG???????????????@_??@??C???@??????_????????A????_O?AA???????????G@???G?????G??????_?G???_???????G?I?o?????E?I?G???Q?????E?@??????_@@?????????????O??C???A?_???????????????@??_B@???O??a_?C?????O?O?_???S@??????AG?A???O?O??????`?cC???O????????D??????????????????????@???????O?????_??G??GG_G???????_???????????????@???O????_??????AOC????G_??_?g??_????G??SA??@GC???????C?@??????_????A?D@??????C???_???A????@???,False
~?@c???O?????CO????O?????????A???_?AO?O?@?GA@????B??????A@????G????_?G?G?A??C??????A_??_G?A???????G???????OC_O??G?????????????OK???G?????CO?C?@_??????????@??@?????sC??????????_?_?GG???????????????A???GO????A????GG??????O?O??@???C????????A???@????CG?@??@?GW?CA_????C????A???????G?????????_??G?????G?O??_?_???????O????W????G?GCO????????????????GG@???G??C?C????GO???????A_?????????_??????O??OK????_?????C???@A?a??????????????G??G???????_????????[???G???@??A?O???????O@G?????G??_???????????AG?C????O??????G??????????@????_??????A??@_?_?????`_????@_??A?C???????C????????????_@?????C????????C????A????O??????A????_@C??G??G_?AA_IC????????OO_???_?C???????A?C?????_???????_?G?A??G??O?@?????OCA???????g?????@??@?G?C??O???@???_????OB_?A?????????@?????????????????????C???????_C????`???????O??C????????G?I????@????????????????????????_??O???,False
~?@c???????????_??????A?@?O????????C???_??G?O?C??????AG??O_??????C??????C???????G??GO?????????C?????_A?@G?????????????C@?_Co??C???????????????????????A?????_G????O???GAa@?????????@@?????@????C_???????????O?????G@?_O?C???CA@??????OA??????????D???C??O?????????@G?O???G?_O???G????W????AA??GG?????????????O????????A???????C??O?_?B??????@??G??G???G???A?@???G?A???@?GC????@??@?G????O?_???????????O?o????????OO??I???????G???????????C_G?????DC???G??O??_?????????????_??G???@O????A??????Q?????_?????????A??A_????A@???CG??????OO??A_G@???G??????AOA?C??C????G???O??_O?@?@??????????????O??????_??AO?????__?????_????A?O@?????????????????C?A?????__A??G??????_???GA???O???C?O??g??????????????G?C???????E????OG????_O?GA??G??AOcA??????OC??A???????G?C???C??????????????A???O???SO?@DG???O???????_????G???A???C?@???G??????????@??_?????????????O??????,False
~?@c?G?O???_A?G@?????@?OD?O?????_?C???_???O???C??O?????@C??A????A???????O?????G?_???????@???@?_???G_??_??C??@?G????????A????????G????????????C???????????_???????????????H?????A@??????O???????O????????????A??QOG???C???_?????????C??@?A??@???????C???O???Ga???_??????A?CG?????_???????G????O??_??O???G????OA_???CA??_?CO?C?CO??@???????_O_???DAGC????CG??C??G@c???????C???O????A?G??A??C??_???_?_?C???G?????A??O???A?D???A@???@????@?????AG?G?O????@?F?????OA@??????I?@???aA????????G??O??????????????????OP????????G?????O???????????GG@OO?O???O???g?_???????I????????????????????????????O????C???A?????????_GA??@A????_?O????????_??_????C???????@@?G??O????O???????C????O?O??????@??O?C????O@???????????????O?A??_???C??????_???????????AO?????O??C????S?????C?????A???E?@??G?G???A?@E???@??????@????A????C???_????????O???????G???O?O@????????????????,False
~?@c???C???????@?@?@??o????A???O?C???SG??g??_????@G??O??C????C???C???AA????@?????????????@???????O?C????????O?C????????GG????O@?????G?????????H?????????C????A????A?????@???O?????_A??????G?????????_?@O?????Q??????????????G?G??????_?O????????_A???????_AO?O?O???G??E_????????????????????OAO???_?G@?????O??A@??GA?B??@???C???_?G??????O??@??????_C?????????OA??????C????????_?????CQ??AA????????I???hG???????_???????GGOG????A?????A????_??O?_?C?_G???????C???D?O@???@C?G????????S??A????_?????`???G???_?@?C?_?C???O???????_???@_?@???????????O???????????????????_????_?????__???T?????A????O_?????A@??G@?A?????????@?????@??C?@???A?A??????????????D???A???????_O??????????A??C????@????@????????????G??[@?C@??????A?????????G???A???????O??C?O????A?????A?C??????????A???O???_???c?C??_KO????G?????G????????_??????AB@????????C?O_??@????A?O????????A_?,False
~?@c???????C???O?G???????G????G_???G@?C@C??O???????????B???????????G?O?G??????Q?????????A?G??@A??????G??@??C?????G???????@??GO?????C???????AOO??????C????????C??_???????????O???C?@_???G??@?_?????????QA??????????????CC?G????????????_????@?O??????????A@??????????C???C????????OC?????????????????????A????????????_?H?????GD??A?O?????AC?????@B???_?G_??O????????OG?C??_C??G???A??????C?O?????_??A????_?@?a?cO????O??????_????G???o?????C??A?????????@??????GCA???????????????????@?????????????@??????A?????????O???O????????C?@?????C?C???o?O?????@??A@???CA?C??C????????A???k@????A?_I?G?C?G?G???_A?A???G_C???C????O????@@?C????A??????G??????O??????O??????D????C??O??O?????C@O????G_???????K?@???G????????Ow????????O???A????O@??@???C??O??C?B???C?@OU???C?_?GC?@??@?????????GG???A??O?????_????????A?????A???A?_B?C???_??????????G??C????_?????@????,False
~?@c?Q?OG?????KH?CAC???????A????????????????C????O?????O????Cg??G?O???@??????????OCAo??_???????A?G?a????????????O??GC?_?O??A???????????K?@?C?OA??????O?@?G??@????cAA?C???E???@????????@????????????A??@????????s??????????_O?????????_?????????@????_?@?@???????????????????????_?A???????????@????????G???_G?????oG??O???C?????O???GG???????_????`C??????????????????AA?OOA?@??????O?C???ACA???GA?C??????@O???P??????O????????_C??G?O??B??_???@O???G?_???????@???????C??A?_???O@???O?D?@@??A????G?????P?G????O???????_?C@????????AG?????????????G??????????????G??_????O???A?????????_?A?C????_???CAC??G?????_??_C???????????O????C??????????????CO???????????@?H?????G?A???_??????C?G????H???EA???????o?@?O`??_???????CE????????_???????????O?????@C???_??????????O???GO???G@OC?@?_??????_??????????C?????B?G??????G???G?OC??????????_@???????@????G???_?C?,False
~?@c?G???????G???C??????????_????????Q_CO?C?C??????O?@??S????GG???????O??A????C???C??????C???????????????????A?A?????????A????O_?A????GO?_??????????_?A_?_???g???G?A??@??B??????_???C??G???C??????@??C??????????_@_???G???Q??C???O?????????????????C??@?A??????@G???@????????@OO??@?AA?O??G??????????C???GGO???G???@??OG???????@O??O?@?C??C????????I?????C?CA???????G??????_?O?????C????O???????_??A??????????????C@?G??W??????????_??A????????????????????`????_?A?????C??A??????ABG_?PC?O???G??@DG???????????G??A?G??S?P?????????O??_CC?A????@?????????@?C?????C???@??????C??G?_G????????_O?????????????O????G?C???_???_?A??????G@KG??A??C?_G????????????@???????G@?A?????????O??????O??GC???????????O?I????????????????A?C??_??????????@????@??O?O?oA???G_O???A??CG?????A?GA@???@??A?????G??????????G?C?O???????OCA???????????????????_?O?@@???GOC????_C??,False
~?@c?????GC?????????O????????????????????O?@???c???????_???C???A_?CG??O_???@?@?CC???c??????O?????AG??C?O?_?_????P?C??????A????@???????C?????@????????????????????????C???@?C?AA??G??c?O??OC????????@?????????????C????___QCGO????????????a???G@??O??_??????????????????O??O????A@??GC?O_?A???????A??????????Ca?O???CA??C??????????????CC?C???CGAG????O????????W?_????O?A????A??_??????O?@?????G?@A_?G????????????????O???C?O?????????E??G?O??C?????????????G??O@?????????_?G?A?cC??OA????O????AAG?????????C????E?@????O????????_?????c?????G??c????????A????????????CO?Oa????G???@???????@OO?????A??D??C??????GO????AG?_????????@?O?????????O?C???K??A??C????????O????_AA??A??o?C??????E????A@_???@???O??G?????????????I???a???G???????@?????????G??A?A????OC?????????????`??????????G??C?O??????OC???????_K?????G????????@????A?????_???????@A?????@??E???O?,False
~?@c??C??A????_?????????ACC?G?_???_G????C????????????????????????????_?????AG??O???????????????????????G?O?C????E?????G??_???C????CG???O????AC???????G_A???C????????A????C?O?????????@C?O?G_??????_O??_?C????CGG????????@@CA???@????O?C???????G?B@??C??????C@????????C????@??????@????????C`???@?GQ???@???????????????DG????O??@???????????_??????CIC???C???C?O????????_????????WA??????C??????_?????G??????@??G?C?????P?G????P??W????????C?_???_???C?A??c_??I??????_G?????_??????GO????C_??G???C??????????A????C??G???????????????????O??C???AC???C???G?A???????????C???@?g?????????????A?????????????@B_?@??D??C@???@A?????G_A_???G?E????????????O????????O???A???????C?@?P?O???????Q??????GO????G_?????????????O??????CG_?O?A_??@?G_?@?????_@????A????O@??C????????????G??????H?CA???????AO?_??????????@@?G?OO?E??_O??AC???GO?????_?????????O?O????????_??,False
~?@cA????O????_?G_??_C????G???@????????_??????C???G?c?????????????G??G????????O??????@?A?????A??C???????O?CG??A?????KA??????????O@????????@??_@???OA?_???@??C???C@?GG?O??_C???C???@@???G?????A?????????G?CC????????O?A??G???????????E???g????????????C??A?AOAGC?CA?G?O????@???????_????OE?@???_???????????????_?????AO??OG_????_O????O??O??????_???A?????AA??OA?O_???C?@???_?@????@???A?C??????????????C??O?????????????O??????@H_???OA?????O???G??????A?????????GO?OO???????E???????????C@???????OE?????????Q?CO?O????A???@?O_?@G??_??C??G???C????GG?????????@E?O????G????????????A?_???GOO????OG?????????@?L????GCC???@?_?G??????GG?????????OO???????_????????????__?GS???C??????_?G???C????_??G???????????????????C?O??????G????@?GG???????O??O??????????@????????_?????@????????D????G??A?A?????C??@??????O???????_????????G?A?????O??_???A?????G??G?@?A?,False
~?@c_????Gg???????????G?_@????H?????????a????????????????C????O@??????????O??????A????C??????????????a???GAC?G?@??????A?c????GO????????C????G??C????????G??????OA?O@??????O?GO?AO???g?O????@?????????K????GG?????C_????CA???????@?@?????????????????????????G??@?@_?A_???@????G??????_?????@??@????@????C_??????O?????@?????????????????G???GG?C????????G???????@???????F??_??????G_??A@?_G?O?A??C???????A??????????_???GA??????_?????@_G???CO??@??????????_O?????O??????????G??????GO?????@G?GAC_?O?????C??G_?????K?????O???A??????_GG??????CG??????????????????C?CG_`?????AO??O??????W??????A??????A????_?????A????????CA??????????G?CG?q?@?@O???G?O????A?????OC?G???_?????????@@???_????C??????O_G???????Ca???OA`????C???????????S@??????G??????????_C??G??G_@A????_??cA?GG???O????@??A??OC?????O?_????OC?AO??A?????AA?G??????????????????O????????@????O?,False
~?@c??????O???E????_?@@?E???O??????O?C?_A?????GO???????????????e???????????????g?AC??????C???C??A??????@??????P???????C????O??????_?A???????C?_?????????O??C???C?????A??_???????A__?????A???C?CC??C???__@??????@?????????????????@????????g??????????_?C?????????????C?O?@??@@_???_????????????_A?????O@CD???C???O?D?@?G??A????@?????G????@???C??C?@????????O???????__?????_???????????_???????????????????_??@????????C?E?O?Q???????@???_??????_??@?????A?????A??G??????????????@???@????C????@@??G???A?@??@??????O?????????O??o???@?_??_G?COW???A????_??A_G??OAP??????????G?GG_???A_C????@?_?_?????????OO?G_?_C??OC?G???A?????Q?????????????????O??????@?@?GC???????O?A_??C??????@O????????????O???@O??????_?????@?G?G???C?@O????@?_@O?GA??G????????_????_?????p??????O??????A???????G@??_??????G??_??O_???C?@?O?C??Q????O??????@?C@?O?????????????????_?_?,False
~?@c?????????????????@A?_?G??CAH???GG???A??A??O??@??_??C????_??A@????@???@??_???@???????????????C????_A?_???_???HO??????A??????GA??????????????OA???_O???????_??cG??A??O????_AO????AO???????O??C????_?????@AA??C_?????G??q@??????_?????@??g??O?C????G??????OA?????????????_??????G???????????????????@C????O???????O???A@??_O???????@_??C?@????????AO?C?GA????G????G@?????@???????_A??????C????????_??_??????????@@?G????????????????????_???O?_?C???????AG?O?C?@@?_?@G?????a?G????C??C?@??????????????@???@????c???_????@O???????????????OC?????????H?CA?S???O?@????????_??A?????????????K_??????????G?O?_A????????OO????CG??A???@????C??D??@AA??@????O????G@???O???O????A????C?G_@???H@??_???C????G???????????O????O?G_?????????C?P??????C?O????O@???????A??C????????????????????????O???????????A??OA?CA???@???????????@??_??G?????@?O??OAAOA???????CE???@,False
~?@c@???G?@?GG??????O??O????G?_?OGCO??????@?G????C???????????_?????????@_????A?@???G????P?_???????@?_?O??CG_?_?C??????O????O??C??O??????GC??????????O?@OG?????????????????????????????O???@????G?CC???A???????????????_??C?G????O?????????????@???????G???C????@????O????????A???A???????O`????_G????_@?_????G???C?????@?????@_?????C?AC_??????@G???_???C?O????????C?O?G?GG?@???@?????????G@?_??????????CG?@?E@C???A????????C??????????????Q???O??C?????????????????????A_?O???o?????????_?K?????_A@???O?@???@????G??A??C???AG??A????C??_?P??_C?C?????G@??????Q?C????????_OCO???A???????????????C???_????????????OA???A?C?@?????????A@??????????G??????G??????_??a?C??@????????cOD???????G???A????O????_??A???`?G??_?A???A????????O?C????H_????????A?????@_???_?AG@??????C????_???_AO????????O?O????????@?@?????_?O???G??G???A???_????AI??@??_????C??G???_O??,False
~?@c?????_??@_????C?I??????????????A???G@??G??W?????D@???G@_????????O????C???A??????@????????O??G?????????????_???????_?_??C??_?????CCEC?P???_????????GO??_????@G????????????????????????OP????????A??O???????a?@_?GK??????A?????????IO???A?????????????G????????????????A?????????????????o??????A__???????????????`?O?????O???AC?G?O?G?????C??????OO?????G??A??G?_??????????_????G????CG???O???@??A????????????G??A????oG?@?@?????_?_??????????????????Q_??G????C@??A?C?G?_AA??O????????O????@AC????@???A???A???@G_???????????@??????C?HOC???????CW???A@?_??O????????CC????O???????_??????Ao???????A??????_?????????????Os??O????_?G@A???@???????_?C????????U??GC??????C@?????_????G????????????????G@A???????C???C??????????_????GGGA?P?G?_???G_???K???@@??E??C??_??????G???@A???OO??????Q???????a????_???GC??A??????????AO???????_??G@?O???????@?A????O??,False
~?@c???O?O?????@??????c?????@????AO??????c????O????C??_????????_??G??????AG?PC??_??A????????O???AG??_O??CA????_A????CA??????_?D?A????????GC????C???????CQC????????????O????_???@????????@?????????????????@????????O?A?OCCO??????_???[??_O??E??????????G?_????A?_H@??O??C?????O??CC???_?????????A@H??A???@?????????G?__?GC?_???@A?????????`????@?????C?C??@??????????OC?????_??O???A?G???????G??????O??????????A????A??C?_A??O_??C????GAO?????KC??G??_????GA??A?o?W????????A?C?G???O?O??C?G?G???????????C?_?????????C??A_????????????????????_???GA??@????GCG?????O??@a?OW?????G_??????_???@??C??_??????@??@????C??????A???G????GA??????G???????@???????O?????_??_??????Q???OG??@?????C???@????????_?E??_??????????C?????_I?????????????????????H??G???????????????????_??C????@???????G????????W???GG?@@???@????????_??????@C?G???????_?A????A??C??????G????,False
~?@c@?A??@?H???_???A??O???G????????_???????A??????@?C????@G_??????G???A_????A??????????O??????GKA?_??_@??@A_?_??????????G?@??G????????_??????O??_???????_O???C?A??????????????A????????????????O?O???C?C@????????O?????????????????A????O???_??_O????????A???G???C??@?OD?_C_C???????A??O?gg??????A??@?????O?o??????O??A??????C??O??_??@???????@????A??????O@???O?????C??G?????A???O?G????@???_???_??G????????_?O????????_?O_?GO??C???QG?CO????????A????O???@@G???????????@?K???A?W??????G?????A?G???????@??????G?A??@????????????C?????@?G??G??O??????@???O????????????@?????A??????@_?A???cA????????a?O?G???P?C?C????O???@???C??????????G?GC??????@???O_????@???????????G?@?@??????O??????c@???O?A??G?OO?????????????OC???G???G??C??C???????G??O?A???????????O????O??AC?A??_???????`?GO?G???G??????G?????????OH????A?????_Kc???O??O??C??????O_???C?????????_,False
~?@c?C????????@??A??????@OG????G?????A?@CA?????A????????G????????????????A?_???????????????A??C?????????C?????????????@?C?????????H?????O?G????????G??????__?????A?G???????@???????????????C????a???_A?AG??????????IA?G??@O??????C??O??????C????????@A?AG???A?????_?C@C?_??????G????O??CG_????O???????@?`?????????????A???????C_a?c__?G??A??G_A?O??_???????????_???????????CO????C???????o??????IG???_G?A??_?????C????G??????????????????_W?????G@?OC?A??O?C??????O???O????@??_??A??@?C??G?@?O???????AO?????A??C???????C???????????????a?_???_???G?????????G???O?A??????????_?@EC?C??K??C??_????C?G?G??????????????O????_???AO????K????G?????_??_??????C__??????o@????CG??A?_?????????_????????A?C?O?????@???_???????????@??I?G??????@?????????????????C???GI?????@???A?@???BA??G????AG??@?_???C`??G????A??G??GCC???_?C????GG?_??????C???@c???@??C?C????G?C??,False
~?@cQOO??????????AC??a?OA???????C??????C????OCO????G?????????????_??O????G?@????????Q????A??G???????????????C??????????CA???@???D????_??K?????O??G??A??????????_????????A???C????????????????????G?C????O????????G????@???OQ???C?????O?@A??C???????O???????????????_??????Q?G??AAG??????????O?__??????@???O?G??CC????G@@?O??@A??GS@???????GeH?_???????????O??AO??E?????????@??OA??G??@?????@???O??????@?G?O??????_?C???@??????????????O?_?__?`_?G?G?????????_????????????????????A???cCcO????Aa?????_????????????????G???OA??C?????????????????????????aC?O???C_??????A???????_O?G?G?????AC??????A???C?@A_G???????G??APG?C?@??@???????O?a?C?O?@?????????O?@???@??_??G??C???C__?????????????O?_????A???O?????@_?????@?Q?????????O?????G????????@?_??@????????o?????A????C?C?????OO???A?@@?????????????G????K?_??C??O???????????SG??_??@??_???B?A??????O???????,False
~?@cG???C???C??A??C???_C?`@??????????????????????I?O??????_??????_?G?????????????@C????????A?????????G@???C@?_?@G@????????????OCO???A?A???????e???C??G????A???????@??_?????????C???G??@?????????c????????A`@??????????G??O??O_???A???????????????A??@????A?TB?O?`??????A????@???G????AC?????????O@??????_A???????????????????C@????_???????????A??????_O????_???O?C??????G???O?G??AO??????G?O??????O__??P?O@`?c???C?G????P?G?K?C???????C?A?????G???A?????a???C???????g@?????????G???????O_??_??K????G??????C??O??????G?O??????????????????????A????????`???A???_?????????O??????G?@O????G?????A????C?????A??????????_?_I??????????????O?????C??????C_?GC?O??A??A?????_???????GA???????GA???@`?O?@A??_????????@???????_????????????@??@@??O????????G??@?H???C??????O?K@??????????_G?G?G?A????@?????????????C?OO???????_??@a????@?AC???_?OG??C?A??O?????A?_GG@?,False
~?@c???G???_???@C?_@_????@_@?C???O?????C??????G????G???@_@???????CC????C???A??????????????????a??????????A????G?????_HTD????UC????C?C???????CG???????G????????A?CG?_@????A??A??????@?????a??AC???_????????OG???C_?O???_G@??????_`?_??GG????O@???????CC???????????????????????d?????o@?????????G??C????????s????_C????????@???A?G???G????????@??????????????????OAO??????????????O??A?????????????????_??A??????O??????G????????@????OC??????????????????O?????o??????_?@?__?????A???a????A???@?????C?????A?G????????????C?????A????_???A???G?????????A????????C??`??O?????????C?????G???????a??A@G?????G??Aa???_?@??????C?_???????_????A?@?_@???????C?_??_@Ak?????_??@??@?G@??????A????@??????????g??_?????A???O????????????@C?_???O??????CG???K@???a?CC?K?????????C?O???????C?H???G??GOO???AO????_??A?o?_???????????????_?G@?????????_??G??@??????@??AA???C?,False
~?@c??C??@A_?????????????????@@????@????AC???g???_??????@???????_??O?????????_???@C??@???OG?C?O@QG@O???G??????_?C@??????_?A??????C?G??G??A????G?__??C????A?O????O?????????G???C???O?@??@??????????C??C?????????@@?OGA??????@??????????W???????????@??????????????CO?????_??????O??@???@????????@??????????G?A?G??G????????????A??????????A????_??COC??????????I???A??_?_?G????@????C@????E???????????O??????????O??g?A??????OO??G????????C?OH??????CC??_??A???????_???@????G???OC???_??????A@@????????E?????A????????G?????_???G??C??GAG??????_????????A???_??????OG??H?@??????????????????????G??O????????AC_?????GA????C????DG_T????C??????_????O??A?O??????_??_O???A??_???????_?????@?G??_?_C???C??????????O????G??GI?O???G????????A@?_???AO????_@???_??C??OGC??????_?O??????????D?O????OO????@OH??C?O??????@????????_`????????_???D?A@?????_A???????C???O,False
~?@c????????_????O??????oA????@?????????@??????????????O?????B?????????C???OP?_????G??O?????_???__???_g@???G????C?A?O_?????@???????A@???G??????K_???@???_?????????_??????????G_??@_@????@?????G???A????AG__?C???????C?_??????????????G????@?_????????O?????O??????????O????????????_C????o?????OG?G??_?????????o???????@???@????O?E???????????????_???S???_???????K?????CO?C???C??????C??C?????_????????_??@??C@G??????I?????C????@_????O?????_C??????@G?c?_H???C??@???????????????????????????C??_??c??_???@??@?A????O????????????SAA???A_??????????O???_??????C???O??????????AO??????????????C??????????C@Q??????????I_A??@_??@??_????`?G_??????G???C??A?A?????Q????A????????????C????????G???A?O???????@??????C???O????????CO@A??????C???_??C??C@?_????_@????_G??O????O????????G??????AO?A????W??AC@???O?????e?ACC_C??@G??`?GG?A?????????S??@C?????oG?????,False
~?@cO?_OG???B????C??CO?_??????C?????????????????_???_??_??????G?????@????????????????_@??GA??????????O????????????__????????AC?????OCG??_???A???C????????C??????O????A???@??G????????_?????G?_??A_????C_????A???????_??????@???G??C?????????????_??_????@BAC???_??O?O?CG???OA?O?C?O??O?????????@?O?????????A??AA??I@??????@@??@?????__?G??????????O?????????????@????G????@??@????????aG?G??G?O???G?G????C????A?O?AA?????GA????@C???????????????A??C?????????A??????G?Q??_CO?????`?C?A????_????A????C????AG??????@??_???A?????@@_?_???????_??A?G?????????????????A???C??????G????????@_C?????????????O??G@???_???__????_????OI?AC???_?_G???O_?O?C?G???????@???a???`?@???????????E???C??????O?O??GO???@C?C???????????????OGC???_???????????_?B????G???O???????@G_K??@??A???????G??????A@???@??????C????????F?C?????C??C??C??C??G@???_???????_??????@??G`C?????,False
~?@c???????C?????????_????????a???O@???O_??G????_??G@_???_C????????O?@????@A????G????G???@?????C?C???C????????????@?O?A??_?@O?A???A?A???_??????????????_A?????@_O??GA?C?_????G???????C????@??O?????O??W????A?????Q??????C_?W??A???`????A????CAA@_????G?O????@?????????O_??GG_??????????CA??O?C?G???????G??C????G?????G???????????AG??_G???`?C???A??OE?K??????G???????A??@??W??????C???C???G?G???A?P??G??W?????O??A????@???????C??@????????_COO????????????_g???_??????G??@G????G??C?@???@?????????????????@??????O?_????????????????????G?C???GO?_??O?_?_????????CO_??_???A??G????C?@G??GG??????O???????P??I???@O????????_??????_??@?????G???????S???????o????C???????A???G???C?A??????c?@??C?????????AG??????@???????AC??CO??cC?????OA????@?????????@?A?????????K?????_???@?????????????????????_?G?????????G@????????????????GA????O?C????@???C???OCC??????,False
~?@c????GG????__??@?S?????????????C?@?O??_???_??????????????O??@????_???????????B???OCG???A??Q??S????O??C??P???@??A???C?C???????????????????????A???????O??E?????@??Co?????_A???C???G???@??Oa????@??R??????????_G??????cA?__AP?????_?????A?O???G?????CC??O?_??OA?????G??A?@????G?GC???A?_?C??O?O@C???`OA??@O@???G???????_?A???????A??A????@????G????I????G???????OA?@???????_??_???????G_@???C??????@?????????A@?????????C?__A?AO???G??????_@??A????_??????_??@????I???AC????????????O?????????C?C???@????G?????G??OO???C???????GO???C???C_???C???C?????????????@?????_??????@_????????A???????Q??????????????AG?????????_???O@????????????@????O??G?????????@?G?@?????????G??`??C?A?????A??C??????????????GA???A???????C?????G?????????O?c???CCG???A????G?????O???????OG_??????@@O????????C@????G????O?@??C?????????I????@?????@G?????O????_?O?????_?_??O???,False
~?@c?@?????????@?_???A????????A?????O?????G????????????A?@???????A???@G?GHA??G?????????????????????G??????????@???@????OA???C???@C????????????O?????OC_G?@C??_?????C????GG?????A???_???C??@????????????A?????????A?@??O?C???????I??E?????????????_A???_?OGa?????????G??G????????A?_???????G??OA???O?_????????A???????????????O?????C?????_?C???A__?O????@@???E????????_O???GG????????????A????????_?AA??C????C??C??A??G?A?A??_????AO?DP??@A???@??gc?????C?_??C?@?_???????A???????@???????G???`??????G???@?????CG???A????????__??_???_?O?????O?????????G?????????@???G??@???A???G?I????kO?????W???????K??GG??????????????A??_???GA??????????????????????G?_??G????G?A?????_??o??G??????A??A????????A???_???A???G??O_?G???????????@OC??g???A@@?????_A???C?@??O???_?_CO?G??_G??C?_G?_????_??????AW???????????????????G_????C@OO?????A??I????O???????G????????@C@,False
~?@c?G???????_???????C?gQ????A???C?_?????_??O???C???????O????C?_O?A????@G??@??W?????????G_O?O?????????AO?????????O?????G??????C???@???????????A?_?????G???_A???A?A????G??A?????G????????????????GO????AG???????@?????????O????aC??H?G????????C?@??G?????_C????_?GG?????_?K??c?????OG?_?????????O???C??C?A?????????C??C??C_?@????????A?D_?O???G??GA?A??OCC?????????????CO????????????_?A??C????_????A????@G????????????????????A?O???????????????????C?P???@?????O????O?A??A?????????????G?????????????????_???????_???G?????@C???????_?????p_????M?????P?O????????A?P??C?_?@??????@????@_??@G??A???O?@??OC`?????????Q?_???I??G??????????CG?AG??????C?_?@???A??????O???C??@O????@????O??C_?G??????_????G????C??????A??????A?????????CC?A?????@???O?A?????ASA??????O@Q?_???O?@??????_@???O????????????_?H????@??????_O@??A?????C@@@???CA?????????_?????C???????,False
~?@c?C@E_??????GG?@???@????@?????@??G????_@??????O????????o????O?????_??a????????O????_??@?a?????????_???@_??????AO?@????A??O????O??g??????????G??G@?@@??????@???E????C??C???O???C????COC????@??@??o?O?AA?_??A`??C?@?????G???C??????CQ?@?????A??@??????????????????????G?W?CW????????????????C??_??G??O?c???A??????????_??G?????????????O??@????G????_?????????A??????O??G?G??????CG??O?????????????@??????@??G?G???????????G?????o??O??@??????G?o?GC?????????S????A?????S??????????O???O?G???_@@?????????O????@G??????G@?????CG_O@??????G??????G?G???C???????O?GA?????_??@?O?C????O???OC???C??_??????AS?????????????G???????C?????????O?????_???_??O?A??????_??O???@?_???????????@?G??AO?????????????????????P@???G????_??????????GA???O?C??????C_???_????O?????????B???S?G???????_?C_????????B????_???G??C?@C???C@???CB?O?????E????@???C?AG???????@O???????,False
~?@c_?AG?_????????????C?????????_CCG????A??????S????D?????????C??????F?_?A????@???@G???G????????G????????C?_?O????_????AE?????A?A?@???????_??????B???????G???????G???A@?@?O?@A_??K???????????G??S??OA??C????????????A??_??????_?@???????@?O????????_?G?O?????A????????????????O????_?????G?????GA??_?????@??@??O???C?????@_?A??????????C???????AC???O??CGA`?C???????????????A???Q???@_?@?O????_???????@GC@@???_??????????A?c???????O??E????????????A???_@?????????????G???GO_??P????O@???C???_???????D???A??@?@?_?????C???????`?O??A????????A??AA???_A@???_???????C?@???????????C?????????O????????????_???????GG???_?????????????C??G??????GG????gG???A????????_??A_???O??a??C?????O?g?C????????????????????????_?C?_??????AGGAC??GW??O?????O??????C??A?GaCC???@?E????O??????O?????_??A?@??_G??_??????CG???A??G???_????????A????@?@????????AO????O?C????_???,False
~?@c???????O?????????@???P???GCC????O????????????@???A??G??G??H???a???????PO??????OO??GA???????W_CS?C????C??????O?_???G????A_?????O??A?????????????G???@????G??C??_???????_??????????_?@_@??O??????G?????@????G???????_??C?A??????????A??O???G???????G?C@_?????A??G???_????HA?????????_?C????A??????A?????????????o??_????????????GP??????????_G?????????A?????@?????????_??GCgA????_?????@????????G??????????@?_???????g????????????G???G?GO?O??C?_?????A????????????A???_???A??????A????@???O????????@OQ????????GG??A????A??_????C?G????????o?_????I???????@?????????O???@???A????G????C?@?@??O???????O?A????????C????_??????????@?G??C??G??????O?O?O???A???????OG????_????@?AG????????C??S?????????_????AA_???????????A?G_?O???G??????HC?AGA_?D?????_G??_@??GO?KC??Do?????OOA????_?????@???O?_?o????C?????_?C???CG??????G??@????G?g??C????????O????O???@_?,False
~?@c????????_G????????OA?O???@??C??OG???@???????????Gg???????????????????@O??????C?????O???@?????@???????????G?O??C???????o_?@??O??_G???????oC?O???o?????@???C??O????????H??????O_??????????????O?????????B?????_???G???????OO?????I??C??????OG??_??O?A??_????c????????_??????????O?E?`?_???????????C?_?CC?AO????C????@@_??????????B?_?????G??????G?CO???A?????_??O???G???????????__??C?????????_???G???O?C?O??@OO??H@G????A??????????O?C???A??A??????GG?????????C@?????_C????COG????C??????_?@???C???????AC?_O??Q??OA?@G??????O@E????@?????????@???_?????????????@??A??????O?I_???A?CO?????C???C???CA???@?????????C??????O??????OC?A?A????C??????????AC??A??A???C??C?_??O??????P??@?????_?A???????????????G?C?SC????O?????A??_?????????@?@??GCG???C?@???AA???O?G?????????????????_?G_????O??G?G?C??????????C??@?O??CO?C???????G??A?@??????Q???????????????A?,False
~?@c????????C?????A??????AC??????A??@?????????????????CA??K???A??_???@?_?????????H?C?????????O@?????_?C??????C?????C??@???????????G??_???????????????G??G???gO???CEA?A???????_@@?EG???_A????@@???????????C?_?????C??????C??C???o??A???????_@???g??????????_??O??C_??@??????????????A@??????????G??????C??H????G??????????????_C???????W????A??????K????_?????????C??????????C??????G????????C??O?A???@??GA??????????????B?@??????????OC?????????G??_??@?????????@O???GO???????_???G??G?Q?G???????????????????C????O????G????@??C__?GP?????????C??????A?????O???@O????@g?_?O????O??@QG_?????????????????????_??A??????????????????@g?@@????C???Q???G??????_?@?Q??E????????AC???????O_????o@???G???????????????????OA??AG@?QHCg???GH????C?C_???G?@?@??????????_?????????O?B?@O??O?_C?A?_?O???_????????????_KG??_???OC@g__???OA?????O???_??????G????_G???_??????,False
~?@cG??D?????A????HG???????C???A?C?C?????????O?g?_G????_???????@??????C??C?C?????GG??_????H????????O?????AG????@??A??C?OO???_@@G??_??C?????C?GCO?H????_?@?????O???????a?????????@?????????A???????????????????_?????OC????????c????C??A????????????????O??_????_??@??GOEA????GO?????G???O??AG???O???????O??????O@???????_L??_???????????????O????????????I???`??????@?Go??_@????????????????????CA???O???C??GC?????O_???GG?G??@???@?O?@???????OA?????C?O?????_???G??_?G?????O?A???????P@G?OG????S??????????@??_?@?????????C???C??C?????A?A????@?????G?_???G?S?????O???????????????????????D???@?_???_???A?????G???????H?A???????????C???????????_O????????O??????GO?????SA???@??????S????GCA?A_?A?????????a@??AAC????G?O????????G@C????????????PO?@?A????C????????P????AG???????????????C????COC???????????O?????A??C?????O????????O?GOA?O???A??A?????gG?????,False
~?@cG?????@????????????@G??????????O?????G???I???????C??????????@????????C??gO??A????@???D??@@??CA??????C????`?@C??C????????G?A???G?????????IO??_GgBA???A?O?_??W?????G???_?A?????G`???O???G???????O????????@?????D??????????????GG?????????????_????????G???_?O????????O???_????A?????GC???A????????????A????O???????????G??_??G?C?C??O?O?????_G?@C??????G????@?@??G????A????????????A?????????@?????_??????@????_B?GP?_??????????????????_???OC?O?_C????????GO??????O?C????????C??c@@???AaO?????????G?A???O???????????????G??????????C???C?G?CA?_O??????CO@C?AC?@????O???????O?_?????C_??A????????@A?????OG????@??G??I??I????_?????????O?????O_?_@???`?A?GA?O??A????_???K???A????O_??????????????_???G????????_O??????A?I??O??????@????_????????C?A??CC???@?????A???kG?G@????????????O???@???????????????_????G?????????C?G_??A?GA????G??????C????@?@?@?A?A?,False
~?@cO?GA__??_CGIg?_?G?C?_CA??????A????????O???????????_???C?I_???????????C????@???_?????C???G?AW?@B?????aC??G???????OC???@?O???_??????P???A??G??A??@??O????????_?G???A???@?????O?C????????????O???A?@??????O???????@???O?????????G??C?????E??@??????_?C?@???????????????O??@??O?O????????_??O??????C?@????????@??????A`???C??_a??????A?????A????PA@??????????????G?O?O????O????@?????????_????_?@??C?????????O??G?G?G@G???SA???????????????????_?A??C??????O?@???A??OO??G?CO??????A?G?@????????G?????B????????G???SA?????????@??I_??O?G??A?@???AAAC??O??????S???????????C???????????G????G???????G?G@???????A?????????????GA??_G??@O?????@???????????A??A??Q?@????????????????G???C?????C??????????A?@????@???????G?G???????A????????????_C?O??????C???C_????????????????????@???@A?A???B_@?????????A@_?A??_O?G@??????????A?_??B??????I????????G?OE?????A??_?,False
~?@c??????O?A?G????_G_???????gDG?????C??????_???O????@?????_?B???C????@??????????????GOGC@????????????????GK?@?_??????????@???CA???@??A????????????????????G??A??dG??@????O@??????????????G?@??????G????A?B????????????????????K????_?C??????O????C__??????A?????G???C??c??G?????G??O?@??C??????????C??????????H?@???A????G???C?????G??GOAA?????????OC?????A??A????G?_??????????C?G????O??G?_?????O??????G????????????C??P?OO??????D??C???G??GAO?O_?????AW??G?@????????????A?@???G?????A??????????????c?OA????D?C??@????AEG?_???A?????K?_C????????????G@Q????????G??????????C???????????C?????@C?@???@???G?@??G???AO???C?@???O???_?C?C?A?O_??????@?@?O??C?C????????????_?????????COCG@????@C?G????_@??????_??????@O?C???C??O??????C??????@???????_???_?`??`OGO?@_?????????@????????????_OO??O?CA@???????O??????OO??_????????C??@???????????????_?????A???????,False
~?@c??C??????A?????????a_??_??????????????@?????O??@C?????????C?????a????CG????????????????????????????????C???????O?????A?A??????????????????GH?????????????????????@???C?O??`??OC??_???????G?A??????C?IA????????@???@????C?O?????????C???_??O??????????A_??C?C??????_???O??C????????@??@??A??@?O?C??????G???????@?`??AA????GO??????OO???????G?E_??A??G?C?@???@?????@???A??o@O???A???C??????@O?_?????a???C??_?G???????????_???_????????S?@?G???U???_A???OAO??C??@?C???????????C?Q??AA??_??K??G?C??_@G???G?O?@????????????A????G????????????_???_?o?????G??????G?C??????CA?????A?A?????@??@?_@?????@c????OD???????????A_???_@O?CA?_?`????I???????_?????????????????????????@?_??????G??H?_???G????G????????????O???????????????_????@C?????G???C?O@?C???@????C_????????O?G????C??@??????G?g??CG????????O????????????G??????C??@AOO???????@?A???CCAdOO?A?K???C,False
~?@c?G??C?_@??G???_??_?????????C???A????C??A???A??C@????K??_C???GC??G??????????_???C?????G?????C_?????????O??GO????@???GC?????c??CE???O?@????C??DO??????CG????O???C???O????A???????G??_???????`??G???????O?C?????_??????GO?????A???C?????S_???G?@_?????@?_O???B??O@?O????????O???A?A?????C?????????????D?O???????_K?????A??????G????CG???????@?A????_????C????????C??O?????@C??C_??????????????G?O???????AC??????????????@??A??????G???G??@???O?C???@?????@?????A???H?G?????C???????_????????C??C??G???????????????G_???C?????@?????O????G??CG?_?????????C@??@A???_??c?A??????G????OG?C??????A??C???O??????C?O??G?G?????A????????????????_?????O_C??????E?????????O????OO?G????@??????????????GA@??G_????_A?_?o????`@?C@?????C?GO???A???????A?????A?????A?????@????G??_?C@???__?????@??A??A??O?A????????????O@????_????????O@@????OG????A??C?A????A?AO??????A,False
~?@c?????????A?C?@???GO???A?????O???C???GO????O_@?????G?????????????@??O??O@A??_?????????_???????G??A???????G?????????????????O????????_????????G????@????G????_???????@???O??@????C????_C`??????????????o??A??GBCO???A??OKA?????O????C??OO???????gG?@E??????????????@C?????????????`????@????COP??A???????A????O????????O???@?????????????G?`?O?????G??O???@????A??CQGG?????O?O??G??O?????GO?????C???G???OGG????????G???????????????C???????????????_?a??@???H????@???O???????O?@??_???g?????C@??????@??????GO????O?G?C??????C?@?C???A???A???O???????G??A??A?????_?O_???????C?OG???C??C??????B?CGC??@?????????????????????_?@?A???@??????_C??@???DA??g?????C???????????@O????K??D????@??AA????????????A????A?????????G?_??A???c??@??H????A????P??@??@????C?A??????????A??????G????C??G????????B?GA????????A??C??????C?g???????_O_???A_C????O?G??_?A??_Q?????,False
~?@c???????O?G???????g?????????????????????_??@???R???????A??O???O???_?G?GW??G??????G????_???@????G??_???????????????H???????????_???G???????AC??o@@?????????__???G???????O_?C???????????????A?g???????????OA?????@??_C??G??GG?????G???_???_????????????_@??????A????C????CC????G_???????????OE????????@???????CQ?G??@??????????H??????o???A?????????A?@????_?????o???????@A??A??@????C?????A?O?gAA?????G???B?????@?@?OG????A??c???@??????A????????I?????P??@?_?????????????????????C??A????????_??@???g??????G?????HG??????_@CO?????????????????_?IO?G??A??HG???????GP????B?????G???B?O??????C????@???O?_???A?????O_?????????????????W??????_??C?????G????A@CA?AG?O?O?????????_????_?C????G?O?C?GG??S????CG?????C????????G?A???@???C?GA_?C??????G??@?O????????_????W?_?A???A?C???OO????@????GG?A???G???G??O???@@?C??A??????????O???????_???????G?@?O????????,False
~?@c????????????????????????Kg?????G?O??????S????????O??K????????O?G??????_?????_?C????C?G?????a???????W????A????????O????C_C???`??_?????gA@?O??C??A??G?????G@O???Go????G???@?????S?????_??????H????G???@??@??C??????O???????????_?SG??????????C???O???????A?????G?@??????B??O????__????A???@?????@@??C?????A????@A???????@??O@?????A??C????O?????????@????O??????????????A???????CC?W_G?CC@@??????????O??_?????????S??????@?????????A?O???C?????A??C??O??a????@COG???G???????????C???_?O????_????@??@???????????A??A???????A???_????????????????????_@?_@??G??A???AO??????????????????_?????G?A??G?G????Q?C?C????O?A?`???????O???????@??????G????????_G????OG???B??????A??????????_?O???????I@???C?A??T?????_????????g??i@_??GA????_??C_??????????G?????CA??_??????A????O?C?????_??@Cc??@??E?A????????@O????CO??????????G??A???@C??@???CG?????@?O?@??C??????,False
~?@c?`????CCC???????????????????C?O?ACC??_??????G???????G?CG@??????A????????C?W?????G?_??????G?_???W???????S?_???A???MG???????A????`?@?_??????????G?????GA?????????O?O?G???????????O??????`OQ?GC???????????@???OO????G???@O??G???_?K??O?C??????????I??????@?????OC?PA@?????O??????????_@???O??O???????????G?@???O?G_?????_??_Q?@??_?????????CO?@?????C????_?_???????A??????_?????_?????G?????????????Q?C??????????__??@?AC?G__?g??G?A?????_?A????????@???@????_?????C???A?O?O????????O????_?W__?????C????C???@???B?????O???????????O????_??O@??????G???????????@????G??A???????o???????@???????C????OB?????CC???G??????G?????????????K???GA????@??_???????????_??OG????A?O?O?????????????CC?@??O??C??G?????_???CA????A????C??A???????O??@?___G@?????O?????????????A@_AA_???????G???????????_???C??C??C??????????????C???C?????C???G??@???G??C?????GOAC????C??,False
~?@c???G??O????D????iA@???W?AC???o?O??G??G?GG?????@?O_?A??G_OA?OC????@????????G???AA??????_??C???G?GA?????_?CO?__???A??G????o?????H???C???????????????????O??O???_?????????@??????A??_????????G?[?AG?O???????C?????????????????C?????_????????O???????C?????????C??G???C????G_????????O??????????????_???O?????????G??@???O????I??G?????A????_??@???O??????CG????_??O????K_???C???????????????????c???????O????????K???????C???????????????C?S???@?GG_????_??????_??????????????K???O?C????_??I_???A@????????@????_A??@?????@A???????@???O??O??????@??????@?_AO???G??CAC????????C@?????J????A???????????????????_A???_???F?@?@?????????G???????????????OC_??_????????C?????@`_O???????@????C?A?AC?O?????GA_????????C?????O?_???????OAC??g?@?_??G????G???_?????O?????????C????????H??_??H@???????????G?A???????????G????B@???O???????G????_?@????????A@CC?C?GO,False
~?@c???D?_C??O?C?G?@?????????O?G??????????AC???????A@_????????????CCC??A????O??O??O???????G?AA?????????_?????CC????????????????????A???????????C?_????O?????_???@????O?????????O??A?E???C?C??OG????????C????_?G????????A??@?????A?_?C??????_????A????_???G??@O??_??????O?C???@?A?????@??A?????_C???@?A????????_A???????A???????????A????????C??AA?C?@?????C??A?????????????????C???_O???_??_??C?OO???????G??????P?E???E????sO????_?K??C_?????DAO??????_????????C??????????ACC?G?A??A??????O????@CAC???O?????C?????_??o??????@???G?S????O???G?????_C???????a????GG????O?A?I?G???C???GG??O??@?C?c????@????_????????G???????????C??C?C?A?C?C????????G????A????`????_?_???O?????????O????P?O?????GG????????CC???C?@?????????C?@???????a?G?????C??W???D??@?????????????O??????????????C????C????G???OG????????????G??????????G?????@O???A?E??@@G??@?AA?@???CG???@?,False
~?@cGG??A??A?????_?????@???????G????????O?_???G??????O????C???_??????????????@?CG??G????????OG???????_?G@?Ag???@????????@A?_A??_?????C??g??????????_??D??@??????_H????A??????_?G?C?A??????????AC??@?GC??_?C?????????O?????OC?Q?__?G????I?????????????@???A?G?O???C?C??CO????H?????O???????C????_???????A????????A?????@_??@?_???????????????????A??????_?C??????A???????A?A?D??_???G???C????????@?????Go?@???C?_???????????@?????_???_???A??A?O?@???C????????@?C?_??????O???????????C?????@?????O????????????C??O???????????A??????????A???@@????G????????GC?Q??G??@?????A???????D?_?_?K@???G@C????G?????????AA?O?????A???????GG????A??OG??o?G?????C????H?P?G?DO?G????A???????????????A_???_?O?C?O?@O?sG?????S??P?G??A?@?CA??????Gg??????????????????O?O???O??????C???GO???O??C?A???????C????????????_?c???????@??????????????G??A?????G?????G???K???OO?????G,False
~?@c?G_??A?????????????_?A?????????????C??_?????G???_?????O??????A?????@???@S???G??????????__?????A?O?????????G??????G???C?OC??S???CO??O?????G?OA??_?C??C??G????????????@??????AO??P??????G??????@???O?B???????@?????O???O????????`????????C?C????????G?OO????????O?@????G??G????@???A???????????????????????????A??????A?_??O????_?G???A??OG?@??@????????C?`??????@Q?A_?@?????????A????????????C_?????????????S_?C?O???O???G?_?_?@???A??A???O????????C??????O?????????????@??????gG?C?@???AOO????????_?@?????A???A??P?@????C??CC???????????A?_???????A???C??????__??A???????????CCO?????????O?OO?A??????CA????@?_???@?????GG?OCA?????IO??????????AO?C?AC??????C@??@??????o?@???C?OC???A@C????A_????????_????O?A????C?????????G@???C???????????????a?_??G?????@G??????????G?????????_????CG?C??????_AG???????@?__??_?A????_?oB???A??W?_AA?CA?C?????AC@???C???,False
~?@c???A??????_???????O???C@?????O???O?@??_?????g_????????????G??????A???W???O??O????????_??AAA@??G?C?C?????????????@????C??B????@?????????C??G?????O?A??????_?_???????_????????@AD??????????C????_??????A??CC??eU????C???O?????G???A??W?G???P??c_??C?A?G??????G????C????????O??O?A??C@????????AG?C?O?O????O?O@C?_??????????????????????@W??A?O???????????????@???????A@??___????O_??????G???????OG????_A????CCO??D??_?A????????c???????????????C??????G?????????@??_??C???G???O????O?????H?????@?????????????????G??O???_????????@??????A????????CA???_??GO_???GA???????????????????I????KGG??O??O???C????????????g???E?g??????A???O???????G?????????????????????_????_jE??????_???A?O????_??????????A?O?????A?AO?G???????C?C@?????@C??@???????????_I?????O????G?A??C?????_??O?CW@O?????C?????_C??O?OG???_????O??G_??Do??????????????C???????@?A????????@???,False
~?@cD?????C?????????@E?????A??????????A??A?O?A??G@??K??C??????P????h@A???_???O??_@????A????A?????O?_???????????A??O?G?OA?C????O@??????????AO???????G???????C???AG?_???C?????O_??A???????????????????O@GIC??A??@?DGG?_????_A???????O?O????G@A?O?_??????@???????????_????D?A??b???????@O???g????G????????O??????????A?CB???A???@??C????@????@?????_????_??????C?E?@?A????????_????@?@?????_???_G????G?????????`?G???????G?O???_?????_????C??_??O????G???@@????????????CG??????????Q???????AO??????AA????A?AG???????_??????????????????A@??OC??_?????I????`?A???????A?????????@G??????@?????????????O?O??A?_???g???A??A??A?????_G???O??????G?????A????O??S????????????A?????_??@@???????????????C?_?????????G??G_??@@?????????G_?Q??G??????G?????????O@??????????????C?O???????_?_O???????AO???????@?@?O?O??????@??A??_?????d??????_G???@??????G??????_Oc??????_,False
~?@c??G?G????O????O????O??A?C????CC??????_??GG?G@???O???O??@???@??????CG?O?@A??OC???AA????C??O??_G??C??G?O??G??????G???C????????????????????????????????????W?????????O??????G?????Q???????@C??????????A?????SO?????_???????????A??????G?CG@???????a?????A?G??????????G???C???A?O?@????AC??AA???????????????G??A?_??????????O??????GA???O??????@????oGA`??????C??O????A???????G?????G????@D????????????????G??C?G?OA????C?CI???@????G??C??????GA?GA???_???@??_??C???O???C??CCA?????@??G????_??????C???@?????????@?????_?Q????A?__???????G?@??????C??????OOG?????A?C????????G?????C???????E?G???????CCO_???C??G????COC??D?O????O?????S?????G?_???????D???????C????O???O?E?????A?G??AP???????????????????@AC??@??C??????A??__???C_????O????????????OO_????E?A???????O???__?????_?a???O????????????G?C??????C???@?????_???????OO?G????G?_????C????O?G?????O_?a??,False
~?@c??O?????G????C????C??@?G????????????C?Og??G??????_??@@???????_??????????@??_???????????@????_??A???G?A@O???G??????AC?_?????A?_?????R????@???????????O?O??@???????O???C??????_??????AO?GC?@??????OO???????@??????FO@????A???@??GA??????OO@@?@_??C?_????????Aw?????_G????????????OC?A??????@??????COO?????G?G_???????P????S???@?????A?@A????_??@??C???C@???????D?????@??o?????C????CO??G??????C?I??????G????????A?@??????????G??C_?__??A????????A?????????_???????????????????G????????C?????C?C??????????G????????C????????_???H?????A_?G??????A?????A???_?O@???A????C?????G????O??????_?????????@???C??C??K?????O??@ACO?GO?????E?C?????A????G???????Q???A???????C??????_G?G???C?P??OA?A???G?@???_@??????@???_?O?@????????????????????G?g???O????A?G???_?????????Q?@???CGa???????????????@?G@??S?G????C??O???????????????C?C??O???C??O?C?A????????C_G??C??,False
