g6,attribute,time,total - 0.001987
g6,isDistanceRegular
~?@coiCE?tWIW@oGOaCCpPCPDva[Q@SE@PH?sljis_tjpO_CP?UerAcLE??HmgBaw@wgAFw]C@RAJMq?eNCg?SfQ]mIvr__HXdgKD`VFcaB_CwxJL|M?cYhBOOXEo[viwRGBuOSBtpaHJB`RRE@oi@?QYDPvR?KH?[X?ASRX\yUZ?H[_S?@gAKXQLeXQEHO?FLl??xGRpQkysSOdJfcHXcPQkLBVbIeC?eOPE@GYSG_CTHGCSq_xDxnZCiz[?bDQOAPkGhTRiYL?WmkAnAGJTKkFwaUWY@YstPDqUPA|DBty__FPUbiyT?Feaww_OeH?Ci@?TCE\@INgbllT[]?bYoIaMQCHWPDDia?B?OoMjwpPhjDyrA?ETrQ`@Yxq??c[UnCDqcARHGY~esoKhESMgAo@dGKcC?bJCwPWFGmbgHd|}QtKaf?bc_zWRBPSfVSgsZObWRwENE_O@TC_{[G_AKE?NejaO~kGNcZAN@Dw`I[|RGDAJYgJUBLYiGQhJSwUOGH]JBHnYZNcsBoIGPBQqRJJM@\sCTBZQtield_gTyGXKRYjV_sXagckDhDD_I`k??EECPGK@DWOP@?hjJLFY@@`aaQSSDdGgGtRbCCN]RWP?bC|g_Alc?OMQDpI@FBmGOC\lKqAFOYrQ`^IYLTIg{H?Mi}Y|BLjuBIWJ@giD_KVvGMs?PUUGB?B[oFoGXQGkg@sgCOE?_UDuWfGCeEAaaqu^?b?mqdL?[@Du`?HZGVeD_TKWYOoSUoAFwBP?K_Io@E`ffPCOAxqyQPg``A@uhWalP_@w_W`GNP@wkxRGEdWSIGTa]dI@EbTgOOeX,False
~?@c~cT@nkXCYh\xGK__{?_?OeBdDrd[@S}WJG?}?Ggp_OA@dwk_jyHA??[L?L^tkzo@jKQYpIWOwoGWw_VgZtcvcR@_F@Q_?J[?BmccMk?HCHtFyc@b^godV?C@CC?hEomAHGeG?dpGEk@@UuprgUIX@DwGHC?_O_n_cm\OxS?tR}kh?W_yYYjoJwhWuqCoFzWZAJPmd_DWcVDcHTHPg?xadB{tGwTFA__bxnf?uE@MttoJo`FE_lesebIEUaOIygCoICWYQB_Aha[NiPc_AqCkuEKbQAEcoCvZNHcMDyOGW@eC]tSCj?icPDYh@S?C}OCCo@_cQz@xNBMRct_Bks_E_VDm\hYdNB_AAGjgP[ERwKYiOC_DGX@~?E@Ra@?{WYsC`CJ?tck@ArIw|W\?PUIK`UkW@ZREgBOFTJBDIlAJXF[?K?P{_cAYFSLIgwONS@TK~L~T^_HoAz?HQh?V@PJao|BAt_??KT??{P_hj]GcQ]KPJOCyAAIOJ_{OKeUj@LvB?BXBPDhvCyWWoGXqB?]mawAQ@d?d[r@D__@OqJdtRPLAUD@wIoFgEDKmawbv|HLeIsHYkxBds?sqHMeb@GXuHwEj?_@SLuihKmOp?GA`dXce{@HlgXBbIgg{gl|GXG}kkGN?AO`[\WubCAt?{HSlbaBgO_A@WkWaIeVE?G_VUWcLCSi[kmGDQAQcIYA`YKGC~CC?FhOHo?[Hk?fPVZGgOcb]S]QQDBacxM_YqK?JuqqqbCI~Xc?CaqwMpGc??OcmFco_GdgGO?DWhAGiE_kAZB?J@_UdoUQQ_HoY`g?jQii^bEX@_s{di\EjG,False
~?@coxwDSGbOLcUHHsfprgcW`aVBw@Rpz[bH`l?}dgBXUwIgIj_oMwEgA_GgcLHDYP_LmwP_AmKmNLY][K{hFqDaGcXQGXRBoJJbY_oJ`ESQqE}YFSfBbKkP_s?R@|EkFRVMGoJxa?jOKueZoidEsG{mfjKp|ECEcFwA`[\oBcowpFQWNpWoaB`?[imAaXLVosoFGpBLWXKdb\QGk\]Wz_L|Bol|k]}[WvzCNABocSZIJRAtARwgHaWWQlPuCaggkXrPQIBLBeO_@UGOobogY?pESosls@``A`pr?CcTDGLIoqIghDH?T`?K?wWoDOKfd@A?eA?geOp?fOudOqWdaliBQi@lgxGUEFiD_AqY?ICGoPcHScGw@ERMDOOSk_Ew}|hRGv\HI`_DghZTKoXw_@BHbDlZbOHO_IAPTG`AhPAOgPGQMB?Daf?@pwQYeGG`CBJgHdAcYCQO`D?sJIAH_?Px`I_B?PjsKX\tO{IsKM?LQ]P?HxPZ?_ygHFOwpNcdGlDI?aP^V_?yROHVTPGIYH`CTzjaUDlBw??D`@I?`SkdcASaAJ?osMk_spr_P_H`lAW?GYuHQRGV`\^Q?_S@]qL?{SMaR_V?PXSkIrW[p`xbPo_pPiajU_JGASs??qKo\YbQA?GDRqdNg]?FTPjKU_?CWCpY|z@LHOGVKOJVi{OTg?seUgPIlC@D{Hi`SNC?RG`GNYCUI]W@ajcSAtQbBCAB{Jo}OPKB@`ia_A^X?\dQPYSqI?bWggVKIHCYIH{W`ffC`OcDUOBBArGWWWDAaXWG@aBFWWW@Q]_`@YRKOP?@B\KAJfJToEwCAOiAO,False
~?@c?Gtj_JxpcgP?_ODgYCS}g]i\HL?W`K@bSQN@PO`agoMe]kXG?_otRgTaG|TPmC[awoiGAdB?Qo@R`H~@M[^_UUFNnK@Pc\SGEcWqGicOB_DfEE@dgSBpx\UoG?aU`s?OZ_SDWJtPWXyImq`ebG@rkijPGlessf{qwoCg`aKifYH?cPG_]MPoA{OxICRELF]NKd]FJgAAO{GPAE??M@F_@W?od@kBIgUMCQSD?EDNM?\uH`rJmwW_xIjaHKcRs{ueK|[F{_clGCRMuhT@q_iq?jdZIYBm|GW@xgi@GYyeo{YmEJPhc_S?^[k@ckP|v?A@gdtcjC@Q_SOG`C{kbRUL?XutV{pC_cHEIo_OT?Z[AC]k@BaiIzMOamPJgPefvGw_cGjDD]`DHeasq?IW??qAQQW?Oq?Ex@eTR}ME@sc_BcTuAggZgGLRDIcPS?Qe?\H_R?q_Kp~\D@o?BBIpJdOq{CRno|gx@GzsFt]f[@_fTZUeTg~u`PdRuFBA[OY{?hG?j_ojGWhq_FJAPaB?qQCj@UQ?T`]EQwGbGMw@lg?^`p[IP@TWZ?bGaRBQP{UhFdcZSnH@Z@Oq?_t@Ho@]^?h?oPHJA`l?LOWbpKEkjcsFovDAiTYPXlKY[gPGS?VB?EobUdCO_\SiTdrOEHd}I_XD[A^GByG@oBBHCjhUSeaOOW_t?A?X?GHWGABwSaGOa??g`vO@g?_?@ck@no`{KwkbpWGPTgsvOAXG@?mdwMiRBiA_CA@`\Y\_UBgPrS\K_ISAyVKDCxSuOJ@eWOAVdS{LGyawG_?@DOhEu?C?MH@_vOGB_qrHSDCTcCHS`,False
~?@cZC_mKT?g?AEEA@C_AP@IoaNPDsIHC[QQEZLaQAqc@ZtwP?gFSI@AReIXD}HHbbIhnQbTauIPGmIXajUBgGLQ?C}baBm?maAXH_KOLMeerBvdW[BBEAaBYSb?io{og?IEvW[?L_sNK?RBFQAlX`qC{C_gXoqqcIGBySCaa?JMXF^CDkTxO_VCDdaSoWK[QrIu@GTgOEO{HHbxg?oEPC_Kl_p_@UDwYHPSuht_qwS?LkdE{QaAoGSCoJXpqZEcBANOjH?_kAB[BGN_YakWwm_GD[a?BXFDEJC`b`BHHou@U?DZ`JSolI[aEKRa?cJhKibAeETabp}?Ecgc?aPbUo|__uOH`??oXAalAPD?U@VPp_VH@luyxyEkkO@PjfmdFOHAWLNOmUGOgK@?CdXDehK?BrLHI`m_eEcJS_aASopOVZHrsosO@lYABC@ArtRUWv@?QyGsAEJMK_RPdJhDJLZH?i@aOP[@[pBOgXPVb@o[Af`cKbpQ?VkSHVk`U?r?_AQtmIq@SeOugHsbKOPkgAJWBXS@SpZCHbwjVBgGIPpQ@hJKPZVo[aJnONp?yK[O[AiPoh\TR]OrT[@dzC__SCbWxEDfCiD@Q`DFPC_HAhAOru@AUghUE?G`PDp_K?GgHgT{neVR`?fVRRPIh_?WHCHC`lxOH_xLsza_ZhxCG_[YB?Yt]bXkOsGAHBtqtL`?\`HGKGsdZH?a]RgMPWgABHKUEAIoCTJU?KbB\bLa]PJavGLFCJaEeWKfiuuCSd@SD@C?MreX?OYhQICkHd`nZGrOSiW?Ml[F\rS_O_ao]aeMnO|WLqRZc_kH_IGEd,False
~?@c@?QJ]QGd|iVY?Lhex{wWBnGI_?K_WKoDX@GCSUKYd@?A{iJCtPQ_FEGoeOogSK?a_vLGKEo_?o?WO_@Jmhp@o?Kk]RrGEGJ@G@a`pwgRW{PxAX@ZrKkeGpEqGDX@rkRTpPiNa?ctXNQ@a`pcCE_y?FJQSWeQcqroEVPTs^CRN@PcH\aAAGCKCs[uOKLY_`aH@pHqpK??`dD@gosWIBJVTMAcsHqw[OiYWPDRISoK[PrDOScWPaa\SlH|MFKLwkEMW_Q_ILiYC{ayQowQWJfv?ixDKcVr?BOWU?CT_CSOar?OBID`SxSAPmkOIGdqf_QJ@E{d?NX^RLP?K?m?Mesg_Gwg}m{TW[qRTuwgObaKe`OOArl{_HH^IK?MHKKHP?EGCY??q?_hqmik@sDykIwLxl@?kZFSWxLGCA}M?pTN{EwHxUkcHwaiCYY`CXoXciAQRjOTNM\HaI@dMIjCBBVyDHG_Ac~GDWrD?o[a?WcOLG??jvsMQcW?p`CCRUQ?GWIUr?ING`wULIzuTGq?o[dK_kpqI?S_wpHaDBWkKtQaKKDno@oEEK\HASgFgEoOqG`PZnLEYP?zJu??Y]L?ES??HboqbYiU?hJOCCCo_F|ItoPbIjhM@sDI?mEkS?LwD_\_Ds_UIPsazp?{UlEWXALMT|pb_@`IHc|AdOiUdI?\Ogu@HEIWqkCPCH_?d_???ddKg?WOMIGC_SDKX`tBxfRIgQoY[DcOYLfb}YFP{Vxl|]@[NIKgSEMgKtoAeGG?`JBFFRa`zP\cQs[r[QSZQcA_ukWadohQCTGHqvFOhKcSS@SDEanaw\f_@AaEj,False
~?@cIeU_BW[GGiSOnApIDCAW@_wSJeWC[vEPFIw}QLBOGOJBshK^edI??izCqDkGHTpOqCSO@IpYGFjhtDaI``wGAYSNuPiOX?i`?PSSz~LVG`rq^?phIAOCq_Mkx_ih[_aaSaHZOaFz[L]Foc?aXq?_jG?wOSOWA_A?@T_c?z_sSA\K?QDaEfWpOJkF?g`iIoaX_`qIIRpCA]@bB\CCKA@GEgDwbR?_C?Q?XEkDeAEIiQ_M@S_HArEO?XRIdUEsF_oTxERBov_H_oUOio`JkbC\cC`DjFFaH?ApQXGOeMYPNPcaRqjWIcxkiAILMGspeHc|T[CMjvDe[FYGAHFQ?eH`A\ScH?@VcwXHNAYcGIAoCCMRCcX[@_P?igeGouJCTlO?_U]EcgrP{QMs_?VgMC`RiKLHdCI`{XwrGRcOWEi_]YGkG`BPaCYA`t]CUGOIcjNYBEWLkOIxWm?ABtCmkD{ASwcauyqWayRDJhAM?}\?adwCtbASgOEH?OWEP^pBgojT?xaqHMH{dLHKOUBrKH?uhUp@_T_B}SCq{c[Rac_R`xYPlU]oC[Lyo`_aEhSOGMEXrQJajO[cCQhQM|]?PhQ`VSD@Fo@{A@xsC?~Blu`NW{fL@QAI@qGARS?wcWpsP?[hQrIpCdQuOPcr_W?oC{c_KBGSRkCClF_ZYai`lKW`\IFBOz_s`fg?|siB@oJdVQBfSa`QPH`NmEOPfOiBHU_THFb{ddgQEE?\AD_jVS`CAGF]crgAkAN`ELkWeQj[CLQWoSpgI@PbGJ`s^LeipG?nL?{IeF^eCzDuWO?HGMUgF___p@LGxAcgXrDk@,False
~?@cxBFb@E}@qQgd_AFi`kjKaBgGy_QmM[AcC\_MQao_qKaMQbE?_EojsYAG?ilhQSFYCvAOrxQk?vCTzgjM_P?PFSZHWZQK@XOB_yeoO@?WrA?wSIGlLDDy^dC@Bt~OK?nZ]t?BJGkahLAWXl?VGxasya@_`@CyqbCCWJ\ZF`@os@AP}C{_pPogP@@F?WdDIgvWAB_QWbUYoByD@w_??P\hbJw?`AGwUS^HSEmpAcB?`?OoSX`C`BaoIE_UcTqQmI@JNCHK~ECoOPuE]b[XUK}Xs?`BT_O]vb_GZZOBD@rEKcmJca?NzOQQwpggkl@CLkGu{DaT_GjWSWEKHSFfXiCCSG}s_WPFDHTEGiamAxg?PAuzo`SLrlnP?Q?@IkAy?BiLechwWGEA\pj^mX?A_GMO@S[G]EgFYK}?RA?LsHGCHOgVdMBB?GBO?z`Je[JJ\Z@a^?SWBd`CCcBDDZQS_|Y}PHJB@E?{@_\_LQOCsvEiIoB?nWHWdU[cGAW]pfKAPGqPC@RA`XIvW_hQORJEsOiCnGNRehWzAPLawFXHeG?G?N}oTQhAA@xj]FLQhPYE_{_cGITIPkSgScvagb_h_uIGZ@?kTv_uPPgASW@IAC_JoB?EIADuHcSwReAF^o]W{BSVrQO{aCAC?B@gEKp_X@BU|Mp@@?vGqet_GKaX@wUjAwPGl?@{xFkzGPDeG?Gdbkf}rlOxuw_?p?\h?s{RNwDopOmK@]OU\o~I_IvQJdYE_sc}BH?^OmWyOGoB??Jsu@G@?sFZ`KHTZ^]_?O?@{KBHecKggEYClEAFeC?KagACK]FaGFCZ_IANGIWiS,False
~?@c@vEj{cI@_@YGv?QuBLOGGa|upik@ROAdWKK_M]~PCAz?GKSTOOQFraADQNEUcs?@POeaaOIWagoaCAB?Io@@LwGucBiG_QCgaT[[OPg]WCERTomVWPeWWITcaOaJlhnaK{\jndsyLtl@dgjSAywhecmE@fKS_WjgkSDCc?k`BEHdN`kOUhYONE@qbBH_Q|p|{cekl?DOH?jwO?CK?eZG_LG@f?cRLfVWC@EK\KAvL[Rf?BBJYmpaGDY[sgksAK@?R`IPqCuDojMIqGnXdXFZP?CsQvvHSesAFgJeGWI\UZ`pfh|??vkDOoPviOAmBDu@SZSLohHqCgK_IjHC?Jd`B?PkAI_K@CgCWRY?HXIoAGO?JPvA`qpT?C}@_dCQ@HiUoZIAesxNICGLgMvIfhCHiFBZpSe?\DBrPdcG?XC^gy[C]Cg{yY[KgTiqAK_JpHIKEl_OW@swSoQDLcgPOIVhUGIAvOYUL_QwiAbXigeG@TA?w[GoXDBaK?cQR__dM??dSCtwS?CQXOOARGA?@?R?aFCFXnOWaScCSUFKCa_cQsDVVCes\KgbCSGIj}\?W?GzlE\_o}?sJoOebOEo_DGHIaJXTh\FDAETwrIi?^I\WsyxgqEUwwgI~|qoGW_I~?schKo_oa`EmqROGLyx}?MyUL[qc?m`?jaRTmAOcE_G[oCEQaCxC?HWAs_kH|_K@@SaQlUsH?RhFqtMChBaJXCGK`yS_OER@DiJXADA_?_FS?at?[_XH`MgxdNWO`IS}OxCrM|T@GTO^Sas\UUA@SSrdjqHMR?QQQD[?XDr]CWKVw@iGvCc?HALTPEHB,False
~?@cswGTgI}sxH^\MT[HtTgfHzOeZ?_?wgWa@NWoe[SubRAaCNYs`?CsGVV`plEDGXL_DRXWbi}GOWDqw?@G_nQl?cHE@GhILDpDO@QpB{vBW`ASSaChGM[h?MADaWdPSAJDTaWQ@c?IWdOdUOW`@[]EGWpVKVW`bW_[G@W_e\{WOlWq_fhN[?JoGxpc_oCDGQfU@PC__eFqK@etNH@@DIb}edSi[cSfah~RKJOI_KSBehheL|wYMi_\WUDtF@vQTG?jbAAP?LKYCId?rRXQ_QKHepteosglC~g_AEGXGm[Gd\EaG_fIC[KK`QcgStAWjKLGO?Ow~sEWIRX?}q]?EZCwHoPg`AWO]xM`cKtloBtaJekcTJ_sEG_g@fY|O@ERakwc_DT?_vg`oRcwas?wgWAPJWPw?I{PAA?A@g\YoOGoOKk_DIACwC_AEQAAc@_xotyiZEqgq@QKircLEsEMyBuH@BRg@XsxICULyGDG~TOBp_uvvfd]x?AALWx_CD_w_?`CAKT^[aCyKudW]@?lMPGBH@O@EmPOAPAgVoEWFkMRDAMNBsjOI`jIA_UGHILpReT_`QQ_EgswkJYSKpoD@_J?`pPWaAxSe`EB_?AGEJSUMXTSQFdD?c@V`[ho\A`@a`Wfma`|`q]W]am_qn[WEG_SqG?u{gHOmT@DIe?o[MYUtOas?\QfThDRnKI\l|`{tChJ_lRIJiRO`XK?G??oVbjt_@WhCEBgRkPuBAP_aT`ocPQJ?DCgPCKpB@X}K{EOGCCcCFGxgsSh?CJeaKTU[G[ssg{jCgYqEcDcS_EHT?FJP@@GBksa^??IolQOP,False
~?@c@VK`yAdqGOydekfa@yp_[Eh]CgpWDCE]_DdlHACS@fPnA^jfg[\EaDboM?L?_D@KKE`JBME?NpHVT{^QgCSVI]BIA{B_?A[??[?WSJ?@XS`\_gGqAk|RDtDCsTOip@tO?AUBAZWDdMGQGWKAG???XeOfAMEH?H?[BWVBomK?IWLjjbGAgckDeSHzSFAQ[fUhhT}Ag__DEVDhPVcyqIHhKGUHo\Jw@h`@@TkO?PRGD}Grk`IwwSOgp@pag@KFYbczO?\?iRE_fsPY{plZ[QQHgEOZb?KLI@?w?bwRDQRSBaLlZXQGkO\EGN[p?oAX_gx@iAKIaeoI]bcX?TGssr?TEEHIWE?QtRpvp_mGLBY`?`PhHA@M?WAD_InLSQiCH@TMceOXDBF`CyD{_CUpPp@Ew_@GxgSC{eICdWKf`JveBg?WKIWJOijQS}O@p@I_o``VGGPp_?ScXCIUTXiAn\EobEQwCCco?GCGafHEjZhEp@da\_DK_OaaXAs[CGTgr?kIsO?aiDEse?_QTKGt_ZBA`wCHGoaTP?eEpiGg@egzYB{ZWcAMKIysRR_ZdCY`fTHPKIo^AMKW`TEIk@Z[i?Deap{IYb`CcpKV`og~^A@Oeg[ov_TVeGpE@sJnQukq_?I?wEE~MYAPM?it~qxfKRtzfqRG?NIWsGGhFyK@?PTAmPGiaOA_zdCgODcHXJGkMA[P`DpDaDldii[l`j_wwa_g@ATLPAs@F@@WiZRC@@q`vKPHQOUGH]PAIVZJVPgEt?u[?ObDA`?EFWHbWG{D_fNkKh_ieJeTkGpoQvCIqrqMaesCGEOIVfKA}MQgS,False
~?@cNLoL_{gAkOOM@DOH[?KnAKU@Gaps^TSSYS?svDAcP\JBceZTX_g_EdAg[`DKZZaAG_QOc?Po\S[cR@WQkBi@{iaDBpkpEseWdBBeSd@D?i~RKK?A?MOPK@[T^UfIDS?OdA`a~O?|}_GpJgXeCBxot@RiEPgP[BJgcUoACvsPQa_caTcQg_CEi`Ccngsh@]cRgq`x_bc|_ioLGBSpHIDqHLJwxvBA@fYWuB?edi_Ycw^Lp?g?I?axGaJHOiHOFdOYhA@loFYCpw@iGDcL?GJfQ`cu?cHmR`PJI[awOeApgBlOoirAxh\u_SgqDQlzaLPAJDfvT_@AXed?co@R_PgHO{fG@wFSYKp?eO@iOY?AWI`kUMediDP[b_TO?DBK_aGrV`AB?cEpLuBgGELGTeuY_S_JaVyIOqboOoL|upV@VA_HDUy@KWG[_iCOOKRc\P?XB`DOIooRrY@A?DOo}@jRa@KZUkOkmhGUbA|Co@TuN_MZmqJpYWCjEkgAC\Z`EVb\TO~@w[KAIDXMO|CD`FPEC`GKOG?rykaFHP`bAq_a_OO@C@o~HIYN?QR@intwaPQOwP{Pe@f{d?UrCOOBIfGWCNQOMuKMNcSgrOGI_fR{Cml{XZf?_y\ZzSUayyeuAcP{`@FJ?KYphCbgK?WSkgrStUSFom}BBD]K?aPQCha@?GOt`?ciC_dcHq@UEWibHopo_IOZcEGp_CFdQKCIWQe`koe~C[PimQKCtSObMGEY_mOCEDH?_`DGSORWh[jU]COGgPJJA?pOIEi?RAwxqJR?GoF[Ke`[?FFIGF??sCCxezQ]CeK?ek_oKQNIm,False
~?@cOOR_GgqDBVqGfUQH@crM^_Sg@Yu?IHP?NI_aA`j?D?@BZCRncAKmB@COtCyK?iqdOhAQQOC?ZCSha?Dc?{sT\B@Cvo@RObWEXsb@dE^AWO_@IPWKOHKP_H@B@TCeBhov_[__`SAg?cKCp]`M@CHykMCE_I?[DkMA?C?oKsHCh{ShKyFeqb[SkcKcpSWOX`f?G_cMxUAlsagSbPaxD?WI`on@p{AO}aDteBfmFOusoE@|`kbdYIoGg?dDRJs@_GEaDIFK`g^[@KrGwis?WD@KuPH@GxoaS[WHI?wFYrRyZoIPgmFCmKBTGGhIKecyTKRWXP?_~_P_SGIoGDWh_|_SWEZ@g?AEaBGRoOp\uD_Edrw\v@|c|SVhxOacOLSMQFH?kcDOQL?_kOXHtlom`cGWUB`sQaD_O_KGKB??P]?arZ_NLGVR_g@A\_KDTBWVRKDkSpTfokzcpu?R@KC?LJCoObWCW_]?@KcSUGC|ESqgQDSIPOIY?emIZ_SlgwXd[S?Q@FONcY?uDyvqT?lu?wTDB?AkBFFs`tlAO_i}?_SibkPFb}poCXnKAYcGQXi_DOymGUIaxHdttN@ifgg?MiiAOSSPhjGgu`AGDEXmdazotqzo_sFFXLe@SoSIu~O^PP_[a_FRF\IQpWBSoXSMQhRffAEfIjWRQSeSCT`bmFgVPO^nplFHojB?IgftyP`RD{vATCtSBa_qM]AA_gZ?MuHe^wVbcHJpQPg?wsAsAW[]H}^BBODHXROuPMCm`?Qo@eJgWYJvc_Olc|jGK??t`C^GADeuu_?_skGCgApXsoGWYqQ?@QMP?WJabIC_?,False
~?@cIq^AHOCWB`_tGQGdhmWihQ[AqiC{dsgD@ic\o@{a??Z{CTQGOBKo`q_Q?oSkxA_U{tgCdoLKAm_cnG_sRMB^?SBMef?ESwxj?@I[|toitiXEPt^_WEQQyCEOrr?QSGO???_?IqIQX_Vo?kTGEZAwrOKQAogq?CgKv_oEWwVcOpF@@b@OoLGeSDcE@cgcqdOcp_Rv{@?]lLbPkPeWa}@\OP]Q_TWbWuv_je?PhDeJLb@_slEg`igKCoQgWCSV_ETjWeC?u?IOWMP?c`KoBX@LFHIsI[iO@?hZVH_`IAoLoAOq|r@qLeMvq?KcDP`_`|pTVkRCa{jaWyopeISslwuLdUBeUWQeKP_TYpkboNOqlfZWlW`iqbJcEhySihM_ujSQCHCNPh?CkGfcBGw?y?KFLC[JcVoR_|?`P@d|`cr{okoIZAJ@SpbGKT?gCj?AEW[wJYhVjKcGEOBaW@]Y~?wU`F@TuKTC~H`GyUq@GUx?_GoODkMIk{IA`XAdaR_S{ox{iXgBPp?wwAbMa?aHKEXtOVJBqWhEykXqKGV?SHgRHI_R`eCEB?_`JK~hOV?GAwqQiN_dA_JUcGj@yE[?xnCEtCZ?GD?HtOAT@cOueMX]pcdXIGbAAFTo]O`SCIbT?AGS_se?whe?EGlVAJQB_sEfrRIOR?idDpWuEECaRCnJW@AQk?WizUYPWCEKBhFAGGGMPcXrC|CgKHbZt]IabHqPd?QsNwtNAyBA`J`Q@@cJC\?Ao?LUAsjKROgOq_IaGG[P\Cckg@m]?GxxCnUMk?BX`ajTIPZsKlA`A?KOv_ALIBEkDGGAkwa@CpWKQ,False
~?@c|b_H_`OK`owIQCmRNd?@Oy?go?`LbD{hKaSO`AcoO_ko\aMWUGG_@EpgV_OxqmET_ChSh{@X`SiF`OALqOKM?v|gK__hJgDWUYgaWE??u}QvEJI`FKCTqScQlQaDOMkDrC\OCOCmVM}WVqiSg`ThDrhC@[LxTU?_d?qBK@WQgdgWDkGIXi@cDCdPC^O[IyJ`c]wg?lh_VNM[XI}cA?coOx\?zXQugW?@AS\BB_BHGw@VJk[KdLOO]OHLmPo[U@orFa?qQbHc_CCZAtAI_c}wCFsdcARuPAA?hV@d?cgC_?q_IaP_Qk]HEJi}PGBTLFCP_WS@LdnUF@LRuCluWftUZ`?{mMWG[i_U@AcsUQOY@QHIZN?EOGHL_COldw|iVhObXSo[pYoeCX]PGUmyIAgYBCJ_c\QcuWWPAG?GEDJukNJJ_SwS~@lGbA_@^rYlcIxZ@NXi?CIKIFSPHmI_`p?Ke@CAvBAvYq|ObkgGaCRtEBEDnv@aud?@BLX_Z`GTa?w]O`sJZyBJCtAbk_RGwMg?YJqgkgbX?CU?_HRQcE_KUmsH?ZUr`EGdblDP|gJdsdMbu@??Iad?F?Ez{Ox?zEyxDJDaC`qTHgIcEBqC|koW@_?CAcC]@apTcbXsL_o@wYHoKSt@ICENKD?J`mPG^@bBGpkWT_C@QgMwm?sSO?AcppJK_O@L?P`H{YwDfJbgGI@q@GtXNsKPvaAMG?mod\RgL`AGaBHDApQ??qPwYXKMPu?ctbfsABwQB?a@_V?ZO@i{DqofNc@QobzBLO`K@hb][?bLxQAhUCOeo}?l_DhC_AKz?_LfCq_obXkDp,False
~?@cETO{OHh{GM}?_{OOO_Z@{b`{`odwhgT^UQ_Py@emCKR?Ih`Egbl_?ASOfdXAcbEC__rj@PpwKGN@mISkeadXACf?a@eDCdRYRcDPeckW@YqEqMdwsTY_OV~@bYE`E\fPXSD@E?_WNluMNLch@IKYIYWBPBJao?BhO_uHPW?cO??TmF[e?O`G_D|gIkOQzLaVIs?sB_?H[afSBOXd\ViLT?g{GOOP_?}_VJoC??a_u?PIKCO]cDeeC?dMLOMXCWmSEV{SjCS|`UMESlQ?_J@?CWbC?CG?{YF?bKE?kW^TL_Qgg@R`\]RYd?eAQGAOdVXCEAZUI?D@JACPcAojr@jCXjc`GkOsaDUB?bgWwaHEpElBepRBoaSOQ`dGQ\CHMKGWasBHPCRU\Obzas`P`_wBAu_f[|zHQt|?aWJcYIWKcECGeftzvOCvQFcUuIO?vc{d\U`MOgCJ[IWAka]aoKAomM]?MWKsP_?i|}?AcaQagScgMoDK?_SAHEORBbgfz@|C[OtPtjTKqtIBH?dG_Dr^?O`L@AIo@T_jHWBP?GaADgPRCUobASSLbjPrtuWioadqGsCcOHcHBT_fPCh{RFAOsa?k{|Mv@GqAK_GgZCXjwQFuMNt?CP{ugBPZg@_IEYKVOcAOfU_M_cbhCupBQPBJALd\gKg?JBc?Ag`W{JWy`PG@mchZ`OjdgrLGB@LGIYKpW{XM\W?FBDDb?eadY|i?ek?S?e_axCK?OPA_dDIv@XMS@t_M_?gd{uA_yvlcFICrs`?QhkHXyEh?sCcAo`JXCZr?XZXpAnpJL@@SRFQmiajcD|H{ScqfBbklE,False
~?@c?A?NS}`WG{baQ@Gq@Q?Mt_Ti_PvA{sGKCmucf`S_Mhiq_hAHPWPgUDYgp_a\OfFAzseAIG{O?mAT_eFWJCICXgOyI?t?[`@Y_?_YZ_UGZED@B?bQ~lIE@PVCcQPRagOcD?[[A@Z__}lSF`k`GC[?GS`_DwrBEDlT?eYGN?JTFLi{[CAWog_frHy?EsOBP@hBX?dPCAGS@GR@ADLFEi?_@sud@GkUHIgpijEcSoHEDdtRJUO_P?OOkYtlCRh@@Ou@CGUSpXSq~@@@P`NeBq}S_?NbqL{ADbyOK@?at?IW|_@POCorMJyLhfr?AsXrW]FjYFaDXXoEkyJDCKqF{KFSoqG@bxgBfaM?BT`?_Etr~th`QKSOER]_EYisaC@^IDeeO[HAWgDaS?ArFXKAcON|J_OgC_gqeIzgjO_WgXTr_[UaKmgTo_b_hGAgDdVlQp@WkGsj\cOX_^C`cCyy??QguADFA[yHBKj@iGA@KUmIEcbhM_`G|P?G?g_aNGfGQOM`QQSw@FS{`D_erDAMdWjsOHAOO_@eyqh{@JSagOeBZZHC{o_RADndOmKsurILVQ?sQo?PBNCaZEAhIkz?{v]dBMDPPCWwcKRG?cOU{?A_Y]fCnCEEb]UYE|AhDKf^ChlhAcoJWlr_?JOWeoecYaWPDPfEI?LOG?S_QQ?GCjakAhBWNqoMW[WJg_CSJ|A[Ay^AbSPJxZYf@iOARd@?reZ`_G?hsC?KOGlBG|QCZo{`_xUeaRJQK_SIxdaoIGWWlnFw@pvG?rc?BMalkG\BJgbTYpbMsEEVbwUJqcJNxQgOK?H_Pqi?TQ_WetbPr,False
~?@cSPgGy?XdLECrs[QaaqU`H?Ng@cJyoQ?BIgLCez@xW_K_Ksw}_AUs`cpaH?TCpQeOO\`FWTTAcOWH_J~z_Of@|lojkbQOLoorObKIZzd?UPj@kepiC{qB?|Qo_ObABqu^AYAAgldKOBqDS[OdDVGC_@gSEQHBCDNCAA]p^YESvOT?ROAvU?HQfS[gWsY@gF_RJEiTWB@d?lIKEqpmr?FBb@K@DIzol?SG?WSBO}LGAb`fRbooM@@]Aq?AB_?UCGLwCgcKa@akoA@}ug@ESE\OuMGGoSLr?cgWibGbCLQc__GSBI@aO[lW}dWOWxUGC_{tTsLcULhrfA]CJTGM[LixhqwPFogS?xFEAEkswMCGGFGI^BuM`CACOG?SZRhDKQDsShCOQ?ACMx_QPYiK?DLR@VOqaG\bdOyjBBod^j@eCpdIlPOOS[oETAWPVKEF`fOHQ[k_LcLNdddA_wU@MAXM_Qa`_BEHqsHvx?w?PP__??B?g?XCe`zcGDFVXoOPsGOoGwBSmgrKEgqBTEDJ`gQEJHuEpj@DKOSQXS?dQewpF|oNBA^UXGdcGPTAGoKwJ{W~jo`~x?yLDJOLLamGha{CcRGIMWsRDVNo_eD?OZCSBO?Ic`AebAcq_ARYGHPGNczAwd@t?_QoUGIXQgrmIOEA_`Up{ChCDO?TeGOdjyhZL__G`OCDPm{uO{UNFrGMK?\_LOnDWM?K@B_Q}_RgSaryL@AJigOW`aKa{G`EZP`AQZhGIaL[OvlaGGCpr_C{iAxuBK_XC[yYDNGO{mU_HX@wFGJDg^GxjwgBa_pVMlzpAG@[Q|[|BSQE_FG`a,False
~?@ciWzrKczEY_`bGMO?N_Th`?crS@AX`h@SoaJGr_iFfKCtvGk[r|rBBPSmMcG?Tb`EQEOVWe[e?fSSr{?_Wsip~jXPY_C_\Ao]?rSu?I_ASiSX?iWd?g?EgGzCA~H[EPoT?soASTcdRoO_@JgHTaWWue^Oq`aCLipW\dwUfeOzUA@EHPtUUGUDh{rXocKSKASIcoRAUUz?CBKdpEgBSyA``zpoGKHSsRKoeA[{cTUrcRGSkOACKoOro@OIB{@sQYAcJCT?ACOoCLPK@PO|owKhIAPFdkHKmVO@O@[om^SN{q|]SCg`i@Sq?fBOIaDCJow_`RWP?ghF`ICOeFpEO`YEUa_`A_BAWpYIpp{grXA?KGl{_oOt[@VdA_\X`GoIuVa`jX_GJUnAROMIXZotWlLXMG[sq\@dgxiDNOCaSCiPEWSE_BcMKkAdLvx?Hgb?_g?_BY@?\MMPiiQMokY`bQEO@UJR?zXeCS`OecQsInCfqDI`_h_w?AIKLnOOgW?wG@_q?IqPKRAKAk?sDswKhBOoE@CWEwa?rc[A`Od?Lc`K|CRjvs_gHWeBLeILIAAW{Ueh\^oMcwRWJFdSvx]PoKE@CDNgoFaBlyVW@oupOcF{d_dgdKI@PALcxN{L?AiCRAMW?G_XXXgy`D_IwqSvGoLB_Icp?gOQIAhBLAXyfIXrT?k?dwEbqPED?B}i?OOhgMj\EF?~r`ac?KBEw`\gO?_BOkD?Td_gWDSOXmsDCp[QTG\O`?fYob?BwAkWSS`p?GNGYsjtAr{T_@IBF?[EKNRvGIqYKL@hOY_OhgO{G@HAtIOOReQKHRnaDqdN],False
~?@c_VHPgllk`T\fAPCBu@_GcgCe`t??scCic?fECPO?w`sDsjdoHHSdQCAhFElg?co???DvRSfKta?]KtbO_?EXrDkPk@rmaEn_]CSW\u_MRCoWt|[Ya{a_M_wBKVOGFjA?oBKPG@G_?N@??HVtlWkG@KFJCo?Sg]vQoAL?BP?eWASZ_Chc@p_WXgHCJ?KSbP?BI[WlVfDLYCoDAocGVlqYI`CDFWrrJhgIOGDES]CT?XBo?RUL?kQtYgojLt_tbFWsc@?AAHNRHbWKzQDxi^gyusPSmHkfmth[XF}SL?AQ?d?S[Cq?e?Rxsagog___|WAFT_IJe@@cw_g{MEp_KGN`@fMS[cpEUTGYxDSeqQSaQLaWmIUaK{YQPboz~Dt_VLULiy{[[gCaxvpRKlERIGY_]nBlbaE_pfPY@?oPUl???cCHbeD?OEI_HGKAc__W@@KwUa|jcwGN\@s@m?oyRR@A\PooqBLzAFCBGD?Fpg@YePpSo`DoWkkFbeBUGChMRUOcZAotgwsyQq[LcDy`lCaTY_RjGEbg?UO_AEOsdaQuJD`X_DG?cJknss~dhcOhAK~whuIHG@\OX?NKOOaxOKQaFR~B[pIhCEJq_QY?`_PA`ZkQRmAPDCcT@_gq?EYcOG\F}?cQgUcq?@_E_wZU@Y?DOC??cQMHaRUpoGEk}JXFg?NKQJRD\TCc?s`ZPGCFoKchk?B}RLJHkOYY}XCo?Hl`D?@AV`~\@@JGGa_?gR_MDtaOkOFakBYQtPOYCOGoHpAPb?AHT`o]UxWrZ_Sop`?rucLOjOQOduXoUiE{qIIQfKX~W@uXQGDN?h[\A,False
~?@c@C@XLgAEWREBTPjCO_wIS@OYERIHDaaGniHAAmgHgASCIRg[@`MNA@rgYuA?G?dKsQ?_Y?u{oWglZpvL]zI?nALWt_yWzaO`}FQCb\@A_[HDRIGo`CM^`?UG`C@CeHnEV@vXPOIzmeoRBWOV[YI\ThTCIJBKcA`?Ppe]lGlg\~GT@?XKSWzUS@y?BCPTQO_Aoy``JkW?MqD{KFh`_A[o?B_b}x}g@DVsK_uILX\?X@_n@pCraIMZC\WSDkrPFJ__yXmhSDuai`k?PQSPFMMFOhXbGCCo{pWC_GKgC`@UyPltUSlYWc?D?MgoYiIH|_?\AKR@slICG?DT@r?A[_TCS[@WcoLuO{YC_lbOPT[gaP@DAMpxofhrIa`HPQOIC_oIBmwURegWW_Mss?lO?SW^?F`?J{hhwKGHvWMK`bA_S?K\iCCC`KUOh@Y`KVXpC`v[dAaE@{p@ZKWZCTOANo?K_qcIj]aOj_}EPp?Hi@GdyEuPA`CHEChjJoiJSWSEox_VZLV^~?WF]UC`Ar_lr?QEHgSc`GVpPk`ImasWBwGDpIAgPWiYwGD`YA_B`GTCVTc_|ksA_?YGI?@TaiggupXaGUThWsn@FOSPqRNds?kADoXA_aG_KGNT@OBF`WUhWSa_DtPadgupgNNJ?A{S?g?pEc@HZMSESgUBGAbD``sJxMGTW?G}vI?_Ijs]SkqmB@?pC|`ofSoh@z[LAWsGUEUrEshFzh@aDBW]}`?l\b^Atc?UDE{Ch`UAc??WBOO@P?hiAq{J{N@@@D}?@MVajo@?DBUkD_{sBIiOC?g@TpyDuIK?MbOILXMfKKe_V,False
~?@c|VDGTr_cT@b]`GXg@fkG@ntkOcCZT?~_paaqWOgYO`C_IACPo]BJGAbAOcEQID_oAKpsGWUp`CfRoA^gS`dqBRDDCO?dLt?QG?E?BK_HEM__N_DRIcCKGROUOO`h@r\QCqNeqZuC~L_?Gc`e{ofd`B??IrFGHBaWRC?vqGvCIaydAaIis@]YQ{h[t`O?GEAB?hTzo@I`[Vvfk?SP`A_tCcyO?atDo`YM]}EuWQA|P?OhDCTH[QcC@SIXGal[CAV@_wAwWCUA@WDGPChtxm?tBj?tDaH_x?LSdsHG`_yWInBoc`D`e?Fs}pCs?gBVB^Iihh@BIzic{a__[?UZFsWRTeKkWDWYDhG@BQ?Ip_co?bUXivbhGQnsAhNPWYk`C?`OVSGk`QGlDOqwcygoqGbtjWyLIQ?SdVhMPJhOkoC\wA?KW?KfAqSI?LSgLNvHT?KbHr?GD_TgTSdg]OeIQW?JJyFPPGrh[adTyiIda@FCoumO_CE@wAtgeDBxzyYo?UGO`n@?FuSgBaKacSMi]tW?a[R\uXO?@`kEvHHRaBDdAgO`KI`Bdss^?nFEAe?ebX@_d`OSHYGWbSkOOUBgGPddFCUkDWiWpXKfwLGAOJ_?{|@MHcDWlU_zfb|p{G?JZRaliRIkYAm?C|LJIni@Hu[?gwFIQwTMaPvUBgG[`AH?oZsCPfEaPSBl_G_OEAdArrRVh@QKWQ[\hpOCeWi]AdG_E]CgDtXLE_OayYHMuAhn?@Pvhn?GUBEoa[Ym_NP?yZmI`G?OA?CoPJ?w@@oGKZGxhEwxTdGqCY^IGCq@yPQMCEAsOS?|RE^PCZSSc,False
~?@cM@OCWoaXOk?CW]QBpSK]O_OOVwCLm?I_?ILDaARMXYk`|tO@ba@WI_RUYss^s?gogtgIA\pF{hTyBARaggDc@CX`j[O?lzbfQI?P`Mg]O]R|EJGsK`jpCxh{Q`ZGEHcD]CPX[ij@bd?HPHW_DHrKAFoOcucKC?T@z@`HF?gSg_@}jICTp`Ci@DG\EkhSB__a?RKPzAYPCrcKF_uqAN]R\YSPiaSGSfCcD@GWROKc?_HxC{IC}G?@ozij?xywEw_qynxOdPSzgCig`{kW[VU@cEc?G?[POop\@FsQCOCAV_Jc?ocZ_]MgG~~Jwv?AaqWG_R@fS?BCCd^_w_bKrtmhWSKBA@PSHX[w@]sqaAomDc`C?z|~QLD_Kkm`CTCTbciCGMCV_IEhYjMAYC`AALOFoYi??o_Z~|TO_\EBU`Okhz\xE@oQE_ghrl_XzTh@HWncO_?sONXrxS@GDYHV~d`u?Gq?CMWODz?`?xGSt`KwwhT^_\TDCuV@wjA@yPmFToU_?gFSOdOa[M@_F`XeSSMp_?Wa?EHYVDDUH]?NTFK`FOC?Eich|CA[m{HbgAUXwOFbVwFiPlJ?rRI?yTTGPaCA\og\B[W_a?OB_O`P_acw@OjCLo{ioZtcWwThT@_ehAeJXK_M`Mc@abqPGAJJ?AFE@PwHCPqOYPx|{xeP@@PAsbCUZ}\`Ln[WL@Csg^OsKDcupG_BUW?a?H]?`IkoyZkS`C_SS_[RS`pgCIUh[?gOA_OgAO?eQq|BF@GSc^SSgsoAFP}OQF?CscxOiUT_IaOBQ__?HixPOp_gpyUg`]@HquGRNSKlPF?aa?Hec,False
~?@cIHKTSUB_uECkq@RoqHKDBKOgWZAGRxQmC_HSHw~E@P@gOI@cSAQm?_J{`qGmcDMcy_rng]j@@j?CwoS?S[MHm@DMRD@`@zNcPSIYrOBLQrmb?aIcAQJP?gSLTGTc[_VfEA?GFKwli_][JGg@__bZyUcc@J?dNKSQBibjXcDdwPwxHT?@eA_a[Io?WHC]QgGe~PLl@PICtCtPC?XbPdI]?GqX[GbANQXOj\gK?SsxAZ`Xr^dZOkEhI@W@we_\[pw@{qA|qcYKpbAZd]@R?R?]K_S?dQC@tKAEDd?rpnOQYtXNeIwKdSOMIXGc_KE[P_?KaErD@[dWM`APiCAUDCgH`_@dq\kBcdskDBsQGgZsloYG@Aq@?f|FUwX?n?WObEAKTFp[PGHPCaPVhLZoxgUtoheCLAGVTgxLT?r?kBGwDGQO`@@cmCOmKTERTU_adKTx?_]|U?LW~`UBHftDTV_eBEYOStagp_E^?{WQAGiAH?s`AbNQIczomWXHvAm^bT@imqbKRtk@?cHi_aR`CCob_eDUFAwT@gv_ALK^R?{sp_EvgPWAUu?FHSOAEMKJWVWYFpazJbzcoR@P??ST_JgK]DOpuWaLAgqAmBK?LaeDAYC[A_OK`|ACwiEoWO]oQBGcOw??xw?OdOCSSwG]_iE@DDbYGpqcQ[pDVPS`IOD`KBX@dH[eCKWau_Aiaaz_@hJDaJk@R`eqysJTzY}bE?XCgDOEFGWlAOTMW]XXkCSad@I_O@?Iq?CO[@NO@byiUHi@FTPKAUBHw?jAJPHBXJ@OTyo[?Jk?Rh?Bg}P_eoG?lXq@TpfhgKuS|[N?B,False
~?@cP~_vrc?|NaA_HkIeSNdX]sGHE?GcWJ[ZDAzCaO\TK\qmY__o[?Yk?B^?GyEgq_Ghxt{hXdAxWhGQUx]GNYe`hBYCu_GmGd`OmOIvGZLTXEG?@sLha@_D`rom?q`CwTEQh[qXewy@IRST`C[`exRMAFxpZrCGPB@pxojSN_gSY?MGIh_HIbBQUbR?AQSiSBKcSWHIQKcb?G\|co[Ngo@BmAHSDLBDZ_u?EYCK_ZoF?gC@Cgaq??T|qQaFM`rGaHylaHOTRqsdy?`m_wch]YR\FhWFpjEXu?E}dkWTPus_`wG[LfpIB?@]LhhzdJkw@`a?AOX@@alsgUwTbGUX?o_QG@ERXkOyWQ@DIZGc?dGNK{__qCP_TAKFIFQXblYSsDHDaGPDBogo`uSo?Qe`?KBUReCA_`ua_ag?Z@SpU@ttAI?QjYXok`_t@X@RS_h~WGN[waJj@HQ]?u`EPPEgQ|?ocSASPOezo[?ejx`@@BeAHBs?QDiOcxCN[B`{i_iCoEN?J~@]oAePGQhPHGsC@cvwDbBhxACW_B]mRAGB@IM_DEJvIHuuCmuw_eaBcnEcD?ZOdcFsb?`aPoK?GYAJ`Lsw?JBPoH?RopOV?BRCtT?hC_HpiRVQOKXZ___OK]yeT@OqK?vPqDUGo`eGiGu?@cy{BW@QhAqPYQO_kJWX@MgIUq`sKx`CDCUbyoC~`A@c?WrcAihUFMDDLYSP[foPKwxTA?@eQeqCDE\iM@GGum?IKVkoUVuNGKAOdtPOZCWUgbyD_OSJPO]roAO?jYlHD@``A?kh_FhwGPeaHK?HAK_R?O_QPR_U\FS_KRf?V,False
~?@cCoq@VcjGFi`Yj?WKNC_XO?EAk_EeGkvgPkMiCCPoHS@Moq_Ioy@dAcCs?C`?gp@@xE^cGo@`wJCOAQa_X?Inu_u`p@|SsGbMRg_PAL{OKBA|mWSr?IPIfnly`PznkUuAsv_?TcB|{Racg~KcCGMi{O~dKotG?\mLakk_@eBkE?y[LxECLW[ttIcD?`QOCC?cRuO?o[AYb^Uo?QF~IN?OmCI\?g_@G@Rm`BK^WsB\GC|_RIugK}X\ACEjWKQQ`OCok]?TItEPdO?|AC{GWLboXTlQebKLBX[RIy@ySSXwrUqKPc@o@p?Q@e{?v@aGUo_aRAcMChAMQS[Q@fE[I|_kIhHhgOMcE?mAC?KS`OAM__`jSE?[a~ID@FYJVLa?`ChcSkHKWGP@hS`NeOAlSzXiGIbjriJCUi?]Ngg`UHZd?_vJ?qLkL?wg?WlRQqDlPgXzeCsys?q}`SI?CHaaX?axdItL?G?w_caPiSfT?tqO`c@ykBhdPQ]aw@A]BTQuScToD[nL@WI]@glNCSpT`G?GCN\]Wc?amPWXr]`Yl{|DSMr@CoTB@kqoEP?GaJgjApRMWZORSoWW^DBGIcQP{hOGJ@AmBW_OBY`yfZAdqBAOaUIS@K{jSek?f@NAtYD^nahGxioyTOIFL@w?XWAAdL[aL\gOOeX@xXI@B`g_I[XZHW{v_dqNGTfpoc[RG[__OpcbiC`NOcCHLO?Ak@ITjBEG@aIoWM{?piIXIQcGFJ\l?Y?yTCC??TOGfgOCLC`A@@?bUdYcIOAO?BVPGKHkaVQDEsO\nAkPHaWD`MGghDODogDL|gQcgIAo`gQGB,False
~?@c@KgMA`}bSrUeTiA?KayPnimo?_CGhSI?mMGPljVdGQ_[QSUA_P}skZs{A[xB@t]Al]N?fzGC`_B^ODBwGiBxxXAzrL{oha`dreA`X?Y_QoaCGQ\n?`cWG@oy?bIqhNm[t~OYKg[EARWpGCAiGFRR_P\FY{?v}Up`U]U?H`TMdMQK?d??{_Dzo`Ig{M^^`aX?@tAERCt@iwkX?a`KZodKKBOOY??qXxOSQ`whPCdQWXxwCObSB?AfCuio?OACk~GOd@GZG_]Aw@[@?o{DmA[z?EZEQXVMhth{}GceqiUBAwh?KAin?B?AhC?CUZ]IgToK?SOBHDrmadcGC|NICcad?C`OCi{jUIbqpS`\VGgoyvMaOO@GvQA`HjecZwOhaBrDwK{`?QOA??aoOLwg?SGCNoDkpo^QiM?GM\VR@_]DsORQPi@]a?ow_yCHoXGcADADOAWcDSGEO?C]?KF@`TO[WD?c_o?AF~mZMHfBPuXpaSWOOoLEoXD?FOWQpO@omnYkSWKP|KbodOyOWS]OpKAcC?LK?`uOJMFRRq?_JjOPA?C@POBiOMgi{IQOg?QGzt??EI_HfXK@RjTdacQD]ladObIaMOcLzTtuEQE?MAE?yP@IOH@sc?BozxL\FWMCHa}Zs_{pSS_@UmXQ?rFKdQBZ[Ek|S]?o?SiiMaumbGQGENhorio?U?dWG@ws@Wk@ECEGYTaA]wWrSpcQA[?MRGf`EadBEGBCeOJZQLFAHF@UNFLUgjK\a@vWO@mdDDK@Ece?PVsWgP@yrYgNA@_DXUEvc\|]xgpSLg\@PdKJOAGlW@\G?@jGQcBQ`QOAk,False
~?@c?O_cKgG_tVgDo`\hgRJWB?@k?[KafqFlaEJ|DqSiwIkaeAawPOw[Muhq[OFDII?BOoGOP@P\ClSCISVWFvg`AQ`KR?OgEPGuEQjGK]A_?iXK@?}F_e_jAwYXslWADFkiaUAl\X@B_EIqK@j@estdEPgaoaeirh?R?{GPfodaRirkO}YQGecMITbG_T?IobMp?_J{o`d?a_Si[O]hAdRNysDaOrmS?k]NbB@HsRgeJupxwaHbFlid[scep`?Un@giC\hm?rJGK@I~g@FexXdie@F?l@KAzw?DJodbe?w`cCEPgH~A_GU`G@`scKgXCFDo@bQ`FCSYR@CaMGYm`_oSOAAB@iECRE{qKSmlCFAWIBSSnhrBa{_`bfxOuE_VmIOLPtcwD@[sTARF?jGgFaigY_EQWP_@CIC@l_IctC}CaSi_TPpAD_x@GIdgEg[XOemeOoejf\_IxiqQPwZgixHU@EQn`Soqi?~@_sS_FAIMP_`P[KkLEg@fQVWcWA?qjeAZjAwUg}YUHBtIaQ?\R?{BGsBXbGgaIhohoTI?eNYw|aPA@jQy?p?G?TsIsJ`gJMaDtkE?fAGGbHUHKQTQxsKhaChM@_YMLwK]BC@A[`xk@cHBQdG_r_LW_KaKvCGIAa_KIcCgNUwCpdah@NciKHCfEIau?Kay@??kqHu_@?DXkUi_EENKcQDXrDhF__s_EqbSWUPaGjGAcI`cAq?HpiWmFH`SalA_aOa?Zv?`\@XKEQSEIfDbeGJ@@O_KlC{CzCXM?U[SAAM@q^R`owLWiiLTPr\JGO?p??[NbSioYE??ulA_hXQggACvr`BVG,False
~?@cbBPLVC??qeJEb@f[kPjindoUMYag@E^{JHlZDwWdH?Ay@BTcPkQSQK{SHXqWNUOpGgAVFgoBxxIyXX}[Ik]g?wvES?yWWSNQIRMXcfG@``YYS_OlG[OCDv?S_sXDxaXnoPnFY?D?O?Os@EGzfo_Q`P[lC[CEU_F?uEWE?wrKgZSEk_vEFwHsRT[g`d^@kaLYj?lC`UhygNxDH_{oZiQiT?`ib@_@WA_GYvSCJkuZ@gpHftsa@A?@B_}QziPGoEITADcOjAHqnWOGE@Lx@HaWGSSsm\LceSB@P?kKg_AAiX@Q?ZoWC\Jpzi^qL_?oi_DWh{fLgbOpa{Y_HgP[fWROg?HWpWSREO?dG_g?O_?AOFygCIXD\GxQOL?|Yk?RqSc?KWiQ{GS]@YSWGA?dZUI@FqgmQxKCWsO@pxF`HaPHscBjAaQ|O\??QCoHO[HYYJn{?gYuGTQCoRp@G@`kO_[iRPCECCg_sdcdJAqOji?L?gh\HCEEJs?m]Io_?BSE?rIgONYxWEL`OFd_A?mLiIhcgIsIgXRO@XAa`cFw`y_BAyC{YfhGExDGQQ?saS?}hNsd_u_BzoNtQUaDWh@AI?c?jk?N[DCEO]CGIYKdHA]KSw|Y@FWQDiAma`XjHAAJlrKOojOdXQqeB@@grGjHTSwLHg?IIsGTOoPCq@sjhsgRTpGPy@C]qbG`?gzS?VkGSAgwKby_?ZK@?GetDuDpP@xfQ@\f_QATLhh_?WnOlC[K`DCn??|GaWl_TWhpBJ\ASRmlnL?gUl@?HOL?i@_g?HAhNLLZa`dhQxct|SAamAPcP_ESG_XV|oXOoIPQA,False
~?@c_hAk[qLCkezDBTiKbGCpQf@GOo?V^sY?ca@KNDReZJIDNEQqSeGI`ohIGI@wbA\Yxxua_K``xXNocL?[QI]UH@MOJBkAp[fw`UDkLosLTS@Q?\AYODX_RKsooqP`J@Gbf@ASybqGkIahEVj?MO@WFCxC}JVV@XLUOQSXhAa]BGDk`gHQaGahGySOhE?@kMdNODXk_eOdG~SrKQgCigFsu{cBl}cNRDphaR?\}_w_ChiS_uagGJAiCWBQDGPzc[k?gkHAOoKMBevcfIEXAb?OJiFA?`Dt@a_AcggBsTO_@qQC@`^|G?@?RBCDIwKfOAF_M?z_mA_u?A|wA[Kx?BnxCEkyQWpMGc[H?NsSxHRYiHV[Wx_n?\r?eq?A@QGd?poQfwA]DOX@a}GOK_BrDRqTgG_eAqmAJlQXB?`Ck?p?FH|P?GGRJqObBdRHSGAWjDlDoYCuecOw{IUMDC?CmQIA?COGibGkDOAFWi@i[oHkO`{Ke?R|CYASI?SGa?]mmhPwEAzK@G?oAWjdgFKPjoWeaooJSsFlGk{S@tsOWmMSQWODhW?g[H{__iOqOa@dVg?wjGMwa?EQFAOg^_aFQ?VDjqKTuJOGRH[[PfWMSSE?Wqc^PffHVRDAyL^xiUz@XlargE]\btaJhw?kClt`oIhEtz[mpbLoCKJObp?_H?@C@@IK?eIWWMaBCCHMuSgiZ__fRC~]HcNHqfxdJDcb]~evC_WdEyvh_JgOCACp@SUAEPA\?F`EJdA`ckI`YfZ?@DABbwpG?qoGsWidQGj@cF?GHS_F`K`A_AnqGy_OIgMaw@`BDO?OQQU`]qKP?,False
~?@cCn_ghSn?ZCogscihwDcFgTA`avx@El{BrsTKd^^Ax?gEDyol`AgCLc\I?Kt?GFGTcYm_\Gq?INPchO]BoOCQcrSyY?BAWB?jM_qJX_GjT??CAa?i~a_QBCc?ZW?KhgAGMOG@yP@P[DO_p_TIpwKg_UgQ{PIhNqGIS@L__COA}EcIad|gCAs?PHBX\za@cnWqGG_MHF`r{dY@RIsGdR?AClqOG?zg?_@@IIEB?orIuBy?LUW}c?CoTI[WiEFwYEbJIOu?CapAQ@H_OBDoFRA_OOwUtlP_]lZ?EOLjcSgYHmSA~Kw{pPOKBRcvuAGOmJGZ|c_QLGyi@WKO_edBmOhSgeqcQDO[?B@nL{`JNxQUtudQEoGj]`lAzam@pDaOgcaKKj?RSEC}u[cC?kBAb_S?\qsBeqRz_@q@yWEYKViexYCdblHCKiRCSaxq?IGZ_WxBACLXwAoPip@gQHiRGO\@m[dCKglaGH`KqxP@LcW?he^s?CqNJ@VbgPcDgCqpFossWMQGjqOcNCU[iNOakTIQh`GcsLXQdKOgMer_SPHD@?P?H?XEG[CBEl?@gZCOdHWFUggUGQ_GqmpxPF_QW|R{eapW?TLOe`TE_eECyFWepNhZ?i@GAC_XA_aK_GuUGovBOCJde@b`of`i_DgBv_AOGaXc?_B_?BWS]Ww@ZHfTCDQDxQq|`aEkBr_PT_Wni?LHQIpWm`GmCBXHiDcQBIAaQXgkOluLSCHlgrAMJB}OUzVHipgmO]MF^Uc{C??r`j[IhDHuTg@EA?K`NoXt?L[pCab|GDJwsWaE?tiPmboRSh_OBKMDwHA]GkBGz,False
~?@cAVEZiOCQ?b[QhDB?[eug?Np~j?L`\sqIpowWCxGB|SCEQOYS?GOcc@RSgiO?AKM`v?XRNQro@codZTMW@Gco??G\ABOBJp}orjoE[hbAXf}?N?UBIshJyqe@UqJcQTJK_n_EMZ[QOS~bcSIejb_gCBICgpc?pdQLvBN|dGXUHOLj?OEH?iG{DpSFAp??^o?kMeDPJgRCvdz@EKJKMcKEjH@\hgwDGH?_AIb~?oF_jzwKae?OYO?NDCZB?QFsMGh\}BRN@?rzXSINLkb?jYAPES@NKF`oVLCHEQ`IkAqpIZTQggoDCC_EqwGqhUUP??_AQ?hf@G?wVQac]uxVCIPy_`peZs`J^??_PWDHnCpI@O??FAVI?IA`GEDACa\A_fWu@q[AUKDcRY{Tl_bahhCO@XCOaOLCuYRO``OVDMPxQAeaXQmN`_SQ{noOpt?RWc}WwIUA_RW@IQDgqjcMAO?_@BdGA|tz?O`{NIKGCSPsi?iXGqAdsesjWR[jB?bW?N?iDa?QOOPMH{W_SR_VOPJuLKBOOeTFaG`hV?c?_[MQG`?q[Qc[afpN@s?QC[KJugJT@UF`tGsOlAloK?B?CCqIieBAPLOafkOq\|QOLKaBGs@@?m~CUdzWGCUauG?TEcLRHcGn@sDqU_daQJo[qD@MQQjrWdWwC?}JoorcN}ARCe`mVMOM@IgCt{x]AqAcPcQuEHnoUNGDo?WPP?Oi[TeF}GqCKoDgGsHqAUhtEkeEYYBQB`Iw\R\?ROab?eROwawi?O_J}`QgbAAC?XkZDGI`DQKBbamO_yOTolDSCrFKAWj`F??sDBC^c~ajV,False
~?@cE?@IIq?toHJt{Kw@GaI{G]?J`_@?@RB[`aNkUD?daCMpGGyB?Qi\AbixAJrGctp`WY@WKt@w@Uv@N`iWI@Xh}HAATkOU_DCLLDQnJQEsj@G?xCLHC@DFGKa_NI\KEd?EF]KDKEdRw?igCO\DGtT{i?nyqM~CG^[[Iocbah\?pRPAB\yO?LK?DSHy\|n@gHAoYoSkGT]GUlGQ{NISoEoI_CGh@@JUdkPeNsQAiiJYlveDqWm_FLje{cGDVAEWK]mkCg}sEkDcA?w\H@hB@?BO?M?UAM@Y_MM?EQnb}GyOzR?d?ROrpCCypOGjow?BjA@DuEkSEK??GHORCHc?h\CED_O?TICdN?\qHQ?kCBEZFc_^mOEIOB?aUD?NXqSA?qBeTbACpI[VoQB_QSNKg@BeX?Od?EKcncSDo^}aG`BqR@toMSrAFR^KaRFxWap_OJYbukG@dAbHiV`Y?P_SYAEXOL@AC`piUSxAyLl`oPnCyHLg?NAg_YbvBgxCqe@L_[[w?RauYR?xADThSA?pr^c|FCBK_wgteF^Civ@u?gAbD?QaII_@[IYwzE_NbXKhCkT`MLj_AqC@dqU@eSFAnHLcYHz]zK??_pCQ??PiHSW{ULOaoABeIcFMAO?kd`qaD_XP}khHGh`CLa@bGwcS`EU~QkI?pIK?hBaGa@KUEjarsIIFalC_gy??KCW?QCwJyRBVliW?GJPQ?XTGXR[De@CQzPK_lSbG`BOAX?aE`wQ]\?QCxPCIjNOGbPEWq?l\Iusw\h@YKWxphTHYlGwU_QVRUPAGQRCNOH@}uvaa_gUWkAzBaG?G@tG{BDne_,False
~?@ckK`TJ?`BnKBYEDx?BA@gOA{T`O_AQ`gmCGdDAOp?urhqK`\IAdYm{OPg@U_IbT@ccLoKQDM[?j_aTWa@P?OxIkP_FWDDeVGWMadDKOGSCw|cwda[@APJwkiIgfSPCjGoojOSDIVE]OBvWCHBYm_RWeG_?}QewEPYIF?bRDKsO?C@yCt^sdO`sojm?aAIYx|?yog@hG^daMUWsg?HcdcCsPeh|C?f@i\?z|IPoK[ATT[QCID`U_aj@KOXTlCAGtDAWAcp?SCaKPE@AUHTTtKCA{?AEJwGKyLWA?APh?kD[mBF@OOKcCTMGsFPvFVJf[f\O@ka_sAD]PPb@TtjcJBP?N?nCL__Zs_SJfF_?uDgCOQrf_wH`gETdcNWEOoQe?p?_a_okg\t~|_cAwA[mdsWM`M?AaIK@SsOEnuhP_PS@OVb\h?`GOdC@PxclSbS_QNZ??SVmGl?AwlSQEQR_RgAfeNJUAF@O_A_I@\QBsghiO{sAoIJWGHSkEQA@cWGiIB[d?Rw]nIDMKO_eSKJHHOEgcApoGCHjPNk?C}QqMDGxbWWwhcaiFWDtdPkHSOWmDGPy`?GgirRPaAEaPcCKvhf?B?GD?xieSGiBk\UGjesLoS@C?qE?b?O?xcGEwe_kKxXfHC?o`KhOjC_cr`?KsNiGqVI`kOkDXU_AAH{PQtIyRl@cxcUXSOh~pWTGEyHxTc\pWbg@jgR{k]SSc_GmAfUSXtmqGsF?d?IBN?|nEECkp_y|RuHp?sdZxgBRIDpIFuqWX{SB?YMQcf@?DLZEwHQO~rD@WRFeeoH?pXkpK|_rAkbXgCZPOIz@OWv@,False
~?@cGHoqEf_?ksSeKMOCM_K[O_TddxisW?Cb`av_O@h`@E?EIb}gK??qJ@jt?CgAIWOKZe~YG?L_CB_n]igCZx@PPo?I`DEUVAKOag@BowD\HQOWHOXG_eFLTK}z_PfyNuKugAK{oQ?QxvqwcknHAA?UdWS_eqAw^o?E?CGtQ^HMOWRA[eDbog@t`w@arATaqUt_?iKC?nMSEDC`LR_A?gT`D]hBPEo[eL`v@BIE?Go]xX@LQEo?pD\`rCXN[PI?wWhCD?Jigy`AHmJ_?\o_BHnr~`N}jwqFUwFAC@xapCGo~YIJams\CPKdQYp{rOocgK@`IJ?I[ObWndqMcGwO?`RB\AG_iSOmEfI?YCGhCcRlO?CU?OAGLNG~BQYbc?c_@WKTB`PrW{KUwpsx@MOKbH@MSpmYhk@Va_wowOPIXIGqK@_R_Cd_@mdBq]Hofo@uIE?{muG|L@OnIlDw[w?~VHqhgKpHFHi?@ISH_eQBsr[SJ|gEWAu}d]dccG?biZuvrWjfc{TChTAlSTL?AaqgQYhouOGS}[@Ja@gODAPAEKyHaDDctHQJTbuNqXO_G\A??GP|\yy`E}JpLd@FHOggh`FOxkQXd?i[@eI?]XeqL?B@xsMAC?T{g_aPN?sCChRErEDHac@MCCvSWi?ogEAzdACZAIOTOMAAOaC?ooCQ}wat`WgAfwpaqciE`HppObKJYMruaSc@XAAkOqIxaGW_C?SD|KWHCGC]G[a_MXv?Dg_EYgqNOaBGkGWS_a|@gGKqGwcoQ?{`gLJ_WMVhsgwABq@EyDaWn_haQOohpE[S?_GcW`R`\A[dOCBV]\FQP,False
~?@caa~_AGAE}HaOq`?gy?IpvKYUp?WpCYdPOgBqCq?bGsc`wpBg{ReWPoikj?bDOF[|G?icSw?cWfiETsoADBGHaJoOcGaUQK@gQQ?bFyabRghab?[_cs|?irm`DWCRUqMwh`UjDSzQ]_@?ZmAMs@KaIHFYHM?FCka?gKGSOqWp]AKMGJpNgnbej_`w[O_mtBhSAaPxEXH~[?YxeLb_oMq_DH_UWoFamGtZZ?Ll?`oUFrxEhtwpckFUTNpEch_GAw\aUAgSO`QWpE_BGVkHqoO?nVCL|_TDBDgRSEHIpMbgqOabeC@?TAUASqNCe^qH@[LJKTShOyj@`DMqASTYp]\?VNMcCBCNsX_Ou?EnRWXBw@FFLkc_HOIodli?f@hjODdbPyEIGkoCSCogKMvC{kaAypbASSEE?oUQZQe~aoBEOJLiwG[sq\kHsCjC?`BSPrAoM?_DoD@d?H@OH~?A}W?AbDH[aOMJA@@Gh`BEGY_CQOE@A_RO@Qop?RFXFhaFUxO\jJx`\EoO?DEXGE_hcD]axOoQNkOzzcOGTc`FWG`y_EQGPc?@IKh??CTIueqQ`@o@_BS@K@EcC}Hw[RMtu_S_KQLOTp_bIB}?WOH?oSJo_k?dEWsI?pZUSkPEgpqqBmjBj?__x[c?smzaO?CoAOqPHovq_pR_hojysFCC[?_CZXF?AEBGG~zSr`IAxZLCCHVRO?CdY~`ETAXKcaaEKeQFLI_@RFCCjWoCMzc\qO?TwN?@]yPqDpSODAhdtOEhpLAiaCK{KjAcJE`bD@woMe?C_YP\pw_QX@IwsRGR_E{Zq[a`]F?Ppy@YAuzEh,False
~?@c`iaYoFa]gsa@R{iAA_?ZAdiGr?kQ?Cw`oCIJH_KglSWXSW`wacvPNJCH[AdgCkL[m\kCaIoLxDkCBfPCj?O?@GIjJAOFsLBG_cWSifQlkFi?YUIskgixEXyC`A_HdrAhjBTb][OIE?YCHboKOcdvhgWhMtIOMBCGX[UbD^_t`S@_i`pRaSs`l`??QCeRwTz@EokSibN|V?HKuAHJ?@AA?k_DsD@SlE~Bc_^tid?@O?`qQx]QeytA\soFGEwKGo~`_`[LACGNGoeOCT\|a_?gdgKU]SqFOYi?\BIEgOaQXySSiooRbBALiBXcG[?NSI@nGlDoLKS@GEIWLsbSXV?hKgd@iG\pYBGcGeGxOEM[Aiqjt?hwkO@wTQ@\s_DKxyd`G\YXVpvRCZa_oRYdcfmafGE\XjEQL`icr_DCeR?qYMEAJTE?S@AI`vYUWmqTI@OGiPJhQIwfpWKcKTXttg`GFm?_@?h?MG`GCM@GgI@SGcMkxOosJm?I{?LugGaZOP?A`KAaoCCQOkcYwsiYcMcvhfbWLC?vUb[v?OEa_UJrshU_wUom[?WS@RLNEQmm_`y?@qH?pAk?BBq}KpDpUN?ck~dGcCuCQ^HkGDG?gU?gC?IJqWhOP?NfIQqdhBwaXH|}E?]`p?WS?_iPOljObHEgBVoSo?zhRRjefKGLB|ixWcOJRDWb?Y`{M`OGAk_U[gIkY?IKqjAw?WQAtdO@hGBoBsg?Hfts[hRCGaqAGOh?y@Jd?UPTmIGPCCCBAqOZ??og@OKtQgfS?Iat_AL@OnXu?XEQETIWwk|EHCK_dlAgwDFXm]HCpC_I}OgIg,False
~?@cCam?kAu?h_E@NG_?X@d_aTS[T_?``sW?cOKzX`AXVmbIQX^m\|{b?WD`lBQOPABDdFwSlFPgLXDCakYdCiJwU@P_F{qHjckVQCVPOIhl~K@cBOwg?vKGWNST\DgDGWhO?HAyLBrcypWZfaB?_CFyEMWZAxApx?aPdOQAgKTU?WtUT[}HFKOpe@HBPZj@ctiCphAoHz@AXhLJG_DWN__BIebOQ_F?Jq?[X^[KmPXh}W[Vy@Y{_O{`GKX?PIfpAYccTII[B?@Ge_@@Lf{EymEZKbh_GqQ\Y@L_@IKu[khGH?v?KXaZEvSpBfO_JpQRaqYNT\IO[wKKEC_XY[Hhan?gg_IxWpHjM?]I`]OwIXGs[DfkoUHoAL?aYCDNRGt\FsGGp_ffDNAj\DBqM`dXTg^HLPLdPOEEIUM?`th|drqYYEY@G_M?O@MWEhXAWwaK_LITIpT^hTHADlj??WCGoJKFcRCug`OBANWWO`QdTCFF?CPcDGLUGaBPgxWBa`AQB_LRWui{KH_hc[UWSmJ?`aHCoA@CwjGS@H]?B`fsjGNfS?Jrs_CCyzLpNEFD@@uDoC[IIADMAPKGGaMGVaP[gdOVYf\CbO]D??T?dHLeL_nD@`CGTO[AiBag@OkADe_kNH_OGShAEFrCCIPo_qWoOyS@CF[Ug@@mY@_SRsAD?ILs}[GXd\@cCCKe{[K?C_?w{ioCOdb?KSKqlkrGBZGcp`AUS^akOeZ|_YDcaHVSOC}?CSoGkBwWDZ?ZUDA_`uIbMLCKrZ?[WdkU_W?WW[\RLRKD?e@MDAH?M?cOOX_}MeViC_]hAiB?OpkgCHFXg,False
~?@clId@fh`O`gHi@mRQxuHakCORYLWKOiAAr}HdDAV[AGEow@olb_I`Hchw]paNT~l?CSB_HHZSgrE?_AazwCOggFiuGKwftsXKeSBhH}YCEzHZQWF~UAK?C@piCwKChiKZr|ZtbIGLolO?PLsnQ]K_JEK?KPgaigizCTe_d@Eh`TGT?sB`E?Rj@gR|W@KjQFEI?Sssy`OHjTLSr\?[GcAkfc@GaMO`MDe?EPOtoZRL??HRKk}sVa?@BIbyHh`_clyJIOhAa`GuCakUKOCocUQnnr[c?`]tzkvG?@_dOI{zQGOUpY`X?BCGCdi@GkgiSW|@XXWUAMBGoUH^KAXAjWcQXclHAUbBA?WDICKLO}N[WBQYC|W_gO_?@CYMJGK{oOksXajGKphko@Wcm|?sYACBCqTN@SQC_JrqLfhQ_A`?YbcSaLWpO`QsCOEDI@CoSAY{AGL`Pi@W_GQCHCcpI?eDOdO\fEJ?wq?wsT@sDi`\Aacw_sO{QwQu]Ngo?gDfMokePTcr_?@aBd_wwYwP?mpY`@nYNOHZw_[JB?@Qbdah\HkQhy{FGqHy_GahEWG@qDQaAQ_cNiH?\Sabv@pW?]W@?DGiEEqjB@j{_?s][BT`Ic@@_xWmCwEdObj`zGw?I?oe??OGC~QH{PdbJoHfG?z??CnG?`oAlOc_w?N?ga@FGmO?Qy[H_GxeHM?gItpuJDwpbGc@xjDPCTKCpbGdCCDqPwpIBifoPF^{_DwRxUYQ_KDK{GOL?_JqsdBJj?UGs`[NQWbgnSGgmEJWHh[jfJGDJKkCbQFpIbeYs?E@`pq`GpO[QiCsw?J?\cg_S,False
~?@cbyj}@lgPCJcSSOdOICe_EoIye`xSQm@Ke`[gyS[rR_\K[AqAXRUbhqRaQPoS_{@BH}LkEAdhIfCeSe{iTTQ|DCQyX}O_ggSOk|wEH@TMaADWnHeBtCLIS_EuTsA@gQfbOBd@c\yO?DVQPKPpOHUFcXOk|_[OAQtzIXWG?UDGTEeC?{[\WWCo_KXAiJgWSr@`EACCHQiBw?HQqdu`r_zm?CS{F}SASaeaeHWWAGWO]_YBWh~?AQ_Y\?GDG_JUqpQ]@XYP}FK?qGHC?cNGHCOGb?^PCWgHTeWc?JoO?}?TGqUSFGEcHc_R[`NgIpMEgiSOC\WwOoGFZLfrmQV\oBV@sQOYXW]SkaCtaIGl`omak]ykWowOlf`BIso_ZsXcGQ?G`bQiqO?QIHeh{OOAWO@_Oe?Hb_lC_rn_Shb\~@iePayDJMHpEP@GMqbVrgX@SHLBXUkVobdCCGpSI_rhO\gIBoB`_mqMZIR`HHciGasnbAyop?GIdGAFm`IYzAghX`nPdE`tIp|jSEXbIr_ggDXG|VsoCGdFVSBpcGbggWNGSaCKqg?i]ACPGU?aa`mSeSCvQ_cmNHBTnWIJBODQAsbMP`?HfDAD[i@QR\G?eQCqRSVOD?mUopMG?hPqgsQCOK^sOpK\tWQmGcI?YQ?bF_rA]G?H{\[O?GAah@k_ped@UBkqK{q?dIG?LPixJAIXXJGLCO{[QPdRtc???ACXa@EAKMGB@\WWT{IRd_BrG@XQkogRaoZ]XCDU@_OBPURoyflLG_a[qeAAGN?WKl]KCDh?ysj`W@dx`?E@|WG?@pqOp@H_G?OOGI`NH`rkO,False
~?@c^?RUR?OPAgpyNOPG`Wad_I`Ap?C?_lAHLwcOBJcaVs\oaHpjLE|qhDGc_HW?Wary{?kwHcAoSITuA`VPA^O@|G{E?{TjT{G?`cIa_gIc@KEc_yBP_MiIHT@CYN?WD@?Zd@q`?gTfb?a?e?Ol_qHShA[ceDo_CEdIT?Oaj?GSLh_pcGO`HnUa{xa?[AwOHZ@AGHF`ndMkWCHxMJU?SfBul?YWVsLaA[pRRVLiE?HUGgqXaC[aF@hmqdrTpW?KoC\MuL?GPp?s??ScTUtCn_K_|p@?HFcPHyOBiBBad\eQiAHuQ[_t@OcFUpdtMBmFLrBAGD?CbsdaX?C_sEe}OMUgW`gA}UCXq_STL@?W?S?etGb@hNY[TOXRaBSxKD_u?gWlWky_WDmY_ab@?`oDIKKJOAw[UXCvIirYpz_c~WLsGFgCa@?G?IOGWKb[dAe_FLJR_R_IE?aLqcjPTwkChRPSve@}ToBu@ZZq@CuY?k^?g?T_@e{IMXFaGGCIW\XO?Z`GC\pGQ?NUVQ@cOe@GRgDoDBHXZ`XNfscjoZOSVao`BtODZ?aQhwu`iGuTKqCIAV]EKZFJ?JRa]lmOKKw_\PwoqESiNEEq@OJasOUAGS@RIIGvKPaGANDV^?`WG[C_{rPhaJE@q^_@jKTS@X[sJSE`VDuoXEf@kfFNbr?gZHwuDDlrwVHkXIcDcpqZZyWTeCGTCQ@b{?DBX_CsOP[JKdLlAdEFC@P[?CBCWXQozcEVP@aAO_?VAD?w?LpDOPL?aGH?d{B[cAkGqAwGlFlhlaCAmK`R@]aDXVxE??eVQLDRQoNovOVERC|}ssB??,False
~?@c[IE`@BPJkKIWOpI?V@XsQgzc}Est?LKNoqOs@?pC`Bx?jb?QS`FSpqDgIr@p\]?@O_ADG`qhbtwc?SjLDjEKJhG@AOJRpX?OGQXH}Ak_?a@aOc`q?|g@ot?IcLOZ^wxoiWEJlG^CLgII[oHX`h?ASC@OF_aEAlTC?\sMa_mwsquGO?ZBboskY[bkWHXw[Bs\@~hIUDHhX@QMFmD?SuZOYDgt`rM?nIZLhbSa@hBG?@fd{_?GwhTk_d?`Wk?GYTRwOO{ZtLE_OEmQG@IEHHJM`HC_PBamPbo_^CvKasOtO?aCBpGc_c~gOCA@EBeCaQqCtWETK\DmGMhMIW?XHAwDOh[cW`_HPT?cXHwJDdRYCtE?eDAUiupO?@GFsC\F`O?hcO?j?xBeRqsof@nLATKJiS?Mr^SPG^tok`c?[bdrY_ToccbK?Hz}mFs@BO?TTm|ehGdOe?l_PDbXorhRsDoAnFz^uDHkF?QZ}gZTKxcWDnxJxdQKTePd`QShKHBoD\YAe\``hWgR?mE_kABmAl}??aZCEqFkuKgSeOtwkhAfjmAqBBDC|UGGEEOk?HuFvYn{?nXAb_kD?[t_I?OrRAS@Sp[ZRDI]HCIPLs@uOPGjIB__dH~pjDfW?pTSGhW@BCc`?XJfI?ETphroSAdZGT?ZDvVpWCXOq?SyY@oPS?FhmpJ_AA??Koy_Ag[CTjPAPCgO?MCPCLDx`IApAmSqEj[HgogW`g?@\Udws`E_JckHpfP_RSEPcMbtqH~BBH[[ADcgwOOGHcJqA@oCiO??AePO_dKBh?SKvjAEGg`hKAQ_?SyQmFfY@h?Be?CKA,False
~?@cHOmxo???OtpIW\BA?[rakXIKWGdA_AQRYFgtMDOfxHDpwcsT|tgl_GcsHOGW_@a]yiFq_dl`_?`_oMMY?VmOAdOIFGLWc@EYCCzRZI?@KaHl_D_a@sIOIFfMtk|\Dqc_IaegSSAE?yx?HCIKEIDUK?P?DWeJZS_Bg}hl?qppodACCIaI?J\OB@Wr{DM?goGGga?TDLd^LHGW_^Q~AJRD}GdUSKKb_cy_LlH{PXy@qFt_KQAF{W}?CQwGyslwt?Qkg?iqLxpfb?\wYeIAIGgooCeHb?AK]cDnwoB?pPOUK}RipCQ@TgyeM`PJob`}@TekCEwuW?VkMK\]JigOOS@PKFuGaOcAOJC`?kGZdGr[GefwOrbACDDeOc[BC{@[dg?GWshRF_AINGCc`?BhlPKp?AsWAB`A?Ca_IAEA[bCxmVCkMTtAGJ?[K\AWsgj_T[KkA]mqVSP@HFMBEgP_kM`p`BdOSkEI_hmGAAPK_HIIaAH??QNHcsiKEMAgx?]iuWF_ACP}GhHqkrIlc`hJOHhWQGA`\YHM~yVfxIRh]c|QAeAW`To?O@XfWBoE?GzSthUQENk`aCb[@swZEKdiWOK?eQD}@`QFcGa{HeH?LzJK_C^fFC\CpDARE?[SWT}`ckAcvbBlFd@OgFugYF?T?EFyG@nGPPbCJb@cCrIWR?kBApU?@myI[ECFxt@OFHWGY?EAGCAKLOHhocRRxkHwIfq@PGRXCwBqS`K?SOX[IDKIsWCwYYkMw`lA@@@RwX?p|wGaHxpEX{bGK^yujh\]tw_OOSG@aAR@GPU`_HWDhZDIW_a^[y\O?ZHu?eoKk,False
~?@caHEMTo\DiwUM_GEG_Ze{tte`_SZO{sI_GyHHHm_D`FkeGdIa~UW[VU?{Kdox]}eClPb?NC}jaGn{HKSH_dAq`saCmawOzdx[@U_O|?YZA[JgGG??ZH`DBEwrEjRAAT\?sAW@@AxG_MQTBdS@egI?pP?O@BAYEl`{ABlBaoyoYeqAaCqonZQAfbGIu@_ou_AdPMDGAPh@vTc`@adDOVG?\KpG@O?KGCH@I?M_auq]bC[cELoDGAcHUozdT?aySJ`]QKACAKjUDAOHODdBSGGY?I\i[@APCD?r@XIq|?RLAS|h]OHpBRARbqDaQX\OSW@iNZcCGqDaEJ?kQWQ_dDG`GLSI@jXM{{JYzeua_KOnLFMwt@H_C@soSDoI?TXV[wCPPY?JAXw{H}oaY_yJxHQ?_tfKb?JKCoIW?wAU@Hk]MCArWCCPRQh]RDfI\fL?EBQXty@_xn@?gZLW_l\HG?HCH@RB_GcQ]pcXCFT}M@CQ@H_?Bm]ycO[ZOZBOT_DFcJWr\AaBeQwOT[XgEVMboWNSDJLhXe~qAJ_BykSHlb{Kqnj`WiE_yO?|`?KOI?GgH[PL}psGGP@BU__r_OhGsTSG_aWHd@OGjpdAHeM@K@DDIIMr@ZG@{GFh@UCeQS`oA_^UYsXOMQLRu^CeDGY?`jWCq?pB?BMGzTdSxGAgLO[jgO@BSA_DbGcJAt{lMIW}CYm?YtsZe`DCw?CilFeVGXU?|BqHDC?gfG?gCQaxBOG`srAoP\FE\AirsCI?QEV[Pf?^B?pWaDWoQ?gXeAIa]PANA`ewXS?xP?SSE_PKTq?Lgex@EpeBPS^HHTQT`,False
~?@c@JGQAd?eH_P?g]w}J`EBwSWzBWgOIR@SdSOW_`OkqIifrTO|?CoCSlUu?a{UelMEHbo_GrWS_hOKpSdZcD@BO`Ba[Bjk[ZoKdiFp~jSy?N_hJQmCK_tBOfHF@SXJckpFWg?DYF`DPr{uzg]HoDODmcAhyA]Agq@Gg}WEBO?gWolzALBHhOBIB?nmCRAe?@IkXA?W_ZadIqg?]KNHOq~LigzSC?S_@gmL@TGXNV_E`JO@?gIJH_JopP?RA@l[G}S]AhoEpgb_D|@OzuQgiB{cc?jOAKEPOBMgchhSCIC?oLaUwb|I[ODQ?OTm`EcA_BPoujWFTiP_TD\iTrDK\KDS@tR_QKIKOObVqRxOPtmO@PTC^WuRq`QBa{neCx_xpGtECSR@aFHWQH`UhMdAg\rHEtM?_DQ_SIy@JcYBuVCCI]?h|o?uIiRO_E?ayGqIWROBOOGqAPhotB[mMJPGooSE_hq@??I`YQ}@mGoKjPdAxRk@ngHdMqOxS@@`wJHU_@T?QCIaGIGb`AEJg[Ho]A}AGca_gOJgi?bbo?QcxOoFUmg_sHDYOCUG_xeLiQWGkd]m\CcEYOazEgzaXfOQo?CDPO?Qf@XjOKENRigud@XSzGaGcMfIA?AWgKCa`CJO@S?z\|?Q[GU@OoMBwdx@iHXis\H\CQ@dRWcciG`YOLODABIBHlGQE]FfIeHEYH{Pr?@KEXaB?_m]@igshDMXA?o@?AGxGwDHow[@WJoGsGaY^^@JCtFWB[}[gQmonTwULThhaON[KlrtXOYl__RPUEIOOYgNS][BgIa`Sg?Bq__g@wROXSbq@AD\c@DO{,False
~?@ck[PYOAuGCYp?BkD]egEAZh[Osf_PPOgP`kO_oli]B@Wgt[CBWdkeTgaS`HZy?v[BHOMH@ph{KAPk?TktQ?AZT}VGG{jYG@ocOs_WxMdx?pvgA?GpCqtF{YOOeGGA^Q[FA{iXO?EOMaC?uTqI_feH]yDcnS^gn@R`CH^XRGCgM?HbCkLiiUFRQgWcoiG_zgMk`_L@i`CpjIOC]DiDZl`hGRyZizXVtKBJsk?__J]Pg@Y?hE?PUkEDCWT_`eeODA@??DCQdV_GDyMe__?EOuoo@Y\BqBDp?D_qJvRCPe@Gkr?Z_cuXN~GArFeT?koW[Jq{[?RSE?iC?Hb^hCnHMHKq@GbjBGq`IBlH??XGU[O?T`@kKEYG_B^FBakwWOacTK`sPWrccA^rT?OeKh\QkD@M]DU?POebnSZPIyW?IEP@G{Oib]POEIlLfWmJTOGIskLPqU@pbjbRP_g_TaISBOSoGW@r}YhGbtYwSLCBA@_BNXwAdqOIH?BQWo[aPgZpg_ASS{EDqkRigG`}TM@MBxL`DtG~QAg@kCHgWLVpSWAHBbgBAOCGqHAeuD{@obLCPOwA?gd@YRB?A?`ekGDVZQGaydqFKS`AhY`_@IDgI?KuJgoelGr?JJcJUDpBv`oEuQH`@USG?sU?daOL@uyp@EJyzXEsMH??SfUkgEGctkw?XU}bGQ?IUY??PJF@JPXA_aMU_G[DEc]_HZ}gLF]?EXuQ{nk{W``fiF@Ul]CU?AEpoDAQWoQpEY_sAwgKeTCOQcGjKAd?kgSkbQ_Eoi]mBp~pPGS`PL?qaYTAHKh?OOLcGOP?_VWmmTE?UOH_G,False
~?@ckPck^_CscAqAP|pDIIl?aVEOqRAm@?A?OvQGD?`hLYUAcN?eAMcHm?dqFD`pyJA?TiBH??h@YgoW?s?c^_ayKtvB\OeFWERt[DAwc_ObBBOtoRB?\fx?go`CIdWg\DsNVy@KngSjnO_nADtgcPoMLQsUs`IHEAhwGBKYOBTGOdmaGtgaMbD@^SFOH`IcTecoCWK{Tw{|LgDD?fTQhD_G_??YxCHq?GDSHt_dHELg_BcPKQTYDFC?Ae@]zkSpu\`Fk?PWADC?|R]bMBOKwHq[vPniEsKslKfin@oCLJOhJUYx@PdKSFO_O@OEGRC@VbmNCs_MpL_Ti@OybuPlWsGAkNC_tkXY@WWG\oOdWaQS]kcLD?hC?@Bhu\SEsIfs`OjDcmyLgeSALbcpEgm?DC@_wQ{KfigMc?D?YW@?KJQOIqQS}FNPOO?u\npKGKCkRveOx?@Pc\OWVXCniZgJGvKDaGKF@IZPeOz|]Cs?SIPIMqQ?P?D|od?I`i_A@wekIJQrBvGwCICWAKQSCzc_ifrooo`A?Xn[hOGEWh@FbRCkaQAeaBjAN|CvWL_q@?ABHyiQbVoCBSSEjIAQTtAMTIQwCC\oA_KPOd`WHfCDAPqdO|A?IogC_o@??Ob?AsAIAI@_ZOGdISQTRWQ[kCcAk_C|XXkD[RqElACMZKG[@YlUD[BPWZWxWCvLcIh[QYawv@pt@gb?wTQjIGO`OuSSBAcmEumCQo{ROfE{^cAKEPsrA?sG?`lAJoD?M_I@Je^GNBIwoCoYHCYF?WaJ_RIieSBqeq`avOCWY}OH?iBJBj]GeSp_cZ?`QdWRR{GH\,False
~?@ccG@oHUB@pDGJ}@V[DqPcHFQA`V@Wp`SoIx?apWZ`GPYOGQPuaCTFkP_s_z`J\OIsrrjB?@_aPkhWR?h?sT`FObW_`CagLbeGCr?kozSB|VCyH`_I[J^GCL?EgKPduYfv`AXzPOGoYJAKdK]H?rWFsSJz[Ip`kfv_ul_]Em@?goDdK\NG[iG}`K\Y@rRTMyoCQK~?Iq^[WOXc\ASg?QlO@jkKAUZgkxA|OS?E?@P?OXHYSiB@AUIgFHAOex_lLPCCO?UGVK?ur{lPfyOk`K@nCmCKE?p{bAicaAFEjt|J_ZWGUUBaRsk]GWSOW[IEcWKUEKHC_V?k?qCrGOHPkwLJSubWfiFUkbYa_wvCbmVYbOHJJX?@F_KMKVDDqh@Po_?rKcWGzMbmETbo[_{DRkGCgkx@MGCR?AKCSs]F@c?O@wXSY`_QQRHCq?Rso@_TQIC@YSWRVom?P_L@QjF@_DOAhKIGS`mO?\?||i\@aGKiwb`VKHoYo?J?vfjkOayUCECKh`XA}{{GPN]aOnh}Sqn?GpcpBpb?waWUI?tQMjQ^Q?YcGLsS@?IG@Wyxo_W?A@?GHkbA?PPig}?MEHQJQZWDJs_qhig`_aHCOIQDjpOL?TQGI`C@BKAHH`RaK}UsTC\bOue@V[\[@AAI?iYGGa?xWa?BaCCGq_uGtLOYe?GOq__@cCSTUXiOKEAwoEcBki?OPIDB|k{rCjAATjHqWUJPlQoJ[GuPuAWoHZYqOWIh|?OS?FwW`K_voJG?BFKiIWcHLjQiieI^@s@{?^K[taYlC@lKO~bAiq\CJGTHAHOWqgQ?Iob?gbhnfINoI,False
~?@cKgEaCAbkAOU@?@_QLXMqLsAGqNQRajo?Aj{s?AuJDE@?kH@EsmS?`pasL?EU\EOS?PBOnA_NX@[iGRDE[qPiqEI_HW?AqGg??kfORCLjN_xDtKCSYCgPu_?Opn{?HI`O@?CGA@CuQGSUJwFan_t~nD_LPdQzGj@A?aKcoYJOEKa@[GPdPoU`x`Hto?M}?KZK\CI_?\dDiX_oTgI`xSH{ppMGUQ@?CWODhoLPdL]?MOEzpD@OXQ?g@ANP`tDEzqZbDbUj}GAxYuK@U_M_ToVCG_?`CGHonTdqCA[_tGTA@QweBMZeoAHxXRUwiM@?ibSfWoDo\CcJw?TM_DFPCHCAfmoupZMjr@bUxaOGR_AGGB@BjHgDGzBG_f@HrfjWSJePPc_`?wCoBCvKrSIBYEBOarCKAwPIeKh\cJKAWgy@OJKCRMBIACkIYA_yXL@VJsEDQDgKk\GAaWaN[I_@TyWSkqNfR?kXjHCCDaABFGF_EZmSRNRiGBYRrhWOO`cHHgPACMZCYkK?dKcQQBbAO@WABw]pCCPUQVtBlCOD]QFhA`PwcLpWcIJUKICD?dkKHL@WX]@?l|OfPjSAFg@|psZ{Bc@Eo@iWQrWzOhM`ehORAaU@qZsO?JODacHQDfGYgxNzwYK}Ai|A]ESoW`GUMC_tiJWLEaP@tdPY?`rraLQcUDPgcESLH?OSbCuOdWNBKOBcdrp@sro?QfSoKwIctgTi[XTyVUyKlEkh@bY?XIcS?hfOFXCjBiWU?@B_bfDG[W{FbQg?@?MGxZWQt|rUG_Q?U{tYiI\CGSjKQUAsNLdEu?U@AhHkGtaqBCv_S,False
~?@cJPgQiew\MjEoAUWqnY_GxsLKH?HPIgY[??KDfqEOq]QDCvHwMWtZ@_DAqGjCOcWfHDCW@n~B_YxWW|GcQXGBxm?AIyHOhbChMZaAaOUX@`wIo][RYXhKAbKsrD[bAUC?EsoDSF?`O_LWO``S?vWUGPAA]dLx?NIkM\OEEOHCnYAO@Js?l\{?WGpPRAyQ|Br^Dk_U_BQyD?o]ACiMphP{GFbqGjCh?|Ot{WISI`TAuWi{WpQa_\DC|}_RH??QSAOoA@]@vskN_vHMQ]PlYdhLHKq`J`gGCTtGSErdhAF_GA\UEsWpkL_PcFCTZMRIw_WWgGQ_}Iv??OhCMG?{SOXr`efkAiOEQ@WCeQALNGXcSDjqQEb{@gokXcA_NW\C}JCo_cnqqEVf]SyORnAPScm~\xOPUERO_SogOWY?QOOD_FYhJWPuTa?Vr_?ROaItHibVR_IUJFSEUg?jwK?U_JOPGMdLJKG`qcGXoBOx_\WFc?yQqo?_?CPAABOV@bcjCOcehIkwq?XDiCBa@VG?]GkeG[KoQyujdCQHhchgHlKC?b?sCHc@DIHBvQ@GME{_DRGAE?wkI@USgtANUGAB_F_grLAMJBB_`tJ?GtYAX_`?`Vuca?ZRGKHUODIQDOQ`dWIWXgGWQ@_PW@R[beM__\vQq|_piq@{gi\XPeDTF@_hxCEIcdqdHcEb_EH@UKEIpz?mxw_BXKGxY[FegpPbL?IsOBNFaCsP?{QJiG_[Jx??h@cASu[@W@WKDsC[TDxPJI_d]HYe@lL?I_j[pBkJAiIdgDN{PGeMW}IUeE@OAYY?G?GGq{?bPfGHxSmUD,False
~?@cMDoTq__sVO]AHIvByPBePOysFOXKzRQzAXeKJkIC`rggE[@r?pM?KRRKeKDBP[FUSy@XYbQCKAo~cDQX?lhohFTwZMdDGpAsSadbhG~V?zEBGgDesGH`?A{SH?Q[hBHFs@_tbRDc_aiV{nGGO_`I_wXQp|GJcGoHn_@eMOHEPGP@JwxcGcq@UHWGIe`TIo?@oaz`?AOLFUejc@ESP\qo@\`KG`_e_Whwa_Iw?MCHWB_@HbOl?NjjDB\^WbSafcWiAwzrpWe@?jHp?SQJVagWFAJVPo?CYUW_GUIC[NcNCq@C@OhSiM]\YYRW??@ycIWgYkDJiEv?L@Cbo{?@fSqK[G?bcD`CCXOmG]?T^?lAAjH{WKhA[oCPOM_PWreTk?sZQ_?hICD{Z?@w^iHI`zsxOQsPAeOkIGmFY]iVv?FWCOjAx_OFb?Z@ZAWamIWgQjZSXON?`ve?CBhxMdD@F_OvS?wmPlN?skWIG`O[Cjw``pjO_hdEQh@S_?Oq|e[?pSJs@l?^@rNIG_?q?u`ATrHkSA`IhEsBZE_ngJ\@XABaA_bfKPClG_oQJ?kgH_mSKgAsWrAE@ROOGCKN?dkjAmW`WcIOKg_JJ`?D{qHGOG[sMUB@PraOYB_RbBMC@_SEtafWWx}c?@SiD?WpVwiIyHAO_?pZd_?i`@bEUqSWHJWHpIxAXOLeACQNsC?efKiiWGxbbleWKyAKgM?jpGpg??SAK@@`ycOCuO?cpGKdV^AhsKoUJ?tKIdCG@bip[QHLgXks?DB_g@@VvkA|~U@ewKBOhCwQiepH?HHBxZn]QKy_]HlluBCBFYNgMT`Jh,False
~?@cj[ZKOI|_G[ELsLDOL?Wpqsb_cOGIpEXZvoACTS[GqOdAHNPKC??\EIo@nCs[pvEROgUQee@Ec|G@rG_bG??mFBWQCWPo?u@GzBDNSYMyWnVzwHFJuVW^OAQSgC@Ul{YE?ZAwC{YZIxuEWIBBksW`OuE@PaIg?A?F?qQhI_O|@?dCXE?acta`JBAbKPS?@SoT_@qDFzIqpGy[IDxBLa?B|x_mRqfEo[D@WQKxBO`JwadkYqHQ@Y[smjsQLIR]bBRfS`OAkcCC\\cAiGdOfSC?KOQFqImsdGF{a|qtASAgjTQUG@_yMAKOPlQRoWSKCjEqbaPEQkNSSoSPdY|AJIzHSKgzBpPHBU?GOMQ?OFH[`xQ?mkixMTGSoVGIMD@?yo@UTFOOW{POJLcVtQQJ@{[SN@h@tAEmkItiUtGI?Li@?InAj[SKuSla?H\WY@AAMP_uERDWS?CplJBU__powoGFQ@u\C?fG_G}?__T?@cdWBUGHwD\GpGGZOQ\_GgGaQ?OPEP_qd?AJAP]FE[BMo@aMKfWE`DEWwiKArOY`Rqaq@eW@VThf@`oe?[PWLhApcEZGQQO_MNEV??QSQ_cgluTGAAQvIlOKqob_L@tkOCBu|TpH`kVIe`U@AxAIOa?V`D?sXRKjKVGBa?O`g`OeFWPeLwLw`CR_Ij{aWQDXTB@Nfh\w[hm_UAoAOnr?TeSK~pA?A_KbLWbOWBkjGmFZJGGTBCkPRlq__GKOGA_Q?KpE{bR{?zSGKq\WrkPcKi\sW[A`e_?Ifg?o[_aGx?mecLJFpsti[CFg_a_bCScBQPg?`AmpTt`?gL^Hn_Xx@,False
~?@cC|EILWP?@KT@oy|[?BBsz?CEJVOHGYGmLKpA`ViaEuq\@hWCN?PaKmr`ypiMoBG?IbOAPQsJ_JuWG?gc`EUkAOIuCDwSGAgPAdD]IXXPf_E_WS??TEL_CROOOMEKLRPCw@hATuPHJINKpOOO?kaMRbNcYL?tH^d??\KFDFASDOWCOhEjTOS_R@`cRDsldPOtZpaI|P_MYPlYJkkm]k]aXPRqpAma[Jg_@gYpdJHyz@@H?cYXo}N??gJLGn_\hSjYOcp@kbdIBOgDa`OqbWy_|_J@}dB`U_guu_CBR@PeoKS@@J{YRTASEaANPCCbIFGuw@WhdkA??YtdWCZCBGcaBgCHWAsM`bUk`vxuENm_EbDN@yhkdAitpAODpnKACeiOC_WO]sJGsat\k?pfulg@OjcO[ACEAoc`@OAX?q`gEgNCyj\oOa\KOwKOclTEPcIA]SrAHgdAM?HEkIPBd\LWjU??@xGcPT{G?eIyhs[OAFGDyhPH`^OKBKhnUVC`HBbQAKC[PWQpPc@iqdlCA?Akop?WE_QFKvTFD^Bk][R{xiu_JlHvC`ceB?jwbeKcciQGeJ@GcCj@b`X_w_BYDZ_w@`OQhE_?`_^_HPoK?q~EhiaKA\He]GA[JEBKuKipxiN{jKabGU?BkgcccAEAPW_IRoCVH?WWRm[@PMcYRBCDRC]`ZDHcErbE?iZieU\[k@@cOaaKMUyFPJJyjMSCCMJDG]YQS{?`??O?g[CLT`KCWiAWla]CI|APQ@?csAAweScUCO@jwSgSmH?WCAq?MFj_SCAs?DiMXga\EFi?TOa`ACeDVGlegyi\`[JW\,False
~?@cIAuWAAi?DWaetfCq`G`jYSe{QON|DP@DAjcK@i?RUS@TKK]?BCG|hE~u_OjF_`@_aAgbFZsaZAFau\UprdB[c?dW_A`FCHBcThHiENdqPIxgaC]DST[CKTEQGPGAsoEH?bEam?`ei@mCZP[DgQjpiGjpEg?SwBxS[V]PXfiCKpto@GKPoSSwGAQBsCsg_E@oO\HOWI?WBZRZis`o`AWM_w[B?JlCaE[kpexMq@?Ifvp?nUMF?PlbG__a@BOAGDcxS^UDwDYCM_EIPeEEIQoaR@?DjkP[KpQpX?RDqiBKMFVpGD^NTVgLlU`rkg?ZF??TCAZiq[GVlcKQCqyELLgA|FsO@E???QbGyj|@fZS{AP`nEWHdPc`\miRCObgGSlLTos@jWMAAlC?c_?SazSI[pYHu@[g?AEusu^yE_uoJoYu_HW?Fei@Ea?WAd@DHxG@_qoGOtOGHZFOQpb[SDVYKkDWlOBBgb?XK_IZOEOeowuC@rB_w?I^@oOC@@gPgAowFo_@FJh@`qqCLM_nIurACl_TSyB?vaOgqKcA_AGX@QtooNR@Zpy`EMWQhEpB_UaUQOGGFfUxEbIwDb@WOIP]GQgK`cNY[A@P?ASPmk?TjaIuA_mzw[EFCXiXPCC[YBGK`OgMiCHrkwfQPEIPeyq{tPkD@_q?D@qOmaaBbi~OBWGQANCOd_?RO_Ac?siJcc_yHy|A}dWW?PA]k??HYYXHWB?KrTH_AeEScrAcLj?sggAHavO_?AjC?l_MTwqO_XvtCTX@qQUvGzxFZPZ__F?CIeVOJSgWp@gdIGj^Uoyx`OSoQTKqwaEk]RQTH?,False
~?@cDH?Dck?WGWyOSAOfYCHHM`HEO@ZghQjBpAaSWC_SQ?Xg?@S@ET_bOaCBvgCe\nnMlgw?GQOk?zzROheWREB@GgD?IIpjRA@mK[CS`YKxdkGbJccbrP??KVP?`JFEnPQH~s]siAM`cLhAqaY?cPDbFqGEKfRC`oi|ACaT__DELyy{]@Q}ngXaKNX\aIYKTgp{OytP??DA\?VXkTcu_o^zBq?ZCCPHXOc|f?G^dn_cyoP@[{BEeOQh^OVnkUgiO@A[A{_MAUAO@SPTOY?SyswOK`oXH}ncSI`NqHdxBB}OU@MGCKIp?aiOZTHvtQLQ??CPupY]QioGh?H}Qc~KM?\ZKLG@RE`Ce_BkpF@LyDE?EPSQlXcFMPTPWAgwN_GAJbHI`etkGHGXsDmGsDGT@GogJBKXij\hOmoAR^XSKmGaoQAAub{i[?IgBYqiagaS[kQS?@QVeceY@OIb?@_KwP?ag_PaAq?cq@_g?_ERWFoIQYP?cJHmK?[ehqIIAQ_EcOHu`mZr_dKG`B_qZ^CJ_xUKg?G?_H`@I_FwB?dO_g`?|Y_vU{kEs]mGqqXk@Oc^pNpPGePpA_xhJOaCFwJfgD?vB_hqWcREFEFWgoe`BQolA_Bof^mA`gdAHpKm?OAL@`ACJihBM?U{_?FSh?PrQZdlLoK\d\CWS?brmRONI}jGGBWfJy[B_LOGDpGG[coa?DIA@sH`CC?DLLS??GGxdXDraMW@zGl\ngCBO@_CFJ?JF@Abd`z|G??}wN[HiYbe`_rCpQIbH__VAxXiE?SB]pWm`kOMSCRw_@KIWBH_wtUReWqQkgUw@CpXbqOHw,False
~?@ckOH@~GaiOT`NSaLL_Ing^kOVlCOynvOs~GifE__G|cCiAbsO@aBoGQK?kAk?@HNDjA?Ti[aGOCBIgnxUOFsMSpXYTJOBAPGVD__QuFKYQAgSknZ`WgQGWobJwa@v@HoMsGVb@tE?GxDP_wGYa_qE?RbhTS_r?whAYUV?S[CsBw]PlPM?QImrN@IA`iKAH?EOHCQ\dNAEcCMbUoxAJXtKCUPfzS?kUCvOtDD`keQbQ@`oAaSfO~_fD@AJAGWG??LO]c@VC@eWg@esoAK`@[w_QNOWKoO]CzH_GbaElhmlQoB`w\@NJ`oY_N`WP`v]IHatxf_o\EgRRi?`[_LCAail`qUpCSJEoCTO?eq?AxCAQ@iSztcbgAhkPccGCAeUED?t?ySuC~pR?{`?UMD[eOoKUY|G]wQdjJo}V[vll`cPAwKaed_wPL?H_s@Aq@GQeOSv@wRTbA@^pZ}cGKCxNcACAKFOQaFGAPHnQ@UQ`bLGcs?AcBpe?xiNKq__RC_fG@KiLMBkue`O@[daKCqK[@qgAGSSF[A[B?mvT[[AaL_@b?@@?yhaUHIKe[XciBfGXpYSbSAbnLb_[AUM_rAXmx?J_Zc?b]YoAQ_bGDPREbVoCs_rCsGUI?LTgMwaoB}UP?pBW@O?VOD?AGCH_FKeGeP[@gg@?DEPK_y??oCENBEm@xYqMSJGFFGMJZ?{@sx}mOAfuJh@ODpAJyp|DgTqWPiWrgHeDsSBRUvPkobM?EYMwxOOW?`OWaEUG@|euM`JNaJGZbEMBBQaAKC`CjbOBIBEJghvawQCJglsab?G{I`F]AclOg@GcHwuCL??@,False
~?@cMQCgb_HRAAQ?MiSokh?X[_KSyGAiXiGCOs@MIu`TPKjH?IWChE@O@NOuSPuCWwDo[PeRiESs_iXUia_BTChVAMcNg`]mSOcGA@XOIGg?u??`kHN|FSy_k@ICGMIckGog?lQ`@WJY`TyfiH?kqdaeBNYOP^w?EGa[IdyGGD]z[?gQHwC?qEP~y?QLAhaTvbZTA@Gd[GoO?aD[gZ_GlyKEAjCrNJLHO`_?pwac}^RqXyuo?CMpUXeWVbsVJP`_yVQmAi@b_Bv}WO?DO?AMDp?O?LoA_Ag?oXCEHUVPGCwohBQoI@oNF?dZA_t~[_@BcF\oA[J@?SOjV?mQ]a`@AEABlB~?V_abSB?H@bTSsdQOgCykDYqlVOaWTE}Mb_[OwB?TQGAKeRB`cX`GHLNHJoQBHqDGZ@}?CFAKOtlwCICFr^tatb@cAVxZPNpiqGE[IW``UaEwDnvIWRGAZBECA_C@_`GEzB?AYQabPohWY_qZcCCE[P[uSDSyLgA?EUepjE|QPZa@PiGaR?bAtpcOtHJ?u?P]y{]MGO`m_BjW[c@wwqaY@D?Ac?dcJssHo?Xj?Pw?QId}aY@GA@`tT`Nz`tz{WNy{S`Ee^oHEdaN@wK_GTHOlNaGMhRETb}DMMKI{yCpX?MB?cUNAzCGLYc|PYgY?_YpQ@Eh_O}RGNhMg_D_YTC?CiC@FUGcOXhMCbQJK{@A@@Cjc@[?DCcuc?sL[aqceOk?u`sfUXJ?lE_M`CSGQPHZaMW_?f?u_jGQ_c]dVA\h[SWhEOzXSWG??vDLKAbLGcNcwi@?_Q|MQCuOCCEO^TpECQWOvsNJeRprIu,False
~?@cP@Ce?[QA|GDadE]?sWGUasM\j_IBQ?RBIkrRCHGI?Pj?wPrFWb}?V[?KWg?lkNGgGvoOA?uDasO?tKTlhOqoogia]LV?OPqChSBDGRcYiCANPeK\VlWBtMd[wG`u]JzufuQOSTqWL`pPzCpv_OaIwweEPa??HFi_YXgOT[qdw@BaBYWwc_?OueL_lQ|rkKNhC@`oC`LNeLS@?EMMpE_UGlwAghohNA{aQP@gHXAgACTDDDPANYIgq_IFPHiONNWlcXgDzb{Ey@vK?IS?xc@BW{QX[I\FsIb\nJ?Y`ipSMWJCdOA??C@uFGGDaSF?CQEOEOAw@kHqBasxMBH_oKf_OYCCbQAgi?KZfC?G?`pCO__A[no?gOKe`ajEFaZqvPd?bdTHD]dIAv[DgAXLGIN?RaGpO_ObFHXhcMBg?S?sCGdZP?CCcC_Xa]aFSHQOKGyHQt_CATLaCBpD??_?T|[Cef?yoOCkxZ?k@ie\?PVypoUJ`?_o?`@wJ_?\Nr{o?WjiE@b_?CP`I@TjedwHuABFVmDbgO?BOo?GwuBYHoGl{wsGAAfRReba?iW`HDRW{Yrc|E?FGWghm?~JDeXOWydE[gu[udPhcNaPOaQxISvCN?mATSwGwaDegsAKDTDG~[AGCbQ_`_WBs]C[FGDdInDS@ohov|G^}PrRNgpscBdmSWQKRPG_tHKSDZaPVW@?OPw?g?f{sRfJPPouGSgAtmOGgwK@cR{ESDgfM_C`Pg?PKgDb@Gc?XJDcgwNd_SyQsHRbv?ACYLGOWAAGGdEDa}bGJn^xFBCtogb_BCMCYPSutD{Ov?b`aswKUE\uV,False
~?@cXqXDT@^wwHO`ocbGKO@GbLHKG~`f`zoMQ__YWADwXUdFaC_Sp@G\BHYXc?COccSFwKp{RrQt}NSJP??Xic_TYOSI?hOO`@rKeOohgsg{pqIoNOpRTq?kKH|ZXBPQxxQO[Xz?ohYJ^MO_W[oftoPZ?iogROZJgWrCFceG\^AKsPc[?I]AC`obcKiCaS`UGS`GK[FAAbCdRyQ`@IriMSPa]PVJOsJdw?@`pcAPlF?XTGADyeAkYsFJkAeFr?rwPB\Pd@pcCwYsci{ACAwncAcSa~_vJUOShRVppC[kBD`tqSaYGoBAfXJKGDFOZHuA_oko?C?CW_Gg\_?Ct|YRSC~C[\`H[PAIcGXCSWOgGJUWEIwH?LF`gPExTIbdwZ`Iy}ACmPmg]cOd_PhCsLX\G?OOM@sA|VUZQq`Kg_AsU?\HikxoK_o?McIMgpLSs]Lmc]HkfIiAYoKKHn?U`M?CbpIqoEc`mgjA[`QZfxhQOaJlXryxz[_BHM?TNkQTJji@?@O?OLFLAGAJo`yk[GhLXP@ph\AODQBOSM_pCYGxToe`Wa`CRjBEO|s_?GEtko?MHwxKTpP[@qPSgO?@`BMgMWOAfwKOwb@aq^gcE?TO[NOQc`MXoPCVtIJ@FwpC`CaqBJxb?Ru?d^aCXmDTKOC_rN_siiODCQhCC@OV_Ki|OBPPgI?H}cB?dgIok?RyEw?ffgAATiPJrcE?IyzzF?WD]ro?SGcBR?WpzkLA`jJ?XOFaS@AI_iEE\hFD@N@A_LEhRo}YHO_@@E_COHP`WgoGyGO_OMoSLg_f`H?kcCueGGghC?EYdBsbPP@e?G?W?,False
~?@c_urn`OLGWOt}\_OOx?aT@GrPL`uUKiX~\tizAyyyBI@qWJUqWJZBC_a_dqcGTjNIQ`CO@xeWHkepWgFGSo@@Zy?GwCQQn@CWor]_[Oa[kq@_tGwer??_QP_[ar|?ZGCoAh?JP?ZliwAaIMRBCgGAlQpPwgXp[BaDMESgiQCOTcJg_HRsWAgCCnhHGhLQHR`B@EPdxACdLOj@wpOECsPIaW_hgP@__aOHWGAzOLwaehMWGCY`QrHQ?eVfxCsS@fZdsiMVOI`LGRNX?LcOmcrKIAA[YAT{aB?hx`OJLcAoOdb@@hOFG?w@eTODqgA@E?K@ORKkhU@RFaMO?I?P@f]EsSKCMC|C[AQoMcR@[P_@OI`MmHsasSI]ZiFGRHOPOAMXABIdUKH_LGWyk?MPCGcwN^TDLpQo{?XEW@sYA|HAQAP]}l`OKCST?Re?XOAERra@GJ?Oc_kArTLP@KBdAAiQK@OCbCyQM??P_JcACroSaWtTG}NQ?ksx_euPAZaQ}Ei@FYUEp@MJP]kd|CvG?b`oXc`Eyyk?GBf@lA@{Ls?_[pYKPGE?dMYl@c_Vb@zDV|qY^QTx]\KDB[K\cUeYRC?BbVG?gF?AIUQ_?a`[`QSGQRo_uY?V~isCQoSKcqGt??NKKtZ_ssRVQTZm?\Oi{hCGC@f{BtHyY^@gB\Wgu^F@iOmOEeBC|mKIGBa\aAd?P\gz?^IcoeWNOONQ?{dxW_Dg_MOgHT[gPAH\S_Zm@\?lG`_hmbDnaYG}Sp_P?gyB@QSIKPQRY@AI{SEghGKDOAbWjOuQh]J]PKxTJX`d\dIq?OFjr`?[@GIGO[K?@,False
~?@cA@IH{FR?G?SWEaqg@GuD`_wO[^JPnCGaFgFXCoCGVOFAKIDJPw?SILWo@kG@wGA`GEC`XiaHS[CAOdHbQA?QAoHLOS`_uPq[GgaFHl@jUBTdeAW`vGWA[Lmt?]?[DCDTCs@aTA?BEbhzYbbCBFCObOEMR_GG}SK@MPtBt[oLjkTkGUk?k^@DGmidRksKh?oDSPqyP@cJ`_DG^pH?Nr_?EtszBoUULgcC|d}@PRP`GYBIGjoEyBeoPAx?CaTTOhq@?OU??[wJFFB?GPiqA_LpT@VO\Fme_aqCCG_fIoBHGAno?CVjMaDQAwKYOOCQ?q[?kaziLoBTO??A?Ja?LEP`Qnqcj?HGlCKdLuNqC]WNvT\nEJ{UW{{O`_VIPDGG@@dyvTOIKq|mIAEfa]BGGdVaPgjE_C?JxwGGBC|IOoy__R@L_uAy_@@Hn@_y`sX_PjIYSqCESDdA?ebZR?^@tV_w_DfH]FPOgB}tAlAbdbQNLaTdUwiUToql_bYitbxuYPUmYDouGAt]G]maQQO?LKotci`ZeOKF@?WW[cqoEDIw?t?WNgFJHBGJcDAgLQDG]cDLF@xnqSa\HuYc?p_@MTwCGG?OBiASMoSQcb?CGh@IwN`EN]gFAkIMl``c_RixyQpaEaB?ddq[iOM_aLKDCwGAGTsiO?CkAhNHUWB`AiPBQJeUcIw?p?[ObqO_DjcWi_{OCaZ|XC`RQJoOUDorPvE?E^OcmMQ?@pw@zXIS?ocB[}_CA_QOQAtEedbiL^Wi__BPSF?UFqwSUA\ERD@woMxggCEgCVWwJZqLgpJMXmQCUD@mvhocKUTChrtoO,False
~?@cB?BDAlUSUYtJMZ_dPYSO?_]AsRcPD@u@qdDLSgW_ylConIHWgYWc_MVJP@M?kA?@WCs|[{_JT?QPA@|CLk{ZSjATT^?|{?\a`OJZi?LXSCNR?\B@KxeqGQKye?pOK`RHW`W]~{wD?~pOuA[Td_?QJWtApeoBO`uOGC@AAcJStkO{qOXCAdLkQ{{`]dAPxcl{hoAsIDoiGncGaP_GC{EAPa@TEPPMiVOJG@NgQ@etfcZGOF@HJy@mXAPg\TPK@P`M?dF@c][{zeDuvPAC?XO?_mDXuSmKGgy@Iewbp_?{tEC|^Po|AacAO?G@UHAi?kYGGqKXChSq?Keh?WPco?QH?AHHCd\?aMO_ADvo{oA?KH?MTQOX_SP`uE_UOyJCORh?_wEpyZR_AxZJ@cGCQG?BVWR_pJAAHkGirEGQpWpvRc_AKDX?}?CcBjFORDD`KOQ_xWI[QTghGAOM?gHlAR_L@C_Z@CO}DC@Z@xhtCoHpG@CVVE?GD_LqMGPYgWDfOazDg?DqayC@h@@ais@_GjLJRoCoi`kifc_J_aI?{jj`f`OLc^JOaPCp_G\[DSwJe?GsB^kbusqbQb\^_@UlnXaNKxOeeI}EkvpCAJtIsDisdEEAO@i~NOG_WxWUCC?gj?kPBOmfRqLx?[JgSlOKTmKdKVLBe_EGYbEfBRXOfQa@TOHW{@DOQGwIKNWliCWRF[l?iMy]I?S]OO?CFC?Pa@QCLy}CwaT[I?ERv??mHX]MOo?DmBFHCAznAuBEK?GZNBVtyKDlL@ZOilt|_BaMoWBhAVSOwnPWJpUWmDBGCILTCHcO?jIF?chWAxeCC,False
~?@cJAQ@KZQkPBnKDs_EK@lyzTm`@jW_AL[ElwI[o^gooGOUgkhSQKjIHKDXGOrSAcmPPDGgvCCGhfc[hE_Ch\Po@o|bwoW^UAcgC_Exo@DC_RL|mtBPqt\vV?HXRPdBIdxOLKCIJQpoXBSKAWA@sKrOQwOF?FpTrkXga[QeKb`f|l`@MnBuXAYeVACr@NGHLKauB_DeDWaCN@{DPctFE`T_PGa@`x?Mq_cXl?AMcCEgWfQ~OmhDCCYInl_g{O_fWgSAioM_PPHY}mFfXyAQSPdcAdGdnhfoDADM|HJQY@loQS?jR]vFUa`_`eaDP@aeREMUCY?cRcQDoe_??SaG??BlgRq?pwtcHO?wBSF?ON@??mJB__mGwaB_cQE?R__\TC][`cfOwb@OtGUS@`G?CNHaRfGP`?~CeW`VGLpGApiUVCf{BSANogcLoOdoMA_G@a[DOQ`]s?Ds{{ORDcCuH`cg\`yQHIHJ}CqPwOV@{SW@qFcY`e`CCyUszQiL?oH@wmK[@??ZKzLQ_EoIlbAH`C_uaM??BB?GGCKFShaggCYJ^Dht_LWEGTENBnOEBHHCGXH_S?JlKP?C`EAaxN?FaCPjOkbKgy{?seSNOIDvb_ZmIIMC_iWYICoBkFArz?khakG_B^SC?u?LePsJxEqa@fSPaAoRPxpVZAi?ECdhceF?[rFoEI`Tog?VPOq?rBrloKDCfA_xDppDH_gAGOOpWDH@beDYc^DwH`LRoDW@WGpI|Yh?O|xWJHIOS_Hg@GhgQiv?Hzp?Rzo@pByiEdAH?FALO[U?YhmD@gWcSZKCnZkJQeKOJDG???]iE_PrD,False
~?@cbdoWNaBisMmSC[[agWOAe|?qGLp?\`sGyHkyLgNYJRYODD@DG~idimbiC??pc?bI^\uyCKGK}OpAmZO@?oq?L|v?o??iIOsOgKhRTYPIaYMiAEUHT`OcniGQQZulh??JkgK`CxGETiwQ^GZw@`A?xy[g_CFdE`CdbWkucblH`[dYhQGhQ{t\@y_QAXeQ{_EOE?~oGMp??NPKBQK[qhqbcqHAu@XmZOr~ZFMK?excWrVwDPPYONELF?SoOOVd@bo@iFGsKWMQhkd[OwBaG?Zag]BVTORE@Bd_@c?CRRIV@BDdqaPgwEBo@aAMRJ]CfW]OSoCOUaEAIQLY_MpeMAJHdgS@bGg`S?NUbiALDSDlEdd@GBCtHH_iCJGQ?{pa[t[goTcXwc@rS??ZcAPRC]BkOFBXQFBKg_?w?OBewIZsYQtXcGY^BGdWeOo__gI~AY?`A?dP@qbaJk?OApDQ@o`_L@AHaKEExOt_@RW?YQlO?yxhpufD@AaxOAPFEDFIM?hXXHGCkBx`GT@_ardLwd_W^X}k?GJT?AlO@@eeH@[C_?BaIpzeRQKk`@HppGEFK[JskGwqdsUgXRJYI_xXXmb?M`zYy]DU_peTCJ_Ob|d_hgGO{_\HPJY_oJ_KcU?WX`gt}Bq`hq_pAYlD^Q?PE_\?hEeM?TS\bPjbO_Ar`OCg@_C@CDuFC\@A@v@hoEOoGKOkY?RX_wGXU[jNUCQof]]HOD[wg?EDSABo\BrpXNTG?LXoE?kBD`?OpOiNHmUcGAB~g_E{rg??}Cv?e@cg?SOG`XsR?YqDQ`hOHJcusaciRWAifBCcJ@ZHbMJgG,False
~?@c_o`HG[xaFPHsaKRNXp?ZaOU@S_OGTogXu_Y?Tl_hRcwBXAj@gaO?H@XWXARAGUOaL^Bp[CB_?ecCAU@L??_~iB`CFZa`UE?S@DM?[HNI?Gx@\LFGCdDD^|F]C?EZHPy`G_Do|MlO?CHlUL?uzEFWPYaOChDOypjwt{^BOpIabhH?kBEZGPaDqWfe`rQ@P?qO}WX_T?IBD?jWDhQcuYXI@^P}uYpWCEOxwsoRGTDYCGVibOXua_PF]daPJKybaAcPa@CfQ_gYhHBEWccBJHb_`?^RXWjCKrHAGgbAbCDigHp`[@`hHCaNNh?[Ar|mC[OWyHwT[gGOGWkGpPQiGCwwCSoGNoG??\_qbUaduayQgsm`vq@oM?tZtpTSRLw[?AVIwA?psAwCgdcoH|dxiYuX_?xOCt?Y`_^guKK@fA_dDyeILgbOwIa~?stj@OE?BPzT@QvrOGwQMHByA_HI?DC?thjMION[b_cPLPeLsPDyMDG|PPMoE_DPGnpCn@B^Z_AGADIQQYLW?PvST@qIEGi_}SO`sQWW_AMEWA@hRawFkG^_HBUCqKEn`A?gvIGCO`KqGoQ[GCOPjC?hFIDgLji?PglQW?G@TCsd?A\S@{ureUstAgFQRdyqsNNdA_DIaniURbg{?@Sb?Mo[WQah}?[}oCYKNWHyIJEcz?OWDxDjiAeC`tD_xeCGwDOsK{_Bk?rAISOChbCKi`KwDMIDC_PbBjVgQC@cqFOcoCSh{L@gGACO?qZB`AGCDAEUQBSc_IWHTObP{isKjAfyP^?WsCDs[ePqLyIUCq\{no?eKjOoAIXEXagONSXS[@]OY,False
~?@cgBJop\BAgOsqLd]G`AoBteRad@OFwA__bUyOgMiBHDraFD_NTbuk[EJ@KBObeCKZCepoW?_pKbfX@_lXAEKCBapoq\VWO_BG?[ND\E@SEVmXGoHCOyvNAziSChstB|g_BKGXlC[`?rRZCnPP@GG?eKew]osIO@tGFq??k?`[FPQGBSuscDEq`K|jiS@}bTSc`CODOtUOAsA_GCA?~K[JFw`cH@AjoI?]eH]OUOq_YAkEDPU@YCKMCW@Ve_EqjeMJmrhG`HBaAqPLT`_GDT_gtAN[WJ?H@cIs[?_BV@lfdiBzDXKUcrIE_RVPRB_JPdGXywQPlCqHZZgEACKA@XLRIgTq?xoy]vCckGCE|jGGGAD^mpOQad\OS@FE\wKCMbH?IjL`cGClLdi?TqboKc`YNCCaTCVC}LanIiuIELW|bhG{|?_bwy\oRGEY`HdVKBCQLM_?EPWOWsa`@B|TQbQaYwH@FIcZ}X@deeoAahTEmBADmMAHREbEVpQiCoPH?DoXzld__[?ro_AO@cJVJ?GP_cM`CBYKIR@~kdH@ZAECM|k?j[^H?ID?i^OeOTGLM]OGBDKNSpacTW@?Fvq\HYex_GeCLPGAC?OO_OBT@_YX_?CXCaHkAITabGKod?hVilp_ggaBAH?ejApGaR\IoHHCRP`ODFa?Ak@|s@P_G_ZAOC]UCVgsgmZW?KLoQXbNePDDd_J@PAFWREBOuQEiqOw[Ld?Tq@WohmeHi_tY?O?T_k`@C?PQAWsQbA_gWy?glNa_KS`Hix_rm]cXYDI\GIIEq`c|DIj?DAtITngebcGZXspSIPaT@OjMCB]_c,False
~?@cxiFB?Q?qcQogcef@PlPDFdLCa?|?@XM{qdGQ?ADlfoO[G@_@PCHE_e?I_AYCHcW{KTb_Z_O[?O|cGwD`FOTLjW{uPKA_a_D?sShSIBQ?WESXN_br]HXpTd`PELMq`@dSGwDH\oClH_qJKySeCCDm?QkP\dUG?GTgjXB`FQOA?cD||TPfYPXOHEOCdazDtEH@YoB]?pWHcvLnDmy?zPskWGyV_`?XKDlEyHqH`dg`k@sPJ`goC`sCs@KLIAOGCC@NUA_jWMHJw`vTukFegkDi?lqYiKKCAHqakGG{faUs_umc?C?too`_PiIMsD?Rk}O_?BG`c_GaMEa?OK_g_GTo_CZQq??e}bBQc^bEXIicIl??Q^tcOeSCHy]ECszqXCY_@RC{EDULoPAk?SGKZw_M]OASiTDO{d_D[A@NRIngQLRkYQ?HPzwQMA?t?Z^[laUSDeHI?LoFZxAAVAF_Vqz[_??UHY@sQXicHCOGp`?GsIrFCJzF?IY`CGDsbOTaEG_DfgpI`cnSgBrd_{TsKQJT?CbJTGhhgsOIDQq]PsCJCM_Y?UGNFOob{PqqOy_vK?bD?@M|kQ?zVkI??VY?_Wjs@hWjgpUSap?FIaA?\l`e@GiMRMqDynxaXATO\T`AYBu`_Yg}I@`lPN`@dNORkOeMYbfX?NLM?CDg`@GCF@J]iR\aFN`rSgT]p_@o^EEeE?fsWoG{OcPrwPASTSA^hAOIiW}kVCy_@eKaYQb?ebSLPaJkWUC?Mnx\YPKKIIOlI_KhqiGFiToiQCeq`EpOVoCEGOOU@FEJgB`dGirCXOYg?woJMGWoiSBTTWBHI,False
~?@cjewDVA?QLZKisG^MgsSWuA?Lb`WaX?JCL?HCDICQgIZdRABbXA?_TKasmo?SUOxQa`OBbwgjXrcX[E\cGAVIkA]oTZE@Sk?DBEOVwDTXjjgGjUGEgtMiy{_OrWOB`yDE[BjStSJyAU@~ETAOcbJGTkeS|phP_CFj_T^y@@pG`JmrcrQBin_XKYDwa|WOCSmvEL@THapAXcaEYLQou`A`FxEOa?kiejVLcgzYCAAQBqRH@IkKH@MHhxCc|ATWFDjDAvpociLhOUTsCJOHYb{eCPpGoAHgGiRwOJSC?hgR@aWGC?XUi\K_DPGBCah`YADp`IWDz`pc_FI?q@eagOOm[OPcYyXgA@`_OIO?fOHKc_DSOoAHi^YDAqqCtbGJzmB@O[F_BSouAGOXSCaqkVCd`WDlch?`gW@SX?`kA?IA{@KUR???SgdOVMSAewByFobEtGyIIF?I~C?c?GKlnK?Gt_gAOo@irOMO_CwAEAJX^?oH?gOsH}jFw_PF?ghFFAOlnAE_Anb?tXLfkWFQNSz`w@DpPIbHPJa~WGEAboKyES@d`SEF@H\?FHOpSTwkObDRSP?\C_C`ootWu@vYYEj_GKOrxG??M@wICOvWDAlM@?_CakE?Tw?pNL@r]k@?jOccgA^mfYAM_dbRL`qZFYODFA_E_H`A[EW@MYeYmg[uBdGWZ?NaEZCfb[lABBa@J`Ea{QGPZaU{?b]aXchGEIXFdAEXqlJaPA?p?pEWFf@C?ROVK?LWSd@lx__SHBLgv_tcOuKZagTDSSOHYpGC[E}^QclAW^Wg?XY@OxQhCWScdQOqGY}DlXBHSFK}H,False
~?@cAEfgG_?CJkh_XcF{lOoelUgsPcSTbwV@GicsZDAGYD?GA`oAwFFkxW?h{OO@[OWMXhLYCDwSaIyN@Xk^O`AOW_o?IapE_p@aFifJjmEdNaoiAAy@[OL[GQNTORrDGEo~sUQco?\mO^dKAgcqy\hI@FRHAGATJb\OgUOi__??REJMFQcbHERpoY``@\AW`K@Q[kVFJiQRhk?GThjmZOS_o?GMh[GeB?_`@Qsr]kKIc@KKh?KM[jO{ACUvopaZiRsP?@frW@UCrOP`fbG{oCAPTa[PuIaK^cgTivFCiOGmjGd|kcvAQOTo?yK_|PL\_gmSWM`IhZA`COwCQm@@GTAO|?orlg@Z{G@`VK?@?`?mQZGKCwkPAEC`VQ?erg?THXAhhPI[y^BqUUWlIGskwCz`DF@b`UlkPdA?C[yo[?iyyLFA?HyunACcCW\OFhZOueOQXJ@@MIqT_sSc@sHaSTLCROYDDadCAtPk?|h@IeSF?qgAIIUP?Gd@@e@EcBAU?O[wX\qqrHDpkHcKBWA[QgViQ_y@OMgz_EIODCRQL?_tg}?g`CjY?oaKdg?{p@SuhonZZN?TLkQEDMbbqG@CHDIggXes\@d{nHG[bocJCD_x\JwPAheC_i_oRkGtPWmKcH{_Q_{@s@AGbQ?RJ?HbQEcUiJ]aP_Y`_ZyLGMDE??S`gWMWGXdnsTDNwQlU\NM_Q?Z@?N_Ybo?`DpqFNA?_WKSONXrL\AAIx?qahA?mKJ@{\b?JelqXjo~BgPCexSRxG@@?KS?pgYiUPR[??d?@HGUHkHD@FWB@[Ac?BqaRCFT@aEBV`WOCKswiHHGjy,False
~?@cbAAoAflKJ@kwMLO@GYhskxShqEGVFWb_ZOc^@GRkOOGMLsc?GwqOwAXdcRBYKm_?gchIp_U_oUjRqcSDc`rOSQBQ@SSeEUYCqL@nOgD_ygglIX{Pa@bIgizu}cuNRPLDGkcSNIUGEzUDug?s`raw@sbCb]yB_E?}BDCH__kOkEekgGMRSOQAxgSPWQM_Ag{\CoDC`iCUjAiGpaagHKP|CjCjKWwtbw}p`FFVEGC]aVTW?PuvlsOWhWAREPA]M^wRc[@@W?HR`D_qSJQOS~_oE~JepSCOHXC|?QFOhqd?]?BhekDJohmTSCUJMWmAwQO?`WA\DPCfZO{wvWdPQPAoP_A?AaSBadaaC@WG?tkUS?mALdNGHciFad?aEwoh[Sg`?ECD\fCw_?hg_O@OwCJGwBmAkAHS_\dQ?\Z@P@Sq~WDFQ_`cbTTc@WPgoIBgGM_PeEmB?S?[doJ?{cdM[[AzKC?BdWP{?ACfeDVwKPifYEECsAcIIU`AvDJTTKFX_cdIJoxV\DQK?Bw^f?hQN?cL?X_bguMasOD[GIgg?DDWBACLijR|R@eOoAO_GQWCcCOQ`cg]@\xDg@eW_X?WkpwgoQIeN?sYkx@SIOWNaKQABeG]JO`??XFykgsALBy`QzIe`kww?pCaaj?GejIW^[eEX?C?H@\D_|BQ?amT??YoU@L?KatuOzF^ZBO\O?rcAcC?KX}W_bWHExI?VGBSBLhWUD]rK@BQO`DSG@ULBIFgO`]qFIVwyhPVwWmpsg_A?tUxIaG^ZXDbPB?N[_{gqyeh{a]?DalUTBQroQwWAS@GaxA_jo?KXhXqoX`__,False
~?@c?kOSBgGgGZC?Ja_e`QoYqO@QhZKROebOCbtKEpTskcn{or@uaGqSg_SxwAi?iYJH_?uEOeHEGgmP`BQQhEE?xsF@^yJOHtGrE?qHNClpjWC\EBSwoDghIA{W^S`SGPPz]EA@S@RQ_I`c??G@uPMKC]t?OgnWMxA?oAgbNA[mUmsfP?Rv[`IlC}WRbGDokRUaqMGA[TwHd\pBSuvqBHM\I_GPaJQhkJqcaOrUN?g?qRCDI@bG_gpT\CE@`tZ|o?J?TX_OIzWfI^_p_`Ge?HNugCQ_?YETJp?CkP_RorQ?S`NIg?GoXHQATCMQiIIW?@O_?_AGbo?x?GHEo}oHJZ??X[KCjoGAC[rOn]`AXOOpDbCdIs_UVY\g_Yauw@?ecpIgROmFAC?ye\MDoyK?QPJPC[PbATo[V\QWJoUQ]z?ouec?wQH_jlM`WOlbLQOw?fTPkpGlDk{mGqAZ?c?KzEb_gpzc@qiclLgGPUN_mUOEIVPqBAFA]gDx@XWKO{tRGiGG`AgQE^E?jKR_g_wDPCs?`R\q}JxcjiD?UBhc_t?c@lw@KepCLHCsgGMR?kNd??EAbVZTqksa@H]xsC?s`oKMM\\X|eREC@bnDqk_VUnA?@oPmFPUVWRS@wJESy{aHzD_?Nx[ZystY\?a~GVPI@kg?K?ZH@?UY@Go@O[h?ainSVhtFAG@OES`TxUgoCG`PsJHuyJgGAF@bWPAWk?UI[gIWXAdOSBDdRBX_qrKvDoMQKCGV`Z?P`w?B_DCpKgpeFEH]E?GW\?pq?`_J?sOOQrYoSc~uGdY{eKHCV_PEPgAAHr?UOgW^F?AQBbCt,False
~?@cPgAo_@nRIcIIFgW@@HAOA?Nl@sGTAw\W`QLMQnPQ^SgL_suywUBUpJwG@AGc|@`cGUBdO@CPvZsP\j@GhIgVCiHSAZ@UWi?KDGIC@US?@KHTsULbJBobaQe\@d?oWOogEjWHCJ_o?SL_x_khBMgD@AI\UWT}O??aXDALAIAI@ftFV@h_xCNRQOKC_JgsDHmHMIGk@^|BUICGqrgb~OWXKAIxSI?PQZ\cC?aGP?BXQenQIuSH{]vB?UYCG_?OEGHSPpqz{gnCYR`oKDggKwPxr{fEDa@Y^BEqXaaG?t@barO@BIwjBhqEwO@P_JS?JaGQ\kI`CtbgACQd?kKPBDIRs`eqG|E[K?WPh_HvSG\kBg?ZaQ?r|MgbmxA`s`iKiRdo?ROffU@K]qhTD[?MQAgFpXQ?CSLAKBe?gedDheJAfFB`PGCGKOA_HrDOnOUxDwe_pC^aK\oCdCvCCfDS`faTJX{P__WEZARWYg@@aoPBiC_twijpQW`?DG`p?qED}bWoCK@CWM_Xc?QCGEWOHC?IypeA@z{fWtA?irbKRiq}_WpAOwOa?JRA?KnARLlQQSCoSu_p`DRAMZIAcqy_sG_A?[QUHweu@[_olx\OWU?sF{Pa`voocFaI_N`oGjKIOce?HGOLSIMkI~CadIxEB_LlCWaqVP_c_aoMgGgCv[osJA_km?Ac^aaYuUCdSGgJp`_OaA@Q\S[FjLQO`\FvCPsGdWSJslAgNRgAihcQ]OVu?]jFBnnijCBAKCjy`PhQ__`B?^wzxNZWxVpP@BZGKEAjNYE@KddALg_UAsSKSYOYETh[aPC{Hj?ad_fPa,False
~?@cSA|OEgygFAFBZA_EHEmYwtCwAFo?N?hIMSWhEI}OAQko_?PA`HzOpYJ[eDs?qsV`OyUclY?`oSOi?\I?gRY?NJBsPZ@oSqQOa|cY@`Q`?A_PTQX??b]OkisMmqAoBXLBOAFRXCwEf_GPCL?KRsuffOMOFYoKs@t?S?JdnoS?t{AEU@@OAwbaXheWqYxsIASO@mX?rbAF]EA_BisMaOPbOTOFG?Sdb?J_HD_ZrKrYEwHlC``_GugaSDuXGr?CUfjoEBIUVRAtlBvUmKBGq@kEoZ``[YkKY?QEsaCJQ`??@DBgGX?lPqcQpAOqIMZgAytzDe|?IZOurhObsgFhobizUOKrGCXAB~LgPR_GGclPAw_sfA~?vFSQCMSgIQTWbpo`OmCwMFFn_EpclOCPIHdugqKbqQPb@PcG?G_ZPfkKKEoaOIeHSpPJ_QB`xQ@JP[D?mB?ovA{dEQHECCQ?eGwaRKC@KypbA?IO|A\}ary~ghGO@@`CjYYt_@mBKrjgYKoA@f^qDcABTcGj`?Ik[?PIOGEkK_?EzYhENs@{OEOw?GSmdwDeU?HFESIhM`Y?tPzB{N_RLWRBM]RED@K?GdZABSRQRLTc_HEyaNCpnSWeZzD?rGO_@@kO?@OASTD_O?Ip@wCIIVkYaB`CWhAhpBpe`YMandg_MGnOZA_OLMfCco?BASPH@yBwadABoAghOTGiAUM?ULzvyPYQ_`QIiC}OO?gNEPS|KJcdHF@jRdO__a\CHJMGWIIrCkvAtWGpZ@A|QaT`KrDKMc|jH`ACH{UbuBEocE_@yogwrGBCTW?DCXEmX?QaRjuepXGUV,False
~?@ciomTgGqoZS[AE\AnGAQdLZFr_vDE@AKGHQN_FAWr@WW_B_GsDubqGt?PJQooTKQGsRj?kEJn@m{C?trlwK_OG?DsDi?GclA??GOehGCxCC\XA`CGod~F__\sr@LK`nFQ?jNbWXHs^?_BqqAPQiXI?XoAQZUkAqOI_sKeA}jcrI[o?Qpe_Eu`O?oaGOIC?yVRK_pEQtpc_]@BPaSklN?I?WwdDKaWbPeQo@]CQVCGGHtMICk{b]Lwc?I_G?JCKICGAsAJG[wPLFAZwagAHXB_H@uY?gPGaVqwiLG`EP`}tBYOOEAihBRy?Xm\awi_?K@?nSR?yEhMIZGqDH_@tdAa?QpCDr?{PAdeCNNFmsxGljBSzG?WnAdq^WTOqAAYHr_ccCCdyLDEfSOF?mz?GPxF|nOsG?QpKGOBCKpkrIW?G[SQYC@z{TD?_wT`TgvmtGXOcpEe@qd{niQQKYE?FvJYpi[tzb?jHMHYQKNAgWP@TX]QCLCPe\qC?EBB`QG@?cO_A[o@dUOHd{?SUkPLFWGV_PTlPQw@Tl?jJSAKDIRFQlM_h~]P?baROBN@yOaUXS[dJDC|OH?Ei[_AdCWCg@_o_SzkKggFKtPq_cENs@XUD\iM@`Uby@CBCAACmvC?PaasES?ijo@AO\kGGwTmoxdUkrIafWZIMb@EYNtETBGoCpMh}{M?tdrtXhb?K?ckqbXcQQQ@EtgDD??iS@IoSVWUaSGpRXDOGM`~_e@UCHEJfw{`MaOcy_woSECSQwKr`[Ee_O}G@?FWWtsC?f{_oeC]sIMKFOHK_HPSaggRI~KjUI?KPSBX_fAfbc?eJ,False
~?@cSsjbII`GEJExRWS}O{FDoGM}AXsLxLHLvL`QIhsd_[HKeHh?R{MFODKIJIN`@NEotAYb?sAisIOfYI[`cWxh^VTJQGgs_]ilBKaCCAy??{fTc|@SqNicZ@IUL@UhqGB@`_]Ca_KFAW?TZGEudS?KbAQfLf`k?BSaHX^H_oSCo`aKGUJE??FSCLO__pHoCa|mO@?_FCNcC{SjiescAHO?ybyuybmUmaETXsLOPHLCOEi@QWug?ADwCItQ_GCSG__giyxTvNOjJC{gEdVsRWJDaBq?I`dRE@b?QyTghaQIR@xEY[CB_TLZiE`EzWCsJ`BaPW`AhkGsoOYlDd~gXGyIiAbOOgd@]boFC`GKWFGeAQQ@weY@]~?RWk`yPHeG`OWOL@hHwWHxpd@Van@X?Coc_?gGL[~Bk`_h@ZJSOb?ROUQQ?]SZKo_SuHOK_lXy|@O_GAeHW?HE?CWbjGOoXcU?NsTJKWEcDXaY[FJG]IecCCp?RlcEurkct_OcNhc?DocxCh[DVPYU__GSNAPAUrsMVBq`?ciDwPFGwWDI@BbkGvSg@GOKHocXHLGaf?M~Bs?YEq`JCtB?\BWNZgFgZl`Yah@uA_XVGvrKUZZDkGmW_GoGHaI?wORSa|VWONiD?YKkojD_GtXSQVUOx_COCOC@@_\IaDYYI}HPJEB?sE[|Q?_jO?_G@@ASohdAo@xRWgRy?EuWD@J`uGADgQGfoOHFoioUDYPfRAWQJPaRWfj@KKeW_XH{zcqRGaXAsf?MQDFq_OOCI[AYpcTQIT?D[OP_RGBXQqJuAVvA_`BGcGqbtYCrMWod?DzKOK@UG,False
~?@cyGSSfdYIN^JFQJC@ECGAH@QoKPJ`g[PC`s`l[WAU@`M`]CMLJlH_FFJ?|S~b?ESO_aFAhirAAUh?CUzG?p`@@@b[}ap?W_hIAH_SZCO[uGcommMK?f{S~ekaSBuhr?cBNXwa@FW__PhfO?XAgUOoF\dwWS}v_Sb?MY_?Be?CL{qCAJqlC?aoESaAwIO[P?GJODzlgjJTQjk?}Bfwg?VSFTPASgYgPWttgLNt`A__iwZYM@EVbyasSd@JXAxr]BS_O^fWKFIAmczpSSTIYK^KGH`ODLSIYjGCRTVPGTLPCg|gQHA^@VBsUO{rWDaKgLqz@ccyJlQdk`u?jT]sFqC@TB?p`\LqDRYMy{QCqKCCR\oGpi??Tm??oHpwqWPpAxkTRUEQIPFW_B@xOimkKQAe_hDQcjc[cJfgwec}hSmTSCo[\Eig_ezgG?oGcKVKgkGBgqE`Wgr\gF[QDOTMGgt?cL{_AWV_KbhhKLID[__q_TdODW?Jc??WwUAS?}iKoOE@@qrx@[J`AC`clL[oUmL~_dAe@WT@YC@F?NmPwOHGGOG?QKSHTb}A_?IjqBLioZDeGCpB{PHsmjOCFPNoM_eWAcX_u_IONM@`uIc??@Ka@SQXFdN@SJ@{ccXsJS[ehKDgN_gP@K^q|BIWAwCWRBCPBXcwcI?Hm_k_pmy_SEC?UU??Rjc[_EA|\iW?aPOFOGGYP_dYW]Yc?sSadE_OPpKwuqlBak@?zBUb@_ODi_uO{JWG?HBeG@`iXUKGai?xzFF@B_W[U[H[S?CKHUcayVd`?gGDC_sDder_QOJODOCyNDWgRCBg_HOPKAP@A,False
~?@cF?_aoo|qX{CcCWG?SDCFVYWC]|?n?Ygq@OoRCPVVZ]GHKFp@ylqXqxr_h{}IJWGFsGhb_eCOOSR?[_ZkWS}iiR_HK?C@FKCgXhO`N@E?]ddIllDEkRdWdPxN?GKTxoGcCiYBHAKftCO}e?DCnSXGzHfdVGFgcWlCkjiDK@EqugFf[sj`QCP@QE\O_MHCKGPJITLsGmaDRx}lMO_Dpth?EPPOdWwsFocAA@JguAEo`ROgJSD[YoS?PR@J?CS__IaC{?gMUPftwg?O`AaGHpgBp?IGwas[cos??pAcACWdO??AOEOwAKDHDs[WHEcAfTazq[`CIF?[WsDqH?bC]sAaGYTYWnwMtsdg^dwRxRQ@d?GWBfC?^GHBtPbUUJ_pBZG]eOqpoD`CC@PN_GD{TA`lBgN?YIIwI?hCK`U_[MF@?xdXDHt@S_jQkG_Vc?zxfctEcKOqQIscycYK@q\KOCj?PogbXlOCGKU@SIKsgKWFyW@Vw`u?PdDbERD?YsG_Gb]fnLsqaIHoEQ]]cqaBoWAE_[EwCph@jtg?YISEaX`@jWJpfCI[MqNOhbVBCVAkEU`kR?Eo_bGF`kKhWQQA?GgBKGCHXKB_gR@WBTPaWpUKDOFathSCQGK`JGeAoJz?RGP_oHIPOvsoca?t@E_LH_UOFWPjDq}TJG?Di`EcHO{Gxt`teyk@WFWLGgSyM}@CKQ_QYmSbGBHhdgF_AQEIxGCOaOFWDLpaHhEmUZBs@DrLIbCboPuWDA@YT?WBmrgmCSOCh{VDx|@bOjHQjDOhfI~DEPOGO?Vkr`YAdKeQ\o`DQiuGBvAo`\jjS?Ykk,False
~?@cBKLQ@`PVc]lOcEq?TKYiCSys?eA[pXkweQApA_AAGJaadDD@GsL?U`AIHGxpFo]AygbH?WG?KloW`slDAWIoWhc[PjRlhLQJOE`@gFMuLaWuIHcES[`}hbaiO\PCA?^OO]W`lA`fghGecA?YJ`s_Z}`QOC?IpkaKOGE@E`FySqH?Fg@V[hFXDO`hpP[@OwaKgKXADoe@rHs@|C??IgA^z?OtbSqIF@sSOYCoNeKPMlC?W?obczCK^@FsOOdYGboNeRd@qOcoE`xiOEKpegQhCEGBCBCPKihEbUBBOOGXJz]j_Xs]f@X`O?sDHsE_G_CKx@_xwDbDGlZCpaa_jWWsMsSwQxKOcaa\_TQPsNjokBanE@way@`bUc__Ep?c]e?_up@QasM?gIQ\DLy^p?C?GYTCNTE@q@RON??j@QQJYEP[?UwtMu\FwQ]_l]xLon`CsSt?OQPfVIrDkNM}IwYWx@\JKgGuDWbDP?WhKGYmA?dMCMdO[_Fg@__`_CQ`fWCoS?@PoET]lYBCMFM?rvGF|`gmSEXqE@?DZlaMCEiQA__JU_NsExHNgscAP_UiecOFIjSHwGsBHKPsjC?[yh@wSAfEcvBUEmJ~YKhP?HmdAqoEABbWSlAI?kk_KIYw?k\p?`aMoeX\QCME_gOELApwH[cHqQ\IIpC\EAS}TDW`EOHxbRo[?@gifPgCOa_D?aZ?dodGndF`xVbi}eOmL_FoiCf@O`TwgG{QkpQ`__OTPucECAHkCdj`T_?OE_CII[gaci^AIYSw@mbk^I_GOCAoJCk?OGWTaMcwFAn~\Y@Gc\_?gU~Fq`SiGhGpg,False
~?@c_PILSagykkU@pCsdMHOEaj]oHqW}c_hNB`GQ?h@Ukudc{ToE?{g`HYeJBp]?XXgKPl??nHcj`QAYaIlOAk_JG`fqCB_cvYHKKopG]UPKPPk??w@Avm|POu_WGwc`q`G`KGEfWPb^BY]{QAo[FC]kX?KiNbR@w`f?`YuJs`@z[{K@[pACIQghBh@c\^Ee_@QaMTTGPH_NCPRJBJ@oOEgYcEDGs`e?cj\kSkgwU?C`\AxRDkqKLfDVFV{K`U@OUdMZc{dOC?G?I_IJae_JSI_ImKhJZlUZMZAViIkTLWOA[Ws{JOpSG`S?rY_sIJuv?gWz`Ge^KAqVeoGdL`CBSF\?[@OCA@lAY`PBNahY@KDS?kaCK_QGOpAO_@mCte?BCgCnQ?@DC@OHg[E@PsdBO?gP^GoqTRO^PGBhyqmh?_A?f_GdKO?\EjcxOgy_sg]OX}?aPK?dEcPjt{ADO@KYksSJAoSrpXcYJwAoE`Pj?I`Bdi?ZkPp@KRB\J?FSfd[IQgc?faRcEabLLGBsi~TC?mcFeYaU}GAY`ROV`hOPUqf?PK@QuOL?\ME@SOc?^_HTi?q^c_vZfLhtw_o\??OWGD\_[ElnT]jGu_@b?OG@E@QaE_W_JEH[aKtocg_ksDohCBOA{tG\{_s_{WG?RiCAIcIw?UoGnM_gOhCOMFPTHaCo_@kaA]jA_g`{ITWIKh__OS?VKCjEFky@Obl?d@@@{|EqOpkfXHLnT\B@`uNIPqCbVzOqFCOMe`QeDgePCW@Woc`s@RxCQgoB?sWy?~xpSIS_oYACE]Sz@AgC?_PPLUpT}wOC{_wfbFSc{BDAs,False
~?@cDsSJ[cD}BOLLAEAm_FA\hwIgqOMooPyDpsIBnEkEsaCpJCSadARFP{I?hHcFigA~PoWIoAAW{RwBEGHFccBC`?mEClshL@@WqiA@P[LY_YeufOr?cCPiHfJjcyGWEC~O_kdqOaLATIpLaECVIBaSdAcpOZK@_KEKJCw_hWH?\fhEob{ED?@C[fOOD`usg?csW@?JbocC?iE`?ITBcR?Gh`{eCPWrsXDco_E?fGfDXxCeE@WrGAEx?wJ?SAkBxNEOc?kygypE?enX?k[{j@UJEoQ[\`HoE?cAyhUiWGQ`O`Tq[A?kIjk_uLDLOtJaaiECY??re?Q\FNLHEAegNs?I?aec}_H`fY{OdcCEi`IOGDCAR?ZO??_g{k?ScDoI?H]FhINGCCmGNiBQY]BgZbgQkLlFYLHTODsioTCRRi@?`ADgCsSjRKODDoOGX_{vZX{kOQFw`kCAorgohAuS@Iz@X{[IbTWr`f[Kd|hGoR\KyMsoB[H{k@`DRaIR[ZKBDdNPvUA?H[PAYUe?pOHgS@p_TQH_xLT?CG?hoGQS?lP?gr`DwdGGBm|ma?AAjP_tH?AUD]alC@aqhrhKABH?OSj@aJ}HjDGKtH?l?zcEhpeI}OLVCQEOm\jxYpBs_?Gc?r^Bg@i_kOcZwOTILC_BUEbbbv[H_bbaobvbkcCoPomp?GatQOrUa?DBw[Y`aEGMW_IBIs?ZAcUSreaHNqYUssixTHi@`^IigBAgbAcRCsvNyB?C`QlSAQBObbLJ@gq{H{WtCLUSfiNK?b[qkqIcC?M}_C?EIHo@DlEiD?W@@?I`OLnGyZV@_Y_?Q^WTO,False
~?@ciBAgb?HgR`i_CuTEJ\?@_HhpPrTs[`DLBaB?[gBg`BpF?RPEUQXS\oVa@kGXHarHoOkcHPCag|v@PK@mBc_ap}TCsLQS@IohPAX^UeXEgwHMfJ?`cElJ[ArkjCBObBG@pL_|ioIoPAFkX?hKDiakdGqiOsgPnGEQECSI@tqV?gIO{Ms_VCRIXE@lbLSBa]SCNfJiSE_nXcGGAYGa@_PP@[gDpC?gX_@g`bSOIOPb?CQIiOblT_c\lCAwTc_eBV{aNzDIKvJ}pa?cYpWM]AYz_Q`OJkNT@gx?[trQW^o_]CTD__?H[afaDpc@HBIYgnLBu_?H`_IoE?OwDW?pDcepdp?XrVECcC?LcJYON`[yPZU`GjKAOLdEaBBpS]hY_aGbUFS@`cTG_Qpo_bssSUBiHVTDhoyOAfu?LQxyG_DfbivIopadna?CLbQOAAaGP`@M?d_?{z{I@HQAU{_GEOmFwwXYKF?DEB??^VS@[Ix_EoQIj`wOQkGJta\OIAeqSiOhOsY\jgIoDbEHD@dO{A_ds]@eBIIWtADJM@IEAqADQScsWbK@GUtZ_luSAEXahY_A`s@WQxBkpGh`YxCXSWgSO}yq_pOpaCHtsRN?UIehM[}yBDR?BDqgzC?pOOAkI^P_WOSSWsxuLhegOmCoGIA?CJP?skT?MEeLXhRiOSca`Nq?PoQGgJ{KhJhGAUacpPd@hcUaJi?{kRkCapjH@b}BBqHg@K@AzorduJqG`G@QwPNO_jAkEGK_fmXKL__bPTm@QSS@bGO{?pBiBU{`RMGx_Qp_GHZ@?@__kWW?Iuc@b[YPCg[HaBpaGy{hl,False
~?@cHOC?dRgAQCe\UrIdpIlAoWECAsEB`X@AlWAKa?eOTH?MihUeqG[FRxBUhPX?cHDyB@IQxecEpRXGOr`_YGPn`@WsWAW_CEigfSy`_AjK?_h?aoN^TDaHCiX?fYH|Y_@O`}dJMP?UTpoBahDPCAP???KLXJ@wT?G?pOWn]ReD?p`as_SAdAq{MOHVER?~yAUPMOfq@dTe@_ADCQdHGDj?gIE\@H}d{cQWRLK_|BDEmE`X?KcWAbO_{hdaalA_PgPjiuALSO@G_E@k?}XgH`cfikhDECA`EJoIAKB?VNF_IM?BvCHoHQRDQWJMGaigPcqT@W@MPkFf`oCvWGZSI??KI}FHfSkRw\hG@E?t`SSerV`yROPABW_gz`?he?]\jPe@MW|?}WGGBagE?_DZ?QrWKEZw?abGlL`UNZ}PCdi|NA_IsWbK`oM_[oI_JydW_HWyDHWwIoADCBN@QTayiDB@EWWfTGVW[gtehOCPGfKoCia[Gy~?WP@rJOOPoJ_BS@MGWWFwDoUDsEAAkGWpAhC{HtLO_hHkHOWXL]aSg_QWABB?UuMQCEh??\AtrHS?keD\Y?CMg@ax?hKAGWdrsKfNMlH^IeBeoUqGYF@@arLTKI{cq?PV_NGmhLgjaC_?a^oFSOYa@uBbMJR?`_EeaQiAeOSIngfIFpAqPUNcAGOT@C_oY?W[nOqhHgI?Wrai]__a?Nb?tHScA`LOnvYLppbpHDCL[c{gddAkL]i?KoJC_yFUb]OWsrSVBbi[@aETZ[OC[_E^@CCtw{Ae~A_zCobNRhGmjIbIbmMGtaUXW?`__?wDdam@B[RfH{YcU,False
~?@c_@Fc{UqqtH`|`Cci_D\ksgo_ZrJGHaIIgcksoYz^BNPA|NV`?qc_rZ`?ROBKJThXC`k@OczfBCrA\Q_HdOvb?C?ps{hOd`thf`OsN}w_{ediDsgt^`\e?GJ@_WCGeR`[CMs?A@CvI_`U?dlL}OqsQhoailONNA?cSOkzO?KPEOafO@s\`hLjs@@ID?H_Y?xqOKRZs@?@zAZJKW}EBYOAQjDW@a?DqGAxjsP@GOs^o?DCg_PA?@`O_OQdloZggK_QKWUr@SiamIVdacoQ`kQehMO[sthQ_YdKiGfE?T_dO_gCCiK[cC]GRJdE?`jhEbVe|qr[~AoZhaPACeIAT_Bqn\oSHevpLHOJ@_C\oCA`LhGO~tUSGEqp`uoiaNr@@eAAo`cWUFEUddGSs`rQgsXI?MRAGiqQbdOadGJpeGgA?@POfME@FEuyABuGCAy_`_yCiCA`RrGobn_ASBSiSr_H@I@`HwGHsLCPjamQA}cgCPR_Wcfa?OXGEy|oOCLEobOb@gQGgHs?[Zb?Z?woaK`E?MmC@GteNfaN}?YAEYhTUhhqd?sCC]_WO[GcbK_KFOiFXCQPL@@PEGaaGJW?fDOw?KDIP_\spqWloaoO~@QjUJciE[g@dACRDBoIWUWarasgGwOgqoCBRWirEWpL?gGKOD[_AoKrb_MNOHGF[BxdJhI@FM__kqYyJqfGd@sQoWKQFtLxTEC`p@Y@xLOcsuIPIjNSCQRB\EA[FqjdoK?mI_YHo]iOuDLhSSIiMUgOaU?CxCZk??U@O|Ea`RaRH|YAu@GH_RcACcOYXg?JhPBnqIaHod?f_LOpXsBF_,False
~?@c?AVWHEw`ol?aDGWgOArOCZFQsE?@VG|WO_DPlkAHxu_QOSY_CvaYG?MwJXdHO@md[FrQz{_[iJu@qI{ETHOyMRGOeKdI[A?CGq?NahOiR}BbRMU~{ZaBJ|jG_zYGs_xHrmQPKgxl`CV@x?h`gt?DEKSGM@C|U@o\H?@kCOD?I@}_T_zHiGgiPhI?fPQKaP_Yj_\EDxR_?t_?MKPONGwrAK`lEfdIoLLhA?fjtZf|REK?Be}A@xfiKkS]D_dWncHkmBChKaf?ilB_cHSTjeMG@XPIuEVgGgTG_??HlXcx?BB[IawwIpdEw?\BGs@RItGE@~`DL[Q?DvRa@CxCI?GbTNw?URdqz@CBO[KaCjZ_CTvPQENCCMqB}CGJMCHdqAH_?zTKkikWOMReEkl`ED?r]HWGai?QaAZhMLM@GgCLQ{tScJFl?ra|E_k@`_{Gg@iuyh~gxo[?Rk|sQ^kEb]E_a@XG]VOgXGXcagkOg[aR?RPd?iL?fC?GST?_tsYTQNKB^_eS?gghETuhNA@DJY_ILIE@alDDBQC?Iht_|qS{IgymhOhGGDPBGcBUjSumF^F^DcqgScW`TGOk???CdQRLCY@DsgOpB@JrSyW@GcIPscLOyQMEpeJB?_OJEciG?c_?H?X?ndDF?Wx?PyaQOCsAwDCsKe?CC@chK_dk?_AuSK`bC_Jo?EYPErF{?bO?\_dAg_KqHGErYGHJ`g{lIutcPO\?qw_abGEk@MVIkOZpaUSCgq@RcEoak\PCOW?sC[UA|dPAubITbH`DKOdI?ktCwLcuBEGsKA?DU_E`sUYaMHBICKCdqIQWfFmok,False
~?@c|OagIfK`CS^MHo@lypAcCoQE?_?AcoGATHspbVIEGkOU?EhAhT{qH??mk^OLQyAoFEtGP_?hEFF?qOG{uR?lO~?OcOoaI_o[_XPlC@ewCFekG_NH`ObEPJJOj?jJE}YG`?IbBAqm[wKcYcrAHoM?_boEIeCJXGA\BhEO@IKACJA_EddhAd@NiKRLw?BD?aTy_FuoTQaJOMTGRo@CMChdcXuo`Q?I@BuLN{`??kO?IsG@GEB^aLvU_nAW`AtKOGVp|YAcoSeQx@cKrGROsPbTM}d_YBH`VL?oJkv_IiKohgS@`MRf_js`IgGwgII_ZXFRpM?_lD{T{EEBgxH__`W?G?]\CejyUq@|O?rT?KeC@uI??E|wQKjuC`C@ADeCwc_lCCMDJ_EqS`K\{kHrPbMDCTe@GsOIORNTVOJcGByO@kjuBXopo_mXqswpkqG[pPnqqLUIBwIEE{hFQBKGDPZX?QiSpLOYS__pOnY_WHSE?CBF_Z`YHcHlICPAT{_CO_HOMJdr?cOD{eZG^wHP@EdCSpPdGB`gqDpGKIT_?XPqjEwDBZJgHW?TCZ]_iaASbWgZhgWO@`Ot{PLZCEKkAoBaoWJt@`Wpt{OCWsBrG|oPPATPA|tMGiAwhW]aL_u?DCfTwAWMrVhAqhguLWGJ?S?_sCjgdDgOh_EzAOqO_LgG?m@HXcMQx@kjXwy@_\Cu@~mOg@HpcCL@eQN|E[P]KndUcUIs??Y_DPRkk`OG_]mwsMwmGwHC@pIjso?fTNCaCWChdZO~pseCv?PPwEBxu]_qG?IayOAkQoEfBBgOrQAYAK`GFxBcolVgI`WEs,False
~?@ckCBpHO{iRGdoGMLCDt_b@?SSG`W@cdjF@u?zb^Dp_GOKmVuNL`c`?Li[iaPOWcXq{WA_CrCetro@aCEIBTHOE__bABLm?FOdXGQS@|NHBBDCC`U|kACgtI?mdE@KpIlrgaQonUEaGu^fJ?pPrGVA?CWq_WKaOHBGC]GAZA[g?sRgcJ@eLXOFxGX?_L`VGAMWI@_Q?FkOR|BmCAeQDgBC?yD_sWW[zDOvwIw[QDeKB?\xUnBCSI@hgkoO?@uo`oG@FHQbGMWrb_`XKf@hTHSC?PGcts}dLc`BchZ@PEQCQdZE?Z[SMIeX@G@?\HQyGrbsw\wONS_jgGSnPM{DJCbs^WMFqsaOQiPA?`^_?VE?KipA@y?c{cKDOEpZsmH_CoE`_[r\N_KOX|MI{eCbhQvGxlIngZAD|fpHOBaRTo[BHGAL@QlmOk?obfp_PkH`dXAq\OGICGkkMaatAe{dYWh@BRC_DGqHKHnGwvJJiD__k_V?dLeiNsT@?J_qSc^hA??YJcGowGqg?WL_}AHWWDYdMjG_Jkqu?G?pbCGM@THdYPgR_foC\[GbPIJp[c`eOgq@Czz`hBOA_OHRCNkCAgAQIGdgkkX_~y?FXaDK}}eEP]Xi`FxTXQMjT[_I?OP?~_]TLgBIabT_TUO~?U`W]oCKOQIoOgOAOAkAehFBF_@_`R?^CDGRc@cdDYUP`D?QEPAdVC`UCah~jHWUQOBVGLI^eV`gCTKYlhAxzq_Kb_C@Qgeg?iBl[?wWB?FSHaTrNkiGA`YTrK??cm[WD_wKEK@@_A@GRITlkCDqSHbQCSACrNan?@{yEqMmcOeLW,False
~?@cezZkqE_AGckWti?a`cEzR?stgiO@?q_pehU^eg]lIne`@QSTVCT_aOG?GFCEkci_wYwIX?_G^Ose_S[XDHYHqIP_IKn@R@BgA?HAGLOSoLX_jksKEEGSRcOIB`AO@gvO_@OCEJXBbWLbrEr@aQM_KIQA\_rSVdLJBPNoHU?_OMIAPpq}UOUbngPIqWCAmeQP@\@iQkIBMMaKdyAT_i`YDTQJT^LTuOPiFnbpE@O@k@]c_zCPxBMa_L?AcebCvHgvzGP?uJswDtSQ_CLMCSN?uEgO@[UqOe`cfuoQ_WIgP\LIrP\k?haWoycBHGGAUV|B_F[DrJB@C`_pi|GSD@G@j[FBdKkldPG`[pVRoVckarO_o_vQ@EQqivW?FXASOHU?p?E_LUQF[JQsPC@WGj?V_KEX`?hYW@m?DGYC`cERAASf@sBacR[r@WRgAPm[R?Fbh_AO?GiBSHOACB@XSc[?Slgr@PGU?LOCkQ_{c_`jUyOC_KGH_Yx@y`D?RIhKz\pQTG?CA_P_AcDGtvKMcR_AyBV@oqR`GGtS`ZpYiWQp|NWbCM{tPHonA?OF@?OUJDm`cb\FcdYsIPRcoDG?HdUAC|o@fOXN}SdeohaEVXUbA?_a}OS?zw`p_FGVqxcno`z`p{`E?[OBMX{jO\L|FG?\QBqc`CWwT__QFAcOjC`?_Rh_fSmPaGl?Cph}{EiEg^rJTCHYLcC]{s_Fhouw@_Hcg??OWI~FBB?ikCaoqPAi@{_?}CS?cD?KMHkJmQfoEaRGEmYClcBVeO|sL^GM[D^_@ioGaA?PyPA?GGaHY@wldaM@JyJACiqNRcbmK,False
~?@cjReBW_uGIOCh|_?GCP?PhpAKh?Cb`Sp_Cac?AAU@?vEwrAZufALqSuZK_H[VadphOa?Kq^PSR]_?GWT@BAF^dzZr?C]waoFJozSWS_IBgicnspPCWkP`coZ^OaM`DaAA_DD@`Ub?PgIEPOLEaT@WCOChOQ`bHYk@pgXlOT\AlLO}P?PeXK\yCSKkCgUG_iEBZQoJFgrCsU_PbHpDKj`a@OHCXYW?HAdwhDu[CgH@K_LG?gP_Y@ZC]{hqOBeDg|U_dGWnEZPnKycl@ptw@Q?dxpRpQDNG`VN_E__@GpFAYAKA?Gze?EMjbAS`eW@byB`WEG\UzarAVNRiG@KgfWgOByEK}?IRYImXnd[o@JA[qJRBQPJCgB\?BAUGOoUHgOAS?fH{PoAH?TaPG_@m_cLHpQsCwYL@?ra_O[_`MMc@C_?CsniwFvaVFAGCFjHnnw@[QdqXA\Pq_CGK?{JGH@_R`?_GFbFBPXClF{DglG`YTcG?xfg`\|_E`EQgOo?VKu^M[_hAEaZMWQgAL]FwAsK[vM_DLe@Dw_GJ^DXDPg?rAGgvPcG`GBo@djn]P[DasxDEGix@oCNB`C_LMJCKASNXICV?JcH_DZCMA]LP^PAFj[[gwGBpYBOjcWB`JqOg@ScNxOT[tkwAyMSmbwqAC_j_I`CWMIWO?JukGL`RVcd`@Q?|JeACoypS?OEcdxQG^GpPY@`EySU?_\A?XIFHJHcWCJwMsDQ?maHraSOCuQLjeok`UDIOLhAuUAd?jvVVr_HgXOJDBA?BIF]B~S[`apB?OpLCN_IxJEtfE[aFQUabAQwW?_?d[AIXScQCu,False
~?@csHE?_GEyREJrFSTC?Ug@G\CyOTYATPhSFq?G?lL_gu]WpozWPS?eGPERFpdIcMnAD?cBcZgEPSlvC?Q@Xo?_hX\@WPt\pAC_Rd\bDlmHdhCxOBCfgAgPOSPt`qpyKodPZe_V`EbO|?XQ\oO_cXDAz_Qb_nPOGzL?@sH@Dcn?oTgIPw@M?_rk?OlPFaXG^^eCIl@\hdgRH{ZCG{wKgOWzXwL}WfpChcDGMsQHGOlaAsw?GHSAQJApBY@_gDZ@HAGoA@KvGNkQLyWY[IYoBi_KMYGAO{oSGDQdZkHi@@SucoDw_oE_@VUs_aded?C|?q^OQBAweaCCG?CtpAAC{rAqpQCTZ?xh\RH?hasIHO}bIZOIWaJc|\?SK@AOOG?R?|YeZpCKEIekA[GsWeLhOABw@H@EgnO@C{WzEYu]GSaCfKac`WAarscEuArXe{KJro@R]sRGP^HLA@mbijbSh?qMoT_PFYW@GAOtSHajo_O\AyKM?FSSP?Hd\QbQcjw[V\WpceDoAIQAPGOMFoWwAOoCd_AMK`^p[?A`grD_lOHRuTv?@q{oANK?_EDwET_daoyBnaALiFGKE@ozVChoc?`vQjhwCS\c@ZdoExnO{|Or]@|GA??@d}VGqW~OsW?WG]IGCDYCP[DS[eBAMIvE@syGib?puWOfoP`?K`w`_dKWPB?AVo?zLaV`o?CU}?cIV@A`gPKHA?INP?EoAoP_gI\AHDWkc@VALjBoqFOoOo]LdOXyZKwaTtdzyJb\XfdAAEQC_ak[AKgaOABLFrN?J`@`_eC@@]HZOURD?KbX`ys~F[O[kPOEAmpCGHc}O,False
~?@cw@hDMwQ?ThAYhCU@cCPGGS@Z{THEOoDkCCwvAEY@RPpBfzHRcrCmD|KbmfOE?jnA?E?OKAg@?SlDYYp?_C@O_hJH?beAQRw]cCgHcYj?fTHSroPWFKdG[C~P|?CCLDK}DA\TAUB@`awYO_?FESfC?d{@HOcPidg?soYGo_@WXMGESG?_EtC[KqabIKw?DjaHByJl{iwQJ_a[?V_`EWJm?A?obHp_FmdRe[_B?CY`GTJcBgad`?gqBHSeTOKce_@d[?AZCOzKK?P@ccOC?`gHoPhVtHSB@IaP~hAeB?BB}OvwJ?DPfyeAKO?GgCoWllcAbsBRBde?fQmGnomRmEYH_wHcIY?CCjQoSgGuWQB??wHROJHEC`t?ChwlRaZPDrPajVy{DDG`L?hrXcTDoEeEOgACYeU[`IOGcY@aG@xyCoErBGVYeSfiEOVAGIsc_XcmFb`bdSAHEbWsAieLowU?pETz?O~xJb@E@?WcoBqoC`_m{ieTCGBVPk|SR\xDKgFUHUFk_AahaR`OLiGbrtiY@yW~eeYsW~teHaE~?OVgSd]^dVTOl@lGZ`WW{Tygta@waUOw@ZAW]_SQlsAOmAsaD?IOoN^x?c{Ad?kf?TgxHQbE{GyQcOgJ?KX}yxsSqOGxJw{bMB@CK[bDcSBeqMRaACaEWPADf{jUG_RBo~vUWoEFMcM_S@Bou?HDOrVp_fcZiEBuL?M_K]mQotIf?AjxCWcZIAM_AXRDJp?STAOOiLK_H?FBQACBWq~OUr`B?ypdgTQABOXGa}DASERgaFCsI_G??_MJHAoHRjp\`WKch?y^EFIFyPOO?j??D,False
~?@c?PqJbN]FDaFCnO``ChWMH?H_pcuYzIL`?hy_K`?XjiK_Sl?WMVghMGWaQUfUjoHIbvgYOOn?PaKkQlOcjat@oAH^KFHSoriQgCx|Yf?IS`G_dPZy`Q_SB]DkCOPp\@eN_`SLEPU?BjFD@CdBi?c_eMHGCgA`GU[MYPPGdex]uyWsq}cCkO_O??yRaCQ?a\UOGS?LI[AP^kNh_QW`o@w@GoFGOz@GBkGPXgQB?[_}QQeUAcCjcm`Hp@kPACW_ggPN?c@?FA_Haa``Y[?QDJqG_tkHiXHFAJUlQ[l]ETI[S_Q_myi_iE??ROkDcmd}THb}`br@KOSLCC}U`Wq?pQOg[Mt_@GD@fzMgUJDO[SbEW?|OCAtWpdOGgjBL[c_s@saS?PEbAanDBhWDKsHAvlokoHQSABOEPglJ`P{d]KOWurfhoaE`fDEtO]?AOW^OSjke``cgwENPJ@kop@A@qkk?T@aNxBUYXCGGIaEad[_Kxc?MDaF_P_hPD\GAIBOa?XOKqLE@?~WCfTeDmPDS@qPiNBhwXO?i?@cmyRMBICI}DOe?dLC_?\?I_AbAD[jOwT}YApL?P?oLS@qRroJIj?oLOWiGkasJcF}x[AeGz?RXSjnNpZ@S\bsosPR@pb?rDB@LhejxZ@`sg`CPF?CsCHQdkJjFCIGq?_cgRy@`HC??FiwhoP{_\fAOW`u~_IP?lo?CSDxw`aoda@|FpQW_Fo_O??Eg_@kOFV{`omKwFk~BAP_oGh{GC``bs_AHc`g?B|[nUIYPUQHIoQau]BociRotuzGbwLYRMOqjGHSAdrLjOdJCxCsErHID?Q?K},False
~?@cAHkmaAAJqPwMY??Ta@?ce[eRHGEoEaa[_MjQdPSKZSikn|gs]SSjSka_Le@_|_U[?COAZqkhCRE[ZKSkwPIbCC@a@@tttCIVkOCqxDHWaiAN_yb_JLOCWPKPS_kGaONW?i@_IEG_QTsze?AddOAGDKSCCFBmOyBs_oHmhT_SH?hcdwjNHTfGyMoBiA`O^PQX@C`G?_aA`?qkFZICcxkCo\BCSp_a^HaAguOGpMg|HtiTe\O`VET{OCuu?ZngAiU`G?LKL[QAlYEsrx?Gi{YOeR?rbHCIbA@dOFHX?H`Mq~kC?_ZAEo@ThIgUbC@kPK`[@RIo`eG?_bco[SUS@?_Jw\G_`b[utD[ohKPAzOk?LcfIrQVDgAykFGY[_yo}QB}\AE_@@cW`BVO??E[w@Gw?@{D@Ksg{|DkG\aORPgi[aDOUAra?rtaSF^?Qqh??GSgaVW_ZyPKc[IDP?XAaudbSNzWlO_GbuERCxo?{rKlQE\ikVVSPKTw@MSEOTGDf_y{AkGWimDW@C@?WteHD?^?U@?_ayH?lSdct]KS?_PxK?jUXYXYi`cn\KM`Ap@`_AGB?]Qp`xSwMvFD_zg_PNNt`yqF?AVq?OyMI?oaHSHA}T[_qd`XoK?PB[y@CMODdKPKAqc_YvrNCHAHVQ_fbc_xx`@CGwdJLjAYDeJgOPuYIiE^GUEO@pxO`~S`OkOOwCbYXaAO?PDQZJKaiKw?SH?F\GWxFJ\qryWSK`Hh{@DA?ea_@v_pmlHTFY]SCE__ILb@PvYvP_dFsHhFC`gAcG?Wm`SAC^uBsIDCHG`I`lAW?ImgRYcqW?Bcx{gHEC,False
~?@cIE_oHh?@UlQB@A]YeuTLjL}?K_OCS?Qnu?B_XAQOGgQooONQmxtqYOV_cEk_sSwIelh@dxUBYUCC^yDfOkCxG?DgYg?P_aCaWS?GNeGCaT@GlWOWAs_?aP@COOI|@SauOjr?EcIF_GA?QlZQEpBIpqSggC|SEGHFHrEPVpfBFTiQhHOJ?H[rByJ_B_Aigoh|wBaOVaFyprYFfJ_UZkvqGmkDkBLLAOCCUTgMdeKXUOhC|eeKYO?tBAQ??MAAA?CgH_VqeIkCOYUPcKM\MSMoOXUICR_eIB~dWIJiw?TgcP[O_gwOqIEi`DWa_OgBOUgL]UHXwQHWgKRpM_O?^`OA|ZGCDvMs?oEHJDTGLH_`cbTJBOesCo?k@VaO[mMhfb@`A?@SAeoQbYyaEAKWY@Ao`GPP\?wXgA]SrzrgK?GhB?s?BY[[PsVySDuYS{Nbd_M?OHHh|utqouZ?fST_[yOBHMIeichC?etEpS|KxQdSA@paL^WGbcYt`?c`bKHO?KYqpcEYeoBchXPCWHS`@??f[bIMKD[@byCPw?MP`JOX\RGGIIPgAWSfK\A`hlvtfH@IZKpf_SF@IYEpB[@sRHchAgTRtXgK@tRFYc@evNijGdaeKzqgs_iV?\AaCUPOIa`GBGqmsHPrnNPITOOJGUIFDuZPRkddVVwCTocaAWeecm@gAO@??fSSbyPM{GS^GgT[`dh@GIL@HuJ?QyXo\PiLdIk@cGcGhGXI[JQkGCb_x@wveGXBNOAViSFoi??HsA?CWqTSu_oolC?HqFODPmL_?qc?H[FWBPWD@@V{ITGaOB_E]Dh]_`yaH?pWW,False
~?@ciR[HPPB?u_qsKjX_q_{Qp{zsf|uexAWOyAA?FK?ICcZsSmn@GUbO\BqRMaecQeT_c|cS~?}oWov|`DoswetCWLLUfQAThBb?fkvcGAcA?pGW}oLy?@]FDHsKTAbh_EDRAeLkuwbpCArHql__WAq]OckT`R_G_fEKa?kxPoTJTsF@IoZGRbBYHOTqGdfCWEd_M\iLp@DRST{oaP`EwBB`RMfO_@G?}D?MEEDE`_B?eAgJkXWSNax@RK?OC~O?EoCQA{?dh_}YVtZ?ROADEQbR??zXSCbc???W_Fa@GPYHOUCUSH_GGcTDIPOHlJwWboJclK?QO_d?@MexWFdBMpbISRahHO?WX@^o{VKSzII_KYCCHQ`X_UlHNTaQcSb\hWhQF?YpPCzO@XYZgRxDIOD?QcoxCJIObUe@EL@ea_?v@pM`@?AKe_?HWOb?PP@?SgoVb?Og??L_CLYpvLl?bDe^FOiDO@`?B?zIXcRzQaCW?t?__KPEh`KwOK@?JE^L~ohC@e^LarYohUP}IBxZYBgOcT_hoGssQvqc?ouoOGc[?]dOo_EAEIAMA]XKSU@GxMOEbAUWROSL`OhlH`UygBJFAeBjt[WLkE?KAPOwFUXDXCDSEAWSJ?|OCDSEoBOI^D[ByPwe?FWrS?X|?_QXNkv@L?HhspeUGAZoTCwEN}Bg?PDC?PfZm[RPw@OoPVDMCsWWPc_VCYAszc??xHGqlZF\XLICu?H{PpC`ZCONnlkUbYEQudaEv?Mc_Yy{ZhFAjXG??IXhoAPyO?`unMZARc?U[OC_]rcIoHOaUK`OUOVGmBJ|OGwS@UjQ?[DKH,False
~?@ckDxxWzX?wL?xHrCEpenJOO@Y@Q_lEZbkCAXC?KYwOKXFAkSObGdCxUI?DPAoWBJYOIggHGMm?WLSAic`UOQ?hdOCKYMepam_OD_}IQCWxHdC[G@iWg`OTOuTRIdHqi_pBfA@puJHQ\NLMGqriCC{EPCOqiCQG[GjCWH]pYWXH_YA]cTRciGSDJBq?o]Q]PaRKdZ?iv__AaMBa`OTPObDbPpO_?RA]goYC~AEkQVPa[eSGbQcdIMsyWEU?CfMK\Ia_XMHWPh@ipoRQmmvjO@PdCwOOL{H??yBG??XCsAEUsY?IH_?@pI_TCCVPgGWSSNKiIA@F_PFMECI?AW]xp^g_lbgFa?PSC?cJUOP^y?@D_EGZEGqkC@o?MGOCx`cl@oDbc}_Ykc`tuPSgGhjvZDUaiHWWCCAPHCIO_XkrcAf@zfbGvsSAPNqqQHKJAqGXLVhlJzaEF^OWUy@oxENYIPJlhilT@gcuFY{DpsC?CRCcu@qjyco`CULT@ZWHRpPhmuOPTCN@jC@Gvgc?CT@?SpVkpmRAV?@WAOaalToi`S?`_zSukIJSpQO?FmiY?GogcVzIXH@?KqbFYA?riQS@wchk{Vm?P_wgnEQPaO[Og@WsUMbaqkFu@iVSFQOW?kPEKYhgRQGDpwxXoXPPFCAUpGsOgf~c`g@oTOqgbTJ`KUOqP_POA@JtGgLJE@@WO_kvBM?PUOBXBPvmTT_?w_ZzcC_DDOB?ABH?QL?IqSKrnTXKKMKV?[aZMiqD[OQg@F[MaLZ{HOLtHeA?o?vP?otBFsUqPqplQLg_Oc^i_ZEhqGhLl@GaQCpLF[OUPKaE,False
~?@ca__DCC?IQdiQHcGmV?_EafS}RMExcpc_LBktJHB@_AA?\GTL|iG{jgBekTTDB@LJSh_tDobhqXAkL~LBeNcFpBBQrBPAcDhufLKkV`Gat?A?e_ck|_Ho`O`S`qAHGNP\kWvw@eHaUgaAC@Csqg\IoqyWXOjPLPg`AdKlxD?JC?H@SCgM]CAgCCGFttgCEKGpYCAp[WEwfE@nZyCJMa?Ig|A?`Qi@@zQToe?uhOsgCOEzO?W@p[rTsNGAGgGO`q?WVjx_Di?lPat`ueGU|q?`MhGPGqpU?CYOJw_BPb?el`bA@[hVB@G`AazaKFsh[zY{fOfeU@UOCPAMf_oLxsHFDiaAOQQkVYELTGQIRuCFKznQ@TzYPcs`AOC{OBeUSImT??BSB?rF@SpaO_@c}KFKAPRTRCQ}sgwCCrGAaZDPcCFzO?@yCqVNQg@OS[G?HOToM_OqoGAA@~EkIIKc?CglgiikK\rhOWHO?qSXOcofJGbsiLZHe@DPB{RAmW_@NHh?zSUZbNw?xNXSK\f?t`l_a_D?IfOuoALmM_rOSg@_@_FFD?o@CeE@SnTqFCFG@@GcbCN_YkV@sg_DRdDe]WAGJDMPJSGcPGKbfCQDEEYs_FhTcCvPD`HyjyGWv?jLh@lj[HWQh?CCg@|zDmEAPpSiV|_KP?}}QrA{[mhtrQXpL?HoeyK@[Uc?OHNbEDTHC?RZJC@ZQQoaq@AktP]Z?@XGEASOK?}YY[byUDgQgPSB[EEGoGR@BoAQkAqWgLFya^_mIpOoGA@f`q?`T`[o_kvrhaTT?PS@@gx@c??UgCGSsNA_HwGMgqsI?hpEK,False
~?@cgC?uO`NXSi_AS?PSzDvXk[Bo_C_?KLIKgSBAM?vGwdqwO]I?gfGEw_bRH?oWMucrLg?dkEIASQgaPWo`blDfYd_LvwIt?OEg~meJxO[iSeJ@MG]lCK?Pk@miDKHT\E?QJCmwegg[?a}cSCsoBG?PG@?Kl`k]AqH_A@OcHa?AM_Hrq`lnPqfYaslA~Og@{gSGGPC[KTNQgQQKFdY?GE\DDb@`TJxK@sokLG`km@Xo_{ptIsYzA?hwO?~foeGgG@\EvHOC?WTJo_DE_H?Ggsq?CL^?`F?KGj`[[CdLIGcjPt`hCkT?gKQJP[WoPpEFhWV\[sO`HYmCmS?I[ARD{RQ?O@q?h@iG?r_MTPHQLwlRXU_v{eRcgjuVZ|GtDxOwLPXGko_JKCe@]sXZTGeKgACdM{MW?o_aFor]ZaoM@x`eDSY_G?IXbXBVr?dk\BzQGx?EgtKPYQP@Cl?Owh\Rw_`narZpG@?GTDca@GnJ]TSDfRleWhQWEiqkd@T`J?twsRQAHqexPZsEHxC_D]?eAjpOqaA]Tg?O\wP_H_oWWQM}zCIYWT?BzSYIOeeDo@gE\@Vo?XPfcGC]_I@Xo?`?cUohXAZhk?UiWDbS@grFCo?X{_BowHcDXXCUik{RQ?tZ_~eJrygCciHg?TsU?]UedbM?YbaMA?yWb}GapUGCoRTQPCAVw?@SEQpzOO_@Eb?`TnE@egl}q_[?J`CwIOxbIAH{Df?MezoG?aCAoShIEGzOsG?S`RRGO?PUvaIYAC@gkPdoygDo]?DDGGG?QyrAa??@WbtBoCOsYq`WucHbBHLkSuAsJ\BcA@b[PXI`c,False
~?@cGcgstHJsQI?TOeKcWTC}KGsjWdDIRXHoQbUoYev@PsEEGwbTq?AFoWDC?LO_Y?`eG@Iw?o_?AwcgEFceD@ADIS}VRSYbwC@GWQG?MfH?xT_SDA?COoG[d_GqXCIUGArIexuQV}l_W@T?BPcoV@^{|oMF_i[A?REIGCDHPA_FBIS]CPXILK@GtLXVQUGzSyBHVHJaGCFUYn???amcF@SAhp?ip?daBYz?_X^qJObko]gNWJJiZ_A`\r_BLVe@Q_?yx?ASahA_R\yjnM@dqmB^Qnqir@qcOZQ`?pVLQ_Esu]@unfE_g@?W\AzDCOApW[Dwmac?cQnEdONpCiSC|_a?HYdCEbEcqdqDD_IAzAP{Nx\GSvFc_kL?a?Y?[isPLyUEXOcGi@IPvo@H?K_DiHfxC]EG_AaQA?_PkIQtiGBS?pS{P_qdRT?pVoR?AE`]s[qzAPQCdRWMzC_hoGWMIcpBw?HO@k]gHAE?Koo_C?r{V@l?IbAqOZ^NMWqBCYro_@WwKcOAP[JUPp?IS?KECheYUHe[[pu`KYc??SOTPDbLJqiaTmOgkZeBGxj`qG\OG`Df?F@dEK@AIa{X}krkkcoHmA_U?aZC?HZdIjOH`W[`yaX`HKY`_]u?zdAXcdKFGMeiCFD`uL]jcHq}I?DG?GRm@L_BHwaHr@_eRYOXD`fnD_VHoaxOaHADt@JKGhA\UgetqhCCoKsLZjDb`QxRD?OCCfS_LCG?@EsgWOIu\@Pw|AXiQvOrxg?MHc_?bdAB?X_VHWc_WuIpQH?MgMgiCBXRbd}]HPBTChIfIn@ekA?XAKENAThCKy@M[dp\p,False
~?@cwCnhFAEb_UuSk{TYgA?H~LcJ{OiwRDIHOq?GADs@SPGYReVeqH^AgS_R?hDAhEEC_A__NDdGk]`DDQfD[gqyB_IvmSK?O`JLk^QQ`NImWc?XC?eYDh_Oo@ASyG?HMaXHQM@dQhafLOowTzFK@KDTdbp_m_ZZKWCz_y`|?D_O?DqEO[|_G`pPyEpK_}CuNA_GMiKFACpyAgNaUJeGBIHa?rgaJ^EhaAO@BXN?_DGqXUrGFgR]QThM}d_TZ?Tt`Ylg@gaio?rjsQbOLGAaAGOOLOEOFLGGWdSdA_rdC`geAGRYyPKEIoKQOuEcUpkx}@G?DBwCGV\via_CFOId\f{bSYw?yQGWaLAuKzXWeMq@S}IgeKQkkGdAHMWMp@Ogic^CPQPoOmBpAA^hdAbOP`ENbOneo?m\gOm[rUUS_}KOXW^PerTwIOEKup~W?xbCPQbHcawIo@Bk_[g?CIsWBv?`AVq[j}YHF`lKvWEWSL_[pSOJWLdLqkiJCauSaAEAo@?_a@oi`_D?a_?EHxmw?sDhkIX?_YHBsz`hUOarCExCxTc`BRFcl`KwTDbXQq@mWUWGCxXiai^YmLAd^IGP@@olO@Pk@_gc?EIGHKkkgMdGBI`jcCoCfec@ODoKDaF_hBmQy?ROGlbYA`fq?sWq@BrD?OseNWE@dEFpB?`Sm_YJSoyiAIGo]l_?mCCIJ[GI_HSBUsqhWi_F[ITRoCFoMmCXS?cSF@dQw_swBeJp[UGpeBxAJKevOaC\Oa`GOBaBFA?SA_ZR^@?e_CJqU?qPQJ?HGiPQG@AkC[COSHR??I]o[?pCXgnbP{WA\_`Jr,False
~?@cdQhI_PIufOPOCippoSQlFGZ`LmLHMlI\b@gih}I{OCP\b_?FBZOQr[SVWgHAGQSA_PAhq?hTYgNg`^a`heAYCNMXBIGCMR[OG@KD_ec`hhdkggGA_M?oLr_VDkOS@GGuo_dqa?Q`KVK@?BC@HDpbpf\Ao`F`_LAOYy`by~l_cfS?i_AfeM?IGGGHiR_d@hElOQCAoNMOMhPLzPlARPg??BwWneA_CHQQwzHA^AC?jCACaWaBTW?ICoo?d_sgA`Mc?boHC]VcjIvpeleCD^oGfSAXCZTIBS`CxFgCUcRA?PTkWAbvA?Lkf?io\_IhJ?ESX^ZCk?mGsKJLleAEYQ_K_\WiOn`xbrGDCfOA]??C`Xab[F?a_kiGRo_GDoDpxAS}pIwQYDF?WS?jcW?EuQ[QHYOrs_AIgEgqpB{GcA\?PkS@FOegLlXsk{WcC?_vVSjFDQYwWXDs?niGG^VOssUC?leFNKtQjOQI?QE@\Q?[LH~UPA_krRA?]?@wsAEcDBcgogGICoeEG{qqbBbMce@pB`bUC?dCGB?REt_AbpVCKzsKBK@LcKk@SzMDPAsOX?bL@KBXcCk^@\?ifsJaSE_`Q`QWyqsfnpkEGgcBlWENkGmJrCBId?\gZWLBOVLtYGI?NbwFw_IBOwyYBW?]DOo?SCOg_ATv?ad@gCz?SoP`a?PDIPxPRkW?@|`jm`xc]VN`PbSCQRwbShJ\At]W_uIGAcbTfrWIYMauDQ?kLT`YiJpRu]DAXFePC?}Sd@LB@srMHE`gkRfTVFOPXCQQlw@iFTp@R?nkECPG_?EwZq@bDHeXSRQIH?_]PcJOo,False
