g6,attribute,time,total - 0.002194
g6,isDistanceRegular
~?@cB?CD?B@bKkcB@LicOmdGE@WPO?T_EgOGAoDPGV?q@O[CDOpV??_pTJCC?ALCE^?OOHMsCgmY@cP@DEECCOB?OH\?@HCPQP_GrXOC??_kimFZGYan?T@P?DCW}lkRCCAscCDG?_CA@GO@?fZDgXPAXh?`rBUco_UEG@_qCiKkoPogQ?Cc`g?Jf___`KQ?[G`GISCo?IPI?PGW?dRU?R?VA?OSC_@[GG`BbCbSgg_qUiH?fKC_wGG?M`qOwH?@KpXAOp\POwbC`abcACc?o_KOdHDigFCBa@|g@G\h@iyvgMa?CLoal]BOr?Og`A@MG?q{CsbG_qyW[FCBGaWO_ADfhTOF`\OHkHPOO?cw?CDdBR`SCqrOH`?oAAAAgTGOK?BGIK?AISsU?b_qS@IIuKPCa^hA?QySC@GWDUMwEOUSga?S?d?_oNWACA?u@oVGHDAKs`AOGC@L_@GY@_@JGCiqQ?UapO?oGc]IIxD_oqDSo?AC@Gj?HIo@LO?oB?H?we\QQ?aCcQIcGABDCWqKqb@X_qA?ccAS?f_{EAO?DaPG?kS@kG_MPqOB?KOhSBLADH_EBLHoX?AGbCeSQAN?O_oAaGAAGnGD@UOcH?RDq_AGdWaGN_gDAT?gu?pCG[G_eweE?@O?@?idAWs_?LC?c?KGDO?AROIA@ae`?IKdS?EbPECG@M?C?CBa@qaAeHE\o?OQh@OSDOiL_PCOC?gfMW?IAHP??sC?CBA?E?P^Wb@`]KZ@OC[Cj?`_c?G@COiwGSWa_tPKdAD@pBdd@?ODEPkDBOTOC?wGGyCgCSCAdSGrWOyLrUVI@_HPwcOsi,False
~?@cGAmIMC?}E?T[CAWP_oHhHFA_`AdWVIEceBMYaC@A@O?WQyb?_Q??a[?gXzON?WFCHVlbDkd?LPwDZ`pDHH_EESULFQC_QEd?QApAJGYPWHGEQR???OLdc??C_K?O_DCWW_S?PW?SBDd@_nBK?_GtD`DAkcRKWoyk??zZI_OcAgKcABL?baO@ab?_?zIqoCEBltA`uC`cMB?IAC@^?@`LGcQGqWHATDWGC{AAEwVRKMRC?Ap@GGqFcc`iBLM?HXOQPQ?PCG__T@B_UQA@eE@QHL_`YKY`@GICeKDEC?q?OA_PWGc]Xa{ogMB??boo@KbW@C@px?_HIcbOAC??CHCUCG`CO?bgK?F@XQPqA??Ce?OA@QG_C`ddOYgTGA?GVOWU?_ck_khoEKsI?T_KD?SU@jHCF?FGG`J@MODpB_Q?IOqBW`AO?GA?qRCoFPP@QA?GS`R?mBG_EH`wFGH_RGgKEvDIWcxCN?sCCdj?@X_G_@?A_g?wXUgGoEaAPKGcAc??C@GaAZPOAULAQCDbqKR?gGJ@C?WSAfG@z@OOGR_JfC?q_b@MgcMH[s?oEAYIKRt@YRCbW`oaCGWH_CAL\?SDCO@k`CbClduuaQgKCQCGDSCO?_wOpguHpekG?AkcCA[?IbI?p?PpAQB?HVeKDYCMpO?@AHQOA??OWPO?`ACO\Ggd@?vHO?APQM?@aC?GeO??sDGoOK_VX`?cCOACIc?LFS`_H??ETGMwoM_?TCI?BUEXQAX_O@[GcG`?JwcjLG??EI`?AiG?gjGNQWTOcOC?COk`U\L@pBoS@OKQatDDWDI?hgM?oG`YAB{iC,False
~?@c?xAWaOtlR?A_aDG?[cO_W??Z??KOHgG?GCGQx@QCItzO@DA@aB?[cLOqXO?SCD@C@rM@oHO`OE`A_U?tNMIRAjCAOdW?kG`_YA?OBGAbGGSg@owI@@gwJKB@Gr@rT@G?CASDC__GG`cBpgF?@QCPBXC?KhFc_gpKAGCCQ?@_?M\oRCT_HEOo_p?Q?A?HKQ`D_E_Cw@?_iaeRlPc?QLf@CQ``OVQMzGGCBB?IpC`SF??JDoWsJOUSC?@WO???jkilSHiK@AL_IASkBcIRHPXGW?YbcAaPCW\H?SW_pGG`?hHQOdkUKg?aoAC?Cn_XK@?@CGsbe?CqG?G?x?C[??HJQG_@AMKrTBaCsQaBG@KagqAGXAlsCKFI?HD_\DGFa?@SBa@OaRT`RCAOdOU?gwBCd?C`PL@Xox_?VO_EPih@HMaga@XQPBV[O?a?OgkCCY@B?iFPi@AHyb?e_OBWC`@\oEG?XbgPiL`GNjCgEwbbaUgb?CfXCYOEAoAPPG@GbyW@MQWLO?oTCXKEeSBCGS`??psj?GafCI|DAv@@[^@DaAtX`?uLAa@?_m??_gh_kE[IBaAPokxL?BdQg_OC`uoSQO[cGBPKQH_hS@CI?ZCC?N?aA@Sas@EHT?kTOODO@A?EaA`LFC\GcWAo_oP`WH?EoCt{CbYOECRBOMSBiCADAEWADhA?G_QCBAxWxK@CwiA?b@CK@CdQs?AGCAOOdG?b?CeW@p@BOCY@gA?IB?vyqOSDbHC_EP?gmwC?F[OIULKGCAC@qPQ_S_AdgC\@P?qh?@K?Q?GPzO?PaSOQCD@DX_FICE]?P?@UCEAKH,False
~?@csBaWUCAwAYLg?cHQ?aAR?O?W?QG?ooTgYCC?_SoSI@o?DYeGAWRCQ_to_CCHMe@J@cheAL@ab[xOgM?`@_KCLQON?A[GKw_CCOO?SKD@_GG^aIyYqhcVAcOGQO?OJB@?LqOf[POoCOB@?aGSH_g?aC@iqdSPOXOOd?UQ?_@uKEQ@kcOq@ILEs?SC~E@@SDD`DmQOA?o?GK@MKGOWAQCG?GOEaOFcO@q?}O]q@WO?H`CEG@EPIsR_GWCG`gPg{G?HhCK?HgRCQCGoG?@cI?bym?ADHCkHOoEE@p?_gRH_kAgWLWhaKDB@_[Q?WLHSR_c]KAG?FQopORCR@ePC?gKQXCEKlGaOYG?S?cW\_[|?``G?`oH]D_KR?wKOp[ig??@??@Xc}CBFpuFaBWrPHomSNE?B@?WnI_GatYMghdSACGMccO_tE?OO_HT?BlZ@OkBax[LPL?WuKQCOGQeC?zVJCACwq@RO?Bc?AA@b?JRKe?_@KJAKg`M?BA?BPuzG_@JcYP_?AjoC?@GJACGN@EKjA_?@_U?@a?@IlOBerJ?W?C_aCgO_AKWAKGF@C?oOAPUg?AEhQHGRI?W\GAAP?o?MSOoCCPQ?M_rB@?FEBH?CGIcw?OACOpCEGo|DK@GD?I?HdGPCJ?C_SCcKmNp?X[EH@W?hG?_?cCDE{{_AP?D{?aug?C@DHO`P@\DBsAMq`?@WrWCOHarC?EOJ?AgPq_hsAh_Oo?i?QEdcEOOak?FkO[@T?k_gARsZWa_`?rW@pa_xSAgEjTi_aCG@RGOaC@@BGxA_WHAeuHEfCPCoHRsU@HuyPPMSgODD?PLGV,False
~?@cgDOCA[@?ICS@?EOGFqGeWiO_OE?GEQztCKQ?KKC_AMaK?[UWwgoagM?DOg?_Sy?COB?D?SP^CXHEFHQOcM?pZJ_Gb?`GZGa?_??x?_aPKKTypP_?oPGQiAEXUaOAATZLP?EOotKsHwAiOkEt?wC?I`GHgEACax_a_xGOQBK@AIK?G@NR?g@ARUcG]OKAHo_C_@PCQxJ@o\AnU@?CKO@UDC@DAP[H`?tEHO\_H|KdaMKAyG`Z?C@XM@BFBOCG?`MGOc{``|IQO?A?kE?G[PW[hw?SB|EOG?OOWhB_?u?PCAgSwQ]@G@KP?C_@aGHCWiyhAgLG?DCA?CXtC??S@_sORo_KC_@EGcK?MTiGSD{QCTBFMS@\WAOSg?k??Ac_c[?OYHs@YAEYM@yO@k@QEIYOhCLoGCEIIU_oH?P[go?_H@yAK@?cBGTEEQc?eIa?_A?GMFill^ae??M`PN@gBd_co?Gopc?A?DHHCIP@hgC_`GCKR_DcsCtYRFOTD?@Jdw}EOcDXcdE@?RAK`JPU?DAaC?_jgPKAA|GFOPS_?QPEHAbGsgC`Q?AlDG?HMpDQCOBH@??e?A@?i?Cv?]PASPXO@bQSEhHKbCo@t?aCTxqC?eA?@N?DjaD?_A?CYacAGDMAbdDCW_XHXAcP?G@OK`Q@?g_?@ECzQcBJDFOM?ILD`GG?DcOOoO^H``OW_ZcAGg~@C@@A?`?qkOS?DHGCChAU`EQGCEC?DXd~W@zHo?_OFat|WN@HQDHOxAwGTj`oc?UC[_O[Z_kC@`BEACoCf@c?IK?aACo?YOUED?E]TB@hO__orOO_Oa?gQW?OO,False
~?@cG__TQOCCQCSTW_Gs?GcG_OkOsMB_WsERwJO?EA@?C??QaEAwI_o??gSri@OHO?AA\?@G?f?ch_GAg?hW?uCg?TSD?|Fz?C_CW?AkFkcGw?]w_??_?m?EqAa_?p?gIAc_]IrsasfIBGCGa`@@D@BBHGOHLhbCYe]`ODACoS|ARAGAaGTBUIAFlAcY?_WAOSCh@ACH`GA|aOWG_?H@GA?PJ_@TF@D?vQ^p_kTF@WQ_Xhg?_GFBIU\OCpo@HCS@a??e`W_iaJ@]wwLGG@FKcAKTOubQ`dh?AQy?lDAPPpPFACOOa?YC@CHOGGAy?a@XHAorjH{WI?f}Up??M?P@??ssOEPG\UH@t`GGQOgeOxPFC?GcC?QkEC{vkB@mGE`aFG@Lp?@CWDW??Xi_@Y_PIg]oaASVOGhOag??aAcP\?HROnOHaQOa@q\T?AQCp@QyCJ?`obPRY??OOKDpQLRiQLlg?pA[@?gAsD?cSI?IP_[AwO@`Qo@v?@?PAC[BQGJC_LG__APpoXeKC?OdAEGCiRqf??A@OWOGsXoqOY?MBHKG?`g?QGW?oOA?`OI@TAG?QGHZSP`BQ?POA{KWRmIE@?QmMgcgcXWJ@hPDPleG_CGA?@aEa@IpELpOD_\a@EIdecZRBJIbA@S?MKQEDC?CUSPUED@KKI?EAfcSCAJWGOFh?Q?poPAC[iAc@QAzGwCh?T@B?AEF_BYN?@OKI@rT@IqYZG@QpODSA?~AiTJ?_F?@G?YW_FQ@aQG?OLD?ECg]ASSDO_A?qI?C?CEyKkeQ?dLVG?c?@PEGuD?do?_|?@_?CgGP?bEIQC@AO@EUh,False
~?@c@HGHSeOa_A@HC`Q?hNU?@?HAa@Og?[?hWA_GauPdFTXCD_PA?q@OoG?G@@GlUGbBE@A?Jm]wOAC?LOOEFfCSYOS@AR~BKDrCH??vIoEfQDAqABAU[BRxUOKGEX??O?H@Q`HssH?Ok~GcM??OC?YCJ\gTO?X@MU@T_u?@RMAHOOC@?I?RPOW_`PIOag?s`pTI`AyOR`@DgQ?n_Rc??GO?AUPRDQRECC?HGgW@]GC?TQ?s_lEGGWO?ag}?C?B?CCEOJECoDg_@iK?AaH@EAAI[KE`?tXMGG_`DGHBRKVC?qKGTQIF_GAOpKOWOJWGDO_?`M_C?GSBY@OB?ZIAx\D_|aw??Ag@LiaIvCHa[W??IqVKpHlF_?@?FPnAdIA@D?KgI`uTO_O__UWCcDACP??C`A~GCFK??P_eFQOR_CScrcKPHqAHA@y`?Cg?OGbGEAWY?`CKFGBAPyGCC_DO??KQQ_CI@QAwA_?JnCW?GHyjCo?XPM?oH@GKS_Q}WzehHDglKQOc?\ORJq@OGFWPB@nhACZVGAC_GGe@Oa~?K?gqI_HULcCGd@MQ@aEH?YKU}P_[coAM_CQGgI_ABoFDBc??EPe_?cIiA__GgdsOTEey`MWkHwp_S?@pHICO?_Sawgc?P_CA?IFSqoOBFeA?CDG_aOMIGh[@QSEMG??__BM?H?ABBCc_W@sg_bkqUoETLP?GCWHSB?DDCSSggNOc_A_Gcd@@@cgdiLISqqUm??[LIQ?MGOAOOs??XOKbOQJ@_xADA`LYWfFC?Lgo?`JEa?YFOQ\iPgc~`@_?leHVJgIOAW?cA@I_@?HBIDEGOG,False
~?@cGAW]`I_Ohc?@a?CG?_o`csFBCOHpORSC^eOMIEAkETUDC?MA?AFOGJA?B?PX?AsFGGH?Em_IAonE?AWEKG__G_Oc\I@_L_BK?RHpKB_p[OC?L[KPYd@_E?@vGaAJGD@?IgAUsOGw@L?u?E@Kd?A??KoTCGHcoCCC@EGjA@A?CoNrZi`?_@?MoWXH??D@?G??E\WCH?G_O`T^H?Mrg?sD@?AKT_?_?@oG_xAeaU[gLSGIIpCzGAO@Qa@EO_gfgJOQE_E?kCdCC_oG@?Xt@DqqqRHXDB?_aqo@Ad_Yie?__YtS?TCEgdOBDH@jybHosduOo?CoO[SI[HaCAg?aePdHEAREiBk@qYa`?eF??OW_UOawAe_`wWGbC?[EC_Aw?\GsGCiM?`@g?IUECCFOc_gcKw?FdO{gEw?_OYS@hH[WQ?GEGPhAoOEcCUggMFCOG?aAC`GcgCiogBKgJ@EOAmo_@cGd@@QoFwAPN{EgPTCG?G?dSA__AP[AoeES~_IQYgFWO^O_yIQgIgwCO??EoDqXcCFNBRvG^?XSpS{?EU[HaEF_AP?HAJwLPjoIL?KcLAgC`doTd@baPIC_c?bgCFc?pAAO_eKGG?yAupCD_vQucGakSCcr_?dWY?WBcA@BzD?`P??@IvoAOR@KhIOAA?e@?`b?dJ_Gwp?M?I@?qOcBb`AB`pGOUGOACd`_?AA@?a_XS[@NB[aHRCp?G?BWIg@cPOWORyRCAK?LP@?OS??@`_UW@QDoAD??Qd?`I?CkELEpI?_CAGAiEFFGP?SQ`@D?HD_C?I?eqhwIamsLoC_ECaFj?LX?}XS_@G?Ow,False
~?@cm`MOI?rO[oPV@OsAaaAa`bS@?_C_cO?pOgU?M@EowCCC`?uBOSACc}o@{O`KfX~OkUCgMQC_Pqja_IooJJ^?SZ@?C?h@W^_?toYBbSW?AH?[C?DOsaOS_ycA?tOX?K_iOAPH@WDO]GU__KOkXHOV_OF[IaIC@Fg`dPPSoHYMJWJBA?@@_KBq_@Oo_EgqoKmbS@a_OCUA?S`CA_@CCUaitsGu?D}O??AA[FSraaOdH?HWGP?bg?m`?AAOACY@?I?y?@BDy`IK?Mawg_jl_p?_B{?ug_???@h_KOPBr_A`A?PCAAU_c`GoX?Ga?xJCGgi@_?HG_E@C@KEcMRPIJ?A?BL`eGu{CQwd_Q?ItPIG?gyHCo`?sCvi@qO@CCDGe@LdsckO{EPuAxLgHdoSu?lmKOA_PDg@`eBQ?G?SD~@?_C_EPQs?_Gg@G?@@OOlPGCEYgghmWN`?XHKQQVCOSHqm[T@J@?Mg[`A?LhRCrls_wA`K@gURw?GoHR}HGGQB@AfBAs?PG@?CW?@G^_MMP@k@W^A`aBnGKK?CQqO_C@DEeY[R@y?DOI_Y@MB_?QKDAYo_?PH?gB`OOC?X?ki`AgwABo`GHegGCh?Z_S@G?Ry_CQFXmeX`PD`W?GEMGQa?BAd??kCa__?{a|SYDmAAA?B??_GCZA@?yAosWAWCG@W?OX_MEBCBBR?__Q?RIRGS`@GmCGCOkGO_FAKB??@pOdddAW?G@sKfO?@?B?PJO??wp@g`OiCOq?Ig?Y?KG?XBs_IoQ?CRCo^?RCOAQW?k_O_SGEO`ecLpE`GPCc@CHEGE?Ho?HHuDGG@bU_AgEO,False
~?@cGsaCSN?HSGI??H?oO[[_c@`@??m@BA?lG?_?pfKQanJq@_?S{qBgpO@NaoEqSR@B@?IYk\_W?o@TVSK\Po?ccYGG`A?FW?@OKMKCoI@CO??jG@???CBoIHA_O_@Oos_??e?BGgcK`_SakHkTGOxOGAc?ae@BbC?e@[TC@{mS?aC_?GrJG@Y?Q@c`?U{Ca?Wc?GKHi_`?AFAwa?_oC?R?NNS__HCESg__Ng_GBGSgSCGMCGgWPpC_VY?VOOGDQbIis__BsO?EPBOSaA?JGa@G_TOXC?OKd@?LF??@WC_A?@AEuQs?Kx@T?D@AWTRA?Q??A__KqOKNeISdtt_xdosL?Db_?_cAf_GCh??CIOK`oDDl@ES?R\_@@PATRAGCAvgO?V@RaK?YaP??AHWDC?g[bG`f\KcKDe_oWCHGQkOGxDGikIA[w`GAG@bDaKAI?UWSETsHNAB?EaO?F}kO`?HIRcc@{H[pFKcO?]bdK?BC_gPTEpPGAA`PqGF_AGI@d]@CKQGqRDSS@K@GO_gBDcNBA??@`HcqPE[?c@d]Cl?R@NBTlI_SesCcA?g?C\_PBOdEpAS_G`aDd@\AKORaOhGWGG@l_OTTEHG`bC?CQdLWAB?oCfKiSBRAAZMGshGaO_G@?Q\M^UCB?R]oA?CW?IDQKdtpB_DpqCk?yCkv?O`EG\WC_YW?GAQ?_aSah@oXGGFcWe?AX_ADQLaeQatHP_@PBSAVQFC?uW?geq[DiOKL?lHSOAGW?D_@t?KX?D?C_O?TGME?DAzJ\KgpP?gCB?@G@d?A?CgSPaoSBjGl[BEhyggICaQKK`_OcEbcH,False
~?@cDBgBA@AA?tOd?heSyq?PUE@_???GAmEdoH?OLUW]I?SCg_cq@Oc_P@OLE?OFW@B@PBDQQOOWox_bBHOW\_uS?G@?kkoShJbK@WZTMAWXpPS?X?\OCQBB_x??gDQSb[_??@D@De_C@CG@QI_?OkKLR?PG?W?[A}AGQLW`@eH_HjASkD@qOECR??IOx?___SCZCCeAGm`\BO`e_?AR?dCjGOBQAOq?CyGRF_c?YO?A?GERCYLDQgQC`M@OarOjECM?GqPGoP_WGsCCD?CX_oQ_g@}?Xd?i@_q_cyEYOBP@cD?wt?IdDYPQ@@KpoOYK[GOC?wEpb?Oac?XsHd@GC???BO_{@`AO_tUW@_?[@@oSAG``T}SP^QgcQSE_s@bb?LSa_?co?SQAKadnfEWDCcWDA@@OXAYcOAUPsGTKYcY`oIO??C?V?OKTtAGeMgc?goBQAxaKH_?KfGCIHBAJAJ_?yG??DA`?V_qHIcYM_??XD@ES_?_DPGIyGb?@Wmj_GV?CV?EM_c_ENoTAWKOBSSXB?GSBWQASuPQJ@??RaK\iGOMU??K?OAOCK@SJ_c_KRSAIPEkQMaG@}G@Dg|SHcA?PP`aRBOR?CIQwKf?SA_aAQACeGGYCb?g?OcOCki_C@CpZ_OIgq?OAWBC@_CAVYqPU@_?A?lTSJKAy`GgacKa?IBDpgAAIlET_KPO?IMeH?_Cd@eTSPO|EB[SO?E?psGAi|_?FDwQ@dDOGGUOA}K?SoIO?X?@bMHPsaY_P?YjoIQP_OA_OOVD]cGIwS?AH?o{?Cs_O\eACy_@areOjOBA?CYB?GkHx`~AT[AGH?,False
~?@cGwo?@OYGSHoc`?OhI@QWIh?oIHbRC@OiZCK@HPO?C?_I@?GGacYFOSDC?_COL?_XDK_DoAC?\DBgoS_IIO]?@dAXFAAPQsk_RppcHMAoK?f_WLcOIkjAXeWSA?r@qJSaK_S@?`IC_@sI_E?AgE?_qyoKlaAo@IOBGAu^?GQ@_HW{lC??gCSKDUfEL`_UgFGGO?a@L^as?VOJ`?AoJFlArch?@K?ACQsqA?gASW`fRw??EOthPSGGSG@`ACAHPDRkA@TcPYUD@?{lM?mI?YgHI???OC?YSY?O[dGOQ@?olh@K]CO?o`h?i_B?Cqe{aHFFw?pTAOGF@dQEbODgW?wogAQkHO?kCP@AKASSoUC?hUeP_OE|HCEHGWSR_x[SMAaOFc@at@OCL?`DgIoGc_{R??PG_?LOCiA`Z?b_KWLsaSZF?C`@WHrcJsY_@T?Q@ECdC?HoBc?AO@Q@gM?A[?aCs`SesoOY?WxBWUB????P_`c?XPtCCWfHC`BBCPq@\AQAG?G?dJChOP@{`oPCO^@WDkKSW@ORBVCCGKlb`EK@KbDA?W??[GOKA?o?^Tbpog?sAAYGgZoAp??HC?HMGOIPokGQAcI{QempW?ojwaDWPg`OQO?SG?X?@?W\h_l_?__GOw?oqGDSzAM@g|Yh@O@Q^C?A?Agx?a?@??OC?KKkPqQQAWXP[EhS@??hEXQkADW@k?O?oTToQy?GQyWbH@c@M?_Sr`?RpVHy@@AIO?CHGs_Y@{MG?K?K??OKI_MVURCOOCCqIDGAep@E@GCR]E?Ol@k?OEQBi@F_AgU@WdMDCA?_Kax_OHg@G?Qat,False
~?@ccu?B`JC[c?YYg[_f?RmSDk?OOsY]??Q_HO[PFCP^BfiWhGA_hhGLg?_?QWsQEaU[@?AD?COPFuAdHoAWCIQcoX`X??cEQDOtKQEWPSwDQgFCRRc_o_A_cGOC??OodOQ?Q?_?TGcM\[HC?JA?AdPccaSUEEBYOOW?BKWHO?eg_?ocEcG`_@C?UC@GAO?Ada?O[G?gz{`WOgAT_qG[Jg@OBo@?O?@AAo??cF_hp??AGpwG?sEAC_lYABhQD_RClScDIW?MRmCDlIRD_?HC@CYK_SFG_oOCk@d_???H_XI[_YQD@pdOGFHTDlD`AWaH??HSOW?`Fg?AEQGWO\yRE?yoO?lPT@JqOE_IPQyeuX@noA|GsC?ooFp_?_OAAwRPg?___Ppz[hQ`?QD@zd_BCoaBgZqDGbaFDKASBAOd?CkSQ?mIBAQrHKOHOQU_A?OG@OGq?gC[iaD]C@doSDR_CHYqt?_SCS@?F?OaHEI@lQD?OH@OQkhJP_`DW@gD???CA_cuAC_fw@_PqCCkGIkAaCI@iTXWGC`HWqR@`KnsCoh@O@o@BCU?A??@?mFjP?I@wTIWO`e@?hfbqYApAC?KCDGlCZ\U?sdBdQ@?SSACCOc?OIIGeCb_CISBM?BF@DA_ePByDcEGPkuO@KOpk?@_B_?O_OQDGA???C{iTO?G_OG?SO_CXCU[GxC?CwA?@`dGpG?RHIdwkCMa@???_q?AiC@l@AOHoEG\HGpXFI@CXLcO?@oAXuu@mKoTUnW?OhOAPGaG_od@sEAIUOk?BbVG?z@_aseOCfo`Gi_crhCSAQSbdCcHCAKAWK__GHpO[,False
~?@cLLFC_@@THAIXO@cAA{?q`mgiFdAexa_GCPSr?HoIQO?CQ???@_C?Oo?Q_DRG@aCQA?KOAQEsimEWSAAg??KoDOCTAEGxGwAgcQ]A?RhHA`dDf@qG?OliDtB@?`G_AG@??icG`OqA_K`g?H@??pChC@ABGskOA[]{c?@IHQ@gIAkOaCWAiKcwqoq_R?CYDOoBB?iC`O[CTOey_PbGqPft?gBCOFAA?hOID`?eIGEA??_XAu???VKO?WwHEC\__\??oAAu?dBG@t~?cD`wBW_Nbh?o`m@p?Ca@SS?M?CcWsO\j?c?GRnSpaGQ?eFDOE@CTAoGSBH`CSo???B[@CckxT?CWK?BEcPFWBRA`FpHDHCH`hSj?@K?QMXwGh@EOChC`GHY@tHYPHJaGBiN}?XoTagaCB?CgOUWG?Ggf?HFjEMCJE?bFYD_JofH@_IAOmI??OkOccWOL?k?W?aN?PWHQoH_KPO?aiQ??p???E?q@GeLCG_hHKB_[O?HAeaIH_ew_PoGCEto?OGK@Ap_D]T]crCAhxSD?O__QtUDWc?_kaCCO?MDcAyb`P@OUK?AIQ?XHcsf@?oh@BOUBt_Uj_??BCQAKoO?JAo__Aj]GFGA_^@EAGpE@?G\aBCAAdOCBGN`CcI_OvqgGp[^d@C?eWWGO?`ICMCwa_r?gKEET_AOR?cO`i?`BjCAasREGpqOCT_vA_hAbA?zGs_DPGCacEpIg?ROaLD??D_GOOJ?\Oo@XDGSSo@q?A@T??PmaIkgW?MDoNOUUZR_?OBDSO?PvNaIWAKHbGYM?oiAagOC_OAMAA?]H_HGQS@C?QzRN_,False
~?@cFCH\_@do]ABtE_@gL?oOOCGMQCiQ_C?IH[GGCUO_?JaTY?dRROAaOCBDT?W?sGGUCYPY@X?ZEoC]dsO_dCIpc?KPPGLgEBYcJAtKD?R?Hq_aNa[GQGWTCp?`pWepR{XFo?g?HOkP_gOkCo@O?cRSYXTOajoobg`IAFaaG?ojh?KCiGSA?ga?XJ_R[SHjOQUBQG?W@PFG?DRTdO??HOGqAwW^KA?ABqD?mqO_CCM??GD_?GCwqMIG_DC@TObCYPcPWOCwCCT_Wm?GiO[i`yQ@G@bWWFWA_MgO?@O@igCBGZOo???Hbw_KqI\`AGCGwOOFCqGg`wKaGS?Ah??I@YO?GchO?PG??ESQ@W@`GD?A`St?G?J?FOq@wcO??HGSag?t_dKWKC?Q??__?GBCH@TBE??HKeG_L?oDoGOObOSaAWd@sD?`J?PN?@_@KFB?UC@AdaTG?G@oGCE?oZ~GB?_?SfC_T`PoTD?ACKPoG_gBQgYLd_fRq_?@KrDOpEueEENHVOXKW@m?QQ]sWC_OWI@CC``GOqQGCogDW?q?pcCqCPT_cIiCAgsbZy?Po?Wa?iqbUhECyHXwORXRWA?W`ZQN?@DCP?OgTJOGACARBOsW`dMG`?BO?g`?AE_Q?_SOAWwI@kcT?CM?qJoZUQitaL?LKawCPLGoi@G]@IgsOL{?ac_qGKrACZ@G_SLI?S@{_Ib`BbA_DE_@O?eI?_Q?GelO?CI[gMIACwO_dLfbGcjbo?H@CQDaMb@Z?kgy`Y_QQQS??CC_q\JIdCK?OCBig@mxo@KQ@`EoogpP?K@G??bt?dcuE?H{@?KD@??{?,False
~?@c}owDkQO_NCCHOLwHOCU@aCPpD~WHAJR_HPBOO`@?EyEWPCADIwT[?acGHWO?o??ySQW`XHUOIPK[uBQQcaaeHS_@WP@ChGC?_gAm@E_GG?c?BO?GTbEOaDaQMwPy?hAdGso__SA?caAOZcSW_Ag?O?`?AM?jI?_CQV`}fAAgXO@\A@nqQ_JKPq@hWo@AswD?F~AK@_aCAeSoo~y?gsXx@_ASdO?Q?WsofSegCFc`QiwhECOOaTV?eGEC??CoTwCID@G?tQ@Us_H??GQ?A??@_CAW|GOBaR`w?@cIGPzQ@`OC?{GSGhICicOCuDSOSPy`oHbO?_KBOOPG\kG_GoH~CSKBQPudQmgXO@XyOQn?DFAWO[Oo`OR?ADWH@I@KR?CWGC`?IEBOHFMGR@XoBl?_OCqGif_AFOg?]BIT?CWW@O`OC_SWC@KDOvuAK`HADb_oQ[GDfc[LDoIOado?GICFQctQOQC?COWO@?_GB?C?HOGDo_NKjgHB`wCpkAc?M?gWH@_u@SO_??K??]?DEBBe?O?AUBKcL?QJ[D[AXAlKBwC@KcAOii_?FE_w?UEWHGGjY_Y?`G??@QCXi}?qCgo?YRDWO@d_GPpY@X??AORc@OWAW??HHDc@O_U__S@G?i_IoGMEiHA_PSC_@@x?_?A]Eo@?E`@Yo?OIa?O?lKOtskBi@I\L^dCbEcDo@ADk@@@Wmjo_QxaU@DGGHceAC[ARUkyCUD?A_gfOXKHgC_AI?fP`SPM`DLowG@aGc@OcAA?PLPBB?cA@XKJBUG@HC@_iaOcT?@?PhW_k?IGSSDPYOB?Gc`_?`bGH__?CY,False
~?@cFSGKAdHDQAHGPw_Th@WE[oC}?gG@OOUH_TD_ohggi?EG?D[EP?WFaPgRqOGGyHXGcYpKI_??Bp@ASoPPw?IKKp]?P_Gid`ucclSi_CEkdOcEOEcQ@Tt?hOBSDcPKo@@XGG@`AQGcwfAcO_I?M[dH[Zg@q?dIB?eBJF@R@A@A?o[C?IgIYJ?@OAhGCO@oD`IwkCR?S@e`?Yh_?_TYRcIBKOooA`bJo??agA`UbA[O_MhCG?W?A_G_MU_aG??@qfIlGwAKO{RdkCS_GKpWTo??Cg_@g_?`??aX?OODOoH`T?GtUGAW_f?]iMIO?EE?_AI?D_OHwUD??hEHOP?ACgxCh[COcvSw_?QS@Eg_?KaCOaOoFCC[H_fckcWM_@SXQLFHE?AsTCUoAaO@_uHdHAbrSG?i`cfS?_]S?GaAaX?V?ABOapd?OOX_@BD?gAgIO?SaOOW?AO@B??APAAiaEGzKSsA_qco{BzD@kECk@GiXoR`F_?KoOKO??}E_roqYHE?OTE_g_sC__aLHJYC?W?DYG_?C`M_?ECcc[AG?I`__W?IT`pm??@NlIIP`H?SoWI{PC?@a@aPBYoODaCQ@FhLh@AFP?JCG??E_?G@OHIGWB`ND@XWQTIED?CCzOcCD?Qw?gAGEbXgOcusPeOAW?he?Oc_?jRgR@OJOCLOIS@aP\oWoOH?kb_IDaIGGU@OOG^Q@t?gkDcGKTsAac?A?_DS_CYNCCD`?^E@SAofKWYS?xdTKAHsH?UEPOQUaO@??ci}c[aDq}DYDdv_?W?P?cP`_GAceGBCp`@OGZA__?SKCF@{pK?kghQhAOWw{?,False
~?@c_CDLGAQAAF????`RCGc?O?SBHO?oC@OMWC?xGIHAcU_VLCpOxQGKXGz_OQSd@OB?ODCoGo`?SGOC?q@sRILA_T`cEgAwCA?_oo?l?JO???zgL_AUO?DhQEP?OpCOu?H?BgGcPc_s??DC?jeCE_YcZC_RaRdYpfgH@DCOIkTCHBmgGB@o_jASVZ??__EEIN@gSEaQsAH@pCRIk?A__?RAopM?ODDoHk?K_QAtVAa?AoY?WxgAGS__cAW?_OkScCQ?@PbEIKaO_s@rcsME??vIGhC_@rc{XSJ?KGf_cQAPCJLVQb@@`GKg?LHWJEoNHPF??C@qG?S__GeeO?HSOCUBUhxQVyHqY??A@?OW?_CeAGO_gIOOOaIOS?^iEEYRHl`Aq?DhCP\JGKoopGAZb`BAISQOg?AeOTISBgK?`?ahcfPOaiDGkoBDPPAe?g?OQSAGW__o???WaEo?MIUS?BkP??GAgO`?g?dPOB?IC_Dw\aWoaJAQ?bKnDK?Q??^OPGA@Mc?OaGCOLO`aTEoIC@ghQ_aDDU?H?HDO?G`NBi?co?LgWKCJK@MeSHX^OcgNXOIWOK_qOxW_Ex\G`FOCI?r@aeNgFCAgCbjEDL?gT_?aDm@`LCwUHw@aBRGyCOENNECC?@Ga?EBOHNoSe?iyHF?TXqPcfSi?Oc_YK?_AA@qH?boKppF?owX?sOADK@CgWwTG_AP?@`A?DZWWi?`[AA@lo?BO?LR?A`o_K^ebEKDQUI_UJogQI_VAw??Pe?cAd??O?CDZKtG?KgehLXGREPBNcSEQQRQy|O?IkBC?WSFw?_O_AwN?QCMC?CT?_,False
~?@cyDeRSP?`cLbPa??O@@JHE?aW?AHaWaa@QpbDS??I[Ay{do_ZBSWGL?YIo_?AHOEHbGCQBA?}{{GObo~[s?FFEPA?DdOm?SAOC`SbC@iZ?`HTDGDJGA@HDi]CpS_`pO?d?gW??_EoUHdA?OoOgH\jPCxR@__\k?B??c?@QoeOoXQmri?_?G{FGsqQNe?GKCrEA?{SVow@W?`[_??COAaQK_uCOs?gaHO@hG?EX??CSOOJ??FG_sw`??_T?G?kvCSAOO__W?wkGbEG@SGQOHqcTOSx^HIGA?KEOokIS`G@s?wLKDZG`N_WO_?AE{BGy__d_cWA??AK_G@@QDDWlhC_[L`OS]CYdONAOGt{CODASga_oOja?`X?@@DBoDjC@eDc?f??CwA`Xs?x]?WP@IogkiQyZ_?A`KcPfKTSa]gqGEsK\jpMB{G@?@?bGA???C]@dOORC?cOZ_cd_k@aBko_c@FJOP@C?SGHP_TaO]??TWS?CKgABCmGFHsOOCGDPAgmhOBSAS?_GS@DI?C??E@BPCBOGIQP_?V?cccaCK?Og?HE?iqomE_D]`g??QGiTL\@IIh?riOsOw_\?`?egO?CJFG?DC?g?EAI@Ab`ggI]?c?AY@S_?sX?IqO?_opKX_?Cj?G[AOQWq@WM?AKI@k@o``ZC_SeOeEG]Cc?w?dY_H@AAq@__oX?LCVGdkD?Qgx?IAOAO@@GWKs@cCGIKK{hO??EgFjGco_W_AHGkqP?QkkUo?SgI?XB`a?Op_O@JCem?a?eYD?HH_pWa?gwO@d@nbogcEBFHGGAEbQCAyUlXkiOr|h?@?EQG?tE\],False
~?@cGaNYtCoA@O?MSzqHdSKW@e_Ip_wPOOVGaA??}aGD?iCb_QrMCsDaR@KGCOGMo`XCECO_KG?Gk`Q@SkAP?U?xhOOqCapKLw?DOgKDFS?aHTDaAos?Ts?DCieY_?WUkp__|DAUB?GPouj?pQ_gaPDjCsSSOA_SCOnA?cCSGAOHOho??H?\H@GaLCW?`jIGQ[oAF@iS@DAI@Y?W?DnZ\p_?Gcq@AwQF`paADoO_iEnGG}_G_G?Wg@k?BIO?_Q??r`WsACsA]C?S@LqtB?@UBQN?AG@pHW?xPDeKd?O?_gHUSwdDMS?CGP_PP_?pXCQdG?R_B?_?wtO?@cKk`Q?G?YPboJE^AG`ABO?S?EuBjGuMt?HoH@Sb?OkC?{i@CEcQD`@YKpe_B?OP@AODKbErJMMbCNWagCcAYg`?qF?@ECOWpHADoIdBH?KO_?rpBAOGOoUFyP_EF@O_YSFQcCdSOEgd@{?DC@Od[?wYXABH?P?@?C_sR?oQD@`GGJMC[LC@ognj?HBKB?PUL|Pg?LoaATBD_G?PGC_EP`CBGuP_@KEULWSCgXxoAGCEJSaS?_?O_@O_aAGADCokyqP@?oHD?e[CssOgAaqsWKw@aCh@b@?GaCodgpGAJ`GkWdD?BPA?_MGK?CZiACsD@C?qAG?KrGiHDKAJGB_AciQ???^Q?RGgbV?@_?I?PL_?rJPIu@?ISsIEOOIGCKA?I__W_?kgo??PSUA`AsP?e?CGGC?o_QcoJGNCHBU[phAO_B?SwwdODg_GQ@IHMAc`cWpCQ?PEOqkB?`_GWTSXu?aOAJgIig@]GA?ACGcmS?w`gPDKw,False
~?@cCgwc@a@ROL??OhRw@QCCAY?SO@G`gCAfCTObMkpTn`gBE_bID?FGdK_gWAOM`?DsbRo[CCIAGSq_BDAaCGSkBCB@a_G?G`_NrKAXgC_G@gAW?KD?w@cBCO__MD?GESOXAEGc@As@OOG?OACA?ZVOP_QWW_P@gT_?DoegRHGh??o?DAJQM_?Ve??Xa]`Hp]mWofHIFIAIx@U??@?pJ_[?C?WGaRk@o[h?KUYQ@?iUP`ke_D?MQiJMs_`bOh?XL?_???WbC?@?PICt?_TO?G_?Ahd?QOoCOwb?APNCg@S@YWY@br^NeSMR_SH_@SOcgh`U@oQtO?RDgR?FZWogOCDePGS@x?GEcN`p?cA\@e?O`?K_PpoMCOM_fFOQaiGfOwG@BEXaC_BsO`B?[_bKxO[tP?HM?P_a?lCOSeGOGGQbCc_??gQ_L`@O}S@[P?OLaaDioOOqcg?DGGHsIA@oCK_UgKqo]WcHBaJKLWGA?EFB@D{?@?ddd]@ODfOZcQ?AR?D?@O@?CGKecg@aW?ocSICA`?iw?Gq?C`q_g??PDR]LbSUqgoQcACaToGRDIG_OsQ{h??jsjO\?Po?I?TGsOA_dQOaOL?_WHGATWheWjQQogB_?hGrKQWASEEHO_CPGHoHK?GOOHBI??EOWq?@`@BM?gOCOGICEGWf``?{K?`AHciOW_CDiAYC?QiObg_QAr`@achCdD~OCBO[?wHOR^Ce@JA@drD`G_KcOKXANC@?GQ_wOtCGXYz??A?[Se?DigOWQTYg]xRMbD[JEO__i_?_WIWO_RT_@[GAbGHOGlCa`GwCaO?BPCNC?KASsO,False
~?@c_LqCtaG_cfn?hHw?K??Jv?OBKeFCk@[A?_[W?tWOI@RgG@IC@@Mzi_SHAA\ChGE{@froh??ASAw??KwjHI_SHdIOgQqAOP_SI`KGcEv@DDAGo]BGAJAAW@b_LAObLBGPFah?DWCBK_{IOO_o_oC?GkCGW[DDc?wOScGCP?`OEKoOTCkTGtPI?@_J??Jc@[KCQCsFC_?CclWn?Cp?W?FKQU@WbI_ASJKgCHdkCCGGuoAodF?C_AgY[@DAqpHBA}e_?@@gXY?w?OBGOF?EOKDJX]sWBO_C?IBlA?EkcG_?@G?aAI?@aAD`UIa?@OoDH`a{I?O{aF?UJ`dcP@UGSK@Oj_L`DS`pWKaAX@N`_Qi`OQOb?cdd?pGD?s@CyOa@??`?D?B`x@em_GzCL@ACEOgE?AO?TJOdW@F?_Fc??OWgAHyVPQZTaC?|y?WTCDJ??w@C??oMi_pOoHO@@EuKjohdEIci[??H`osHegQRcRg?WS`dXoCGUAERiAgGka?BIAKG?T@AG_Sgc?@PaQROPdH`LN?gO@H[sDOBkB]AaCqq?gHCGgRPkPGBYHH?LPAHKSY?gAQp?jKjT?C@r@E?_SVDBA_Ga_AXD@AF?C`ACOa_wDoYCuk@CJ?dx@`ilhYIG_HL?a?ISB?YI@?[o_KXxOG_PCMwB__A_GaGiOBB?gOGA?I?_SCOdb{QOAXR?\AVC?M`SmTQtW?rQOA_@AW?IH_DJ]?K@V@gj`[`oKQ?@hOY?OC?CDgl?U`G?@gqGC?WGHG??_E?{cCgcz?C@O?U_FY?GAEGEM`a{?P?DAGD?oRA{COGqTyeKA@OqCeQ[,False
~?@cEF_OK?HEKQgL|a@oLOWaJKA@P?RZ?UC?uAD?FCoID_O[UgBC_ohABwDT`y`B@GoYmAwOETGT@VLEC?GOcYF?gh?DIvdIcwgCbCPsK@CSPYw?A?Eca`OTPbHAIG_WW?EWwECq\aIOSAW?O??xO\[Q_OCxQWhO@_BOCAOII?U?aqNEMHq[UC@eMG?soRG_OHSsgCPbTK`sV@dZCGbuE@OW@Ys`RtHiGOS?_`x??EcNBDA__G?}AZCDD`DCwQB?W`PcCdR?WE?lCT?kTDDBECCIg_X?A@BEWWR?TTg?ObQXOI@S?_?`@Ionqw?g\@pACErAoGaA@WJ?xwXS]DW_OBcYKAC?O_OJ?\[@ha_BQLCBgFCODBMcrOsLBaAoGiCG@O@gA_ZCkXa{k?Gc@obqSgD`E?EBAFA?kQa?DtAu`_??D??gI_BI_eV?ciCACCCL[bD?OAg?@{O@[N?_WscGGIIToGA_a@\?WgcCIC?@TAOW[QODPlK?pDA_c?CWomOH_AJOoJm?gE_ek@?@B_GE?Mw`F_GkDOGcKObR?GFsDPt??AD?gQj`loMADs?W_tKu@I@?`?G@?OAOkCJkIQ?O?OEPGR_xQICACXbcGDOGS@BSIO?wQS?GoKCKM?C?HA?aqy??lmIjcA?kGYA@?S?H?ICS`AKDsW?\HqR?hD?EdA?L?AdC??l`Aqbog@tSOgyKD?C_@HDpu\?C?EGAGAg?J`HaGD@`uXGxsOo@aZBtkARPg`LMM?YS@TQC@?OWgAADQSoE@`G@GI_TQ?MtCKU?Kx?LaCU?@ov?cw??l?A?CIO??uSc?E^LHBG@Ca?A_,False
~?@cEEYF_OOXPCAGaRQMX??@dC[E[IYhqVD@CFDlB@dPscgogA`yJ_IIBO@GCgAMHSZdS?G@?SEggmJt@_w_WIaY?a?_?GOApb_?_oOE_Hf@W@jkY?C_PCWQCC|?bhA{c_Ark?]BLA}CG??aws?`DAAog@I`RL@aIGPECP_GGCIeAGGQ_SQa?gcCOICaWYqcWoCP_?m?GOjOqkBWDbGN@?DGGcgc_ACFxK?GKoCgIY?Pi\gjC?AOAADV@R`bEk_?@m_`BG?WIJ@@EAIBI_yG_Ky?g@?QAdcUPjP?CgCSO@pT@?WshGmCJaV?QIYJXGCwgAlg`pHBMoSOBQI@R?ymy??DkAO{CWO[qFOfRE?]SHQCNA?BHcK`?{n?o_G@BCGseOWkWGGACBYOIsA{?wW?DE@?XSYPd@WOCKVR?M`FeBa]WTBKTCEBWAD?G??_?DoP\A_o?XH?P?bdaCcOCJ_H[o_EOgECKoA~?o?G?Ph??WA?R@NKGoA?OrOCGa??YC?SHIO??uhDS?GOG?S?`?NPFGo?X_RtNWCACPMc]pAjAU?c\PD?`aeAOU@p_\_GOC]I?AKDk@C??i@?@qM?@AU?K??W?I]?@KN??ED?g@I[_JLLAI_cgWOCXSOGeoJSCpX`HUCcIP_G?kGiLbSa[_OCCNKG_E@??@go@IgG?ua?Gb_DBAj?Pt]FkqDOB?O?AZccAwDCO_`ajGCMOuBHOO_\gwk?CL\YGepezOGXH_CeWWza?@@e?KwGAX_[`dRpPO?AP@PA?IAVq?xJ@BB?P?K_GSdXtPLO?HAGHa`_KECwH\SAGeOHJWAI??D?S?@pA,False
~?@cCSwOe`DgOA?b?WoDO_@dX?dGW@GO]aASB?yQ_?@@LioT_LECi?CGoAU{AQCXd?CG?GD?@uGI`aiohYQC_`TGCT@D?LRBHP?@a?bg_Dq_?[?pCbbpqAG@JFtEIECcd`?qWQq?@QLBFhOZ?gPJ?IROdG`@Y?OYkc_neAQ_DWy]@HEPo?k?ICb?sP?wAD{I@GWQcHgHES?kJe_cEqsAIUmXIKwDaG?SHOcdG??hiCSCGPCCAOKiDcuB?O?daYPA_@uBbA??U?QDDCaGSPGiSJR{`as??dI_T_AoACPNYSxBSCOKSSqEAXPIgIqJH@zoFHSRr`YsEO?cGOBs@_?wo?SWMq_w@C?W_G@GYC@ChGBObONt@POTob?@A@DWEWLODsBG@PbG\sKa?H?HAGGH_`hGbDBGjg@?`@HG]?Cgd?SCTSOYX`?MGBGCR_@KbOgUGOGVo_o?OtAA?qGg?EXHCF_EwQoG??paPtOA@CdcWc`K`K?BAF_LDA??AHgOSB_@D?AOkc@U_OQQCdO?zrhBOUACLCAgLG{AMWTOGrwGOg?_Q@CE[OP?YQgZgOBLGzFGHaJZPaQq_PE_{W@?L@E]_qkgGHQGaCQCSb?@CmM?B`M@dIs`?@XkA`b?iJ@@CD?r?qI{bKGHnIC?@p_@HbXt@XQCLOXGOWFYKBSIHsHIO@_seGE?@aK?Oo?F_DB???F?PGeDMe_GCA?gHJokPG???U?KeQa`?EEL?Eq?Q_fpSOgW??I??DB?RO@[@Z`?gg?ODGgcK@GyAQggYN?aD@aBZE?OT`P@@pq?oo@K\RWSOaB@O?iCVGC_A?COPPDxE,False
~?@cSC_Z?o\o`gAcW@WJ_DPQH?gC@GodGlo?PGAoRBR?XaC??c?gSx?C?WB`NBs@I?@GSkGBPAGGA@fW@Kgw?@APCA_sPeOsYzC?|?C@C@CgeX@I?oCTFAJcWOH?O@@a@FWdCEqeSo?Y?TxT?aSQ?A_sSCOQgOFBO_?Q`S?cWK[gJBCH[WKBzsIGACPB?KGHQqJY?A`[TCD{ls?SYIsUhaGHqZwhP`?fIF@AcAGSQMAGiP@KH?OOC@KH?@?cgZbpM?Sq?D@Dsa@A?S_gk@kDQ?PUVOWIpo?sOQOTOx`QF@ah`ycoaQCicBG_OOKdBXGAqCA?_AOHki??AcE_L}WeKXDLE_ADSCDQ?AWPPB?BOSALoLGMCGODrOCqODLKXDD`GA@WC__@CD[HQG_TwAw_`_VsacQGQ_?oH_??g_J^_CWeo@XaCahHBF`X?mKG|PGa?yXa??OsAqO??d??G@?WfwP@OTcoBoKAkGWPDsCGOK?C?yp]?EDm??O@qP??Q?YHLU?mR@@q@oEG?lDl?Oso@?_a??u?DVGh?EHJAEDA??aB_?_H[q_WOCnor@?SQc?lKCfCcOA@@D?GWhH_P?AGA_?I@OG?HY?pW_C_f?c@akEC_QH?C_ecOsC?o???EZH?I`QOAmVCYAp@jcTMMX??eAtC}EwhyGcTVsMnDiOWKWOEw@|F`@a?OWZH_p_OAGD?CIYGPA?SAOkL`eAQ_GCA?MB?MSPsCc_IAw_uXLKaO_J]?t_FE?RSTCCkU@ADIhatR``?GDL_?QIh`@AG]BfAl[?TDfF???HAA]AQg?xCTOAEEvOD_R@dUasGoDDDh,False
~?@cQ?A@gG?M?oEA?koHuIh?ggB@I_H?_Bd?QWS_GHpD?tQ@bkB_Fda@GGbBGGE?d{GG@?@Dxo?I_h?lBBSCeGtih?dSO__D`?GBkWWiAdQG}pAHKWDxpMzClPoH?aa}uGc_kkSa@\{AM?EG`p_Jc@OcSWgEA?[Iei@?IkO?[L??P_E?m?g?@Aph_V`GG_TV`hb@cCAD]?@?sBp_@`?CO?AcUVG?CoY??C?`xLI?OAfGgC?HGc?[G?bGrCMIaXAOGJ`C`@_GYM_?_`}EO_onM?SIyDCIYMG?d`SahiR?AEkAOOKZ@CGBOGOcT@QSc_CC?AO?L?G?EPBdQBwGCGO[QMewAxT?CMGKdF?@A?Sm?cJ^`d`THpV@B@?aUguAA_?F_HB??AhAGC_?Dm???pAGeAs_Ca?CAJAB_AjGeacsCCb?l_GWYADSXKZcXXET@AA@VASTIaG@?A?eqOsHCUF@C_DlOCa?B??ODTa@?WAKBLc_m_a?BsJhuOl[O?OOLA?ErHISTp?Coa?K?oCb?PIe@b`Oci`RdX?x_OOB_Bl_?gGpRoSACYUa??`@?JloCR@gPB@GWP?_wzOEa?@\_@gCHRERoO?O_@PWGPPdj]gp`A{_pox?D@BNOqOwMgQGLqYw?Ig[w?@__CGLSBYP}c_oOgA_CGB?Hn@\O@_^_cECO_SOGSB?RCEGIs?QHAsP[ABNGA_BoAASuCcGg[RGRgzbqCec?Y_\P?R?O?C`@@b]aA??Hby_I]T`X`el@?HBagqGIJSOAC_OUbGeCISUCoa_wOW_irQABEcH?qmM`WQW?AKE?EGi@??t????GBCuC,False
~?@cHF@pCOGSYDgOBO_D_A?XH_M?AeH?L_@GQ{OOA?WfIgIFaAHT@GI?oqG?bcYIGXxOH???A_UHO@A??_aqMGZ]uEqCyCq@OAAiko\DCSE?yX_[KgRI_CE_Ge_aIdPUO@_Ga??SRo]cE_kCGMk@BGWCd?_yUg@KS@P^?JGBCXLW?`a@COSC?@tB`[B`H??`CJYI@dokKHWS??GYGEeOAPhbOMBWgOa?cWW_B?cXIOBEcHZr??DocwAcq_QHaD??acr?@HsO?DpG?irAkFp?aAIO]EAGLO``TCeKx?Kk@haZA`?DWpOC_G@AX?K?TAaA?YFLGbZo?aG?ADUa???OOCAD?bCx?|?SRcEE?NOQK?@ZPAbHCSIkaGB?AEwkGKwijOSnkLAQ_YKqKoKEgAcasHb@?dPMU_@RpaG?@`k?POsOhDSQCSO_[GAaPAOD?DPG??c_Apa_Dh[?CG_B`Q?OiO??p?opAAI?j`@_LPD`F@CGA_CxEKQc@IAwgo@ABJQSeomA^?aADI{oQS@[GPCbKIBLHClGYUHD`rYQKAAM@AI?sImQBH?qA?AY^q?nyQgd@Au@?o?Wca?_O@??HcKKGS@ZATPOQHquh\yg?WcP_{A??GfSWOA?CWSA??_Gh`IpGBAS?kWCSckOcDgGEC??A_O?bmaU?QAsGcSNI?POSQCIkDqLP~W?m?oOc?IAKEK?CGAKCXCg`uhA?dJqo[OK\QAAlqgAWAOCaoA?oxIU_VopOqUlg??qUC?P_C?GoagabqXPo?SpgS_@@_A^u?BOPUQpVnSO??EO`RA?WOaJbbIHOIsgCgTAAOpH??EPM,False
~?@cV@Y?fGBCC]B?OD?G?DK_ICjI??OG_@AQpSCZS?f?SDa@BG\WoP?bGCGRACOEOcaCaGi@A@G^_?`IVcTwWO@AJ_?[QI`?A@jaE??AHv?HPK[OQCKkIa?cc@C@qYvGo[?BOSpb__mOybG_^caO]PiGYWKG?IyI?oA?VRwbNQK@_GAW`ObS]{?UGH?OK?`Wg_w?AV`W[@?TICGcRAM[GNSAZ?Qfd`HRX?D_D@AA_Xp?@O?`oAo@PAGG__OngA`kcGb_OSwWwpaC?K?Dfo??nVO?PO?KdA?scgBOAXQOPAb?O_YH?Q?Sd??_[Bda`a?AQbM?PYEG{?SAgkOPd_CKAG?hS?Y?eVGh`J{lwVO?gha?wmXGP_ueEo[@YPCiuxoEJDXDw@ACI@EL@_Owm?TC}{hOeCiOgBCQe{_ACr`GO?I?kOtCTsa?G@`G?IhE?CJAAQ@??PO?TQ?O`GEAe_C?AaA?BQmCWgCT_YeO@`?HcAOLWchLDkCDO@w?@BG?GwQS_aheAeJMI?E?rGoGSqEZIEKE[AS_b_W_K@?Cb?RwS@Q?oVI??MLOp@_E??SqdWII@??Uc_DQLOGsKhhRkGMC_DECC_`OBqZrCbB`A?_O]PhIS@sCxE_G?O|IWGzdPkW_?muCCB?`WKS`IBW@_tPT@??oHGK_RSHQWPLAKXOWaDC`G@dzGG?CP[A?AFcB_?_Ad?sAWKTX???chKF?G?FSJHV@wZ_fCpI[?@`sUC?sBG?aT_[OQO?ZHKbaA??`X_U?EE?sdlOP?_jH?gG|aByx`C`?GISE??wi?GQEAQXIOGdCgkWBeChC?_BT_k@gO,False
~?@cgcPaEPO_g?h?l_D?KBBHKYjU@_Sco_oC@ARM@IGOS_oKQca_IOT?K`HO?OPT@TI@COYCSKc?SkcQAPODa`Q?Ad@FCT?@?QHokVS@Yo_??jR```?CAOAb_GD?OE_OAz_KCt`hwYWB?`E`OGkDDIiqAG?OGO`H{C[HO?gTRt?H\gADWCHWPIEh@Y?Y_I?ccHHOG@QB?Y?HCCKReEVRgdJ?UcC?CkDURX@MD?DCHG_K@Q@RI~PWKb?oag_OGwkGDsD_?e?_M@GQEGwGOS?DV?`ABOi?iTOk`GGCrKLO@_GNOHrCds?XsQeYXAKO?FYGj@S?OoSgBqPCp]aYP?@GOpJQX?Qi_?IQ_`ObYE?OHCmRDr?[FhQ@_dc`HgM[_CBF???GOH?@cEA_AtPAAjAgG_DAb_?Op{UA]Q_d}@aSWAOLDJNgS_KG@x?fi`hDOpaOOGCOH??ukPoaAAOHTL@DH?RGo?SDkq`s?iNAA`Jh?`u_Ws?|`IbvA??oc@_\_K?@PiJsYCEAj?_DKOGUeg`?EHCcOCoO?RCaGlcaQDY@aCcDDQQOQ??TKaIR_JAO@[FAPDHQEhE?NPfASFMSCcOOPgD?XcTCUGkdCcaW?_GP?Y@ONcQ_@n@?AAGOU|@c[J__c?DIbp?HcTAOo?g_GLH@g@GPA_WCOtw@I?O_xRCPE?aUiKQAK?FPE?`AoQAdi`?Pc_???_P?CCc?GZ@XYXbAr?UWD_KGIKgcE?@CEZcCgoDD@?gQOs_P`bZOG@KTtoYxXAk?_dBd??A[_DmVG_C?OAojCOe?HiPCS?tXG_eB?xSgOD@BoCQ_x_o_osG@D,False
~?@c?_[OAHdDCxF@B\IBI?M??oCC?OS@?FAzG`@OA_CdBE?]WhL?L?c??Y_O@gX@T?LS?O_COGt?R_SGSo?DGOOq@gO?DgPsb@Pl{CC@HG`O`@_ATgCS~S??`TZCqC_KQ`_@C_Pd??aQcS`XPlCCXCE?`w`CYTUXg@WGS@?gULiI]P?GGnO?Q@H?K?hlayHe{`eI?dOW_B@Olge{C_`JO_laP@GOm?oEsbPCW?I?QkPTzOKl@pCiDtSCDJWAM[jqk?oO?@TBW@ialfJ?MWU?_moG@APu?WS_OJEh@_p@CP\CHWCysGB@CTmwPRAMjXIG[@iroAOCECccCo_WWHoCAXb@AM?F?[L?_eCW@Jx?B?Ee_WoOEi?C_Ao@s[[]GjAIRIQ?A?AqoC`BKB`OUkGSToPwy??__gW{Gb?A\UKOOy_CG|?_AOOOE_A_OHxSIOIHEeL_gU`QSuoAQG?WgO?OEGQEMoDCaJTPGUoG`cCyqG?b_?Jp@AJO_G?bGxeG@sHOE__qsGGa???_K?gC{RVH`QO`oN?_@cRGWY?@?JWWE?QUCb@YCPGHAACcoGwCGW?G@OwKocG[IcIAFGb@p_fQKIgC???Bk?PWmGPW]??R?ATN`O?bO@KO?`CZ?PWpH?oJWC?A`?L?HKCEw`Z?CRaPAgMPo?R?ma_Y_Iwn@UuGWO_`UCH?woOlSp_gbCKd@RhAcpDIGC?IHcl?N@IBbCHGSG?KScHBG_H_SI@G@?_?GOdcDoA?FWMTF??h?`dGH?P[hyIH??GG_OPO_F_ACAU|@WKN[BMYGi?CBODMWGSc?XCDIcINrWO??p[IkEAAI,False
~?@cp@eqB_ncSwZHCGWDa@D?{_H]a@_JCPqHEc@ME?WODEI?DIb\GIDC@_GcgkBUJ?CG?O?goS[QHu@gPwdg?GOVGcoUFbOe_RIGM_YUa_C@W[c@HCIgp?`?CGE?GYW@?\aKAH?HGoCPCd?OGGSgX?FkdAsYPeWW@rdC`?H_A`CC_?CGE`oYW@K_G_F?K?COK??_d?QU[OIbDWGgFOWFcu?`kKO`AOW_Sg?J_@nF`G?CO`hWQPDkGWAyFARH{?@Fa_gKBG??uU_@yBGc_?_BQgA@?e~@@G_iDI?ma_Hso_ja?HA?gC?aTACH?@CgKUQpD_D?hk?j_aWQ_k?e`Fm?C?O`rCDS_GtDhAH@iSDGSe@lGaBSOrcE?IgB@?gSAc@pIHfOCJW@SEDpCSICGOS?spb?TGWSSOW@ABa?`K~sLRwgT`K_MR[Ew?CQ?F@q`KLCDxS^WG?AoRjjeuBlmqKTd?kKIA_f?_xCTo?DQE?`Bso_FC?B_@?MhAi?A`GKGDCC@XGkcWAU?CGh?_@G__GAtOA_EzBE?_gZ@KJX?Ga?S?@pj@E@MIcRPQEU_C@R_HU?O_?scC[_DEEAIDHgcOcC?AGPWRNi?`?XOCuQA_OtWGWGcbgemdS?PRG?AA@_GACGG?GGOKAgcbK_]kYdXGCYePHS?aA?Sn??a?KH?q?q?|BWoG{ESSOEDFDSO]W?@\GKI@?w??Kk?Tw_@{Ge_GkhW?`CaH?OWCIC_cNmc[G?s@G_?e?PQPlYK_OBrBgBXaDUCDCCE@G?G?GcObOd^OOWGAzWdjOBZaEGII[gwKBWO_cLDSC@pGfLICOoL?A?a,False
~?@ct?LA???cyQ?Pht?i?Xqo?_BRIsGHY_?EG?K[?o@QWYtoMGHDbspfSBCHd@BAEgTH?GEW_OO?KXoGIZ@?`iTwESgiK@a?M_rSQOKECGifg?gcBWA_aAL@sY?WkPCA_kDH??UQA?`G?DDWXL_Os?DFIT??A???G`AeKa??cECNhGa???K?G_`GwAixA?HTC?_LGLGhOE?_a_A?naihDGTPKBwcGMI?W??RIeo`KnWBCLjCrGPwl_FOOpuCTQ@OgGAO?gHeAoJ?iWG`@g`a?MOEDag?BLGbEA??J]A?AzJ?GsIGlLciECRo_WddrKECF?OtPVC`BaPiBu?OaAWUUWA?uIRCNRw?CA?@GpGdVsPK@@T_AYc]KA_SAAw@RHcSI}WY?auYG`hc_?dBB?c@@G\oASi?UGsi?KFruQB@T?CCBO`ICaeAQGSOHc@O@p_hCOCp`HQCSRHPOM?`cWWG?kMsUhMA`Dg_?CI{?QCbUHLo`BWeLhQ??|Rp_K@AQa`Sa??O?K?Hr_?ioQ?_?iO_d_EL@?Q`j@c[X@?^AAn?WD?O?C__?AoGXCT_{?c?nCAAhOS\??IrH?GAC?[c?EGUXuU}@KWFwOW?C?DDHa@?KMBGC|LW?CN_A@@AKKE?dOAHj@?H\G?CIxcY?AUK??CIDpa?OupC_HT??@Wg_@ho?C@K`R_YB_GbAmwXTpXSHH@QDa@pfeIsdA@hWD_NgR_?cHFI@`GO@bRAKATCC?_JEQb?O?MaN`H?_CgICO|wIACG?X\Kt?qOT_edHq?tG?}?CO????HWi?gKO?UY[Ch@nsXua?AGqWADGO@DeA_EW,False
~?@cK[_a_CHbObFHP?b@]OiEBLAEsW@s[@ZIaSEcHPgo?OCuKDZsgChJt?iK??OKEgoy`@ug]?kWC@c?L?@IkO?v@XAY??pH`WOk@cFoCXRCBGMWDSJA?b@O??GOUr?J@Dh?S{Q??xHGLX@PoT_ODBEx@O??|BE?SR@xC[?PObAIGG_RWbiBCK?JB_IW@IOC?TA@?_`w?yG_oGAHSDkiS@K_EeWSW_V}sODGQQCFAqE?C?Y?RADG`a_`P?S`_dA@aGi?h?A?M[AkDW??D?@GK@tSSD?d@afAEsKEK`CC?_G`??HGOukM_LI?_G?TGonP`CGoxC?RCKCEG[I?QouEG`twMPA?EDbDCyAUGzjGsiScNdPx?nHhbSAoENEkJXBOusTRCHW?IoCQT?H`_b@PJNJ^kIQP_QoFOgRUaIOxoAO?H_OLSUQ@cQa?HB_CAyPa`?Pzwd?KDP`]@?S@LWIh?`DCOo@?W_ACsAC?C?rCWAeaO@h??{g_?Eqh?kG_J{powpCOsAAo?WL?oO@a@??GKh@XSEkp@_u_@XiQ?pibPr?qAKM?Op@??cg?s@@AQHG`dAaiw?KeA@DB?fm@KBOOaG??d?@KaGI?fOxZ?k[?@?rA?xgWsAqQ?CA`g_AF@A?[JT?CmSE?clC`FDB@A?amOxlbOlK`oOWT@?P?NYBSKO@IWCC@MLY?PC@?oKoAGbKW?FBOPDSJ@T?mAqyURGo[[G?iYA@?_QZG?OiHaW@y?bCPG_EGQ?WKPg\@`_eCKG@Gaq?AI_Aw@D?S_??OD?CO_e@_BEDTgAQC?_ADOOGAQ@?odPocCOIUOHVk@G`Da,False
~?@c?_]_[V?@wDeQ?OScA`?Kdl@@CMFDF?aQ_@hAK_jASShJ?BBPW?DoAaJOfQOAP|hMC_K?gqJujIW^wIHXf?GAFGJCQ@FOBAy@Xo_hpOFYwTG`LF_B?Q@K?@G??WP?QcSO_?AWHBIuz?GQElWg[kO`t?AG?P@xqdCACABPbE?@oGO@_ypCg?Cb?C_?FeOGp?hGBHJEGPX___Ax?@YIbO_?{Ty_o?oCoN@S?WChApfAPGDAb_C_O_?Ra__jAOg?IQa??Ph_A@?uoA_q@HE@O]TCI?@uc?_dGCQ_o?OhUQIc?`Gooto@`?gQ@hH_@HS_FHCPWCW??E_QQYGODADeuy{z]OwP_a?@PCGYG_cTF?UoKC?@Ewp~KOOcO??[hCAGJ@?]X?G_IiHFncOCVgPAHK_L_aSHpCD@_cbWTG?OYC@??lcAUe_AI?c?_?DxlOAi`GbpOHAceCoC@GbwDJ@?eWO?O_BFPVO??lDAM@AW_Gal?pPy_??@HcH?soCIp_FXsHGGLCA?kAGWmjw]r@x?cOL@?COI??qgSCcW`aSDaCBUbM?_UWJO??@gKC~CI@?OHQ??bR@IPO_?OPWE@odC_JOQDsG]GAoKP?_Pc?`PduWoyRe_JE_d`G{g_OOO_SGOw??i?HIS?L@?xRXKOBg`W??AQH@_i`x_E?KoPcOGKB`Oy@_a?CGt_SIWPOksGKsLGEv_uCYUQ]B?c?mEGa?W^FW@`BiAgpL_A`AS|V_]HmO@AjDC@eCDkIa@A_QAEkTXyv?OTgGK`CESSOWoS??KG{?@A??hHEW??GWOC_hR??__aWHR@vx_\O[B`CFfA,False
~?@cPC?s@_CAi?AiOXOO?pEC?SKIOOfgW?H?OHEeCEdaAGoCG?ODB?QIq\?bScHE?Gq[KDklA??ACOe_pFOO?GRpD?Omz@BMWGlBQg@H\XI@gorgqQ?o???`OOI?O[CSOyMWGOTAcSLo?L?RWiC?G?aiYGP?@OkS@KOWGg@sC@dWo@_bAe@DaOG?ALkACCCCA?_uEa@F\OdPXH_SdERZDdIG_GdlcPAtVTI?Dd?`_CP?Cfk_@@@mTIA?_@?_KGWUAJHd_q?WC?CaE@`?qAoqFhuP_@JCQOiLC_DWCA?JZOC`IcWDPdA?BemC?[d?Cfo`{?wWCPC`JPKYTK?OP@aSPxLAEAASo?GWl?qm?J??CG@WEHC@OW`ga??aYE?ODI@O?USG_CHPAh@Eio`G?GE?LDG?`HO_o?@?_?SGGbEhjH_@DECC?p?CoKG`a?fA?gNSAO?w`_MdYSG[FFOcZw?]wQ_C?CL@Wi?A?YctBP?uHpO]gPybZGO]GLeyBW_z?kIC_`\??wdHCq@?BoS[CKR?PDkTSGO?{zGKH??LgDwB__uH}VDCRegzaIAC\aO_G_C??PfCUOAb?B?AkxPOAG?c_MG@?@UIaEciQcDAQG?o_?JO?OaWPcI@?S_ASpY?GeHy@QwVIAaO@@oB?_?aA?`bh_k@JSqOGW_ASqC_DWgE|b?A_OWPC?K?QkWcPCIcc_`jMCeb?O`a@AgIwhOWaPR_a?ighgSkiRbIs@G{D?QICFB__fc^IgLX_gHB@]HA_mT?Bc`CAS@QIa?sHNfAgAQpe??SXwRi_^wpMDtr_@ORH?NKf_Dkb@D_ae?ild@??,False
~?@cEQ?SP@@QPonl?A??DC@{A?IC??NHCGToE??@Lc@K]@JS?lZ@gKG?CSuwwYIcaseAN?oqSh_OMK@OGNK?Abv```A?o^OWLUk@HaWKOWWWlgPOS_gpAW{JO?d`OqFqo@ePGDC?hCAE@UGDR@GXp`D~_{AfigwY[S@GAo?@[F@AO@kOYBXL]bg?QELCJq?G[DpKBQSfG?Qe`BK`KGa`jbHUiAPU?{P?CAxV@Ak@@Ec`?_L?DCgC@kIASEp_I_QDKPag_OH_h@GLqC?CACpOGhA_aSA`???TAGYA?GCQAO@BK?cgG?vYGOo_a_@@IC@M@AGAiJ^c]bCDwP?IAGuLCNi_?QCo]@?Op@COJAKBHo_?THQCOSA`A`kh?Qva?KMGq?OHQA?@iCGwPO{gXCmCEgSAC`@gOYIGA@J|Gch_Ab`rGrQcfECiD??s?QSaO`S?_Q?_?ZDwa_IBGTgHE?HQDH?o?@?padLKDs?I@O_ZJDHETBSaLCPaGoDO?S?kasDObOPoA@ABBAEP?LF?sA?hXGaG?CAgk@?[?oOeKEGeYPQCAWUaWgGGAA_??SOdO^bPDGYQHOGGbHWs_CO?FOWOEDowGB\YHXk_co?h@JoAQlB@?caOSDypOtH?WHKPGC`@CCbOX`IuGuD?@?Ka`sG?cchx@AjC@P_C@wBID?G@WQCWN?C`@grAH?H?AoccOb?GFO?Gq\SaG?GHsdUO?aFqG@CCZ?XPH@HGOo?GACADpEG@SACsh^hBQOC@gT@^pDJOWEIMIBZAgEM]_[PQWVq?gK?gWiYPWGA@SLS@Ha?OAqhEIA?lAg?D?BS?O?BS@,False
~?@cyG?R?GEaKAbSECGbOCOQGHY??ei@Wbp@Cp_OB_MCII?WDS]DsQhgYaFXVWiiARSBDKoCHsOPIhE@C_osd`G_GhHAcb?ObAC_EcFO??yp@ksI[oOAYHOBa?T@ASwh@ARS_CCBcEo[dACGCQQh?dk@Bqq?gO@b@o?W[?G?F@s@cAT{@{?GOCh\WiSOC@iSCHI@?PXH?SGFohhbpDHACG?@aO]_?OG@EPQbMgGXbH`cG@QOH?O@pDsqg[?OPC?oDGT_Go_w@aQGm@BK_KOiCAB_@?DBpwio?w@qI_PIAW?Qmog_LYj@aZqmB_gQXE@_sCKKFwGA@T?CG?PC?C?I?WVo[?RpB{ad?PO??Q`??BP?`GmkNC?s?KB@AK???GEagxHoCaRCaFA?AHcW?XCqgQ^_SSOWS_AAROLWOH?K_}A??AEP{PGChRtD`uCHC??`G@_H?I_`?h?xGoGIooOEUhaHOcA?OGsTGCC@hXG?SM`PVCocOPox}_T|keO?p`xBR_OWAAB_OWHOPGw?EKK?gHCU?`{OpE?A?hOGh?gkapgY?n_ghIoFOJla?C_@ag_GgT?WcZMqGMGE@OU?`GBAgCWdPG_S@_O@AO`c_K@Qq_@?___M@Q_g?wIbc@@CaOIEcc`@HoOfIqC?skSWYOeLODCAJxCLheOaW?`}V?`SG@ABm_dD?F?dBO`AcGD@?G?KSfCQZB?OHbPLQgQ_StUaoUcA?CPAgGCxOGOGVAxGQFcR\w@GWIO?HoTiCIecHg?Q@pcQvXZ`qKAo??_GUIc?KC?Y@GsMXcg`H_Ow|OA?g_R?KUFk@g[oBKOEjTIX?,False
~?@coHoA?IgWA_L?AcCA`PARC@lILoEAG?SOUsIh??CdEXastDPg?wtvc?jIC?GPIa?AIIFO_ph?rAu@EIcc@_Ed|A`L@_W@WR?AQwtHcH_I?XRGPgW_fB?Ak?KU_RXUX@DhaQWZ_oJQJ?KM?MGW@cSw\KGT}_CPHh@?LA@rKTDph@kBDGg?HGAPAO@?c`s@i?_O?AoQGa?K_oLsF@DD?QAL?Si_UAK@B?Coxf_gAA?ItkTG?jO@EcM?HIokeSsXA?r~cLGioCTg?DCOCBO?PcGCZCCU`WE`@PrO@cWyFlAG@@a?sV@Ge_owOWD?Fl_C?GgeGaI`@_dap?AGYXGYIqDCE?YsiGVtpJfA@eb[oBS_Gw?_oOq_CA@?G_P_ADCD_L?GBOLYh?GUarKEOAcQBKPCdXIC_CAOEV@_CS?JBqQ_AbkGkQ]?KD@G?W?pKACTF_AUOc???@G?DId_wDdH?gE_?aBH?I?OEA@_b@BOGQEUgOEGCBB?g[_?_Cp?Y?bCPNGiaGAdGQk@AEK??KAQu?@FTbTbGWeOo{_?QCJpgEQG@?SUDG@vEAqC@FUGabX@CIeOAakMJFipQC_QWkFQK?P?@aaKOc?GOt|K?O??UJdkqK}CE@AcHcgWmEECABcOMs?hPaIFJ?jRyO?]_BhLaPH?IOPYC?ECG@?GYBOOlGReHaH?WD?PKK_a`H`C?IBGHGODgDH@LCAH?_K?oG?GHh?Q?CAD?U@S@t?S`w`AcPwGAAEQBsGFJ??JJC[G?M^`rkmCBBO_`CDofC^KgA`JWoEYeOIA_h?kSHPkMs?B`??_G@ASG_AA_@{IDDE?_,False
~?@c?@Y??[WGA{EOQ_`PAXhoc@?kvM\EgXgO?EFHK__|@AMaGGg?ckhGCgoIWGiWgU[TB?AKAWoEGOZ{@AcQ?A`KAE@CCC@u_\dUlTKKC@BB`u?QAab@WIWba[?uGC\@G__?[aKEoxQU?CeGeOAD_GQcBCg__?A??@{COD`GA??SCwo?PpiPS@Cc[_cqu_OO?M?A?QS`AdOCnLOks??Oc?O?O??Y`H]CNA@??oLGI?A?@EOuCIUB\O{C_G_U?_QGK{bHGkpcBaEAaW_OCgLGoEKk?WICUDOCkcTr?A_SHEMq@c?WEcUS_?j?w?kKFoA?y@eofF?`BWIc?ACVWzSg_?CQpEP`WAG__ToOj@EPGAwO@@QqDKiOO?aCy??iAbhOOCEvO?KQa?kUSOP_?TbACOEAm_?Ao??poEIC]DeIDAGoO`_SqB?_cOrIblBID_G[ICPOIIQGbQpAXrgJb@dEK^GIo?g?{WeDKLGKu@AHEEKAE@?Hb{?An_OBADQOgc?GBGRESdM{Ki[??S?h?`?AFMOC?Lj`XAYhFMoUc?O?EE?HaBAELyCGOkO~OASH@uiX@q??CD?IA?IoxFAK?O??GObd?C??C?@cXY@cI_GSEORBGD`@@prN?MCIj`A?EkGEO_IrISgtJ\_`?qBuuP?CdEsW?C?@?Ug_YAs]WOOOh`BWOilG|?_GDCAABI?H??pHWS??DOmTSWA?GAR_U?jMLwjO?VC_fOUT~_oIB_Wda`@?H`HWIK?Gx@`{mWcCGAC_dAC_TwNc{@OAqK?Ka??OpB\HO[XOgw@IHF__GCEcp_W??dWe`chFD?HL_WOSu,False
~?@cOEp_HdS?c@?{eibTZCaO]?QHpWaIADIG@BIcA?DdqD?MAd`?E@?L@U?GK@PiCcC?_WTNgg??`ZhdkXaB@wCa[chA?_aWC?LkOZ_G?GYcQpaA@@?J?O`[?B[AgKUHyH[@ue?[EOFXa`B`cEwzcGAECAaSG@xVJuc?GAytC?G__IALKdKCGBPR@G_HOPX@EWDuWFAyOpIp_AguuAt`IREoEhFAX?kBW?\G?Qz}gF?WEUOtGB?gIUFRASB?aGCXoWlCKcOaC?J?bE_?W_]AGMk@kKHBE]AKT??_U?C@?AJD\DPGCGG_OsAiYLAxpKs@?GBkV@@@S`Yp_\HAV?VLW`?BATXRPKJ@Yc?{A?IRkPGCREq[ObIOPCWP_?Q?@H_`G_S[OA?E?Io?gIJB@@DagC?HAEGH@?KXPF?OC?Wd?CJGQA]CW?_gYMJR_W_[IIQ@?I?_CcIj_o\CfdW?_@E@@I??OW@{c_CweHR?R?kWHBAhUKyBCIPO?CCO@DJGSA`?U?cG`JCf?EA?wqEOk]GB?@?cbOCDCC?E@UR@TEVGCAa?Xq?bQ?Wc[@K?E`CG?PG_ROSDCM??OW@@KA?MA?HW_DAX[G_zI@DIDm?YC?AKEIwuIKS?HjCgAf?GkTt?CAA??UEOFCOGCT{TApOJbQIL??U?@?D]UCL@HwHRCUGurdDbV_uOAP`_Fba?C?LKSqkeIuG?[OW?GIWHI@?tSeX@?h@e?_PGwJE@K?_[U?COR@A]Lcd_mg[w?ApAXG@cH??\A?CSbSWAOGs_Qod@`?Q@d??oA_WDAHEaa@SQ@BFgJi?s?E?gBa_?DL?w_[AWW,False
~?@c_o?D?_ACGYP_AD`OLUgLGMRBQP_?GpiMpeaAB?IO?P_e_W[JcNuBBagGKCBCXcp?qaDwJI_O~APgHCc\?`Ik?GWJA`AE?CKOQ_ew_AE_`j_CE`_pKPS@PR_AJCW@KlLOwLb_DwU?AG_CoBG?CG?Y]q`QHO@eQX?ArE`UAES@?OuK?S?ypvBIPqKoG?cH@?JO`O?Uw?AMa`QNGo@LH?FR?a?XaG_?oQDcCO?OaKAMdAcpl?@CCXO?CChrjWIH^GGAPH`cEIuSt??AFHcPJYFT?yIh[]mHLDSCCOA_I?C?cB?AO?OOAEj]P`E_Oa?XOGoWE?BCeFGcL@N???R?egHgao@e_YOA_EKIcOQoJAPATh[B?XCUXJpiG?ggSQ[FXA\K?HQMJ?FOC?GS_r_KoA_?PRabO@bGYpHrSPdAHL_K?A_F_HdgpgW@qhXy?BP?KA@ISG?CCr@Pg_xDo?t?Y?AI?@pAH?IYK@AaaXbbJK?Q@cB?G__TwtGWA_gOEG`dEWocG??CAucKAHAl_e_xISAAX?Gg@ZcU_kAGAWFcENA?ENchHL?dOPw?AUKcUaDKq?IE_TA_IHADEOtC@JGkcIPlI?@AH@_GDTOJdQNh__A?bYQ`?`C_?G_dBWWF?AR@G^PAOogUKDAW?NDAoUQWOIE_c@?IkGf@RXICEPAcWZ`@@HGIP??aRMdR?f@SCigz?AA`C_?D?HXCGCOrWegQ?sH?KhAMWs__AhXa_D@OWW?UG[ODYY?XQO?K??AM?o?e?{L?agX@E?ocWhgGDEKOEAFJ???AO_oBQh@DDYgp?sGkFSJkY?REDg@G?O@@a,False
~?@cWGaAy?IBWD}Ge?sq@PXwOHGutOdbQC@UskgDMG?acJXtsM\_K_OgE?KsShU_EJG_AQ?OQolCXGkCJ?E?Sg?AG?_pI?IXcDOQ_??ar@PGob_aD]{GCK?[WHVG`VHg?ZQH?q?_QSZSO\UOL_iSggXWh?PkjGOQCSPI_?@AIO_@B?GB?A?B?c]s?bOHHfPKBO?KLO??f_e_OSnrP?_nOC?@iWAdUfSHGBARq_gG?GsgsJ@OG?PQATAAAUWXABQG_??HC?G??|BQwo|@??PZqSSEgIOz_V@V?AC@UcoaHEC@CA?@j?Oc?AC_mOIaA?]S_c[X]cEGPFgCrOAGL?PPWCReC??QGf_Ss?IcGOQDT?Q??{dOoaFhDGa_A@GDg?k?ACph?B|GYdi__j_WCQ?oOXVPWg@SgQFoIO@aWCROOQGMOd?cJJ?khAGcQ`?w\D@?WjOC@?QBEEUcNyRGPtW@?P_CC`X??P?@?G_HOAODWGcaYOY@ACCXrUG?_@yA?Mo?Gmg?k?CPIYNI_?D?W_?GWOAG@?C_GFOqNP??_ykO?K{SG?V@GC?SC?q?AuC@Cd??aYtbzKFE}CQx?UI?E`P_tJ{_uG?bbWG`@X?a`lHPQAac@RgopI{?A?[SMKcnBR_AA?q@`CSYy_C}RAGdbMP_WGOAA?E?@C_UP`oCK@oGuU?aQGIgKBBKsPPLGo?@KH_ID@}GoCKOCsG??B?KGDJWD_LD_O?AOAK_FSmfYcH\?BtpH?_Vlh?zaWhgA_??Q?SYq?QQD?Poq??jO?EOgWKQ?zpG|GA??S`a?_CAyPh@tk@q?fOYHKu]GOy_yANAJ,False
~?@cIK?_??CWcac[uA?fA@C{@AL_?gk_WBe?wB`ENNSYJdIu?GOA?QEAbSA?Gg_C_gY?AMWGaQGGAyyDg_?@Lg[OVRfcsgRKkWa?C@KCqKBrAwcwCI@QJq?ODE_nuxCO?D_ADjZH@CDA@mACAh?FAAACPG^jUAk?L@S?KD?j_W?iW??G@Wa`OBD@Ig[xo@LMCHCX@gOX?A?LN_APRBQESG@Ff?SKAFPDCb?`PSYWPgA_?e_C`ngF?a?WR?VMOqfA_A?QCg_cGTaCN?gQCoEGLEPy_dC??kgSBY@bS\@SA@hGg?aXk?aPQGCD?_QG@C@mKTP`AKPACCDmQGQLOHyc?Q{?Gb_aG?]?IaNhCiB_CAOGC?v?_^OAHco_E??_A?@OPW?EAoMA_cMQp?@D\OC`QHAwgoogGh?CY_WgWcxRAAAbQLODAJI_r??XMEgJ?JcH?hR?IoGjG?xwqmO_g@?JdQOH@\DYGoY?t?aECEG^qIpX`a?yBOcQS[C?A?gIyXOOtaqhGoEMuoo?I_cosL?dD`?C?_WgEKWFIX[C@@_dC_OQpBOoGC]E?OL??O|?h?Ma?OCCAFBFMcA???U@CB??qB?jCxS_AD?qIQ_RAACgNoSCcxS@OrP`gFEn?JD]Y?`?OXe_GOj@CGm??oaDTECPkGGgGPh`?kw_WFsIOgsD?CDb_O@Oq_gy??PhMIQTYOK_DWK@O?b?u?FIE`BOUCU__ksHg`BWO??BI_AYBgVO_`ReOSADdPP]O_S?SM\{aGb?????IAD]?AU@MlKJp??C@C?CC[Ky_C_SWAYS@pOgtOCO_QAOgCPOOszBdGBb_,False
~?@capxgDgFcEgBFRqn??UKSQvg_MrOcS[JUqb__g?O?AcICBTHCg?uP@rD_IEDSOoIDh?``B[P?A?g?@axaDFC??eopBYHqEJODdGGgOGWHKWCCDA???GmcGSk\_tykC?DQMGcCDeOJ?wAt?@MC_D`d_a?c@?OOIKpi_qiLA?KS?PLCGcGODPgK{?XG@gQLoLkAGQ_YOMHL@Cf@?GGLGOK_`WBSQAGQKM@YCFJGaQP\_m_WFBIVG`??OR?b?g?Gy@cL?mCeADE[[@PCAoQC?AFL?@SgBs?oaj_YQbAA?a`HKAAKPKDCROFFCPe??ITFAM[TEo??oY??OKBG?DOCe?c@OOaBQAb?Iw?EKlE?Es`CHBA`|GT?Bs?OQrBo?HR@UH_kcA?GWCD@c`iPJP?OlD?HSAGCTc?@uDNSKP`CMDgbGGQi^f@TOaFAp[LC?_P?a@cJ[?BCACOO`MB_cBgOP?ADDmgEYFGkFC\W_}N`EO@B?B@gCSLooOAC_CQA_?O_??cE?HWWD??BIcCDP@OGO?LbAS_eNWCW?OEG?Q?a@KIgO?AHi_@WCCQw?HQ@C@JOQwgQB^I@TGB?kEaOg|baWgChW?CHKAs__C_cSKRRAA?_HcB[_?GApMVOhAwcBGQ?UQYKI_YcUf@dGGEAbjmHOS?S_WAWAgbG@K]T?QROBLLOG@X_IKs?gQj?_[QoH_QBKCTTO@g@??[AuGCd_ACH_O@_CAcpAq_o?KDYgp?KbFaw?{{T?OoyA??DCAGBp{GGps_GUlq]?F@Y??EoOADGCMEB\H[oZ?`RIxJ?OpK`C@T??aXFawD?_eb@PoOmw,False
~?@ciqAKGE?{?QI`G@E_j@KEoSHCn_QrgDEKEvDKbSAWSxbKOBDAj@?`MusOoS]@f?Y?MCAE_KaLY?SXM__P|oDOE?OI@_?Osc_JSGXHO?_Oxl_GNFBB_?@D[[C?E@eRT?]OGE|RL]AsF?OypOC\W_Lo?VhICocM?GTBogIJ_`bA@cC??wXcOGoSOoX@KL?G`]@H`Dca_Aw?fA_Veb??D[?GtS]KjEAdH@o\CQ?SUYjWFCKNBQBG_C@_Q`RpAto?OvPoC___WhaB_RO@_Ydd[qR@`?WC_aSd@FBWic???KSwOSF[_toOCCD?d`PbmrECQxDCO?A@h`ThB?_KHJECCgO_c?hXVHK@QOLHg@OAc?e?c??EEHO_[QbB?f?_A@SJE@a`OlBGP?Cg@cw?S?Iq@AO_E\???GoCGsODGq|@S@_a?IHG{W@PB_AaKGD?GI?CTOL@PcOO?AGP?I?BK?AMaRQOc_AYFWD@O|rD?SpOGh?RCICO_@c?Bi??_?i`Bao_KR?W@QgaFeAYI_E_QV@?@g@`AS?sct_oQ_gS?AwGMPAG_Q_GcOHE?r?u_C?bo_PSDRG`@j?sOpHIH`iO?FwB`ECh}Apgo??kkCRQqooRl@@URZ@?Gh\c@O?@WaO@bEosCGBO[XKCS@[@?HOAl`DTOBACgOgM@CF_??MEQ?fEROGBaD?oGOg@BBUkOdJHK_bGCGEI?UfBTbOB?e`o?GMWW?RoiIbGOjGT@?c_`eK`kiZCKa@?C@cBCCB?BMGfB@P_S`F_Dg?BdOiF?Sc?ABaccB_G@dOC_LDWAWrC?cYo@Q?O[GPDgG???XEUEXCCK,False
~?@cgChHo@YoWC@OTd?OoKMIua?P|BbE_h?AU`_CPSGbS?cO@HeC@HC}OCTa@pCOO@S?GA???O`p`@?ASOb?hcOhCQpC{BGXJCKZY?ajOQ_@Coa_Bl?AL@af\abDC?`TU?R?H_Ck?P?YWGpDGBC?ZPdSgBcbD@LsgOCgG??RyG?O?PKD?hZHBFC?C_R?fC_J?SBBa_s?C@@P????E[GCFSW?HQk?CCTCAoSBHG?O?GC_?iXSfgAGGI_?ef?wC`ECQO_Cg@?g?gYIW{K`iaZC??KCQ??CR@wK@`AoBIQEgSH@?hS_NCR`P__ZACo?DGO@DA`?HbJGfcJHA?pc@c?@?WG_g_DYGIWgKZ?hdQAC?@EFXOY?IJ?jYGB@CAOk?J?XCQ]O?tAqoO{xiFB`Ou?GD_xiWEE{GHpps_iIGjIi?BWcd[?sSDTxSZiogSP??RpV_IGOOKB?iPa_BgiCARLD`L?CAI]ad@BcO?Sa?p}NwU?CogWR?HTegDTBHaXK_?Hk`QA\cAOHIPgO_?a?GA@[Gq@rC?OaBT__Aeko}}PhgAItcwg?u@Wi?XXISSGWGqAD?OJU??FDCccAq_oC_Io?W@`_qm?Gg_]ABPU_B_A[m@GLa`?CEOoB_S?GY?@sS]yF_@AP?MNSgDOIYXgZHEKgBLCB`xt?Ca_@q_?Od[`DhQCC??gNYA{o@?I@CAWB?_@DDCAjGcCckY_cECODHNO??qGKQo?M??c?QClkCboL{`o`qPCAcM_?_FAuWWaOKw?DqH?GdJkbI\@Q?OA_A_[bZAACYScfCHAOQADKdD_YoF?SurGKT@E_O[_NG_RyK,False
~?@ci@B?@E?fA@Es_IcQpSg@`ee`WsAKzG_aIgSgoDuHcO?aJMIvIQEE@?GAG?IJQG?DCcMCdf??`_@geDIbYGC?IsJCQIIP?CZAOlAGC@G_ABC?@DA?YL?Fo@?SGvX??GQ?APuWI_AOCoCPSo`AD_aOhIk`G?OoCW?AGiPCAG@KR_IREGaLOBOAJe_GsgLFCGHHgUSzH@CT?AhEACsaAPCAGgcBX\OO?OLCfiK`Ka?EoK@Hu?ao?AWY?AML?_a?WBIg?pJICDM]cODuY?E_AbKC`hWGAEZgCEfODO`\kWKcACzaQseAg@HCP?cAgg`jA?pPCW`AYHV?EhOAW@OL_JTd@k?A?gIO_hO_GbGDkI?@DIH_FYrP?w??U@o_K?gWdHAqHgDzJWCaw[oj?woHEZHoCANAe?c?QAOc?WSaoPo{dAPO?@@?sow_OPAOPaK_?YDBkcPyC_D`mXPcOC[K?CO_M_MOS_DEgYOG{HIGFWDOOQ?sbA_@?Eq_C?D_G?C?CECLWFC?_G`?xCCpOCEASwPISwDBG_G_lQUA@i_AGG?goO?MoACA??PgXo?`OKDDF[Y@B??i?C?D[Q_H{DSoAfSJ???_?CuGGIr?VQGAMO@c?DABOg@?X_SMqC_g@PIAVQCKq@PP?rRGBGN@IM??uEAAVjRKFPDGAgCJBASEMChVOCuc_AuaFkpwxO_@_QgS?`X?DOLRbeYkQFREA_?_OIhpO|Ah`LQYQQmMET\oPg?ccEW?wJPO?jR@o{GKrbcOsgDBYGAA__sADMJB_K_OaKK?t?NksEYjHuGOH_?GGe@T?s@?wP`YOSO@Wp?QW,False
~?@cQB@?a?JBBspeO?dDGM@OPLE?aPe?OIBGEAwP@OCOECOgf?eB]A?buTJIPAa`O?TgoP^PSdAAOme~[olkHK`?Q_?IF@AWHCcWIqALLKo?NbATaCgAcABdaA]LA_@ADps@`M??O?JtS`d?ACP[_UCiiSUw?_@E_i@OB_@C`R@o[APX?W`hB@?fwAOACQ?CXBD@SBEEB_??DOoA`naKG`C_G@~OTWWCNNGjGMJKMAGHSAOQ_{XPcKO?@?gWCgKpC?HO?@JxoW_KbQw?eW?wlAv@qz?g?Q`OIJLGUCKGKBiGY@WoCaJ@C?lQpsSgA?GcebHGGZ@KtWCtAhB?wG??YO`BhjGO?cQZXdGS_?_dBcAO?co_QTJQEWOTQhAlC_?GF?_?tFWA?O_XZe_QGYsdS?cPAl@e_[oo@RP@^D_H_lGC@HcOH?AolGQJKH_aOPvGkZS?h{gScCho@OK}B@waOAa??gH@?_@g?__cKgCYOacXK??YS@@AOGOO_CEOtWXGB@?EMDiuKOqGHAQaWK??RI?s__oDOJeup?_Dp?g?TsaS??BzKq??Gf?WOk?BQG_@?C[oPIGA_pdo@?IksEfOJHlgOJH@?CAAO`??OO@wSOGPBtCDGesHcR[Od?b[yPj?C???g]PG?ocAuCQO?dopID_WWo@O@Ca@Cj@_C_aF_E_UPKAGq@c\@nB??F`WWAe_BGiA_]@XG``_?S?WAG_kq_a_jDOqxa?YGR_KpGW?g?QABgCFfAOcaEkTGaWQS?o?BcDF?gEOwO_bKA_oYA_KGcBDThaCGG`?d_haLyTh?DG?G@Wa@KPaOWOqdG@`O,False
~?@cSKpBhICFBA?AjWG?TEBYqOAaCRw`rEO?XuQ_YB??@sOaOKr?@?_H?FDO?DYK`W??a???CCcc?ImCG?w_U?A_GAGCW_Q_PN_qHqRypgQlePlkQA?PbKW?G?XGQBH?qgv@NQDbB_Wg[IpxuJ``?XOWeTC??`qIgQAcDE@A?BBDtz?_?EOHCAdBT?TJC_AiYI`Lwg_|GuCOoS?O@AS?BchkPGAWQCXOSFcOo_GAPCJp?KOnFIwO?GBCP?Sgo_KQCY]A?mOORKC_GAR}DTUTeSC[GQaSldqtBOaac?GDkWkai?c_pDed[CCgkDGg?ef?p]`RSHFg@QO?aABhY_ghAAHCoOWC?To?AZJ_iguCglC???_Hg[h?p?X@@sAq@eO\KAAC?__@gS_MAL?OCc^???CF??MCgHGcK_@U?GDFCoc?EI?i?AKkZgUADE?DOOacKpT?CmahpLJaBCC_MWkOxc_sP?OZojBx?Gv_?OI_AO?P_DQO?PccEE`@AEMq@OGEGgoTQCgca?FU?hP_AKd\QG?RIWE@v_KCAd@@Ag@PH_ERSP@C_?A_PKAgjOGWO?aIC[?ISAWj??a`oCABh`Q_Caoo_CaiGq@?@AjBqq@H?I@R?Ht?oEoO?G??S?r@IEG@QsWRPftj?SC@IQDpEQ?Jl?DICIAI??qTg{IHAkCM}TCCxaA?N?ToOO_oDoBXAMaObg_?[ITM@o_e?@A??fcCEV_Q?UvM@SEU?w?C??`rW?@l?XbPg?AOSZIXGG@CGpOO]IGj_?EkLayCeH@CoCC_AKBADO_DDKh?o|QAHOpwbUO?CdG^_@Js?EB_qSQJE,False
~?@cb??G?E_QX@`WpWP@PXOA?\CoJcEY?G\qOB[@@iG?Qcd_k@?aG?AqlH\T@wCfwGi?BG?Ac?ScUGAaw_?GG[S??x?i?S{ID__@Wm@]GQCoSmO_fKCdc`O?W_G@d?BPWCAC_wR?BoA_?gDLX@oOHQ`OGklC?b[GE?LP@mO@@?qOpSgW?C@?GatDwXJ?CIWPW`aDS?WPQBAH?_|O[ZW@BKIP@_?hAEw?SS@QIC@OMbIc@`PHWDV@`bcA\@Yd_@U_Ct_C@O?ACUBA[cG?wGmACgAE?Uar_gqRPqaLJWGMChtH`FgJ}Cg?qB?@{KGGGAgBQEP@GlO^?agDaEofH_A?FqIKPa?pHE@Um?d_G__?OEgWGTCA?BHT?DORAgeOOs?@B_@oDGF?_DSDCAAK@U@Oo[bnFBEOA_OQaaw@GKAROp?DCQ[?Ghw?E`?tCPS@OMDOgQAkKSA@@Ld?GAfAwOO@asOP?CIbIaI?@aS`y?_?sAo\AP?HAcDOCC_HJ_C@@ec_KgeCcCCSy_aCsWIXI?kg?BF[Gl|@IFh@CwAGBKPQg??`?JQLgF?M@?[?HX?JICCXPkDYi@ocfHMgaH_III@UQFci?OR@mBOgXBafwB`ARCsyDIFOOeDG?[?bASc_wce?OdkGKa?WO^@[`GPCE?KpSo_egWG?_tQH@UIOOGr|LD_epOhx}W@CqBwm{W?lGHGiqQiOii_CB??GG?CS?IHs[j@oWGr@G_ASLP@O_o_CC?K?C@y?gBRQam__I_OoBW[OICcZ?E?AEa?_Bd?q?aOD?_agAWSYR_SduZ?aaWq@?@sBwiasGOG@CSYeLKOg?,False
~?@cbHbrwhAIQMeUqUMCWC}Ac?GBQT@{a@OEOoH?UaAJB?g_OHCW]GbC_@A@QceGAD?WPC{AujDWAC??BoGnwEKgCAqA?A{_uWyFAEMEC`SAJW[Q_Cn@[_cGD??P|?BRm???UpAo_tlACoNwWRwoI?A`NH?pcIEG@HKAcLkO@GEAE?KV?GBb@eFUC?@?OCB_B_NWcD_??s[?c?`wH?BL@_@???DG?u@PU???{`__[?g_RG?O]?_e@KAIng`AC?DOaUg_?RG`EAbFbMG`_tQe?NecMOjHOao@PA?PAPGiOOOH_??GgPP]HCQQAM_wD_[HKOl?THHIFRS_Rk_OFVigoDiDx@_EC?S?@?O_C@J?O_KEb{PCWGFPCG_O_d@YLXq|SF@@GEaDKE@JGO_?Ont_geKLDaOA_@CqUXApgC??RFUSWA@bc?MAGS@C?RRAAIZTOCPwg@AF?GaC|sg{BGuW?C?CZ@_Q_hOZWK_k@ECO?OcDAy`]MG??AwoOIEAY_KCb@CHALCcC_egHACSCwMwXHaga?g@?WOSC@ly\O?__@XX[GcDQ@GPj@QUaaNSCjRDKfR@gXGHIJFQOAAiKW?XOoEA?pOCA?[p?KMsA_?o@OGkA?FKAC?`AO?UP?HG_K?@@PHQ?ScVCPHTOBA@SDEK??mAAIw?KuD??Y@GGQPIgCAgBo@KDTh?hIHOFsFsJAaW[WryWIbD??zOO?G?IiqQ_aM@aBFfCUYT?e\_?]O@gACe?ZcC?cTx?GM?PaQC`E?WBYSGCe??G@SLA{DEAExTIG?@_E@cpPGHcW?wATGUWBJa?YHA`H?[KBoBSC_a{C,False
~?@cR?d_A?I_AX?aPAKeX?g?aAFG[OHSc?l_`eKH`JGGY?KGCo?CwAAYc]R?CCm?DscOo_cGEYsAGUShA@oJOQ?ODO@QJhgO?OgOaDAAg@GK{gcHZGo?@?`sBG\AMx?CccD_MCwc?O_uES@IDEC`G[fJGA@ddAg[qhDXRI@W?WIe``kGeIeCOCD_?HHbbi_PAUoWMA?bYb@OcBAAtCO\SqA?kaE?SI_egW???BO?GOHBA[B?[Wg?gw[JGIUiDGwc?KoCG@bODc?\B@GDAHO?C?aoDCBIceRQ@_kHZSOP@?YBW?YG_c_?O`G?AKG_PcQ_nGr_G_Moz?yqHJDC?\WcIG`@CP@_???KH_We_pqwO@Fbk?l@l@PG?[EiCOCpIDo@`GxGs}fj_??_[@Q?rs?lIHoPiGQsXPta?DYG]cBp?P]@o?Oi_UO?S`_SxgK@?OWhJWlQTo?XS?_CqeOx[O??OfUB@?F?CAo??[@?QjOS?CAD`BIlx?goQGh??COpMQkD[A@O[PwO_AOO?WlLDb?@JOokOWP_c`SIhHe_icoKd?G?dChIoCuGOGOgUqhggOKQa?[hOcGVk?WJ`UF?F]kA?IGdwd?Aa?H@??IAQc_F?EIDiK?HID@K?I^UHdAhjJE?oq?C@@OFKEVjIhr__[opCLWas@B?bkPBYcCKITfoROCK???Gf`_wgK_`@GOD_lEJPwEMCOLcAGAC@?WgoQEBSWaOG??T?uS?sZQ?O?PC?QsKixDG@eQ_v?GDGd?IeA`gDOCRiO_?h_CWEOUOdGOd?HhHGKDj??UIAocAy??GR?cyCYWPaIh?HWeQNdBAC,False
~?@c_BB?H_HR?apGW@G_AC?\@CSeQ?bT??@{jMD@HhNHHXaOE{I[[TqAc_O_uTOA@HAD_M_OpA?@GGO^wD_?Y?IkNhCr?ooWR`?G]JPCG?@_G?aZ_M_QO?@bhPocOK|?Oid_iesK?CGIKSIiAGe?@OO@@EfO?h@]pCCdG?O`I?OO@aCO?xFASegAYEd?lhOGEE_e?DJ_@QgSea?H@@?EScIboDD_?od?\WAlrAcF?CReCQEE_D@DoCOiIL@XCDscDF?@c?b@P?JAcgeoqk_FkKOwb@SLbAWXrWd?_BqGOOm?|?jT?_C@TjZE?wGg\VIE_GuA{CYRCMgOEh?aAaco@cI\HOG@LMD@r@cODS_@Ac?Cw__IiWCI{gCCRTSSR@C?RbpOLRQIq_WM?GPMXUGnMKXW_Q?qB?s_A?W??YQG?rAAGgkHE[c?iEYLJSoMOAs?_Gh?BWfGgaAWL?cB?W[V_?_C?CCAA@_?TR_u???AGKWJ@LKgcP_]_E?GSN?O?MC?G`GApG?MIkIoA?Kug\@_GGOTO?RCD?W?UIorSK?qP@Cg[N@C]@PKOOt_C?YGCUQOAW??faQ?@aA??o?sa?ID?D[O@GI`D?OjAaa?@EQOG?EPH?O??geC??l`POPKFA`IXA?AG?YAN?kK?wMr_Dpqc?_?GFBOPNcd|lU_L?G\dxKN?Qe?P~ASa|OqqJcgeCY`A~?BwHATSaA@GCDH??\bp?YIIO?A?Kk?oWG{WKIkXdKeJI`XWO?F@@TGb?OPsbGP]ga]u|Wgika?_WpICDO?GdO_ACkhK??DTWGdB?uKKQH_G_A??SWY@_dOwC_?B,False
~?@cUGaA_??w[VRl@gSCEKM@kN_gEOShcaOEX@Qg?@cCoAp`HIYqG@Pb?Io?YsE]@XhH?@PXhxCOGIQO@?OiCjO[TGssT_E}V_YEQHc]?Sc@SSOyB_oYKbADfAC?DI@X?aOH[D@d`@{^@WGLAO?GK`?dKAKA?@TyaBREI[O`e?sUCQsH?[}DP[jOGKW?W?SaWQB?P@@kBwsUxP__cHARsOsxm_Oq[Fd?PLAK?GBE?XhCHGoYEiGxA{?U?KCTGSS_?aSCCRA_?Hecc@@t?ysh{?x@G?@DJs?CPAa]CXA{GPgFcmOAQB?cGWJ?BklcCoO_A?O[TWm??SUcAQC?]eioP?OpggP?sR_BC?@k`?CKa?hM_Ui_OAkGoOKMGI{cgiQ?EAm?PAA?OOLYa?Dk?CAHG?LI[G??_?EgEH@B?KB?COs?XCDSmH_i`R?@@h_Occ?ANOHIBKkP@KS?ogAX?o`ECSGSOAG]?QWO@kKClAK_ZLgfoSd_q?M?GQq?qU@?DoOOiPC?_ASiPC`XocN[S_OLAcSs?iihsU@@AaHGeGaoNOPqiStvp[]eUGG@PW@eAOOCHSHCwA`?L@QSF??GWDAqa?_?SCEPODb?\?i?QBPBk@@EILBA??@PToCQe?@ORE?@?P`K?@PRKb{??Qw@AO@?GbL?KGw?ydDA?HJ@K`b_\OCH?E?odUTE@A?KIC@o@o?zh{@Sg??`DK?boH?ftdf~?ASG?G??QBPAAD?CG?c|?rP@CCY?SI?tTHC?I_ghO@?CiADPGG_EJPrEAO?`yCAITEIEDq?fOXcwq?h?@@_AAEJocFJCh?EgBPQB_QCaG,False
~?@cC^?qEk_i_@@d@]h?WRGo_GDXaYmh@vCOJko__ACUYCOak?DPCQg?bO@BfaEDCjQECOIICgcO?DCo?_@IMcBig?KGA_GOIM?CHaXW@?QHKGwU?AOggJOWc\Ck_AApXY?[APIFtSIkGXHBK`GCO@EsfC`AGO_KmhCAA__?IcC@G_eUUA?MOd?FJO??cBGca_AkHoRQ?@DWCEDvbi?d?SOaQQCFA_SrcRF`z?RtOS?o?cbCXgT@_oMH|P?{kyqom@e?FOADWQCBWEE[O_C_Kd_EPY?@?H?C?C`cbCC]o?P@yWcOCJ?`Qg??YCeO??oWiEKB??O?cC@`_??OCpDhK@_LDkgk?@G@IaGG`GfaGFOIAFhtEQUc@oK_EEFF_?c?Fo?P`\FWA`bOCi?DHHI_A?eDOIwOXQgI?G?aGA?iHCkbcIAGTwP?BIA?kcZL?DGoaE?RY@JXaq?LW@GPCI?U_WGy`Fa?GWEPACigH?U@BWNPO`BAQf?c_Q?UAOg_`GC\@@IWKS_g\?DmOtEQLOcOO?WOwhkG_?EeLJa@O?_?IDQazjOS?P?wcP?iAfFfEJF[@C?|CaEHX?GkccGLGB?dIIE_OXUDCZQ@?EOHQWKMpg\oT?[ORQG_A_QoKkE?KGTS?yH_h?aCK@KpWEC?[e?kOH?_Gc_IHCEW@Z[?KO`ASe_OwJ[Y@C@Q`g@lP?AGUFWecOWWTX?_PI_rAH?_CbAG_@`@IQXS?@kCwIwScIfw?G?MBBpED?G?D_CwOoGlyA?F_w@`?vVcLQ_QXOGcfpcmg^iO@C@QDGgbaKC?Rd_KGd_cH@KdGPMo{ABP?Hc?O,False
~?@cUHM??@lZAGPJE`?ODM@I?@@XQaIgCN?WGO_HsB@II?QCB?O?uXzGbSIIkCpg?CI@SEQ@lzB_RzEOO]GAEO[YcgAsKbMH?DccJ?IG_`g@tGAA`HEGSHGGe_IESSoAHO|@oAarqS\DcC]_@UOs??oSaNG?j?\uAGo_OXpDeQHAbggC_CM?Gqock??qCH??OhGBDRqHg??Co_G@DU\?@AhJ?CSAB`AEFQOOoDRCgO_UgCXpZ[GAJ_AaPHGD`g`B\_?WIOABgXcAAdCr_?caW?WA`g?___HIgVKGd@hW\PKIg?DAHYjjTD?kVC_PAA?dCqGDKAdIC_cjESBoBrqMgDI?`QD@AJCEGTHB@AoGBPC?c?_GOJI_M@?a??cG_KC?_OpTE?a?OG?Q`H?G?IMMzTiw]_sGGs??YwwcSwH@q~?c?_BRGi_OWCaDGU`?C`FW?JBEBp@?@OiaQpT_qgPn_?Q?o_?xO``Tl@_DDcBQHGEN_pD?bgGGGCH?@KEGX?PSpAK_p?OCErN?HoUMS[SP_cz?`lOcCAQ{????RH_W?cTCQQ?cUkJCkL?xaWMC?_iO_c?giZG?M??^s@OJDCX?P?pO_MQGEO@Ao?_oo@JM?O?ggA_DIgGxHERA??DF_KqC_?bDC?`g?[_A\A\OGIO?@@c[yc?s@TCO@@oGd`W[A?WHGAG@@hCgS_?kPGOAOYN`CIggIFOaKu?wka@@S@c[AgGhBmQhD_e`g@EpGa_IFjRsPQ?oOO?yOvWLHioI?`AxOSXF??VTFBsA?_vc?Sk`A?@TlgG{EOUCaLIg@@U`h?NHa`_@{EdOD?}e?CAIQ,False
~?@cOgpQqlP{WAEBP?oj?pAEe?U@cO`_utCZATWM`e{CFCQl?aba[T?w@GGiOa?@C?Ko?_O]a?_bSQDSGPH?@WDO_b`@kACOWDN?Baq_??PpHGUIj_?EaKCAAoCG?GG??DocpsOW@_Qc?Kc_?OaDagqh?A@?kADaJs??g??BCA?lHG?[ioOJCCs`BQI?@U_GPGpWUmScSShQJ`@CP[BaQPP_LocWYkQATOwcBNZOsGceNABQJA?{`OCgB`_Psqa@IWDGc??[KOSJYR_\IwWfGhf?AfaP?o?YkG?M_?ie?@_PO??OFscI@LOC`H?`cU_@w?HeT@{O`g?Ab_pJCGGYWP?bIAqGxGG`hXg\H_WGc[A?q@BA?Q@?baHFK?EekKR?hCUDS^O?QSE?SO?dEy?DeqCOFD?[?_Ha@AWD?hVAa?DJBSgcg?sPWQY@iPAAY\e_CCta_cjC@AJ_D`GUE@Co[KOGH@iMC@KGbXIEtCGE?W?@`HU_?SbQsQWmaO?m`OIOKuBG\MiIOObGE?R?aPM_C?_?_@KROsWSTE@oICIib?N|[????K?KQCSW}EzCNAdQFhe@eAK?T?_OGFCO@oiAQLJDPKi?A?OIB?g?cpAO?C`aa?QP_CO?_OgWEST?__gahGFHt_apgqAnEAV_aEQ??CbZSWPp?AKC?cicCe?WOr?WgY?MOcPYa?|?D@IwFW_oGvOb}H???@GL@CqOLFb?Ho@DFE?H`?k@WAIGSIEOAkK@R_GetI``Dv_[@?lSgAIzbi?hGiGAG`?gAd___qWUJaH@K_PalHh?@AGG?@??`@cKCYOAEEcZOy?\ACc@[,False
~?@cAoCLCCODACGsPpASSAC_oB|G]SqWOACa@pHxoHfQ`QPIoACo`oHh?BQaPQRc{sa?_p?A?bHCQeiB@OB_`p_O@?OS?PGGiu`?gG?SocJCO?nWgKQGFhKoC_W_ACJh?CdQo?h??F@G?DW?a?L\TaE`@oQW@b?kKw`_mYSCAC?wOOCH?FUCQBaGIOoDClgBzb?GEOD?ACOatBogAWxOGE@CJiOA_@{ogAexg{?aaA??GQWw?@EASGCCKGCoAiBXJ\UAcgHghA?p[eFFOvgXO?@?GctGyBAmBO?\gAODplEE?wnOf_HA_D@oOGKQe\R@OGgB?SE?@?IOAQS?kOGlGOJW?GP@LwC?SG?XHg@W_`eeAegGW?WAKc@AaBOaXLk@luK??giB@_B?GS@SPCd@uC?ghIUOb_VtUowuigos?CgGPCGWrsD_O`Ecc{SovG?iapGKPi?X?@ULKWWKOO@???OGOjTKGSD_Pc?AbbaaF?D_cO__EedagCGS_PcQAK?_QtG@FwOgisBQBu_AWMDGT?aWdJyh?P?HCB?O?Hq?HjC_?C[_IUPKydiSgS@?G?`OCWSA??CB@P_ay__otTG?`@KSsPoMT@N?hGoY?AAY@QAo??ppXCg`OdCa?O??TBgr@WEK?PXF`EcA?KQmCIIGu?OQdWOXL@A??@DBO?AwhAEbOHm??hOPVN]@GOhKIbh`OKOXQDIEINWgCA@HccGIOkaAHEOQ`CmXEK?OGU?r_?sf?`KsB_oBL?HEExb\DN~K@nSCG?_CO|a?SGOSA`?GIG_|?_s?GOc@cS`COdWlwGEC?o_MKGRDgACSoNAJh,False
~?@cxOMIETc?EdXBH?THAADe[_g?^??oSgCdYKAG`raP_?qWM`@?_xAiG@cB__PGCW[oKOTHGOOXKFo@cA__a_AOGqHDs?T@QJ@DBE_WeDhF?TDhIC_?bIjNACuOs`@Rp[}?hgACM[g?POwc??ymMFFaOiawBB@BJG`GWq?eU`K`Ea?CIO@A_C?@?CG?EJC@@EOJN?ETioSpRPQG?IEEG_?bO?gARBs@oIcakG?PCQWBklPqHcoDIOCkswE_Is?GFJmV@[?C?C?@?TQomOW?Th_WYE\JwAc?Kafqac_?D@I?W?@IiKOQ@h@OWgHRlPB_FZ?DHCqEp?y?awdCmADm?`CBAct`@B?B@GplS@a_CkoTSCBA?CO@FmwXZG@ChPE?GWJEdIASB?O[O@???_ocOAR[_GOH?__??aS?EfCcAC@KCz_S?SPSN^JCO?SH?A?Bi?`iHUK@aICeOF_X?DS_gChKO_Y|_OLI{ALRPyO?_aEE[xAia?EZb`C?`GGTOGP@TQDHi``OWKF?hgjKFBKKpC?_??_mEhC?DEM_@go?S?@??k@zRAB`Ew_SBEDKDA?APXc@FTaK__??cQIUbk@?QHCobs?OHA_ADoAUCBazo?_}q`SAO@DWcgS?YkDY@QgAWIG??_`aIaEAPCB@OYy_OoMOaYD`ORDAJ@jCBYLBKpGGIOWRopIZMF_OdCKELDAG`_`CC?@sRhHAsce~?EQ??uQFMOkqWpqGHWCAKGI__`C?EKc?wgGECOdXYaKF`OP?CAPOOOIE?kK_Ib?iOcLF?A?C?_?TSQO??AMp_Doa?WOH?P?hsCAUSGQOa`oUA,False
~?@cja@_A_C?aaGrg?C?QdADQq?@_IC_bkUeXI_FCCJOQY?W@SKb`kA?Wk`lKgPGm?X?bGXG?`sM?vKCCqB_C@BCWMNBvIXa?O?_B?`IZPBHIcW@CS?SxmDGWQaBYC?uFOKORABCZO`o?BIF@CAj@GAOsSFso@Tn_KgO?wJTgPSIO@Mg@mW?LhL@_dDODOAuAI?XG?O?EGBDCgYAoKKI_oE?IHE?_?aoQbPdR?\B?gIf`U_?gOM}e_?UD?We?T@JSg[]BWBg@?a`_?aWJPBfOFsK`CC?G`fCF?WL?dWXsaa_HoUAHO?Bv?KIGwGiW?@?|CQCGa_?QHBHKlOro_@PvajgHA\_GXGIGlH@A\AsyWOAdTrHBoA_OO_Icb@LW_Eq?GC_LAS_?BKgcx@?gOdQ?XM_ARQGDQB@A`?dQGW_YCGKCIADRc?aB?P@DJBOUPS_Z_IEchG`q?I?Wb_kIOD???koXBe??@CAOO?YoegQ??AIIU?hAicFoWE?_?`pWc?{@\IAiGG[b@?[?jAweKIbOHzOJ?o?bQCiQ@Pk?o]?cO[CIL@Co`@TDDRC?{G?@DDILGHCr?`?Ou@GgRGKA@oDCCOA_O?GOMzGAD|NPud@?OP?C?G`Hw[?R`vPT@IOH`?WH??@_gC@MgWoIBUoAcl@ALCC@G_L?M`FGOgVA?O`TQ?cOWu?Q@q?QAAkqExL??_?b?AUSsLP?wtXkBACCHQJHq?ZF@OGKHLGSkc?C[w@KISpH\SLe?_?Ih?G_OJCWwr?IKfoK@wMKIC@QQQ`IOCwH?WB?bWROSS{bOOBCe?OKkHH?OuBGE}@CI?CAGW_?,False
~?@cU?C@c?XOOMGY??COqcl?Wb?cah?DM?cIG?SDkUPqC@C_dD?@AqvXI_dIAHGYI@dBhG@@?gIBI@PP^EFyEGjGIAEKSGRDOHaHOI?QBCw_`AEW\qTDcApg??OeZaQWHAtiYGagaEM_U?qUAf?]LFGvOGAuuQJtOoar?C?mEKOz@oSK?PEgQeRGlZE?G_?laANi?FMQB_DNWBTOiVB?JU?cS?f?_SW?A_QQUSA@?PU?S??cw?qqoD?IG?@DGA?CD`r_IOH?qE_@@HpACP{vM?KfEP[EQkW?Q_INF?gY@QOopGo?_gEHRgWPCQAwOWKG{G?@?EegC]CSSBPC_KxWfldCh@BkMQPA@Fq]@_OKCsOF?gaRK`lOo?_BQtO?oXoEB??XE?ChCQ}Ua\EqdDHcETm_BAGMWKHNG?G_?Zf@jET}E?A?sP[CY`?Hq@C@EbQh_S?GtrW?IOIJ?_C?PKBhRP_b@??W?_EmBoec`OP?}Xdq@VRB?AWPOPM__GA?GQl?P__c?`BBPoEOaQGVBCu_@BhD@FKgpQ?wPG_?E?EO?EIy_?ZYwk?KIPp?eQ@uBBBGASCH??_TIDA_O??`@CoOC_b_qAKSWga_C?@?_C@HGKNWPJ`KBOwBHe@`jIAKC_t??pIgE?c@OO_??IQ@@?]ci`IjGP@\@?c[G???EHAcIgIiOG?BM_@KH_YB?q_sQpaO?@K[EGOPFDo@GoCGA??EAokTSO?EAObwbGCGXQIe?FY?@qXGCRBc?dOOCHIGwALC\?ASCOiAc{ALh_GlsG?BYLaGe?GQ?aqsCWiH_GYq?ABBHH@[B?[@_g?h?PO?o,False
~?@ciFQa`_QL@A\AKTGzAX@SW@@_HCPLgKd\gTqX@?]C?cM?p`LgE?C{z_WI`BAJk?GOWB@]?aO?TNAsez?GsW@Cc@GoB]QkUqB_oX@oZOG@OB`ACC?HROWxdPGA?Qq@?g?OQ`tA@@D?DC?AcROEXC?_Y}@?Pq_A?NO?iYPOOaIAgG@CCCpO??S`?__OgdAPaC??p?BGPLCeh?EG??`o?p?OjgI??OagKOfG|O@E?A?JUFaUGBTHl?M?J?@?AQq`T?H??ujpCAXBt`G?WYikIo?s?oANig?lOHTBAGE_cDIWwiw_POgIoeG_ADKGhD?OS@T?JX?OPdB?s??CAADC_gQ?p??SiFGH@?F?AGFAW?yC`C@GGFGYBY?hRX?`\_?HOk@?S??wOAoM[@CES?wE?HmaMP?oAwCs`@S?FEkr?@PaNcC??U[Ob_QQD@@?oEZg?OQAgXo`?Cx??EO?PPh_SRsREWalJOSDohB_OX@@Ak_kYH_i@[H?C@MO?hAFOCTeIokO?o@_?bGg@go[OoooQK`?ga@R`B?@STkArC@IQXA@EyOgChKJhKg?CKCOE?XC?AgpAOwCwpI`AK?QkcPMCYJKgROYa@CFqk`@iwoAOEA?AOSELj?AYhCE`CQwgHaQAGCx_d?BZ`LO_@HA?QZlR_IWqHwSItRHAsg?IwP?Mu@AfOMo?@??GboW@gCCLC?kW[UFS?KVJOUYQcOCC?Dh?OMxI?R??IPwrIJP?NM`FVGdagJLCLCkGPFCECEWCJKCI?K{@IAHrU`hE??G{AGIV_{CWDg[eg@??|SI?HsobM|@FOIOahWgCC?FfWgMO,False
~?@cCKcPaQaEmvHsAN_qGiH_S?JC@LiA?E`YR@bcg?C_TKUD@?FoGOhCaoCE@FmCdgSpG_UNDCaTgCLJArO_oAw?`iIkwEJV@PBKTOGCA?kFG?FB@BXCI@g`QgI@f?iqpA@O`OV?OCc?pE`?_cCh@gWJu@KS?_C_axcOQ@Db_DiPRINGI?@?OWAE__ga@hIPFGOEGABpG?Q_IagkcAc?s@A??ja__qWOeABAkC_oRSP`C?}gWDIC?XO]x?JUOI_CAmeyAOWK?cgj?O?\qX?_cC?_hCGc?___iCDAAjS@AGI?rw\?DPo?CiYIPOT?AbGR?OiOEO_g?AKB?@_A\hTKYQGFoCH?AWEOK?Q__OGODTKCWVBG@osJOkyp?Y???g`KAGaBB_sscdR[OJGPDKHS]Go_C?CO?Atco?B`?pc?Y_HK??aInbBww?@{KKWPWo?`?CAoCjO`@bS?gUGEWO?YHSB@a?KXp?oG?_hHAVsWBUJAEGvXCCwKdnp@clQ?eDOOG?CCr?S@CoB[CcqgOKGOEBoGO@aLG?OoOxK?QwQKHyYOVDApADC??HA\oAcORL?IA`A[GO?U?aX?CggdGKRDcEHbF?FGSG?PgcIMOQ@A?abK?@RR_pQUiAYSIOCZd@A`_QWaLCCcDkGD?A}TXR@wb?YIA?aEbcc_?T?OF@CEL\EyXBQWDd?G?G@H`GaE?`_uH?DC@GY@@Qb_obAaAaCLcSHQGEHSECW_EACTY_?E?OGfdAlAGi?OBKOgg^a\GKPOadLvoBecE_p?_YJAI`OPE@_J??Q?g\C_BywxDAH?INj@jG_EDDQgGCZc_?gsc,False
~?@cC\[KORaAC`gAPPAbSoD?gAOYQe?@??_eWHhJQEv?ApESaSi_G??E@CaxE@p[GbM_@sCLX@?KuU@HgGCyAJmQp?@JAS@GEgwh`?AAGTs`E@XEAB`OEgGCPDDCB`g?}@AeGW@Bg_kcM?gAwGT?G@C?@_QM}WsCikGSSGKLs@IAyA``Cg_I_WXOiOHaDa?OGAPk??KPqSYr@GaPacJ?nQbSExq?ORP[`SEW_FAG_EUb|?P@sOKIgCvc?boWG?ZiocG?VcjGCcj?Gr@ejWE?GG?GS_WPc?T`UGaY?OB_ADo\P@cFCEyAipO?`dH?RCZKkWGGjsA?BkT?UXiDAQ?EDecW_yDhDI?s[KWPO?MV???_QGOE?oCk_x?H???atWaSCqi@n?__KUMP`q__daE`EaaGA`??y?Ftu?Sa@HalQXOC?o@Z@hAGEb_S_?cFBC@]CF?i?{PUYPs@WBBK_C{e?CPW??S{__`_QBAEGA?B[C_?iH@CMQQLGC_a?`@chV_V?aDXTAPKGASSS`AaaCBGVUpCrPB__G_G[?GoHwsrPgoC?@Ra_oLdoAGg}C@U?aLPk?G_c?`s??aCCPoT?oGF?_AFOPGIP\CDRC_cH??b??s?YssG@oGK@_GQ?SWToCTTChACL_DOOQ_K@HO?fKOdaI?O`OMAGMGDqBjDA?QCOBC@OOQQGOIObrB`?DHc??RI@hR_eoxTww@@C_?EasC?__[E@gC@KpCPAQPCPzCY??BaEDpICWQkOEoWO}cKIO?ApX?`?o_LlP@P`??QPZEGCboXJ@YmkOI?L@L?M?IQ?bSPqAJLQOWGEAkp?GDWS,False
~?@cAqg[jNG?@GBI@dwo`OoC{@R?Q?C|}D[PJ?@DY_w?@Dok?S?XWF?QWWpiO??hGHoBAOtuZLO?eghCDG_a`[`gCG@Q@okoS?WRjO@HI_W??GIACODako_IakDHCagEGaycCAOPGK@aAJOab^OROP?cZ`__Da`OghYDXoAFAGBO?dEgCCAOoiQgGCK`dZra_@pi?JGdgQC@@AoaCABFjwIg@Kg?AaCPtAG_wG@wGHd_KGAoWICeCA??E?_pb?sUAW@[EoCW@}SOwSO?g@Q?`WOBTPSSAGBR??Hg@DyCUKg_CA]b?p?GB_OC?W@gGPs_GAC`gHBQAcIgWHRGWGO`_ESvTK_?@pe]g?@ThcS?OwBk]DUcFNCO?U?epLC?GJKB_tC?PHCO_G`R?OfHAIDSg_rDCMW_?Wbbl_AaOgWcLACPWAEjIe[AOGiAcFXLl_HOGIRgIR{G?cEW_OdoCAAG_AUO?SPpk_Ao?cAaGaQG_bgBA?_`DLIBA@yK?`O?_DAp@@_c_idC?aBCAdvIo_G@KS??Ih??FMPodc``A`aGWW__?_ERHCFggqtFXjTKCdCKEowsWc`?A@c`??BHs@WHfWWsCUoqCF@P__JUA@Cck_H??GGGV?@OAGhGcGOF_FO?hOT?Ah@U?c?OxGo\}?YXQ@_`WgGPdZaeXOSJQ@??g|@i[_O@V_oMRD_o?C@GwHGSP?IO?CpC@J?p?@PKWe?cO`^B_GOEKw?qW`wCKOi??_ao@OGTHacWvKoQVP[c`_oC_HL_TAAUi?C@GL_??[o_EJ@CEm[AcdqWEe@IX_?AAhR[FCqbCCaQcE^CYMpOB,False
~?@cDHa__gBBkB?DI?TWYW@_CkGASAk`??CFwmP?CgD?EWCMmO_sCAAQgxRCoCC_GFGK?GA_ORWBC@[W?Ah_?AW@KA?R[_?@q_AzF@GVGrG`GEa?CDmxgzC?g_OS_HHa_o?b??@CPQ?e?@E?oC?Q?g?P_DITR?@@?wJOOaK@@@APAa`_kAFARKagV?|ACgDBYZ_OOGJAQOGb@ocA_Fcc[cR]C_OG[IIjoEW{AH?cKOWHCCVgOCPSA_oCodcLq?EcWUZW]Mr[ME?DR@@?eG@W\GGS?orA?F_?C_h??Ab?Ca?bbOBiIPeb`\EC?IGU?CE[OFCHG?eUjGrPHbI@RSBbO?G??Af_p?_`eHO_KA??XWfCmPcAOo@I?D{?HGoO?_?QDSSFAl@cNG?M_TDIW]OOoCo[Ir@cUdEvA_d__IIp@ED?raO?Sy_FD_G[@aWDKoof_BC{pewc?@gfUcKC`Y?eRoGj?oHP`Lm?`SfGOMS??OGiRCpAAcDvs?c@klaMHHceQCWE?B@AgcCSYG_?Oyo_KaWkR_aTZZP_nDGIAMQ?Gi?AmglC_Qc[A]hExL@PO??O?tP`PogPSAIAsha?ohKSGwbGCg?PQ?WE?PDAWAhWg?DDBg?_ICP`?gqQRcXkJCH@pSzP@A?cF?bIkOGF`HgEDAfCESFPGCYQW?HDiVAMQSY?@A??WGj_?sDo@oOU?CIGqHaDC@O?DG]_Z@?GKK_ELo@bkOT?_CI_CQ`_?iRDQTPWOFiOC_EGsbOKo?@xPCo_?oG?GG?H@gIGS@]o?O@bo?HwQDIORGGucae_I_gCjG]KgIsGkkmEuL@?JS?lm,False
~?@c?Q?p]E{AG?oaoFaAEG?`?_gA?FLqFEK?TdGA_haGD_a??_@`Qh?Phi?Xp?ARGPO??cwG[A_`dG{XSas?GGK?UcONj?kcPp_HD_CcQIO_COJ_@xGCk_CW??iIa_HCfHkUa_hCAS@w_gL}O?QO_aHOgPhGP`g??}?EGWCODBKA_[CRKJGCyEA_?AALZONG@IGSq`qG_?by`?CGpoCg@a~@CcEg_?kGdYJYSPonc\YBoCyi`@AHoaF{?AMCTWOCIPOCwc_GdGOP\XiABBCP?TC?E_S[gHV@oOeCwJPqsSKAKEI@SGQIg`XqHO?gDUoOMAIGoA?B?`BRHsJHEAPtai|MgE?AGTY?R??Pq@bApHiA??CW_CoAWeTBXeiP_G?BB?H`_Y@oG?qCpDOcgSOUUWH@LPCl?PVtCiP@H_Dg\?SGHAI?BgWKO?oGAaWQKJ`OAc?hPhg?SC?oG?EC[HCOOQ@?Nf_?a?DE_`osHe_PG?`?_@sWCE]@SS`pDGa@SWC?sCqQ??`t_HDGcCD_G?ZWGcJOWS\A]zGGB_iOsa@DDT@[IM_AA?_piISGJO`?Q@TgAQSWK_g?SpKGCc_EIwBpc?MOSZ?`_?[GooqCKDcwOe@oCCEXTGwAQ?WoHW?wHY_p_Q@bCCAQgPDEE?CYCCRgDa?eJoPN`CI?cAg@L?KcCaAD?sgdBCgO??POC@GSicS`HPWQiOlS?Wt?U`v?@XSG_hCH`@MRP~X?@?G_I_QA`oI}[?\VAKF`dDCJ@KSBHi?A@xCF?A_u_`?P@cGhqCasqRRGOS@Go[GcSOai]OGts_CGYHrHAO?[G@FCGpw_B,False
~?@csfD_SE@NGCcgrEo?gbdS@KO@AEXkOc_?aKicAHT_g?qEUkmgCOQFQe?w_Q?q\`L?P@\{LCP?pTqCls?K_Q[oiKIACEP{WAsBWb_[EIGW?[A_@_cGC?Q?APCVkPOEoKGksI?O@tZ\S@YqWg_@P?aMR`@KK?oAJ?cbcWbQODqO@E?cAA_cCbsOnI\CoGC`eGwoDAECOusGcKCC?TAddgp?gpI`SOTAP@eY@@w?IGA_?CWK@Dt?JOAERoO?JLCxEgpCyC_A??R??cACyIaV?SMcIhC?ECDgMihFy@BoCG?G_OZ`asOEw{tgSW_dE?[GsDA@_HiQ?oS_nQcK?a?S`HSOks^i_@_DPppOMcDgG[?E??GW?OQWoDK?IG?G?AQAMw?ca[HBArs_yaxMCBAq?A?SAHhaSBi@C_cmE??n?OA?gAqGhcYY?_D@lGa`QGmZoCCGTK?T@@@AIHR?LOCixi?|uNW?HaJ`d?OiOD?ktGoOw?G_CJb@@o??DCQcAIH[AdHG_dOBTbw?wx?BGgD@I??HKOo?STHDwcGC?[oiOd@@GY?Od?A_OChF[@doH_D?ETgYP@a??hQYSG@s?GuODeQHgQGHIHWDC?GO?gOOh\QuBiqg?ROXqyGCSTS`e_dAkg_D???EGCOoH?EM_o@hwPDh??_A`QSIrP_tJg_obgQAB?C?@p@cAO?_?`?uBI]XgOCRGJ_EFXO?S?J[WCA`??@IhmA_[cYT?ID@CGHKK___H@?fWGi?_`?ofOQ~gQD_YPATkoSClI??OGcsO\Igf@GiG?cLIOAA?JJC_AMUkcT_o_?G[@MDAK?C?R?E?,False
~?@cB~IoKUIe`AG?KebEQQPAhaAS@Wk?SB[DjY_I_cCW@B?GA`OKQiAepOA?CDAtAAUH??CsG@bh?bQsOHG[KY?@EdPCH_HOQA?O@UkhC[WGAaCaaUaG_CM`]COAG_XBc?Uc?gBSAh?GccAGgD?hGQLFAO@Sy}@O?P?_G??\aCGK_GP_LOfO@imOAdQx~QyiagEnA?hLc{A?E`WTbJRW?gp{?OKSXJZG?bkQCac[{VA??E`@PSB?w?w?bSgF?ImcA`_WOE_BOIkwWCCc?WK?PKi?U?__?_oAIO@I??@_X_gSXSp?iAv`?}C_e??F?[OOCECeqa@BGSDpAACM\TA_?ASQmCO?GP@QoEmOGIaAAKaHjlJp@?S[YQODh?H?SrGDg`Jac`XPCPACoaBOOSGGpxoHQ?LkwqDYc`@q?Ek?AOQlR@W??D_O?ADGgWGCk@??_G?zdLBKLAQE_`SO?H@a_scGBC??ICG?k{SQd?Egq_?O`EYAOGKKOoeOgGU?GpLgB_aL?sHHUOg?@O`oG`NFo__Q?IDOdb??@O?`_BWH?qi?g_@kclEmCOERLsesKC?OrOoM?C?AHFvU`ekcAW?KQqoKAcC\p}ApEKV@?q`zo?K_AUC[rCO?GwGAEI@R??mwCiIHC?WqSw_?_?HC@WC??Nk`BY`i@O?_K[CHQmaOaBS@BPPHDIW``r?OiwKCB{`?`_ChO@C_aYC_a@QoXNK_?GOR?tP`o_P_?c_O_KOATmLG?DA\QOu?wGLBIGOGgi?oI{Dg?@bAG[b@yBcwPevEOIasKCh?CeJ?ySho@o@K?JXAoOFkw]JA@AKb?V?Oq,False
~?@c@c_??HBbS_p]GzoAGGIsFG?uHOBph`oT?Sc_HS@WTNGPUSGBG`H_`PSAcBC@YVHHG?sM?ME_?c_qSAM@YL?hRO`\FAoIG`g@aruY?AECWXoPESSA_?XH{q_RKEHKcWOc[EO_i_DWU?wcHSD@CqQRX_SOo@KBoOAL_aKoiGaaAAlQ?KVUTOIDM`?c@?O_c_QqQ`P@[CCw?g?]QE??KQNO_gOAE?KCaREEYtE|_UIP\_CG@e`C`KpC_@?_S`_GQWHQcig?[wO[CgSIAkI?T@gAIxkCUEO_EX_yBAHWWFT_SHODSGiC_k_DxSSeO?u?G@O?S?TX?@ocE@?]@GO?q@?gYXDpP?UAG?_y?YC?_U?P@_CDGo?IAhQzcWOSL_kfABh\XheQJAex?@C?gPEOOCD_O`s??@KbWgC?@PWEkwA@_Oo?_Om@?SMCBKAe?pPQAaOW@__?`EOF@PogG`OkF?tJ_`TKoBtSAOOa@[OlAiEW@L_ICc`DCHWhtk?@?J?OoaRdGDAiCHBLGRHWSFSC?PVW_A?RKcFH`[TSSAHCIU\CAaL_D@eaGEO@pJ[WA@`K?rxcBfi_D@CIEG@SUKWecATAEH`G?W@G[@j@??ApWOaaDp_CBDDKC?E?d?_oWg?GBi_iGdXEgObJ@GAQXk?EAaDc?g?SFIAgGg?GWFHMn?OE`c?QA\qSJKGi?oHG_?D@O?NCO?oC`Gk?BACHD??gOOSdPIoVCgS@LX@QSepR?AGO@CqIEFMOBfaO?YQqN?q[CQf?@OKOq\GGcC?kBpcQ?H??GqM_j?\?nlhAsI@a?@?EBaPrERAog??_X_TYA,False
~?@cOC_@?uhC@_?A_A?GcUSWHRG?pD?@?d?QoOCJ?aCEGxaW^CM?AGAVP@UFgDDDG_@aGrqF_`AOT[sHHAmCmCGoMHaKAG`A@?rCPIV?^asUFOOd@oCSMVSfQ@eeb?G??Oc?ZOgQAGyN|aAcSC@C?aS_C?glOQH_?KAWwWO`?SGKRDtG{?@WAa@s@oOC[Ao@@qdC?OSE`CDNJe{?CGG?`SFOPAkQALEUG??@@_C?GSO[Gkao_`XAIGa?JC]??QI]G@DgHuTK@@WWGBOGJAWAOy?_@eiUGdOkCrB?GB?RH?JhaC`BjO?@NEK@GEGK??@QOWbASPIgA@HX{@?KOOI?ct?mQ?oOA?oOWG?JdjOdaOMJSYbA_I?XASCGC_@@kGDg^B_?KAfA]kOOA@?O_PWASID[QSUoOkq?Q@mmaCOAMQGonQsaww?__HuMoYHgOECOaH_OU?A\@VDrNNCAu?HWWAHAIOO?jatAGTINGqg_BgCbJ?@dLJH__LCedoCGXiBHQgQ?o??UEs@A_EplI_S?SImCOB_{POSb?GCS?a]?A_@@{S\GS_Qa@ZKO^WXED?t_CoC@K?Eo?ACUJZO?cS?CBhBC_GE]GyASG?aYAOPOR?OIQuos@nEpA?A`jwgFCECy@?AQHEiUYaCABHG_aIdiOkCPSGYrk_YCO?HJ@cAYOoGD`_foAQ?WCYBG_ig^GE?n_`Yg?OO?AhK?AgGoCPOcGaU?g?dQDSpW??DA?BcA]@R?Hpc[U?K~WP?Lb?`_agYGpGOcb_??Hc?O_k?QKAEiO_eQsAZOwCCaZE^G@pUQiAGEQFaI?o_U{SCIGAyHZ,False
~?@c@GCH?aGX`MWGe?QC|BCe_lk@aOF?LfPB?i_[?CoECBESBK_IqP_oA?dBR??FCK?WeRbAD`eaBE{w[`UAOWCSajFJoqJGGLX@iSK[]cGY_CDW_rWdUg_pIO_OWUBOHCAA?O@AgJgG@Pska@GCGcod?q?mC?iOY@L?hBG?`?H?ea]Q@@?WbHAHLGpO_OASC??UCGWJQS@oGQC?_MAiUCQFa?gPFCAHktio`s`F??CG_kI?HaOAho_ISGW?Cu`S?JEO?eA@CGGKXWfOA?Vv?XROGCKECkl[c?@sIKo_oALG?SBASqg?bOUOoHrt?O?q??T`Cx?_?@FCP?Ey?CLFs_NKCGY[PC@GO_QHsBEtOQDOO`cg_a_gRC_oHBXl@DJO?W?Q?A`?o_?CCGWG_GW?GKpLLWAGGWWGZ`AW@GgSWMK?wOA`YF^cVb?GtPWO\XDBBxC?@???J?@wyCW@PgBC`dkFaYQ?S`I{e?HEDQToJ?V@OoI?iGF`GQG?RT@BsS@A_x}COp\BCO?G?QG@FQOck@S?@KhxAXgSYQW_H?o`xR`_nBiMRQ_WCQ[??eDGGseWoIACcICxv\CWW_?cc_BOSq?U@?I_A@EABAh@XhAA@Cg_@HFEL`JkA?Os@_AdiDU?AQE__HTW?CzkHsPGo`sA_Rc?_Ag@gQ?Oc@[??CXiy?ccHIGUW?o@?QSQCHCAGTAVVOPpGy`IAGOqA?sqOSDjL?`?VW@GEcC?J_tYatn?[GaIUc?wK?I`G?[A?QoC_??FXSJAkCliowFOYWF?PDAKC?gF_WIAOE`?QdbCGp_F?_Gg??pYFS`X_G}Q?@hFm,False
~?@cNe?c?wQy?TQMO@BQ[TWLGH@N?AsDo?OXCj@T@L@]A`xDCFK_g?jroR?hDYILEcBA@EFS?PRAdRdYAEAl?QS@@GLGcw`h?MQA?KU?O?RYoi@OEr_`DQ??`?c?O@?Q?AHydCG?KRACmeEBaU_a@Q?BOCQ?[WANS_ADA?CrOA{g[OKDw@OfkU?vs?scCGE?o?dGIeogAHv?bc@aEa_DRCOGHudo`IOA?@acjW``Q?AIoC_`?BOFGODXCHmA@g?cWf@`GNfoQd`|Paq?PSOcH@DoHTOe?K?_YM?F?UBLagIFFUGQp?O~POEKZO@C_bGmYCH_I_O@QWGC?IcOXkMB_S_aG@?WG?C@GkPOaaHAYXcGGOG??gKyGKqhEHW?KG@Scj@uelC?GuE?aoxC?GAC??hO_mS??ETasyWGACcY_cV?WOaG?D_fM?Eqoi_`?kKAaamAUG?CcwYQ?@WKgcaoo{QVq?PEA?@WGP?`GE@`H?whaB?C?`@CD@WJFAgCs`Ly@@?ZDI?TG?@KOF`o@pY?HOWD`??OOwjLUYd??@CP?gA?TB?A_Az?c@OKePiKRA?McI?qF`EOO\\OT@@PgHOO?HS_POJ?bDE??E@BA[[BGIGaKRWCWBEfPGWQcgQA_XYKoOWIwYi_o?bgmMQ?QD}t`?c`O?J?@CCUOhQ?CAQC@kJ[B`GHcI[xxCCsU?nAmD[Ua@idG`S}a[I@C?_@Om_?QOA?qBoag?dPWHit`GD?g_U_?eG?gxGWgoCbHCOS?KOQ_H`ae?@oYo??C{CrCOqQHdpGH[rS`OA?BD`oSe@AoaYO@_QA@OP_CYHP?ecb?,False
~?@cAG@HGQK@_@Ka?_??oPJAGJLsYSAFJSDOGAgG?PiDAo?eGJQD?@ohH@f?ESC@_GdoOGnMOc@sGOXo@?aAy?bHX_TJDOOvAf@M_KOgWPITDQqkoaoAAQASCFO?IQ?CJCAiKHDK?@CPICcM?@ZG_ABCgxg?@?aqI_{OU?@?@qGAc`oAA?AAkHcTCgUuICOPCR?_KAwoEcC@BQJEH_IRLuOdaACE`ByT?AE}OWA?A?SgG?PWWoOHd@NQQAGb_ODhCO?@CD@_O@E@\[wHPKEGKoHGHKop@?sB@SCpCmDC@P?SGCO?gxKSG?eGg@sCiRA?uD``?sGddg??A??jAaJFoHPIp_L[P_H_EoCG?W?QFcEPzI[??iKaGUCGdhAS_g?SYJAaH__TGjAt?tGOPbC?O?cO_o_@oW?gwHEOHtG??aFGGCRoBWOnheGk`EIYw?G_?S\DU@CCbA_I?cOY_TAnw?B_@OCU__WIYJoEKHEOSIOA?hTCFMMh?abskhCOl?OA?XAcN@[QHSG_f]?WaApQ@BGtBM@JM???IBg_@FWOMqK@OSXa?_c?O`C@`TOS?@fJO?GopbQ`?F?SC_aqBCcb?T__GwoFO??YBgi?CFaB_[DQA}maI[oQP?HK_SBGYBglIdHKWsCZHKOSyLTQA\KCu_pSJ@AbcKT@{ICICGSASGAkSKA?WGQcIo_CDlC?O?C`B@?[QdeaCC@daDzc?SWCGGIGCQkmEEAi@KO_BG@CRsl@MSHYg{@`iCpUh@MRMsTHBgCS?I?HD?]QOGAEMcC?Fy?HI?Zq`?jA_S@aQa_[W@_G\LKAsDPL?FOz_WAWn,False
~?@c?HQOkHOa?HKow?N??ja@?\RQoQUCP@iEpHQr|_g??HZ[m??OOMVGl]R?A?Q_IO?w?coa@o@?O?_G?A_{UgP`mG_bGUKgcMaVam_?LIOB?CGCO^IFGFMO?gJXupA_QHG@?AiQ_@sAedODuqPWPEBGAkbJbo?CpW?cCHSCChGW[DMOCDCL@i|w@cgCCm?gKUAn@DsZrI_eIAjpEZoOCe@MsKg?GT@XGIZOs[@COK_I_akI[@DCBK?C__QACHHAKa?GA@?_gPhRHrjKa?aFooiO@Ws@Do]iJAw?rbGQCWkgtqesz?FLSdPo?EHo_OE``??C?qpYcWO?eGM]YAcFO`W@`C_DsOQAwH?h?G@H@aDC?@Q?`a`_nmqPA?Bv?pAA?aHOWFq?AD@PS[?`??cGFWDEg{``P?CM?aSdW@P?@_?OA@Zw{I?UB?GDOgKCC`@c@@[_bACb@STOAAOPOI@xAGIA[C`O@??CQyKQ_JgXDc@CJ??SCGCq_OGAwA?P@OTwCOiQvQ`A@a?@PLaTOYAIGzOCP?ApJHiRC]GGBAc?D?I?CGG_SE?c?PkC?cW?PG?TECSQC_H`OE@gARhI?`tB@bCcSG?@?EB{lYB_p?uG@wCh@CSI?EPBG??QOIOBS@CebQGO[m[bKYNuA_UVgg`OKCT{?_^G?I?W`WI?cQWgc@?HAbQaiaAp_DC`EoakOXYpLEDoA?__TO@KDSG@U@sC[[AE@AcVDqCo@HOWMFU?Ge?ZBCeO]CGSr\OcXA?TIOIQS?OCpOsH?UGqAT?QfCc@I?G`?Rqggb??KYge?DTceC@g?A}?G?DGH?er?OP{b,False
~?@cKzGq?C?YEoSLK@TnGDcbo?EOgJNcg`_A\d}U_cOBA_?U_O?agc@Qk??_V^@@Y?B_\@??cewHA?@?KaOY_@CigkL_sBp?i@`GsoA?E]?WarF@?UzGGCM?qBAPEH?E?_c`CPDYC?WD??J?MfA\f?IVcEGHb?D`BIG?BKiS@qkGGO?BG?_?vIyOP_WCIhkXCOp?IKOgAQw?EHWQGXxIb???k@A?C?KkXG?bHk@E?ADcDM_S?qI?OA_CoLdVEKRg@UCBKI?O@`Ir?IKPgcSOS`nP_CNCfRCNzsiGQkwgBo`Kc????EO@SpF?CG?hMOhQQ@OTQGPD?HCDqIDgGMjBEGzBC?OCG_?ID?K_?gBq_oPM??CPj?C?Y`?CUnoH@aAAa_@@C???EMpwc?G|@eGoH_AABBaDKGG@@RHGCAOGD?h_pCWQBPp_EP[A?KCPPG?uBGQgBCyAGgw_DrW@@TVYA?ISpg?OOJ?ObO~CGy?cZbOAgKPHCT?XGA@Z}ATiGAkoA`D_gD_vG?`SGC\@?`?ELsOWArD?`DbF_rh_RAOA`?`t@EJ??s?GQKQXOIP?__GBf_m?@AGaUA@RWGC?[I??wD@D_?w?aOO\]_Y?xIG@JRSpWS@?hc?KI_iG_AO@PscAokGc?tREf]AAi???ACL@Iap_Aq?kINSaUXW@YpPGGP`gD?Gs?Dg`GBy]Kcv___B@PTAtjIh?__atO[_gIcoPg^`Ao_sq__CcdFE_cs_k`ASs|O?_JOugORDHJoWf?I?pj@oiAGAaObYQHGogHsLEBXK?CTWqDJOWO_Dt@?xUGCC?Dw?O@b`@AvCWPo_Ck,False
~?@cC?AZC_o`PfAIGwWHYHCodagSChKDdGS?SeIsPwWX@?CNBb??YuwHg[HNCAaBHlS@_?P_cFIW]?xhGGH_{O?G_COWOWOW[Sa_@GQAG@cAp`qdK????AyRaagEOA_XaqmE_BCQWAAcieG@?E@LJ_??[B@]gcC?OGOEs?\AwUkK__?wJi?W?h?QGgGAqKA?OA_YrOc?C?COI?l`ABODj@G_W?IHGkDGREPOWGH?OBG@OcOEpcegCaa[CfVAKM?IFKHOGGpvW??S@EAGGUO`WCDKB?OSuw?PS?IA?oG_LKGyWCLC?OuGTH@LBA@?BzgBw`G_@G?i__c?sC_QK?@pCQA?\tA@QK?ODba@LAsBUGhnQCKOH_kOcPoc_?IaQWOQOC^?GgA[li?uoK?o@`RAuZDUOCH\E??AEsGOZCrPp???DC?JABrifeIBO?jtaG@HG??EdS?H?AGRRCXog??sK[GXoGW^GkS@TWKI?l`o{_v?YAKoOD`KHKHOU`\h\?AKK`VA?Oaw?WC]HG??wvdED@wD_wamBGARo_UK@Q@@FZ_`JAWA?HSyPR?gg?GBkW@GCWW??yAg@G??r_IKOc?i_GoaQ?ECGKAQVC?puWTgX?YgPcCkVPHQOGWAGCWUWAKuE\iX@_CQ?Jaq[SSJOSg?`xCA?o[CY`?OUC?gOeOf@Y_?i?_b@PD[???@Hpb?u?]HcgAACI_?A?WO?UFC?C@CwOQ\WaGRdCzOSaAobAeETFQkbBBG_hCD?oPb`_G?RJQSP`]DG`OB?owJBp@iO?Mw?GfC|f@r?lTKA]c`G?o?I?Y_BGk`JEliF@CT?CtGX,False
~?@clowOQoBGTMAqGSbABAG?`PTsAtXGGsI?EGDTGFKtUQSooVGGE?FT[?g?A_G@vB@o?I?q@jK@??]IsAOOa_LDtG[HczB_AE??SGOYaGiK?ROWn?_PA???G?@NBgWAPQACDSGTHaOeCb_?A_O]`YIAbqKa_Qk?KJSa?PQ?GoQh`@?AlOdYCHSmDGcCRNAW?YlRFdOc?DJdCcCedg?g?@C`GH@`@??{jKKnbCb@CAScHO@dUac??CWHGU]I@?BnW@tTAGE?TgCHgPCIIBCDavI`X?@_H?sq]GFC@o`hh`QG{FjAgoIaHHO_?OWRc?ggA?WDXUo@pAEK{\oG??`?_BB?W?GAY?FQo?GWUg@@?e?@I?IOBAT[?@GCG@aCWGJ?EJGE?PaoHCa[HL`DGh[O?Id?GDGG`o|qG??@Ido?_ooD@O?OI?o?AQS`ABHOoBw?I?hWWdOQSf@AkoN?KX?CQCAOiC_HCaBO@SORQ?mgPqC@xoO?iSahk??AADKGZopW?GSdbSP[KgOCg@@IOAbt?a_Waw?A_WOC?{@L@o_E?_T?CAGEHg\FzoOlmApaM@GT_W_cJDA?Ke`CMI?cRgOefe[_CADqOwAWEPfg\ao?_PCGGWw`H@aQO}?aC}@SCPCOBP?QC[E?_srM_HLE?Et`qdkPM??@?_?OMSosQbHFaRoRuwOIdDRD?zUiV_?OR_GI@ooZA_XOOW?S_?iDO_{DOCQAuca@H?CurH?a??G?@XGOHdGPG@_AbGhUgk?M@h}_AGZWUgP]?ZSL{BOBNQXAgKccocSPq@g_nesHJ?AHQcACO??QH\ABKB???[wU?,False
~?@c?c`oOLir?ooDdSMQ?`kH]GXAc_PFSKaqOuDMS?Gmq_Ao`fD`PdF?IALOT_fCGGQ[Y??Gh?OwXK?k_kgEq_CO?GF@eEkm??`@oGAfS|FB_CR_IgeO?OA`Ou?XLOTI?@CGCMATa@_DK?[DOoGCWgDi@C?C??_Hw@MAGGuD`WAA[oQ@YHLRAD?fD?K@_Ci??A?po`iG??`QAobgGQe?cg@G[@_OY_AM@IiMGZeKH?KpI?sXk`?o^KOoGE_JG@qdCA`wQ_HCHACcACPOPKoYAtU_P@O`TGA?\@uTWG[aC??u`PCA_wwOhBsA\`KO?QUA??c`hBEGKR_D\`kQkGDyCHXNPxYCoq_`OD[cOvACAWHJ?UFd@RGFFd?LEcM?i_xM`ozDzGga`P`BLm?SGXpOMGftACTaEc?e_KXI?PCERA_ASaOL?@HQMcHddbQFBGAMSJZR_Iaq@kMO_?O?_O?E?eo?K?O_HGCG@daHxA?jp_OEID?OKOAG?E?sDC??PC??CDj@EOcrKGCaGS?@?P@JSQ??AICPqQ??A`AaWLOkIOCPAhADYCPj??kHPB@??B]?GCPW_T_Wk_PqMI`?`QoAgXaLYcGG@_Eb@O?rA@QPpGI_uaJA?@lxe?S@{C?_XX?sGH@SMO?GLHfVKAaAakSGGs?pAizAgiW?_?STOA_Gg?c?YAbooQeAwg@YALGZ@qE?_CLTJ?@?WpTOM?eOGc__kHVLQoIo`cFi`HEg_?AC_?IS_P?ol?FtKBKOCAA`OpLGEuA?_BGB@SAFc_Y{Bp?KscgUwR?hhSC?F@KhGBc_SN?gG@|C?MO?EH?[OWBOK,False
~?@c??K`EO_?CU]gWPaE??C_ZeSCHV?\aV{GOO_sOWSWS_IKoQaC?wI`?`Aa??bBdtqGE_S?O@BJmOC?D`jGuo?wAQdodo?B??OcobDIe_qcCsOuogGgJpDBB?abIRSsW_OB?a_tY?_KChd{COOog_BW_g?pC_][oIg_?K_??CRCmO?`QGicqgD_stlgac@bg?@GKk?TlHL?W?OhEgoOL?_W@KBp?MO]?OfAcVSG?aUlCOhECgwOCA@|QPSE@`[BAd[O?KoID@?z_?A@WA_bLCbLO?JgMIBQGZ@aOzPE?@IpR?Q_QBL?A`GggGSOgoc?_HQQ_\gPgDS~cL??FOABDbQ_?KQOsFC@v@Hhf_?pS@CQ@?G@Hk?oO?nIa\`PE`GD`P@S@QTGgKGPPPEj@A?@?AR_CChKHCeCSEFyYP@SCPASDG?_IP@G]?@?@AKkkYA`QhcoMHcc@A__qW?ocOTO?akK__YO`B@`?OcQYKfDAgKU_B`CO@S?Hf__Gj?scjO?Q?GaKtCbU_HsfOI_X??LEX`ElpAwE?TAOBpODAGwgMEtogG?C?_SE?HOB_?bTOOPPdIoa?AtBdHG@yS_V?Cw@_C_KS@?DAUIKKqH_UAH\g@CY@c@TOWCraPK_GVOKosBsAHYA??CGCE?@YkAt?AAOEx@FFPIcESQwGaKoQWmPS?@c?ATGPgx_?otSQQIOaaD_?PgA?@qRKxKUagIHOWD_EVIoB?ga?CiH[pCHCxPW?m]Z@F[?RaDq@@QT??@_VGP_DMO?II`SO@lLKV@GWGXYE?DCEtaKAhCA?hO@QAGp?WCPW_[?\oA@KOGXBiAG,False
~?@caO?_?c?[A@wCH_YP`r_ATQ{GXWZ_?QMaO@@LLgCD@KCYiGTW?KOSGOpOi??AqwqwJWH@TA{P?aYUp_E?_Og??gHxCTWA\CCsSSBoWlCXA@?EW?Thc`GtcogP`GW?]FgI_@S?fb?GQOA?BAADQE@?_@[Oh?BKOMBAwSpFA]KDCtY@a_?hOaQYCPH?o?KDKK_jQ?OAk^bCjGGE@OO?UNBA?oHO@GCEg@O_`CJKlOOB?HwYSg`@c]@[wJPQotOQM|?ScseOBD_oe?K??Qig_FCKS@?SPeOVOOHCAPAGDZHOsAgO@|JPGDBI?JI@?O?`P`AZAExkF?wYOGOk`?S`NC@QHLqqmWCG_`lGQAjAB?@aaJyMg?OEYdDcWG?bSAOO?Q?A?@rkIjoCyC_?O?ROoIOdvA??O?ASCAGQ?FKCUCIGbc_OAT?O?`IS``?PKGaIOoAIaoIaCI@cgp@?owdIagER@cAGS?AhS?J}HQP[sBcT_IB@`e@ARO?a?BCs?QSUe?cDua@WpSW_RSOOoQcCl^UYMWO?qEf@qEF?@G?_Gp?FC?_@W?AM[?EH?jAk?WIP@GbDH@_E_CBDogkLYxOCCOC?DoGjQ?O`P_@KoEOOcG?ixddCWPoj?@fA`?sG_aaEGo_s@WQB_LD_gKK_TwWASDq??E?WOXERPcAEiPvOAG@O@_gK@AFO_@Y?o@OH]h?n]OusK@??S@wCXEWTtOCNv@QL{MIKew?Q@@w`OEyDCOcE`?_A?D?Pic?IKc?KEqWoG?OaGGHHG_GGhTOAe_amAVKB@Bo|icYSL@?tHHOqBLCSTa@GCwQDT@US`?r@Q,False
~?@cEIA`SWqe^?CY??AA?v?CCTCdBQEopsGD?AOo?y?aFs?CGgC`AQ`@c_kCJCRqSB_GBOGWhAc?DYAJ|`IcGC@GL|oHAQG?_D?aLGo???SCTGc@G_WCGkA@o_?X?[@k?JE[?pjBiOAaQg_SCR??GPB@AI@gRGqOZCD?GF@`TAA@Xp@bKYAGQ?lAB@K?JKJwkkLA_??C?KoiKA_@WcdAOPGO?QE??WKlS??IcWWPXCC??i@MHAgCNO^A?_gylTAE?SA_QLWF_S_cBACoU_DJC{??Kn?jEWkokcAIA?aPgCcEsXBfWOHATP@W@OcPoelD?g?J_CCAp@?KCE?c?P]DgoD@_AEAD_w_iJ?GS?lIrLe}SBGP\QGDGrOG`KIo?@?bQOcU?eU[CHSsK??OECOGkAgpNSgB}KY?GNwla?oKA?@?WSfgg_OKIG@glqXPuBc?N?W?S?OsmOK_[OQIIfI_sT@CcHCCSKMO@O@__mGCOEjk?b_P?DoGGc?ATgRIng[???@SAO_OBH?OIOHG{LEwK?QWSAOC?HcIEg@Kc?SBC]H@_G_@WQ?@TGozOBsAIyoAoUh_JoWQoPGDEW`A?``CgD_KVeHA?^_aH@CeEab@@{_mh@B?C?C_kQ?hjXQAUtiFRW`?cDUEQstO@BSKz_]?ARxLv[@RD?RHS@a@kP\YFCPAo@[Oo_?KU`?oS{WosXINCkW_JCnAWAOF@?K?ya_Q\@@F?CGBUCP??IRaE{CBX?AE?GdDcaP_CGBoU?Ov_?ygSV[D@HFg?MIcCh@?^aDe?M`kI?aWQXGc@AH?kQoA?s?cWke?[_b`SAWSEwo?A,False
~?@cKAIN@C_gbBQA?B@__kI@KR`gIp_?fgaO@X_LOGCCCoKQh_L?G@OGPCPg@|B^RGcs?qoGADE?`?rhooGc__W?EP?@j?K?[FuPO?M@MgHaOA?sQzHYOOBOVZDHAvY??@faKO@N_vCW@RAF?Iy_?c`K_wQA_\GG@S`Sd_POOaqCAowEY?SIAK?OCsGiEGCIdgQ_@_hOGOD`_EiO?QWaKacSaqES?jA?CFCC?Os`O?AAAS?oWP@eh?RGCGONFJSaSOO@ao`OLWS?{G???gIa`C???CAc?H@QsDc_aG_C_@O`pY?u@e@@?IAO_FctQl[eZMRS@@cg?SM@DooG@@gcb?wOCPhcEHMw_T?@{PVFK@@ACvsdsDEGS??]xBC`?J?a___@IBAGObe?_`iUYI_QPcA?O`oD`D@_t__oqBT_XZ?K_`?o?P?GHIH_L`CBBGrSGgW?C?CdIjRZS{[g??DLg?GTO[XMd?G_EOGWCvO_KuFVKC@??Ghcs@I_IMG?|`S?GhGWgLOBMAcKIPO?XQPZTaV?[D@QHvWiS_E?qRUGShB?UW_`SGHL@SAiIAeOe@IsRQDoAGwgb?aLUQ`g_ihX\??@gmmXcpIGA@W{FTowK`@@Y_kp??PaN|TKMgtwPOCIMJOA@Hsa`@cS@DR?_oWYv?B`WDPBgBFA@KoQ]\GheRU[COWyC@GLCGcHo?I?GF?goDwoUPa??@d`AApW_\AG?BQG_?o_CBB`OWDC??cbgp_?_???g_@??_PA?_pUHiJAgQOGB?W@R_CqAPBw[AoPoCcE@EYL`Co@Q??@jCKP?I_ocw]OP?gGSOvLeS_pD,False
~?@cPGAHku\?cCCGFA?i[JOh@@?EpsiCd?D?@I{OD`ssWG?C@dABQGPOWBOaASM_J?HO@SG@bZ[EE@icBAOtIs?c@O@@@CCYH@HsWmgO@@r??G@O`Jo?_yh?\Y?GA?jO?@?gIUdp@wgP_IO?Fp[p@A?H?PCE_AHAEkH??g_`[VCG`{G?G`cOB?gz?ODcP_hBOa_d?dQOkzOwopQ{?ANQ_hOOYQvKQDQUKIPeWoOGBPL_ac]OcpOc?`g?bI?EOCwCBGs`FBFscaWhP?GmAG@?ADHwQw@IiOGGopRG@Y`_?XGAIApohgIrAPcU]sk??AbGGOZoaASeaOHjJ?ESHs?s@BGSqQZMIb?I`B[SCc_BSbIa_?ck__@aQQ?GOQXIlL?WBC@?@aS@?BCA?v?hcZ[scH[zDMHL_wSC?k?ga?n?Oe@?eBCO_@`sycwSOA`eV`D_Q`p@?O@E@KGAQP@_\?CO?nwCC__FD??AVoOAkdOrq_EGACDuAGD?MMAOX??@GGKf_?GSYGxGKEqFOkG?o??M}HT?G?GbEo@CB@c?IBHpAaOLSROWOTHIQoMg?GV?SH???g?OlWIB?eAOCSDI{J_SKDH@?BaWO?@e?_sGDXEGCsaI\BQ_QccOPHuI`C?{CMd_AUQTE?KfgZ_a?`IMsIaoFZE?sIoGGQclGCBGCF@@SA@M?ZcGg@IIWai^wa@YU?P?gwMJcO^GO?wIK__aARFaapo?T?B?BICADO?ia@PB?aa?@YCdTCB?EHF_B?_{F_mC?qRCS_AGWp?AkWO_CCaKSJc@?_aNMOOAcq?AKQefQi_bQCtALHpECwOgXCSgC,False
~?@cAOtDACIGCBOO?L?aPHS?a_EOQdPUGLcPQMHEC?OAf^sO_?ZR?EiAquAO@C?DS?BPKyGSuGxpooAE?dsSC?ojaim_S??SOCKZ_qH?^n?KAe\iA^?C__sHCHQQ?O?AK??S?EI`kGQphZ]CLOg_OEeb_NJWccOu@gL`C?bcCWQ??oQQO?cOjoSc?EK_`Q?E@mIxGaOOkWKPSC?WES^pAOb?jB`TR??WmiK?[PakPGOJDHCW[hmk?@SBOJG?B?a{?HQ?ao@wA_cqD?I@?A?RXGZXQRCBpQOq@?gEA`GLIPCZL@xk?hGADC?A@?_GJ@z?pSG]Ec@_CA@wEa?????UseaG`DAO?ELL_@QrGQKEUHCO`V`CAwAOJSGTB]_Ge@aK@C?]BdjDorG?oPaW?CEUHCI?HdCHaJAS@pF?{?G?sY?LCEIoGYDSBG?XXCZDA_MLgdhhAIOH@KPBe]?HCO@G?@@_A@JIGgKGRuyAcccNoQA?CcL?Oh@BBC_AQeRHaEWcD@G}WOCaFC?OwOk?`wCHPTCE??CI[_W?gFAS?F^gQNO_Gi?C@O?EHYHJOA@KXd]`C@wDOOC@@DAKPAUGN`?gcpRA?_QcEeY@gG?Y`O_WJZaScY?DWKDCa`CI?D?i@BN\oXb\B]G?IiDfho@pOWIIAOI@X?KAG\o_BRHEGHOGgWGe@aqbD`dA@g@SaOCPRXG_??_?CJ_D_KKOF`?ATSCX?It[DTC_OG_h?@AP?urGKW_O?AWjojWYS_?J_jJRcXUH@_OX@AOcq_@MC?_O?iOD?tEQoA@wjP?f?SG_C@AEGdDS_jjo_eAiGoceG_?EI,False
~?@c?HHRaAgcMCWQeG@bXA?tGBwdoo?BGUAxADOBP@_cGGKPgWEIAHLgCWI`JbN@uAGOHqqO?y?OEIDoT_@?uOPpdK`@B@?@@goBFNG@@DFrIAEWa????_C_A{cOC?Qz{BCB?sSiC@CGe[??F?EXKU?cFRwamAEf_GPa?cAHNHIEeTBE@{BoPm_o?Aq@aSGZ_NCASDUc@pQUAS?h?U_dFcOpS?paM?Ca_@_\IMO@@FWCrs@?PW?B_GUWeLY_ALBXmSikROHEvA?WPrIOP?IG?SOALE_ceSC@?QD?fO?I_FKcY]AThM?PDL\AWg?C_?I_CoOa???a?@xgG_`_aG?URDVXj?A[ADOfS?ES`YWO\_?d@Rah@ocQgIE@``?_aDO@cGs?_@OMk?FKS?@az?kCOP`?_BCo`GQ`mHJdD@?@@}CC@G`SQGEWBCgZ@v?AoKC?sI__Q?aE@AjwA???hy@K@PsE?L@g?Q?DHAqRoAs?gy?`qBggI_DCWBGB?GOisxNqu@b?_t__HaC?WOIEZQkapDDIRM?\IWCEjWBD`PB@O?Ei@?R{??_g?GkXQIqsQ_BTO?QEOXrPG@?kA?}gpOHOgC?LOJ@@Oc?F_k}aFJ@?I?WcBBC??@gqGe?_SGC`@RWIVKcH@?APat@?xGRAJ?LPP?Kw@WPzsUXGLWSB_KQOOMABHA?g\?AAh?KBn@FR@g_m_go@AcGgU?DCGgCJqXAEKGPC?[[`_oAoEOcDCW?@OcO_BIhGC?NhIBP?QODkRDOwKi_gSXdTH?sXSgBR_H?R?A?O_iAp@QkmRoP@@CPpGBG@aSqcO_KEH?Lj??W?Y,False
~?@c?`GHI?JGYRLLoKN`Vg\OHzCaUa???kS?ME?sEKGaWI@?QXHAIIKC@[OETO___OoAo_GQ?Is_A|KE[FD?DAAu_J?OeJSKqEIODa|e_@OiKcO???@GIW@l?EG??G?_dIoGO?U@@PaEI_MHB?@D_GE?LXIOcF??Xy_O?_D?X__OaP?H@LjWo{@BY`Ck_`?Y?E?cAgskGGOagOKMBDmFC@cR_gEGa?GEd?@_wa?cAEaARt_A?GMAEUAKBuDgWMO@CQO?GCnem^AQt?g@Gm@WUPqO_?iGdG@HIrE?d`?IapAI?[K_Og?aBHAJL@Q@SCRAygOURoEMZAGQ?HSoc@o_WKHG???WCDJY?gPwAA_pCUEsGD_?MhCKwGG?HcKGWjOc[pGBMo?h\P?BR?j`gb?_giqhO@_h@K_e@fH_ohV@?oSxjW?CyoEBO@GR?gFGoqEBJsG_gBKQIO`B?pWOAC[S@D@@[G?N^KGW@cJXXXL?CHoIQC_[IeXG??G?HIcVQ?AGu`aeOZOaAOM?sQbD?A?O_CO?QIOCb`TO_aoB`?I??IZGUhLWnWFGxGC}isU_OaBO?@@OO@wE?BLQcD@_@?WJ`abBo??UAA?paQEKcO@AQ@O_?EH_?YAQrEA`?__yPs{_KASCGo?E^?_`?lBGt^S?[KhcrhW?I}_EP_D`g?@?_CK@DOWH_ceGEG`?_z?CAm@IgIBq@VV`@GXAAEHD??WlokiGC@@?sfIPcCPJI?E??~?uIQKaOo_O@XtClKO[wETHCEBtKGM?Ao?pngi_IaKE@Q^CZ?cOPVPdQNoX?hoHJ@QRJgG@?GKo~PD?cHOOG,False
~?@c?ATG?CCs_P?Od?QY_@DcO@Hc@_w_@?_M`YacoUk_QAabe?DiG@w?D?@@t?a?AibOWCCSL_WGJKC`_??AcI?PaMKGE^H@?SGU@gdPIokKCHCIKbaGg??[C[@EWM?[?TM_PGhcooW?iX@_cGC@AI?s??_yC@G?@CS@EGcAamBD@YJ_HPOCEOaACt[Q[WaC]s@_khsV?PCE`h?S?hOTAUD_OgPIV?wCOqiC_UNCPSPi@HC?G?R?O?G[Y?W?wH_?SoAZ_@?C?hE`EAgAkMh?oS_AWaAF__wEHbhYRPibo?x?oDEfsQ\KG@TfC?LG?Uw?C?oMo_ebHC?m?WI@GGDOADAGO_HIqT?CCbd?_f?QRW?`aKGBuvIALpTO?@?`d?wk?a`JEC?GRqwP_IcGEgAw@HNHEG?D?a?M?PraoTQkdEENdgCU_]A__}QXGo?E]K?TkEsEEHFIQIWCPbVGqkCtew?`yMWG?SAPISmAEa??T@ACpCcE_Wo_YQ?RUHKO?c??CDAR@bwOSIPH@o?c[io_T_NxSdDI_ICOOSoC?QaK?_o_PA?PfCAC_?sIP@q_CAHXT`fOIADGgb??vCGQISV?hXDBe?SGq`IRCA_XIS_AiOHBwPHwAXpBxCSOfSOOa@GAaWp?WhU?wKcGClP`CD?qSCOAgAGAGLgK@`@O_WMgB?T?QB@?_ACH?WO?@@HC@cW@BtpKOGFYk@wTsY_GOKHWcL`jEeGu?AghAU?YgCTGQwoIKHVKOTHa?M`olG_`_O\nCSQNOAci@YBcKBOCOOhA^sCE?WCbUWgdKgUx?HDwC@AfAkkiWPJ_`@MB_?ae_,False
~?@cGRFMOLikS_ORAO?EPY`?w?Q`gEos?aLNgD@QAQA?OKgAU^YGO_XO_@BT?}QOoo_???XEc?BO`_uG??CASRS?}KDo_@UHKA?irGSjhoUkXOGFD@@BDBOJXGNUCA`{?HAAC@CAChB??GO]??OcFBQ??{HX??CO_d??PpT?A_P?O`Cm??bKGO??Q@?ALwMC?T[HA?u@QoUIp_IG?_rSCOO_?E`CPgs?QK?Gt_KO?aGAMXQA`AA\Aw_Guqx?BwaTS_aAeQZIS@c?]@@_Bks?uZt[ESxOHHXlt_OIPBeQs[SGQQOeA`uAcrr@IoKG@Wkg?@?Z_F?FQHqHB@wPa_o_sDMCOH_\WO_?C`kV?F?UxG_gcCb@CPH_TaTLt\yUAOA_?_`DWFIH?OAQWWpL??K?ao?lO?De_aKaEAHh?BXOGC?wECPP@yc?BGmISCsGGMCgoGAEB?EG@KLCPFEHYGwC?WOOB@?aaCJi{OGaN?sG]rvGcpACxoGHTO@@OoAGg?ADF?I[NvIIGYAB?aa?HpGI[Q?C?fcdQGVaD`?i_D@@Sk??i@@Q???S?IQDciCP??A[__DCdh`fuP??CAbC?AMxY`ASQsKOCa_KPQCSHQ@ZQBZtQaf_Dm?w?H?D?CjC@OP_L?JOb_aOhB?GGSn_\WG?coWCQCQMZI`W?oagccW?TOTTtIHTiA?A?r`@EP?r@E?CGS?O`SOCC]Y@A?C@OOqg`CMCkCEO_wbAN`Kf__K`H?@Xt?A@??[?@op_XO?XKyB?~?a[_Eed?HEE_BWYAO?|_qHf_@VSTT`NYkG?W[AdQE@i@iF_KGK\bm?HO?C{r,False
~?@c?XX?AGO_W_EQ_LOaoMHeFDkoMEAG_@WORPCBW@[gC`IAfP?D@pP@?@cQ?AaOq@AAO@a?Cc`@AXB?OOCW{OPO?e@_o_G[_RQ@A?{\BP@PGQOXgHLlRG?|ozKAk_`glEWDS{k`H?PGTuGP`WPSL?U?CpCTO_`?`DGDA?FCEsB_C?i@HFi?GMsmL@L?KCdDEfHhcA`otXqDEa@Je?_WW?rQD_cCcKMQUPD?g?a_EcISGbbXcqaEcH?T?ACCRnYkYpDBgw_??PWOP@I_h?osG?ACaOZ`O?pNY_Dc?d@C_K_CYY_gCAhaMPid@@MIQO?ALag?Ao?MYHP@q@@R?B\@_?DOaA_oosIO?gR_FXAqGUe?aCsH_MAOaydHKGikP`o?WAOAGv^CIK[WA_?GgKs@C?W?BGpiPIpCLCq?i@M???aRpkGPo?Ksb?qhRKi@Ai_A?BbEsCpUiOe@A_@?B_cGO`OqDQYCewdOgAD_|CSXGDCOG_@Q?iK?hoWuNExoMc??Ai`r[C?[K_eIIKyIAuLwKE@PoBglB?eG?BE?AAQ_O_@AQgSG??Y?XAG`iWG?`d?EhaxI@PHQfAI?gkQKE@@DH?DCPgwOCZC_SA?UIIGbh?aTp?bOCWL@cP_?D}?K_q`SgOC?IIIyKcG@W}CGiOWLYCd?Guo@k?wI@WSE@CS?`aCY_am?UpJA@_JPcG@[CG@?oq?v_WsAA_ADuBIa?Y@a?Q@`s_WeDOBCCKJE]@[AakR?O_yWaSUWCgEnZ@s??_cC@g]pK__?Uh??g@?q@r?IAMNc@J_?[`tsGAQB?BSpa@G?RO??Jg@CWBOOcDW_S,False
~?@cUa?@??drWOC`GGRcSgxB_??EBgD`GsOgWWCQTA`@b`WAPC?uO?WOao@@??BC?A?XXD?ICX_?`T[?O?CG_XMbWAQ_I?B?PGnM?Om@_?aaACB@XQvAW?@OKaUWqOHaCsHgIpC?BUCAhK@?PMX?`obgT^C_DGBoaH?Ob\SO?_zd?@Ha_cAOIvaAMc`?YHooQSedHP@Ac?acNfJk_@FfGhLUglKSs\GsJB?GEQ?hCNG?SSKBoW{GN?@_UKiLCJ?KI?eGOIAOIBBgWP?MC``GKGoK?OImOOG?poWkWW?ySE@?ILgB@SRN?ZeoAUOxAKD@`sAAAHAI@BO@PS_Ag@NGa?\F_??@z?K@Sa`FTFI?_W???Ep@WWhICSG@Ci?UgQ[WSDIkTWSGO_a|?CJCGWdEIHbdHOPE_`OEk_WcC?L_YP@h_Xc@C??UOllKUQ?Q?@PcbAHOiJ?@?oDTPCWcAIIcdpCKN{apzIG?KBR__@???jd@C[AY?PoX?HOpa@S@Oc@~JfXZOIoXvC?U__o?C`HGOPGABMq`?@@CA`@ebAN?TPAaEOAqdJRcJ?PA_EPvU?BeCC?D?SPPg??|GJ?~?Ko@c__\BOHGhODJ`KSBOADS??CQDDG?@@EyLUi@p?OAG_O_?BHQPZ@BSX@XVU?D@BXQE?@AGCRDLaAKU?PXOOHhCy@DqQ@Er@f[??Si_`SCnWabHkUM?wg?g??aacoMWGAS@QoWY_@G`@T?CEAE?Cb?AAawdCqE`OA??CYUIoAbSFQ`a@JCd@}A?G]AH@EFCU_sNp@}S@w@oAP@_AW@cO@oGFDRKIKUSYHB`O?M?c{Ei,False
~?@cBZHm@U?OwdWPYHgGO`saaCJ?FcQaG`O?OQP?_?@XP]~SC_cSpG?EWeSBqH[fOfOBCAWC?i?EjAGIygOag??_pdM?_?wHosOOW?IG}FaaDGAB?gaMHIC_`@aB_sQOb_{?EECPaA?k|_SyHc`A`tBODqhMI[AIcOYHIA??IDPccBHCECUcQQKD??wHf_?f}?oCO?PC?aGI_EWGH?OoOC_e_FH_PhPfJok??oAG_SDAsqH_Q_hv?@o_F`ZgCb~S_C_EKG_H?iANI?VKYH?WYe?QE_?BIOWo_iOO_PI?oDw?@pAA_BCDCUK@EIUQgyAdpzk`S??sghH_BY?m```lEQ_VbOOY@dN`[@?f??u@OG{@ADe?I?kId_TXJ??@F_R?ORCqboOS_FFX@Ach@CQ\c_S[AOGVGE_aCO_?Da?t`ACQP?KG{TOICGG__??PT@ROO@kOaOBMBONL?c@sOUO?EF?G@WGb_ad[]_PjL?DagN?hJaOZRGbM?C??_RS@Cg@SEG?`|qOUFE_rAK?`IOFH?DoHPHED`@j?I?O_ESB?aq@|@@PEB?WGw?F?q@Q?RpFo@C@kg?OHE?IkvW?_t`aFHkOCC_oIr?CSACMWOXTY_?SGNoyACdtDDgGhaCCi_JEiKQsoCQm?H@T_I?oGgCPO?acrbGEGA?BwGwsEpPOG@qC?@n?aCJOpHGIdEC_c??CGqHOsAaioQPB@?@I?_`CI?EGJcS?RggKgObAeWuDHGsCG@?JSCQEW\HD@A@ZXAaD?_OscGpUwBgQ`HMOBDxADxOG_PO?G?G@@?G?^FI]KLO?OAbOo?CU?S_AY?doBY,False
~?@c_EqKUr[u?GnRAhCAGi_`?xHoKziTImCIHo@cOdXHCu?CHZGGD@jEp??DC_{cBida?GhUHG@]POKPsIaIhO[b@?K@HcCAKC?BQACQ@acEdAGSAg?oOJCQ@IAG@Db[p{A?z?CA?BKgWOaaOLJHqe_fGAQCDUGQB@`O_O[e?`U@CPSDAOc_hWO?_??OCBfS?AC@p@GO?GaYJWT?`tSoBBB_?MCFG@gG?_@PO_LIQicK?O@GmUOPX?I?OBW_O``_W_?qF?c@HG?B@pUOUSEKQGaFOHG?`_kwgqOGCqK_rcTo_gbBGws?R_ahS?h{?CRAyQ`MOc[DoCJ_L@?OSGgidOD__c`@D@xCWGBQap@@beC@_IEGOw_?@_`z?B_EEFBYIIOGAQmG`S`hCA`PAC_?s@_JAGw?PJcuYV`AQSaGhBPQTU_C_Z?RWaZcWMKAaO~P\?O`b?E??OQ@CBF`p@CFRG?AQL_EJw[?@CMIAAOF?A?@oph@@[S?cWECeKd_JiSaqHI?[@PIK[E_n?B?Bb|{J__cA?UHCHC?jch`QC?JWe?AM_I?@hCOQKC?PiA@AACYzuH?AGc??pFFO@w?x`G?AIZSc@dcA_G@XS?PUXgGU_IhAU_OxTSHbf`CVWogGOc_WW@`I`pUSjAx???}gAoSBaA@o_IGGk_SGHF?fCUGC@?hz^EOAs@oWDmcGROG@Q??GpLOdMQGOAlJi?I@dG?@JHL?Gca?I?U_gBc}iG?O???XoG@BWJ??o@ac_QaTliL@CkQhK?SZEAPa@AGGEGNOOQNKEB?qAkQX[Qa??CaOPFoqG_iHIKFcEW__aJ??C,False
~?@cZ{KG`?GKsLX?DIDOGBBedaMWWQJSyccghA}L@SCHOC?WGWOK?EV?A_TyCIOTP?ga_YogW@EB@fGOO{?ECuw?KsQoGMp\NGIkC?mhOECK?OEUACDS@ypJdG@QQ?VTA?bPC[aubkG@kma@CwGOC`QWaf__HU?A_bBcE?OAkE@IPHkGPIo{`?d@_EV?}?gGGW_O``iai?aBIdGGhXt@AOGPkW?PaAfD?@{UoiTC?CdcpCoAcISFoDWQabAJO?VeBSSCDqd@PaApAdGI?sq@GAaAk@@?PLsrceWXaIMGSTpLS??cT`QRI?d?[SJ??P{?_C?@By_K??TSsqaQ?WcACOApEKKKo{`_DHsO`_CD`Akra_g?W?hOqMCP@KSE^rAD?aacGE@RIO_qsOOaOOGfoUGAdc??`wh?DOAC_CA?_?B?CCWACHVQIQ^e[CP[o_GEYOmGgH?_?AO]Qa?wOAoA???cPCJBKsM_BOAhEaK@ITKaaoCRaAGa@?Rb`FASa??ROI`aD?GcW_AE`AfqCAM?ObKGCoGCoShdos@e@?cPOGPIERG@sAZ]Ic_G_a`NdhGIO?_?C@`WHP?HOOYO?PjiECBS@FCAaO??TaAOHAWHE_?CZ]IWIaAqOdS?OC`KcCW?GO@EKKCM`URQ?Di?AODRCg?gSaRDQ@`oACaAy??IYI_AiILC?C?{BanO@?C??HYc_pAiGAUkQoAyagwCOCyAQ{E@W?S?tKW_U[?XeO[GKI@X]AJH`EW??LHaiOIWNSLeEO_NBgoKoaEG?KdO?AB?G_[XEN@_YOEIgA_CW?oSc@Q?QhGOWbu`oUDAQ?C?G,False
~?@ckc?JOSiWLIidGgUA@BGD@AA`D__?BACLXGViQaoSgGOAA?Q_??OajaiWC?QOPIUIOEDC?aiQEY]_GdgQY_WG?IOC?GhlCC@CeOcODWaEHa?EX?YDAFLFoPgD?@?Pqq@G?k`_v?MJM?aAc?IF?CUGgLgOCb?GeCAEICy@P??CXBkO_I??cDgqP?AAFbvI]cAyWc?zMOKG@B?SE_oCcWLAqHqG_robF@@?_PAH_ELUs@I?PC?J@faQASgWFSt@iWRb??TES?@?BOX?gG@e`GW@GI@agGGca}cuC?iH@DSW_aZqaG_peKABggAjb?UI@?nGmE`Hp\U@QCR_??aaA@D@fV`ESB]Gc`?U_CfGkPECW_aNgGGE?K_WEXBkC?c@HK?E}XJ_G?RVA`?S`J?@}GAc@eGBC`YU_F?S^?GPGoPA_aG?xwIG?_K_P\HL?_?Q@aJPADWQcMooCPrIAiG?ATq@b?cPxrI?bE?_CRGgDbCIiptL`L?CHE_THEQIG?EKHW?uHTkP?O?HW_XaOAOYAeHFJ@ck?g_BOc?hg@UoCgWGKAo??K`?kUA\G]@UAbPG@qSFPR?[SH?}OqRGDZOA_O?E?W@HiCXRhU??`SPzYWCDQ_lqCdAW?VAAGAAs??@J?abOW??kGkAAd]_Hwj`?KOcGEHQRLHEA?VCJifO@aHZCdA_uA?OO|C??_GAIhQI?K??[COs???`oOLOWpBEKAOdWAPDePFhOGv?MaCjLH?SF_AaA_CG?WQX_eNw?FV?KSHOO_`Ido^CPGCG?NweOcA@o?p`WksT@UOKRAOAKCC[pMCe`V?O?UF??X@OOO,False
~?@coX?qu_ad@\AKgEMOCFo?GpH__KO_DH@GOBeA_C?exSDdKIk_MXK_TcAbB?^[@OO_CC\GcL?OUP?lUI?h_aI}?DO??O?Ho`?Ge?Q??CdY`QUGPGHXEG`O?Oe?oiE_i?CWSOCpGND?WTD?pB@@OiIaqwC?n?WGoSop_?W@EAo?AWO\EOCQWy_@ASMVEC?RBYgJWDEPag?QGQgO@XAAIqc?KW@ScW?k_GGH{CO_E?POaZ@H?R@AP???BW?GDxDM@K_AcSB?A_?hHERi?H___^O`O_kEWgC?d?Kaq]bo|@hlQO_SOWD??kbAO??]YQa@c@TFYu@jc?PQH{@wSG_q?OD_yQoYnOPkBG?O@GICKPBOMG?C??IM?[@A\E@?O?eCYwK@HQ@G_VOSb_ACROCA@A?DAm?OEQ_tKxOAG?DqN{oQ`RY[PE?dTWwKQ[?K_w_G\IA@FMQgc@oC|@SP~w?wCkSKjDyIq_?OBPGADCOE_QCB[kO[oO@Ahq?PO`@S?DFJPVO?SAKZo??AJApoS?HGNssGcHkI@?_Cp@OCbOBrIWHEGB`?gy_ca`?_Rx_O?EcJAg\aM?MT@`o\@WdcIDo?OCYgGCsAY@gE[Q{?Pg_{A?G_DuAO|@?KZ?DWOok?GVIHSC_dBBASUcOGO?_RMGDOka@TFgPGmHP_e?_iCA_BoQG@DcyHoqGlH?oQbcFcOQKC_@OK@e]gYk_Ez_qO`S[J]\@EHGCUeaaNGA?L`@_S?SV@EGGKc_D?WMGN?CPWWGjbcO`Qo?W_ADoOP`S@w?aK@{@Q??B__c`h?@_DBKGmjLFVYw?Ca?@`?GiGWSk_w,False
~?@ceLF?WgqaAKMvKOwofeEcCA??lg??WDoJEs?CoDOEW?@G?zB]@IS?D?@GV?Heag?tAQJDBDG_GGSGEbh?[?`i[ZRkTY@bBo@?ESR`yO?~CI?A??EASP?p?DW_asK?KUF?O_@?LAwgwW_OMq_Ap@C?IuId]e@OA?rEbJQGEdD`M@WRA?I_OS[bOCBocDQgwHoCiOob`kA_hcRegdEHCsgR?KOE[?a?AI?MADRaCOI@?cc`i@GPBc@aCmC?DWAA_O?_O?_AMKiQsH__qiOOTa?gJ?WHbbQKOg?P`ue@B_oCAJ`?b?OSdCqQ_OQwBOHhGgiQOSXw_`OMgFGQpICqzQcuca_wPEGHPB?KBDhK?C?Q@g?WVIWpa?G_GOccSLBFRQQ`?W_DPfHAIPCKO?O@OAM_Jw`\?AwdqS_?GQ@??GA?Obv@?ZZA?aSHGcoc@TJAJ??OGQOG@L?CWCDKb?dYCB`_Y_`SH_f_?XBxTG?`IA@G?Prc@gE@JO__OOd?g}@BFY@CBWy[HHC@`EOJGcr?GC@Ao?ecqBcsEI@JA@Fg?_|CO?AlqohSScY?_g?kVQ_QwguUoDGBlwBI@H@GOEC@aA`?edOSBAAW`WJCGg@X?@eABio`AE?CARBR?_?Og@YgP@GS_SH__jmHG?V?HQo`[A\KG?AhgA?b_uZtARpIPHC?MT?Eq_AK_sRo@@WEPGQbh_??ADhICw`cQbo\gG@?szGq?aGG|PIGa?@GA?@C@DQAdD`QaGoNP?M@KA\UocQ__EAEPh???Hk{?@k?NG_qx_@sqOCO_K_BHR_@MKdKFMsp@aPoG`?DOGxw`Qwd@,False
~?@c_\H@EOwObCc???EA?hSA??QA@r__xM?dHOg?DHq?MbATCAEbCKBJOo@{SJAD?c?iDAZ`WRe??P?U_i?BiMjq?\@yL_?H?QbO?@_H@_Q?GKQdIUw?g@y|IedbS@Pu?Wi?`aOWACXGHcoWO?Gb?OYKXPce@@OAuO_{AAKHg_?UAkFC{F_OGVkOlCZi_P@oAqSASBUI?YDN?YG??o[@BSqIAO_GH_Q?g@SBH@C`ISLOcCUWHWAKOWCIE@CEcP@AJ?CK_PWWQC_H_KGGo[`iU[e@{sAs@cGAGXCCKdGWpuc?B_aiL@OHC?cHCCEOQ?C_?GSQG^?B?QqofvcO?`GFA?WAzwaAodDBAOz`_MiBPccwtaGBKHH_dCIEIWIGTH@W@AB?RPcOhCbgOiGD@FiNXC?A?SC_m@O?qgPWQQ_GM?@`TMU_xcA_`TSO_O_AACOL@CCl?`WGgC??W?_BkcGOXA}PAoi@?uQSSi_o@I`e\RoCHP@gcWASHh?iS@F]yBq`bMoO|AFO@BcO_kAtaVbUG??e{??Q@EkKCy`_sbf?IcC[?Tap`Ss??HOJCXO`CoEGEa?EiKGScCc?@DgDW?QnQPoA?dNi^fah_?iQCRwGaGi\??Hi_AHBGOcO?Q??BEG``I_D@K?WG[_CPGTGQ@??YROkC_ogc_JDh??|HO@dd_@aPUApgWo??BKKK?B?UtAa@y_cka`??GAI@W`@YXg`@Oo{oQJQ@dDHAIGL?AD_A@J?Dj?Bc?@VIgRCwT?_ZC_G@@~K\H??KG[i?IkW?CEqSJSHDGGTQaAUR?U_p?gfJA_Bt?qc?c?GGBOIasP_v,False
~?@cOAOSHOI?BS@G_jOACWUPPJGbo?Q?o\OIa?eOSCSIIGo?GGINM_?OI@??CIe?bYGVpCRhHioBy?@OIkWHIJ_oKt_cE?ACC@?AH?g?FK_oHPi?mAgzwH_DZP@S?O?AW?[MKLoiRYgAjSM[?dcA`GHeV@??WakcqG_@Q?i?[__?AOb?a@@dKCGCCya_W`Q[`J?hTSAPA`_VMO??HKHHo?uAPr?__LPIcbACC?K@???AGGzG@@IMAHTCM?@jOWG_D@h@xOAGa{GkgZq?GW@w`dQ??O@IAa?DKOKFCIAgOGsRO_O_?EKB?A{CWCzO?LoBMCH@WEIODoWEQoiC_IXCC@wBcq?@lLqLoAE_GEW?O__SBiLa?Owk|D[?XGioAKHWfQi@gCCOKlqiWAIDPCV[BIFKURSBhDWFkbCIoGBDwQOQujQi?OASi?mu?DY`AC?A@?t?C_gF@c{?WHoOj`?pS?@QkEaDPCAGIXcm?GAIKEG@I@X?DKHU?_XG_C?A?hFQ`oPESC_@tkCEsD?AAC]@S`?KTBoidF?OFSiPDCWD@_AcT?Qa\ZOKA_gR?M|?AgAD@MGAEwHCKWlOcEAKBD`Rga_e?g__Q?s_RBxQQ}\rB?Ol_A?AgW?u@KA@`odMtVCOUIkPIusk}__BcNgnJM@HeX?wS}?GrYr?_GqPJR?U?[IA@ASFQY?UE?FGsYOGO@?cOI?UD?`s??M?G_Yv[@@`ACP??rALGcDKGcWA{M_??aOHIH@?@@S@PRx?@IOBXGA|S{gIBAOD?b_o_F_Ow_b?@^G@oaGS@?gO_CBD_?BHTu@U?Ja?F?pkD?`EOQggW,False
