g6,attribute,time,total - 0.00117
g6,isDistanceRegular
~?@c~^~t~|`r~|~~v~U~}vLnv{}m~~tn|zz||~[~v~|dnmvu|^|~~vn{uJ|lyr~~|u\p|l]n}~Nx^}M~}}Z~jn~~fmn~Z~^~|}ywV~~\lY|}~~ny]zz~Hc{^~|~^}x\Lsz~n~^~fyZ|o~Vt^~r~^v|y|~~YjLuj~{xn~~~\~}Y~n~nxm{}dfu^vq^~~n|R^t~~n^~~x~~~~jf~^znr~J~N|l}~^~Y~~V~z~nV~j^^~vFu~j}^znN~~jY~zr~Fn}nr}{zu||zzv~~n~|ve~U~wr|]nmnntnx]zz^s~{~d~]||~b~Z~r~nt~~~v|z~~Zv~{\zx}v~J^|r~mnK}~u~^u|~d^~~p^z~u^\~ur~^TZv]Ny]v|t~tv}|bUnv~t[v~vx~|jt~nqv~}~~nhzz~v~~nj]nkzvj^|^v~p~V~x~txvN^}q^v^u~]~~|vznv[lsNzvk}z~]~}J{~l~~v}~~~r~~fv~fedluvy}\~}n|~ZzmzxV{~~}Yrj~~}}V}||~nno~^V}iF~zn~^~b~}^|~}L{tn~mUuv^~j~~}fu~ZL|zt}ioY~q]qZ~zNn}~~fn\v|~~|~~~}~vNt}v~~~V~~~l~j~u~~z|yzv~f^w|n]|vnX}~|~~vz}~~~~~j}vifv|m~~iN~}v|~|y~tnf^^n~Jz~f}|~~}lX|Nrn~nf~~~~y|~z~~~\F~^l{r}\[zz}z~~r~f^Zz~~~~~|~}v}}~]VurzF{^rv~~~~u^v~nZ~|^}~pYzk~^vn}Z~vtf~q[Nv~~~f~^}e}~|v}vv~~ju}l{|z~^|ln~z~z~~^~m~|Yz^jn~m~~|v^|vfznnu~Xv},False,3.88622e-05
~?@c~~zf|n}~[}I~~z^~}~rV~^tzvez}}~}~\~~~l|n~~^}}~n~~n~zn~zN~^~znjh^t|v}~m~r]~j|~zU}~L^\~~VlEZ\mn^]~z}n~^~~n~nb~v|~|~~~w]~l}lJ~z~~~z~n}^{~^~iv~^zn|z||Hd~nlpz}zz~^vz~}~zv~~^^~^@r~n~Z^~~z}~xZ|~~{~~x~|~~M||~~n[x~~~}non~r~~~^~^^\|}|~Lz~xM^|nhzzhw~zyn]sYYk{j{~kj^|U]rl^~~~y^nu^z~~zz~^~||~z~f~~ZZzx~~tKNvzr}zmuj|k~~~rn^|n^~^~}nxz}n~|^W{{vN~}{v}~Zz}n~rz|z|~z|j]Js~zn^vvr]~{}J]~lUvxlf~Mpn~n~~~~qz~jvty~~v~d}v~xzN~tjm~|r~xdt[^~~~s}~~tk|J}Zn~vyn}~~r|Nx^~~|zV~Jzm^v}~\vuztzt~ztv|n~z^z|}n}~vtj[eVz}}~vn}Mmx~~Vf^u~zz^m}|~~vueL~~^f^yz~}~~~z~~zj^~U~n~f[xn~zQ~\Y^~zzV~xn~u~rt~X~v]u~zvf[zLzNv}|yEnu~~|~|^mzvzzL}jv~~}\~zn~NV~^|z~|sZn~xz\z^[^~vjyfWtzX^h|zv|{~~n}~_aN~v~~n^^n~^|nqvzv~~~|vv|}~yn^tv~^kvxmL^v^lrnzv^]zzlzYvlz|~]vlmYvzs~n~lRn~X|^rx~~z|ZN~~~}z}n]z|nz^]nz~nv~v~{nz~[n^}tv^|~~urzmn}sYt~~|tuyx~z}|zvtjezV~~n}t~~}\||zbx^n~^z^vrn~z|~}v~~~~|v~r,False,1.19209e-05
~?@c}{zd~~|mnzvv~y~vvz~^~z|ln~q^vmnmfnz{~^b^~~~|~^Nl~v^z^mz}~x^i~~u~}z~~y~N}~UFRj}}zzv~~llvmXzXnzz^~~~^vnvnzy^~~^fv~|}vvz~zxN~]}RF~^V~nv~~vF~tz}UFmm}vJ~r~Zpl~|Z\~Rv~~xs~}z~}r~lr^~~X~n^~~~^fnV^z~unR~rl~f~^~nv~fZz^~~V]~\}n^~~jn]n~~JJn~uTv{^nznvkn~FnVvN~~]ZV`}~~r|Vxc}~{Zz}~z}ft~n^\~n~~|{n|zZ}jZ^zz~zrx}z^}tv~^|}~PD~r^~iv~^^u~vVtN~\fNmzZt^~\tn^mnna^f~^dVr\~^~n~^NnZ^~vnv~}Z^|~~~mNk\^~^inzv|^~nv{Q~z^d^^vu~~|vr~~vh~~v}~}X^xu~f^|{~~|vz^nz}~~~|vwv~k~znu~n~u~|n~|~{Z~x~^R|~^m~~U}ywrztXYz~X~^~|nv|[}n~n^z~^n~~z~~}}Y}~nw~z^~N~}|hVxNxu~zv}z~|~~~y~|r~EX|}}~|~^~Jfnnzvv~n~]}tvvz~{m~j~j~xhzn~~~mtm~n|~~~~Y|n\v~Z~~vtv}n^|ln~~mmuszz~v\~~~~[||]j}~]~~~YFjx|v~^^|s~~~^V~~N~^vx~vmvl|b~~uHNst]v}~~N~~nv|xh|u^{|\m~qvrv^mn~vv~p~v~z~~~|~~nzvHu{~}~VVxvz|V]}~m\T~m~~~~}~ml^|k~wv~~~x~ll~St^lT~|~mFZnzuvfZ~eZz~tj~\nl|}}}w\}jxz}~~~~bjz}^j{^^}~v|||ynnv~unzz|,False,1.00136e-05
~?@cn^VzN}\~j~{zNzzez~z~wV~~}n^~Nu}uNn}~n|nn~~~~|f|n~BjveY|l~~^}}V~vn~~yvPtY}V~bflzvx~wzn~y}n|y^^~z{v]bz~|~^i~~^^}~~N~~|nv}nXv}Z~~U\~ud~~~n~zzvnMtv~~nln@n~|tZt|~h~~h^v|}^ztz~V^Nr^^^~z~Zz|zrb~~\|vn~~Z^ll~uvVz~V^|~F}u~}tz^N~c|xn~~f~~^Nnv~y~|n^nDht}~p]yyzN}~^~m|Yf\[~~f}yt^TXz~rt~vnv~|~]n}~H~t|}~Y~r~}Z~lm|~x|N~~^~l~zt~v^|Vm~v~^^Nvfn~}~z^wn}J~Z~~~}l}uuV\V|~{~y|\~|va~v|~{f}VF|^~~~~~~~~wzN~vzlr~x~ZvuY~~|^|{~f~||zl}|Z~^~z~Z~^~fr|~}^~z~t^nj}V^\y~wuy|mq|{zdV|etnv~~mj\jvnf~nzS~mxvznzyz~^|r\\~\r}~^^~b~e~~Lt~ZNo~Z~~}|~~~b~fnN~vn~|vX~zljm~^~~~~vv~^y~{tv~}|~~vz~vU|nt|vj}}vZlJ}v~nl~~VvNzl~~~~Z~~}}~efv~dm]~~~~|zy]r\Yz|~vns^~uz~|~U~n~vvf|]~gr|z~|tmxx|x~n~z~}~BIn\rzI^^x~|z~~l~z~lvq~nz}lmu~^v^~v~}z}~~n~^}s|v~z}ovf}~|n\~vLzVhf~~XfZ~v^j|}~~~~E~~|jn~~~zn~n~vv~y^fz}v~^pr}~~^~qzn~|~~|F~nzvVt}~yv~j~^}^xV~zvnzV~n}v~wr~]^vV~~quzuq~}bwn~~y^xn}^}V,False,1.00136e-05
~?@cvnj^vP~dt~zN^~~{VNfZu}nv\~fz~}|j~Z}yzz~~{zd~~~vlnM^}}}^~Z~n\~]tm~~^~nV~LnT~n|nuzv~x|}zjZ^zz~l~|pd~~|~u~^rqvzN~~~z}zvz~v~m^}}~~^~nRv~vM}NZYx~}~~}nv~j~~vvx~||~~zX^n~n~~zyz~^VzTl]nVrI~|~]v}|^R~~q~v~~|~~~~~^~}yvJv}~\~q~|~M}~~S|~zV^nnz|}lI~~\v\~|^r~dz]|~~Fz~~m^~z~~ryRlzzQ~l~~~w~KZn]^|nm|fVNz\y~lzuVp~\~~t|~nnvvru~z~~~~~~T|}^\}nv~zU~j[rzM\~^~ev~vNx|wRn~pn~sn~^Fvrz~~tnf~WM~wrz~x{~YnZ}r^~~mN~~~kR\e~|~zz^[rn~svnN~~{~~\rF~n~zuL}bNz|~bn~n]nu^nunx~vNm~~~`~~F~qVjr~vZt~~]^nnBtn}~~s~rvf~r~}^~v~i~U{u~~^~~any^~|~u]rvq}~zg~|sNv}~~~u~nzNZn~~z~z~}{~~u~n~n~~u]^~nn~~n~}||znm~uvvx~^~n}i~||z~~^nk~J^yj}ynp^z]|\Xmz~~z~xB~Z^~|s~^un|j]h~~{vN]y^zmz~zln~~n~|VUx~ql~zr}~~|R^m\tuC|z~h~z|~~~~|tz{N^Nvv~~~~~pfz{f~vzvZ~}nNn~}]G~wlV|}~{^~|^vi~N~~~mV~~~|~n~t}Q~^|~p}~zvyt~~~}}y|}^v{~^q~^l^^n[z}uFf~^dz~^^j~~~xz~}l~n~~~~vvnF~~r]~}nu~xvm~~z~^vum~mb}~~~m]L|n,False,1.00136e-05
~?@c~v^~u]z}|~m~Nvzz{~B~}\xuv~~~|^Nyvv~||M}~q~Fv]z|r}~v]~}~l|f~~n~l~|v|}~nv~||~N]x^z~x~lT~{n|~~zv^rnX}z|V[l|n]~^n~^|M~i^dD~m~k]~vn~xw~ky\~t~^~^~~^X~~^x~hp~nv~^^~u^~v~~}nvn{ny~auv||}^JzN~||~^\fv}zvf^zrn~u~n]q~zyv}sr^{~|z~~~^~|~~N~}}v~~v~z~lv~|~u~]n~~Z~yzv^|yhTkv[Znr}^b|xxt~nk~mzzZ}|~~}R{zp~V~~~Z~bf\|~}\xz~~B~nvv|~~Vl~z^rzv^~\}y~^|xz|~yJ~ew]Vz}|j~|Mdx~~~~~y|^yM^Vj^l~n|n^{~^^n^uv^~}I}K~niv~~nUv|y~~zr~~v~bn~r|zy~~yZz~Vpx\d~Zznv^n~~rfFf^z}v~m\~^~w|^}zvz\N~~~|~n~~|~lzxxnz|zJnu~hn~~vv||}|z}\zx}~~}vNzz~~v~{r|Z}|~vX}uvvxVNR^~~~_^ny~~f}^z~~r|]Jx~|nnn~TnUvv~v~~Tmv{||dF}~h}uljv~v^~f~Fufrux{zN^f~n}d^n~~~~^~^z~ex~v~~^{|}J~le~t~z~~zv~\~~v^~vu\jZ~n~{lMtnvLnzn~^^z]vzZxm}}vz~vl|jtzjt~}z^mv}zQprV~zz||~tz{Zz~z~^s~^|~}z~~~~j|~vz~|t~~nN~v~^~l|^}Jy}pl|mn~~zu~|]~~m~{~~{^]~Nnr[}l~~T~\}n~zz|~~~l|]f~z|{^~IUQ{~l{zxn}lzz~~~jv}v~}v~|jzq~]^~Z~}~~nx,False,1.00136e-05
~?@c~~~u~xz~}~N|^~}d^Z^~u\~yl~^r}~~}}LR|ZIn~Y~vu~z~^}~}^tn~\{z~z~]du~~}l}nZK}}~vnn~~zx^ly~n]z|~^}{{^lf~z~bv}~Vnz^^zxvxt~n[~ylf]|~{~^xvxj~zN|{xz~NP|~ln|~z}v~v~~~~v~~~{n|~^V~~~{^|}|my~~vVt~~n~~}iv^z~~~^d~v~v]^E~]rt~YZN}Y^vZ~^yV~~\~A^Jh~v~Zi~~|C^|^~|{~r^||~~~t|zi|rV\~nnzz~~~h~iLz~~Qnu~f~}~~v|f^uM}R~~~UvyynNtv~~~~nzn~^Vn~^zVxv~~~rj~v|uvn~zn|~~~z~fn|{~Nv^Tznzn~n]y^{on~z~zyqnm}k~y^XvV}^~Z|~~tN~~}~z}^v^r~~iZfZyzs|]~^}~kr~pn\~~n|~~}|R|^vV}~zv~tyTvN||}{z}{j|~~|r{zv~Bvz||v|~nB]~u}Ynj|rn}^^wvV~~yv|~l\{q|~~Lz]b]d|F~^~~~~v~lj~J~\jTkLr~Wt~v~v~}~~~}z[~n|KV]|~~px{|vvW~z|z~z^g^~Nk~~l~|~vnv~v~l}~~^~~~]urt~v~~tn~~Z~Em~n~b~n~~eNyn~n~v~JjF^v~MnNz~z]a|\|]~~^~}~~rl~~~zu~^~{~x~vv]Nmmq~zNnvK~~nn^xun~}~V~Z|y^~}l}~dp||~PYv~vn~~~~~ZNz~u~~v|vj}~~jx{Y~}^~Z^~dyh~v}~~|z^f~z~^~n`xnxZmN^|}|~vx|B~Z}}~zvv}t~~z^~~ou~v~N~x~B~~z~Fl~v\vxx~upn~~^}~~y\vxx^~l|,False,1.00136e-05
~?@civVbN~~z~zn~tv|^~~~{~V^v~nq~~wY^Jz~~^u}|nn~~~~^v^~~\u~Vy|^NfuZ~nuUm~zv~Wvnuvy^W~Y{^vvzn~zEzJvvvx~}K^vjz{~}~^^~jtk{V^~^~~|znhM^~~mfn|x~y}|}]\rl^l~~n~n}v|jx~vZ~}w~mv}}~v~zM\|vzB~m~vF~n}k~jTz}]^j~}~vx}~|]m~~vt^~x~~~p~~F~nz~r~Znwz|Lz~~uQ\}n~nV~~~m^z~u~~nv^~|}~~~^zl~~N}~u~zQ^}z{^n^{v~i^~z^~~|^~~}~}~j~Jvm{|~v||^n~nzzvvzqml~vjvvv~nWvun~~Z~~V^~Nv}~~~Vznz\}s~Xz}^v^tnnn~}|v||n|{Zl~z}}}v~^^~z\r~~~ln}lu^~~~n~z~Sn^rr~L}|~~|~vmjzn~|~w^V]^{v~~nvv~~r~v|~~Vz~~~~|v}|uLtm\~Gzn^~Zn~p~nVz|}^~n{}dzV~v^uryfyYZ}^q~rvvy~}mm~nrn{nn~X|~zNz~~^v~vv~vv^z|l~|l^t^}Z~^]~}Rq}ud~{\fXP~O^~u~NvF~uvn~^XpzzN~^~xzR}|~^z~~^~~[t|~^l~z`zyv~nnzvTzuZ~|tg|\lvVv}{~\[T|~nz~~u\f|}^{~rnu|Mv\}~v|q{x^v~^Zn~nq^l~~y~Vy^}|~~vl~[~~j~~~~~}c|~Z~z|v~~}ny^vmv~|~~}Z~~~VZ~~~ux\U~v}uvy^|~uV~\~~~N}vvvnj}n}|~pyuj~yZ|r|V^yn~z{}~gy^}~g~lJ~^r|l~~MZn\~n]zn~~U^}z~\~^}v}}N~N}s|^~^e~{,False,1.00136e-05
~?@cn~~mjy]n}~~zn^}u~y~z}j}~Ny~vuZ~|^n~q~~n~i}r~~Rvu~~^n^x|~~}z~vxV}^}zv||^zv|yufzu[~k~r~~z|^~|zfv^}Mh}z[\uQ^mdzNv~XvwtV}N|jn|y}R}^v~~|zf~zzkZ\}y\]j~zVt]~v}~\v\~||~~v~~y~Fvv~~ny~vyZzV~Vu~~nuf~~j~V~~x~~}zY{~h~~~~|~vn~~~\||F}nh~vn~en}}}nn{]jm~|[v\V}^zf}|n}nv~~N~rZ~j~v~XzJy~[v|ZYlx~~MN~z~~{~n~~~\\s~Jn}|PxV~^N~rWy~~t\]\zH~dyj~n}~e\|V|v~V~v~z]eic{~~~~vfzn~~~~]\nMf}|nn]^~z^VN^~Xm|~~~~vn}bY}L\tv~v|N~m~|V}N}~m]}mn^^zzN~vv~|Z~p~v~~~^Z^}n|~^|nX~^v~~}~m~|~~p||}[uZz^^|~^R^~Y}d~{nH|z|r~zz~~|tzlelmynvv~s^\}m|vyr~jv^n^~v~wz^~v~vj}^v^z|~~R|nn||~{~z~ZkV}|^~}\nrf^mfkm~u_~u~m~~nnV~~~|~~y~|~^}z||~b~K^~||~M|zv|~fZvvv~vmfI~{[zv~u|~nm}~~T~n~p~z}~\|~}r|w^Z~j}zn^^]\~~}|]~~}{]|Fv~Nu~nLfz^vh~v~}}~~~~^ntj}v]vL~~~nzZnxn~~e~T|~~~zv~Z~^~vzknn~~~}|vrN|L{v~}~~|~}|^f~~~v|j~~m|yV\~frj~^|~Uzznv~~zf}}^zv\z}^lv{z^~kl~|xz~~~tllw}~u~x~~tv~vzn~|^y}f~`~~{rr]z,False,9.0599e-06
~?@czvz~|~\tzdvwrvxn~}^||zZnz~~|z^^n~n~q~~~Z~T~~~~~v||v{v~zvf~v}rv~~~~vv~{x}~z{u@u}~|v|~~zf~jn^~~wkf^ij}~|thm|}t|\v~jk~t~zvN~~Z}^ovv^}}~y}~}]n~]n~\^z|rnt}rx|~~znc~~r\bzjp~vx~~^^|^~~VI}vz~~D|~~d}~tzlUn}~tzzfl~Pfzz^~~iZ\Y||V}~z~Qs~}}\~z~vU^^~xu~u~vvn}JVrzzz~~vzVvBzn{~{~N}t}v~x^|nz~~nn}}l~^uz}x~~d~v}tv~~~Nnf~|nvvzvX^J~plqnry~}Z^v|~^]r~}vLh^~k{~N~~}^~~]V}~}~~~n{t}~~L~~{v~l~}}\~\|^b|~~}}v~~~}v|lv}]}bj|t~}~|~w~~J~~qU~Zn~|zZvfx~~~|~tV~g~U~~}d^nmv{n~uZv~zjyNvtyvN|vv~p^}nzYuz~~|Z~}jq~tU|}|~\me^v^|_}zv~nntm~~~~V|^~{n~oF~~~nzzEf}sz|~n~ln|s~k}nl}v~|vv|~}vdZ|~~x~~v~O^vW^}|~n||]}z~v~|vuZ{n^{z~v~zh~~zV}~fmzz~~v^yX~^~Nnjv~uvLd^~x{~}bn~~t~~^nz{~~~n|^lev^~z~|^z|~~~|^\n~zzt~~v~m|Szt]~zN^\~\z~~V~z|n}|vmlx^vv~vv}}i~zzxkym~e~YEV}Z~vvF}^~zrn^~dN|vn|yX]z~q~Vn~}Izzw~nv^rx|U^r|~~~y|b~}~vvmv~|znnr^~~V~|N~}|M{~v~z~nN~Nfu~zZm^|z|~n~~vvu^~~n~~Dtvv,False,1.00136e-05
~?@cYn}|zzn~~z~rLz~v~~^~}rxz^v^~vnz~ySy~nzrZN~]~Nnzu~vZn~zN~|~^^~K|z~zzz~~z~fZ~z~]~]lqJt~|n~~n\z{\|~^n{Tnv}~~]}n}}~^z~yFr~^~v~q~}y~|jnn~^~}~\rx~itz^F\vF^iznt~f{^f|~^i~x~fzln}f~u~Lynz^\^~~}\{|~{`~~~fv~v`^}lpfl~vz~|~jvnu||V~~^}~nnt~{bz|~~~b~\~~{z~uu~}j}bn}n^z~|}|^}~~~~|h~N\jTrb~}~uzu~v^Mv|y|l~|zU~mcfz~}n^iV|^srn|n]zf]ez~|~~^lTkmv^{d^i{VK~xm~n~n~v^n~ZjzV~~^sNf}~~~|{~YNb~n}~p~^^~~^~ninj}nn~eM~~~~~~RHyZ{|mn}}^fnv~~x}~Zz~~\~Fv|]\~}Ztn}~~~}^v^nnxnm|~\~~^}Zvmzr~n~nnrtr|t}ynfn}v}vl}u~~~v^|~~Nz~~njx|}v~I^s~~|r~~u^h~vj~~v~~~H~~~iNzZz[||\X~|uv~zv~mrzlvnznMx\^|~~}uJ~vvbfq^vn|zn||~v[nbeztxm}~A~z^m~jjzn~z|f}n~fj}m^d~^]R~Zj~}~}Nn~l~nl~^^n~d|~n}njln~b~^~~nVv}~|~zh~j^~ZgMy~nk|vZy|z~v|d^v~~~}}Nv~\nYx~l~yZ^}}}l|nv~~~~z]^zz~x~~~|~v^^x\e~~zv^uzN~^uz~~~Nz^~nf~~~Z~nu~{ul}[}^x~{vNR^~}l|zLvF]~|Ve~T~n}~~zx]]e~^~~~~~^~~\^n~~{|^~~~~l~nzn|tz|}~~m},False,8.8215e-06
~?@cnZU|v}~~y~V~|~^t|[nvVnz~~z~s]~jnz~~~^y~v~}^{v^~]~~N|]N~||^~zL~xSm~fz~~x^}~LV|~~~~L|~h~}v~^y~^~yj~~x~ztu~~||Yi^n}~~hv~z~^lxm\~{|nvt\^V~x|N~^|~Nuvl~|\my~LU|~}z|~~]~~~nv~\^nVm~~~tv}D~vx~|~~|x~uZWxu|Zl}~^~lzv^^n~rt{T|~|x|Pu~yvn\u^|N~~^|v~~a\~nVVN{~}~m^}~l~~|}fnT^~}~n~l\{nxz~t|Uazvz{}uunymn}^~^m|^}~~^||~~q~}v~ftz[|y^y\~p~jn}~t}e^~\~\|~~jnnn}zCV~}eeq^v}~~M~\~^ukvyvnxnz|~}tnzzinzv~XOz}zZh~^~~k~vnl~~vr~N~~v}~v}\rv~unZ~z~^|v}js~y~|~z\x}N~|tvnv|n||}][~l}~unm\~l~n~}~^|~~~V}vdv~^v^|u~L^^|x}Zz|~~~Tn}~]{~~gu~^~nnZ~nnz}N~^}~z|}vJnf~~tl~~^w~}n~~Tvzr~^}v~yyR~Vn}}|^z~~~^~^tdiNh[|F~Z||~|{vn||nyn~lj^~~~n~um|nfzt~Vn^z}}\^n|z^|~j|\j~}vz}nv}m~~b|~~y}vnl~m|J}}~v~zofkt}cvllNV~{|r~zLZ~}jjT~n~nn~~^~xnv~m}y@~v~^^xm|euV\^y^^~m~}v^~}zl~zn~z~v}v^|n~~v^zz~f~jlz~}~~rV|^Z~^~^Vf~~~~]@u}z^NRz~tn~~}~v|vsn^zzn^]]~~n^~l~ve}y~vM~}{^|i~b~}x~~vjm^v\~ueav~,False,9.0599e-06
~?@c}~}rn~n~\||mz~~i~rm}k}n~}{LOjnCv~rX}~}vpvz~v}m}}v^~~Dn^}v\~z~n}~~V|~{t\u|~~^}]fv}~v~pTj~^|~lY^}~~Nsvd~~}}~V^qnb}|um~n|jvi~~^}ozZ~|~~~r~n|t~{~vnz~v}^^~^z^vvz~{~v}]~}~j~n|~v~um~hvsfz~~~|N~|nMz\~~|zvuf~~n^|nlVnz~ez~n~^~v~z~\hu}v}vZvv}vtVlo~~~~NmvN\N}~^~mnr~~}vxJv{~vv~n~~Qvxvz}z~w\\z~v\~~|l^jv~~d~zn~x}zj}~~hvn~^|`P~~[wNz|~{~~knm}~z^~~|Zp^y~Vvfv~~~~n~Y~~r^^~R}~Zvnvlnm{~zr\]n|NF~}|zn~~~|~vnn`y~]^z}}nv~}~~~|jLNm}zrf~\d|nxmuV}~~}nzz~n}v~vVW^^~^||~~~Xx~~nhzny~~Y~^Z~~j~z~U|~J|~~~h~}}~}{Nd~~vn^~~^~v~N~]m{{^{}tz~^Z|y~n~v~nvj]^}{R~~Xnn^\~wfnz~Y}~|ytf~~~~}~z~bK~w]fz`T~jpb}ov~~ynyrnn~~~^Mk~~\z~vny^zn]~~~\ul~{hlz^r}z|zp|~~|}~K]z}~~}~~~f^||m~~rvjxr{~x]~j^r~zuvzv|n~~}~~e~|~v~|jiJ}v~}n~}Y]]~}~Z~vfN}N~|n~vU||zz||n~Llvx]N\fVzsnfXLMNm{t}fz~|~}}~}~~^~z^n~~vfF}~~bh}~nw~Z~~]V~vh|r~~|t^^nm{}^~|~nf~~tz^zl~~v~^~~ynZr}]z^mzjNvzr^lnLu~~nn|}q}u,False,1.00136e-05
~?@c~~|^vfx|^v~^vervz}v|V~mz|~Ntz|nG~ov~~~N~nNvzEY\|\jmdn{z}j~n{~~}nv|f~~z~|^arv}N|~n}nj~~~~]~zvt~|j~zv]}]n~zLn}z~~qzv~nElznE}r|j~|~|vx}v~|~~~~~r{^|^~nzq~~n~zL^^~^L~~~r~n~vfv~]v^}~n~lz|^}trl~tfc}Qu~~}~bf~~T~^q~~nXxq^Yzv~~zyySzZ|]r~~annzhn~x|n]||j}z~~^|P|v~vf|~Z~zV~~n~~Vz]~n}^yj~~~~v|lnv}zw}kvxy~~~~~|\{~n~~k\v~^V~zmn|^n~y}~fuu}cv~M[fv~v~^X{}]p|~~}~j~~nmvS~z~|\z~xfzj~v{n~}xn~~|^^~~^n|Zv~tZ~~ty^~L~~~~|m~}\~Z{Xv~uv||^n|nsTJ^V}]v~Z~Vnfz~|fV^|Vsv~nn~z~~R~~~j~s~}|yzy|TT^~\]ns~xVdgnE~z^~[~~mz^vJrvkZ~v^^~^nnvd|}~~m|vnnn~p~nN~\}jnVV~~}}jv~^r~n~~Kvn~|fN~nR^~~~~turZnZzu~u|{~bZym|y~nlzvyn~zvu~|}~}~zv^~}Fz~}|n|~hX~Nr}lf|yvn}|~~nz}{fz}v~^~z|mzu~~y}o}zn~}Z~^~u|vJy^Rf~~~^vX~[~~~^vVm\vn|~~|zV~jvN|~lvv~^~v~v~|~^z\~n^^~~v~zz~~^nv~zT~^mt|x^n^~~]^HztjM~~l|Fmwn}e~~y~nv~Z}|uvr^jh~~n~v^z~z~vVj}vz~v~~fz[^u~x]}v{Y}|~t~v|}~xv~~yt}TrU}}}nNjuzlz^~,False,1.00136e-05
~?@c\UuvU~~~|^|xv|nn|R}|nf~~~X||nzu~p~~V^~x~n^}zrnzv}Zkl|m}v|x~vu~~|z^~xtv~{dt~fpn]~Jyf~hm~~n~~~v|k~nz~~}z~~lv{||n~~~}}[^zmJ|~ur~vrn~n~xvy~~m^vp|~|~lv~M}~X~zz|^Zlluu|~~q^n^~~~zF~}n~f~Vy|~LU~}kHv~vv|~~mXy}}nn~N|Lxl~~~~~nfzy~~~|vzVv^zj_~m~Z~~^~z|}bJnjt~Nn~uV~j~|z~~t~~nmxz~z\~njj~z~z~^]^^Vv~Z{|yn~}^|q~|tM{z[V~nV~~z}\Mv~~Z^n|nnuet|~~z~~}zdl^~~~~Z~[n~~~V\~[~{lzvJ}xz~{|V|VZ]Yn^z~\{}~|~}f~|[f\||~~f^~~~~m~|{~rVl~^Xz^\z{T}^~}nzj]n^}~n^z^}\~}~[^J|~n~{Z^~I~^x~v~~rr~E|z~~vNpffz~^}v}[~}~fn~~|}V|~^wxzv~~|v|d^}}~n^q~vRYZ~~y~~~~}|Ln~~~}~r~nx^~~fD^e{jn|{^uwv\}^|{~vY~Nlnx~^d~|L]}~}~Nr|v]~{z|}}FzjNxb~z^~}z~m`pn~y}zl~}vvlo~t~zn~~nrz^zu]|~v|~~|f~nY|z~||Nu~zznINvzx~n^z^l~Fjn~l~uS|vn~^VYy}~|~vz~fv~fb~~n~U~zlj]~nnN~xS~~~jlyx~n~s~~r~m|~rz}RV~vz~nVv]~v}^u{vF}~vy^nlnvq|~|v~^v|~`}zVz~\}~|~~^~txN~|^V~fv|n~vv~Y^||rz~~~in~vsnN~Zn~~~~~|~|c|}|vjxjxu~,False,1.00136e-05
~?@c]n~H~~|~z|~qZ}M~^v~~~^~^]~vZzfn{~n~\^}|~~^}j}~Z}^~~VV^fn~u~~}]~^~tL\|n~~v~v{xbz^~zvz|u~S^}lPN~~~~v~w]\|}zzv~vs~}j^n~~qi~v\bNpR]|~m~~r~~t}^|^}nv~}c~^tXv~{mj~z~{~y^~|~|nvv~]~~knX~~~vm|~~~x^V}z^Z~~i^]~z~^\^v~~^^{^z{~}nv|{~~~Z~u~}yt|~]]dT\{nvn}|~~z|~~^~yx|Mx}n~p|f~wf~nnn^~k^l~vzf~}|~~vZ\^~~j^~vzv~~ytj}vn[\Lv~zsd~lzr}^\~~^w^~]]w}^~|z|nB~|~}z~^nr~~~^n}rVvl|Znz~||~INl~~zl~~YDv|~]zivV|~zu}~~uv~^n~~z~^Z^~|RZ}}n~~nzv~yv[xxvVJ~^fm|~~v}nnVv}jzi~~]^T~Z~zb~~Uyv{~z~Vjn}n@}rwXlntl\~vzf|}z^v~^|}N~Vz^~{|~ujn~z|~JH~~~}^uzn^vv^|^t}|~}^x~j^Rv\z\U{}}tVdN|~~~~~~zt^z~]~d~~~lz|}fmvm^~^]jZnv~v}~~N~|~~~~Unv~f~n~~r^}~x~~rzzw~zn[~F^Z~^~ruvnnn|^v~~Smzznf{qVx~r~vVo{fv~Z~yvv~mu~\~~~^}|zw~~~ev^~NN|~kz|^~l|~yzz~~f^}\~~~~y~r{|~n~tvnnn~~ZU^iX^^|KV||}}^~y~Zw~~n~\hf^|v^~~}^jzngmVnn}~~Zuv}zvykztkVnjtXm|{}m~~npxZz~~}~|n~y~~|zn~nf~~@qn~}}~\Nq~yxv[|vw|~i~,False,1.00136e-05
~?@cZE~z^~~~~~ns[{~|n~imXqzv~^~y~~~|~~Z~^}~nXz~~~}\~m^|~][xmZ~kvn}YN~b~~~Z~~^x}~~^~~Nn~M~~~xw~~}~~}z|~~z}}vz|~fi}f~^~^~}~^~nx~y|T^|~~Vv}~qmtn~mnW~^bz\^xnZb^~}r~|~z~|nmpn~~{^uz~}~h~yvV~\z~ny~^Mzv~~^Zvn~n|n~K^^|vJttfnz\~}~z^~~~UN~|nn~~^nlmM~~z~vznm}^}nn{}\}nz~~yl^~~~~rv|r|v|~vz\y]}~~|rjx~znfxh{ztNzv}ZLpmj~nZ^fD|~~~}~^r|Pvzln~]~}U^M~u^uvtin^\m]z^Rxz|~nTzfvr^^nzr}]uzy^\Vq~|}^nzIemq|h~}^tzz~~~yv~^^]J|nErn|x||~}~Znxnv~~~w~~Z~r|f~~~~~z}NfnVT}uy||x\^jn~~~Fd~V^~z~|^~z^t~z|uc~~~~~Tn~^^y~vN}nNmm|Zz~v^}x~nf}]Ln\V~|~~ndpn|J^nznev~jmc|~~xdl~RN~}Z^n~~~hl~f~^ff^~~V~}z~|~~||XzZ~~Xl|~v\k~]~^~V{LTx|^~~~|~~nq}~f~~uvzbu}zNf~}NL~TZ~~~z}}V~U~n\~~Ze~}l~l~]v~j^~v~vw~vv^~~~mx~~n~~~~{^~|}yn~Yzz}yV~~Z~~}|~n}jVVn\}z~zn~~~nj^zxz\u}}un^r^djzf^|~}]nx~XJz\\~~|~~^~z~fV~~~znxnnD{z^u~^l]vfqv|n^n~n^Vf\|v~d~l{}vv~^xzy||~~|~r|~}]Vy~{~df^V~v|yZy~]~~q}rv}^^v,False,9.7752e-06
~?@c^r}vlz~x~jLvtunU~}|^|~z~znV^n~rN{r~jM~^vj{|n~~nEm~~n~~~L~~~zN\^l|z^Z}||}vZzv|^|~yfN~v~v~^lj^n~zL~~~^kN}^nn^n^]e~kvf^~~~~^v~}M~z~^^n^N\z}^y~N~Uvn~^|wz~fzn]|z~{^tu~~n]~}\|~Ru~\\MkRu~Vv~~~}vnz~~ZN~lzvF|z|~lvtyv^l]~~^UZL}|s~fJj~~~zLyZl~~fZwr~]{`vzlf^vuz~~~U~v~~^}^~}mz~bnNN~~~}^U}~\~z~}|^~Vbzb~nZ|n}n~}zzN~~VN~}L^nl~k~n~~}~t~vz~Puk^~{v}n~~z~yBRz~^eZZ~~Lynw~~T~\~zn~rxv~~}|~j^~tvfn~z|{uQv^~~~{~zmzf|fn~l~u^z^xjnvx^vz~|n}~|}~|^~~Z~Yj~nnV~~}x{^njy~~^n~pr]v~uv~~zr~ju|m~}^vuT^~~~~j^~~^fIn~tDrv~n~^}}V}~|zvY^l~b|~|m}r|nuVzmlr~}vz|zQ|J~}Z~~r~]|^}mNlvZvx}^~Zr^~\|z^vnPZ~}v}ft|n~~U\^^}vU~u{l]~m}~~v~y~[v~^}~|xv|zhrxzVNnn{Vf~~nV~\zf\~y~~}l}~jV~}~vL~~|x}|zyn~ze~}Tt^~~Z~nY}mnv}j~zz~hn}Zv~nk~e|^~iV]~~F~ybjy}jeNT~V~||v~}|f^\[~Rz~~zl~v}~n~v}z}vv~v|~|~^k~~v^nr~|T}Nn}~|}z~~^n^nfu~}~v}^|fv^zz~n~~\z}`V}~~v~V|}n~Vvnfzyv~pv^}~{}~~nVp~q^|^~~~n|~~,False,9.0599e-06
~?@c~nyI~^~v~v~~~lLTXZ|}v~p~z}lBHzvm~^j^~]UP~\n}@~~z~|Z~vtyb~yqv~l\~jF^~~y~~^}vvf~zf^~iztJyFz|||~zN~~~z~|Nvfl^zXv~Znnw|~wu~j~}i}~ze|v~^xzi|~~V@~~uvnx~z\~ZUznZz~v~~jn{n}~kzu}zm~nn~vz~~}fjvnJT~^tvfp}{p~vzvy~^l~}|m~~t~F~~}~~uvq}Z^zV]f^}fntzn~~~~s}~~~xZqnjz~}v~u^Vz}tnzc|{~^ln}}mf~\n|z~~vn}v}k~l~~vv~}}~t}~q~{Rp~n}znfVjn}K~}^t~rz~v^~l}j~~~yzo^}|F~~n~Z}z|~jn~}~]{{nnZ^|zy~~d~~vmv^~~M~e^~|~^{}|~^V}Rl}Vz~qx~knFz~k|z~^^ZNz|}~Yzlj~m^f^~Z^|~~~^~^j]~~}[N]vNbunN{~~~~f~~~~~}\~^j~~]^~n~}|~x~~|Jv~j~u]j~zv^|Y~m~|\~~~z~^zrv~~v~n|v~UJXm~}~~n~z}~vv|t}~|v~z~n|z~~nNcv~~vn~Fqv||n~vvf^vZ}~f}V|zz~nznv~}~]~nv~~n]fzxz}^~nh~x||~~pZ~~}~~^y^}~zm]x~~Z~{~mfn}]z~V~nU~vm~nUz~~|~jz~z~~v~~v^vNu|~vnzyz}~^z|zzu|mhnK~fr|^x|F^zxU~n~mUvz`~nv~~R~c~r~my^n~Ek~e~Z~j|^iz~|}|\[|~t[l}in~|}r~z}e~m~~zbnV~~~z|eWvi~~V]x^zvuv^~n^~~uR~^et{^^~w^~zz~}~vN^~|F~|^}|~^Zv{vvnnm|f,False,9.0599e-06
~?@cFzL}~`~|yz|v~N~xz~}^|}~~kzUzr~u~v~|r}z~~|~]~vvN}]n~l~z}~lvt||}}znnz}fyty~nv}~~~v|\~~^~t~l}\Zzv~n|lz[l~n~NvzT~~~~n^}q}n]VnzJ^~z~~~~tnU~v|~mi{~{^^nT]^q~\x{~}|vJ~z}|y^v{wX^znz~|zvv~j|v{~~~fv\wXpl|z|~v~~~Z}Vt~mlZ~vm^|~v|~m^E|LVlvu}z~}Zn^]~z}Z~v^RzF^|nj^b~n~~{x~}l]|~}~n~q|zv}|r|vv~~cK~^~nz[f}f^zzn~jn|~~}^~M}^~~~z|~v~R~v}n~vj^vzn~~}^N}nZvuvryr~Nzn}~|^~Tzn~ms~~~hn~~v~xN|}yV}^^z\n|h~b}~y~ZU~~v~]~~r^jvz^~}~z~^T~zf}vj|^~v^~~xztu^]~~}[m^z{}}j~~~Znnx~ut^Ku~vv|l~Nj}~Mly{~~N|NZf~~^V~~V]^^~^Zl}~}nzV~Y~~y~y{~z~nz~z^~~vv{~v~~~~t~zlj^~v^j}~|X~{^zzz{\vnj~~^z~|`z~~r}|v^~ye~b|fvUdkl~|{n^fNk~Tqun~~]~zfz~~}nznn]zy^V|tzw^^~kv~~^~~F~~~^^m}lt^~~]|r}}|^dn^lzfYtz{}wznV~^l}r|x}vNzJ~^}}~~L}t~|~~Vm^wj|^~~~L~~N^Zl|~~^v~ynxzy~zfz~vZ|n\}tm~~}~m~vf\v{~I~~F^~lubzr~~yznn~}^K~e~^v~Z}~~^z{~sf}n^~vvdzf{~lzJ~Ztv~~\uzz\~}~~q~cnvm~t}z^vN}~v^b[zpn~~~n|x^d]~,False,9.0599e-06
~?@cn~}~~lI}ldVv~fNx~xtfZ~~v~~~|~^~L}~~}vv~z|v|]~~~~m^V}vz~z^XNm~z~xy}v}ff~}Hd}^m|jz}nFj^VF|n~^~mz]rvjq~}z|~v]~~~}rv^n^lx~~p}bt{~\s~l^rz~x|l~~~~~|^~^j|~]v~zn|n|~~~~~|~|n~~xl~jz\~^~~|}~l~]|zz~u|~kV|n~Y||vnF~~n~zvVbny~t|M~vz{mZ}h^wjy[\nv~rznX]\^z~z|fn^~~nnN^~zmvzZn~}Zn\nr}^~]~vt~mnznb~zn|zff]|N~}~~~~^njm~^t^NXvR~\n{~|~~zvvn~nfV^xv{r~^^VrVJ~\~~p~f~}N]~^~qNz~kL}|Y~m~}~jR|q~~v~~uy|vUizukf~v|^Zy~zx|m~vz|uJ~\~~jf^\\zp~z~_~~^j~~|^~~~~^t~{~n~~Vn^~~tuv}v}}Xvx{T|s~}zx|~vnz~~zP|m|zz^n|~~]{^~~N]v}|~l^|~jNvz}Xn|mtNNzn~|~f}~^nf~ra~^N[~|~r~~vr~v}n~Nv|vxA|~^\zr{z^t~z~vt~|n~Yy||}~v|~nnMz{l~v~|}vt~v^\}V~~|||{v~~n~zz]N~N{zxjvz[i^~z^^l|j}~~zv~~^~Rr~~z~}F~~~^~\zVn~dV~pk~zv~~_}^~svft]^n||{\^d|^~Z~nn}~Qrzr~UNn|\~~|f|\\^y~l^~rn|zzz~v~~z~`~t}^u}t^}~~~|}~eyZ~}~~|~~}vz||n~f}~^j~l~zt^~]~|~|vzv~qYN{|~|mVLN}fL|~~vp~~MzX^T~~~~L\}~mnvr^iz~z^{}j}n~nze,False,1.00136e-05
~?@c~^^~mY|z~~~{~t}j}}~R~f{t}vvNz~\v}z^~~ntlf~~r~Nl~Nz~Nxz~xyfz||~~~nt~zwn~rU~^z^}zW~nn~^Z~r~|v~Vni~p~~Ly~z|y~w~~n~zv}~~z~~n~m~]n[Z~nvF~zlN~~^h~v~~aza~}zhuf^qz|L|~^xnV|^~|T~]Ttmn~[}vnv{vd~}nz^z~~mZn~j~|LrF~^}~~Hfz~~N~~ndN~~|\Z~~~vz~~~hv~~^|~lvz]~z|}n~n^~~z\j~}v}Z]\v}zNnMw~uN\Upn~LjINnuzllunXnz\~zun~~rz~N~|zvwx~~vv\^~v|vlm^zn}hlVl~^~}~v\~~~^Lu{{^Nky|j{|vym~v~z~|rzz\~zfnz~~}~~]~n}zVj}}{~^n}~~~~}}~vlz~~~N\nN~~|||zm}z~\z~|t]un}fv}|Vu}~}~y|x|~~}LMjrxz~Zm~~~lv}|vT}}bz^nzis^~m|Vx~~t|}N~vT~}x~jZzz^~}~}~~y\~~[Z~ny^v|~j}^f~xm~}^nmn]}lNm~|nu|Mmvz~z}~^~~Mz~}~~Iz}mu~jv~z~Z~u~l|}S~Xnv~Xi~~lvZ~~v|~~~lV^vrx~~|Ylr^B~m}~~z|~}{f}}~~~ZnzvU{~|m~Df~ZrmZ~t~|v}yv}v|Z~{nmz~~~L^~~~~\Zv|F~~~}^u~u~|}~}~r}nz~~~^V|~|Jyv~}~l}~~jh~yrnq]zX}D\u~vx~nvn|nn~x^wNxuz~v~^}\u~^zevV~~zvN|~~~z~{]}~}f{~Dh^~z^~z^}viZzfynjm|mVs^nz[~|~zzt~]v|bj~~~v~t}^^~vX}|N^z^^y,False,1.00136e-05
~?@c|~|^N~l~VGwyw]~v]|~l^zry~~~Y~V~n~ezn~~Z~un|n}XzvZ~}emn~nLv~~Uv|nz}~|}~~~~^|]NmnL~~N|zv~}b|f~~vzn~z^]^vvz|x~^~~Zv^\~~}~QZ~N^~~kl^v~B~|XzZ~^zy~zvn}t|KvV~n^}~m~~T~~v~zz~~]Fyv~~z|y~^iu~~z}~|r~K^~z^~Z~N~k^}lnZ~l~|n}~zV^~^~|v|^]z~|nZrVzp~u}j|}z^l~V\jnt}m\nmmvdA~tr~n~n|u}^[vv~n~}^q^^~r|~u~Z~~|~^|{~M|tTZ|n~mn|]TJ||VMux{zf^v}\~n}~}}~xy~ZZ~]h~Nzvtz||z||ty||blvtzlr~uYvz}}~~m~xtZz^~}~VZzu~~}~N|khVt{]x~~}nl~^~~Vnznn|{}y~vm~}rlzv^~zv{[z^~~~~z^~wxT~Ljs}^Zj~}M^^V~~|m}^Z~n~~xN~}}yf~ny~zknv}~^{\\XjxuvM]zmy~}tV}txv~^jz|~~n~yM~~jx~j~}zun~\zv}^~}ufrt~x|y~}~^z~}~w~jF|zx~jLNv~~^zv~N[F}~Fnn~~^]z{i}fnNt|zu^}{~|~~~~zN^~V~}~~z~|~j~MlVz~}~^~~n]X~~n}ZpN~nya^~]z~~~~|n~r{~Vz^n~l^~nNz^~M~~~u~n|j~|}Z}y~J^~^~}~Zn{~~vl~xz]^|^~j}lVl|rk[~nxzlzv|^~~~Wn}~nvv~{Zv|~~^}~hmv~~n~|t}~nn~r~r~}vNn~~|n\T~~~~zn|fkmz~Fn~^}Z{v}zn~q~}v^vu~~|~v\}||^{u~~}||\}V}v|~m^F,False,1.00136e-05
~?@c|~~^}~~|Nz~~~~U~xvn~~nUu~Nv~uztmzdy{zvW^~uv^~^]Tv~j^Znr^]m~~]~{z~bn~vtr^~V~~r]v~v|{ryndtnzu~n^[q|zr|}msjvzd~jn~~t~tzv~|~|z~~~v|x~v~~~^~~~~]]n~z\|}L~~^^}}jvh~^||~~|~c}mnnnN~~Z~jrjn~innznv|^n`~~vzm{~nf^||jFsz}u]p^^~zmzz~~r{~vVv|dlVzF~Z~{Uzb\~z~Lf}R}~rZzzvZYVv|v~nvlvua~~~~}z~^~R{~~vLY~~^~nnvz~{]~~lz~|~f^Vr|~x}zfm\tzf}v^~~k}xzSz|vv\ljvx~]zn\vr}~{~~~uz~pN|||~m~~~j}y}g^vv|n}bm^~mtvvvN~~uhNzymnxsvv~~T~ZYj~~^z~}it}^~}}]Nz~yv}|nlz~f~~}nh^x~~{Nk~l|~~z^~zt^ur~}v~|Hz~~~fvv}{in~~^~}]~n~d||z}rNxvz~~~~vvhjzp~v}rNvt}{urt~~j|~~~\v~z~MzpVjy~m~}~~^ln~~^|~nv|Q^}|b~zv|[{|~mzVY||n|}~~vj|vx~}^}~TpZN^z~}^~~|znVzvv~}@v~~~V~|~~V~}}~~RYqv]Z~Vlv~~^~}znv]~f~~|~jJ~{vz~~}m}}^~|]\~\~~ni}}}zl~s~|dlf~}~^zl|]z~un~nl|vVn|[^v^nfn~xxm^N^^xmn~~~~|QN^v^vU~Jvv~~}|Nv}j}zvV^~{zvm^~N~^v~gnt~}}v~N~r}~~ZnB~R^~}~re|j~~~v~v|^x~Z^jn~z{^|~\~~Rt~~\yz~~\}vz~~{xv^~~,False,1.00136e-05
~?@c~]~nj~}ny~~nvy~|vd~t~y^Z~vVs||}nvt~zB~m~~z~~}^~rnnUv|mvY~Vz~l{n|}u~ly~~~~Ex]@nnz}YZyMN~|~zn]|}~rn}Zvb|uvzi~v~~z\~~~nr~zV}~|]uv~ilz}mz\f}~zz~zn]^ln~~}~~^~Rr|~^}zvlmNVzyn|^~Z~~[xR~~~|~i|m}~rvff}~~~}Z~}|~VvvZx~~~n~sU~}^v~ZZ~~~sr|~v~~~Vn~qdZ}z~}p~V[Z|n~~vJ^~~\ju~~|{~~~~z]^~j}hn|~vvt~e~z}}~v]vq~Z|Zd~n~l~v^^u]s{q||~~SuXxzZvlvu~bynez^jbvm~|}v[zff|v^~n~~^~rvn~~vv~~n}|~v^~~~|~zv~~zuN~i~F~zn~~x~~~~N~v~utU~^~nur~f~z~~^sZzp~]zqzvjL~v|}\}n~t~M{~~^|q~roN}~~~^NZ|x~y|zpLvl}|~N~]^|VrPr^J~}]^nVni|~|~v^^zUtyvnnnZ|v~{zny^~z~~~nr}~|^F]~~i|~\rm|pVzZ}^n]|n~yB~|}~}~n~vm~]~utN^~|^~~V~z~zmzzvnz~}z^z~~x~|~~v`jn~~^}tl|~~nznZl}~^}~}R]n~}vnm|~^~|R~ft~^zz}lzzVuvNV~~z|||~vm~vxz|n^jz\}Jn^~\i~^~n~}~~~^||z}f|}Zz^~~~~mf|}|}v~~n~vr[nex\~\~omtvr\~z^Hxxf]zn^z^db}~zv~nrvOn}lzvZh\~~~~}~|}~d^z~z^nZu~Vqr~~t~|Z~~z~tVTGunf~z~mny^{z~~km^jvR{|j~z~jtn~|n^^~~|S~,False,1.00136e-05
~?@cb~f{h|}~F~Zu|nyfrxx~IzpZ~NXzFm~jvn~vn~n~~O{v~~|~]t~~~u^mr|~|~~~NxJ~V|~Vv~pnz~}^vP~evv^vF~~Nvjn~~u~N~y}n|~~fq]Z|~~~b~}tsnt~|vn|^~^~v^Y~ju~~z~kzn~}jz}^~~|~]^p~f||l^z~~~^~^~~z~|~v~z]^~V~v}~^~z~|kv|~ZL~V|fn~~}~bx\|~l~jx~~z~vn~|jN^~~y~f~^|~m^v~y~z~}}|~t~~z}|{q\z~\~jKt|^~ZRZ~~K^Vv}y}mvl~}n~t~h~N^ny~v~vry~~j~~|^z}n|^~x|~Zx~|{~^vz~nmundv\~n{||~lzd^xh~^~|\^~~z~|}r}\V~yl~}zl^Bv~v}bZv|]|~qq~^~~vnVzn~w~}~}snN}F^|^~zmvl~zV~~R~zjY]~~~m^^tnGT~~RzLv~~~~~~~L]j}|mXtV}tvz~}N~~{v~~dx^}VFm|n}y~^\}jm}f~vl^nn^}~~x|~~~v|vtv~t|Nn||~\~N~}v~JUy\^}XrNv|^|~zve~|~lmff^j{^^~nux~nv^n~tNz~{ypmyzQ^nijy{~}\~N]}~\v^N~V}~}~nm~j^~^dj~~Y|~t~~|^~~n|jn~u|v~~y~j}v]}~yvv~|~v}}~|~~zv}z|~n~Ff~E~vvv~z|^y~}fj^|Anz~|k~d^vZnVujk~z~lvnv~|v\^yvnv~y^~[||au^V~`v~j}{xm}l~n~}}S~~~nnwn~~^~~~~v|]v|z|~~~~~{im}mn}zyz~jv~VNun]jfmis~~|vvnb|}n{zML}]{~W|~~^~~|hv~~uz~~f^~vz\lu,False,1.00136e-05
~?@c|z}~|]~^E~b~^]tv~n~V~vv~n~~v|~m|mnr|~ztnzzt}nv^z}\^nVvzn~b^~vy|}ZZ~^~Pwm|z|x^l}^\|hnv~~z~z|~N}}vumr~x|~Vvx^znzN~n}~~Vj|~vv~uLn|^nzU~rF~U}~]~ntl~{lnLNw~n~~~~yJmvN~sxz~nn^~Nt}n|~~~^}~zf~^~nz]y~~snvv~nn~{yny~x~vNuz\~^yu~ri{~zzV~|vn~~}Uzzv|~~ynzp~|~^n{NmzxlrV}z|vv~{^|~nZ}m{}~]y^m}^z}z~~zv~vN~zVe~~~zvRNnx|n~vf^D|^|v~~~^~pvZ~v^~}n~vz~XK~~~\Q~l}Z~~uvhm~~u]~~~~z^t~^~}~^~vn~G^nv}}d}y|y]zn~v}l}~L{^{~N~}~~^}|zZ~r~]y~{~T~{|~m~~kne^~b~{^v~tztz~y~zz~~t~\}~mj}[z|]}|~Z~nY{|z~XZn~jnf^nZ^wwN~~r|ZtzN~|N~~n|{|df|~~}~~vvv~}~Am~~}x{v\lQ}~}zVZZ|en~Jvpz|~bz~m~xp~Vfz}|~}~~]yl^^~Z~z~z~~\^~F~n}~^~i~~|~~^nzY{\RVn^~n}~z}[r~~~w~~}Zv~}z}~~~}tydrT|Ze}j~u~~|}~^zhRqv^v~y}e~~v~~vV^|Z~p~}~~~~[z`~}~zx]rnz^]n~~Pnyrt~v|Jzxu|~F~||^||e~~qv~|~r^~N~~wz|nx}~}N~x~n^^~e~|tZfJNgn~v~\~bnzl~^Z|~y|~|J|^vzn|l~|z~}zv}U}~~~n~^Tr}z}~~zxt~vv~n}^Jj{vun\Z^q~~|rb~r`|^~V},False,1.00136e-05
~?@c}v|^xz{}c~N{v]vx{v~n|V|Z~zv~|j]Z]~V^}tm]|^~J~~v^nz~l~|Y^~|~Zt~~jtnZ}~nz{nyz}~~r|^n~}~^~zdl|z~~UVzn\}v}~D||Zr}~z~~x{{~}}zmj~qz^v|T~~~ZZnlx}~^~~w{~}z}~}nuU^}vZ}~\nRy~||ntFu^H~~v~nZ^}~~ztly|^~zNmf~~|vFz}~v|~[^~zy}L^~n]~M~^fr~|z}zR~y~~v~wGnZ~vvx^nj{~VmRTL^r}n~Zuxn~~}]rZn~Nzbln|fj~z~zdu~v`}v~~Z^zz~~^x^vzj}~~^VH~|zvrlt~{]~x||Zx~Ln~|~|Vz}\sn~nvzezx}~m|^}}^~^~}z^fzv~^VzV~|Z^~~tSy~~l~~vp~|V\~~}]~^}N}hmvvz\x~r^~vz}~~~~~~V~~^v~Zu~fn}jzxvn~Fn~q~~|F~~~z^nq~~}f~z^|n~r~nN~vvz~eNn~Mn\wv^z~^~|{}}}nv|Li~v~~~vz{^nXt|j~vvx{jF}v~||vv~z|}n~j}~n~~~~~^~]x^}~Zd|^~~nrz~zj|}}~~]~mz~vZVM^^~~vz~y~}v|yr~z|}rtXxrZV~zwz~|vvbJntmnv~~|zz^|~mZ~Z~\t~^|y^|jni~~z|~Z~~^n~~vzmrzn~lu~ny~z~z~~`~]~~~}nZj^zUZ~d}T~~|}|nR~z~|~n|~~}~Vv^F~xPlV|}nnZnzY}~^v}~~u}z~^TZrzU]~s~}~vRx|nk\rk{y|dvtZjtvl}~zvr|]v}u~{~~u^^t|lx~u~n~v~||xzx~vt|^v{n~~~j^n~~~fzfz~zv~~tz~jvu\lnZ,False,9.0599e-06
~?@c^~~vv]y^~~~^~~~t~uY}nx~n^yvr|v}~zLn~~~~^n^jV^~}u~r~|yj^~zn~N{x~^^B}}\z~n|}m^n|kd~eUj|~NPvxwnP~n~^~iVzmu~~~|~fnvnzvz~nnt~~Z|IU~~|IfvZ~~^~v~ZR|~\}~r~z|~znz~vYv~|nmZu~Qytn}zv~njv~~~~~ez}NN~vvvc}V~~zj~}}^|^v|}~u~x~H~~~|Ez}~xzz~~fiXN^Zx~bz~|z~f~vv[nt^n~znvr|n~UuyzmjpnZ~z~^~]~}]}^}nzF}j~z|^~z~|J~U|~~z~zu~}~~~VZv~^l~fTfz^fv~n~^e^~lv~xt~Y^~nrzzmmj|v^|~|^j^nvrn|n~~~N~]yqm~~|~~~|^j~tvz~~|vX}v^z~vdv^~~[Vfl|knvv^~}~^~~Nx\Nvv}n~B^n~x|{~~pY^]n~evyz|^|^{l~jxzv~vxuLjz{L^~]}~v\oj~k~~z}kmvnz}^~~Njv~|W^zfv~|v~v~y~v|]^vv~|v~zv^n}}Zv]x~~|t{t|n^l}~q}~vXl~~^}n~]~^nn}v~~zzz~Zz}h^i^gf~s~~|Nlzv}~N{ztn^~iN~vlv~^}z|]~vn~~z~bz~lfvU|u~ynFM^c~v|r~~|~}V^~~|l~^n~~qv{^~UZ~z~f~~~v^njZ~^~Mn}|{~l]~nzy~^~zl~~l~z^p}~zmZNlTuv~X~z~w|dN~^r~~|^\zz|^zv]ynzzN~~vn~Fq~~^`v|}jwru~~rnu}vJy~z~}nxYnrnlmj}}~~~z~~z|~~z^~~VV~}~^~~d~N|nJ~}Ut~r|y}Pz|~u~~x~~}vrur^nN|Uxv,False,9.0599e-06
~?@c}~}~~x~~z}nR~n}~ym~vzv|^~|vz~~jvt}~lNV~l^^v}~m}~~n~L}~}agl~~un~rfzz~|w~p~zn^z{z\u^\[}n~^T^vz]^}~yt~]|lT~n~}\~vnt|~v~T~|r^n]^~s~rzd}z~|}^~~~m|j~[~V~~}mven~vU|l{{~~u~v~~~vNzN~{~D~~vy|zzv~vr^\~~x}z~lbnnn~~~|}{zu~z^M~y|t~~^}|^~~|vv~Zvf\xzvhiNZn~xlv}zZ|~~}z]h|~LnVd\mn~nv~}tlf~}~nl~nv~Lvf}~~zZ`xn\~^~zJ~~Mnt~zmv]~uJ~~r~x~zj|}u~fb|W|z|~~{nyw}~t~v~~|vIY~v|]ztzn|~^pl|~^f{~f|nz~z~~]Ezj|tfnv~}V~l~n~fxtFnMjvz~uzkvkRe~r~m[^~^~~~~v~nZ}^NnvvmS|V^}VF|jnv~P}l~~vv{~|^n~R~~mBl}mZM}~Y}u~~|uv~~z^|Xy~~~}u}~~|}~^~n~}~|z}~}~^b~~}X~|~z~|~~~~z~z~~LV}z~~FRVn{Zzzj^j~^l|Z|n~u]}[t~z~zw~yR~qu~zmynzut~y]fvrL|iu}^v^x~~~fn~Uzvtz|}N~m~~^kuuX|T~Z~sn~nnjn{tmm~~~m~n^~c~N]~|^f^\~~v|}}~l~zrb{~znz^~~~~y|bk^ny~v}~~y^^~~~v~[~{t}v~v~zb~~~Lh~u^KU^~^z~~mb~|nwzvr^~nj~~vj||vu~\{~~rn\|v^^lZr^n~~yN~v^v|\Y~u~v~|x~Zz~|~~~Mn}zT~}l~}s~|~|~Nn~~|~^jvn~etvn}~~~~iynvTmxz~,False,1.00136e-05
~?@cz~|mmt|}~|zn~l~v}^VJ~y|\^JnnrnX~z~wlj}~st|\~||ort|iz^~D}^ln^}|^|v]~k}|}~|^u~v~}t~Nz]z~T[nv~n~n~}n~|^~\~}vvx~z~F}vnPNN]]kv|nfnJ~}~zv^Vu~uzm~|z~~rzYy~nln{Zel}u~n}~}^n^zr^eu~z~~~|~]~z~{y~t|~zBh~n~ul~v~znvn{}bj~~|~X\u~~l\~mY}~^|~z~n~^f|^yzn~~nnnV]~Z{zxr^~~R}|}~u~{Zz~z|l^~nuvT~|uZ}|}tz|l~^||n]|g^}xf~^~wt~f}~x^z^~z~\}~\^VZ~n~z||~|y~f~ntv}ZzkWv]|vy~~~F~}xiVz~|~t~tzbx~}yfk}z}o~|J~}~LF|U\}v~~~z~n}~|fnnn|]v^]~~x~z~^[~~}~~~Zn~X^}nb\~x}z~{v~~jr~z~Nu}n~~n~~^N[~~zemvnZ~~~~~~~z~zu~mzub~xxv{^~d~v~f~}|{~|d~~mzr||~NVnm~N~s~}~}K~~x{z}^|lnz~n|umv~~|~~Nv}{T~v]{N^~v}wvzV~n~}~~~{~~z~r^}}~nvm|~~u^vS{}~yn|~~n~~~~^bv\nun~}[}vrrUN}~nVjfn]u~~{^~}~v^f^}Vz~Z]~v~^~}~^^}~}~H~n\nZ~]~]~}|~Nv}}~~|V~}v~~v^j~m}n}~~N~}~rysv~l~n~{uZ^V\y^[}n~nz~]vR}|nLZ~tMV^nf~r~neJnV~^}m~X|~Mnmh~~~|k~~nv^^zjl~\^~Va~~fx|Mnzunvs^VZ|mnm^^|v^\~n~t^~u{n}n]nvnY}~z\~{}|~^f}yL,False,9.0599e-06
~?@cz|x|Nb^{x~~~wf~iv~}~uz~yfZ^X~ZnrN~y~`}y]~zk|~}|N^vn}v~qnn~}vv|f~~z}zx|n^xnfzv~^~vje}m~~^}}Z~zIm~}n{~K~m~~f~}~l~~~q|z~vl|~zV|Tzj^jv~~|v~^r\Y~^z|}~j|j~~~utnl~^~n~||q~v~~~|^}}~zZvkv{}~zU~n~u~nvx~w}|^L^^t^^}~~]nZ^nM~~~{^~nvtq^^N~lzijn]z~J~~~~~}~|~n~|n\vl~}~~~t}jZ~v~lz^|vN^}}^~~z^||~o}nvv~nX|vuz^v}~Z~~z|uv}Mv~^~nr~|nn~n}fnA~||zyj~Mf\{~~DV~~~v|f~nWEfzvU~Vn~^\uxnr~~u~^l~~on}~~}|^^Rzv|}x]~j^yfx~v~~lz~~~^jpwNN{X^M|z~z}Xv^~|~n^{Zy~z|~|~j]z^||yV}yR~~vnh^~f~V|~|~|~pzK|tZ~ujV~^~Y~~~\f~yZz~zF^z~Tut~}~\z~o~xdmszNzfz~|nj~zz|x}}}~~~~u~^on~~z^nM|~|~}|}nisz]fnlv~~y~~lvn|^h~~~v~N}y~v~|I|t~z|~~|t~ml~~lzlN}mnvxvlnz~kzfd~t|{n~|w~~xu||bS^|l~|~v}zzz}Yz[z~|~~z~yl{nh^}~V^}~zu~~\}|~znju}~Ntjz~~vm~Y~|v]uf|xlu}lnZZ~kmnl^Nm~|uny}~~sfzV~~~~~~fm~kUV|n~y~vV~|^Dyn^n~z|~]~m~Z\u~~}~n~~~~|nkn}~vw|U||xxf~k}^t~liw|~~t~v~m|~}tN]v~nn~zF~v\m~X|n~vV~|~}~~~z,False,8.8215e-06
~?@c|n~nnkl}~h{n^e~v~t^}U]\~~}^~|}n{|v~~~yv|O~z|zh~[z~V{Vqdx^~|vnn~v~~|v|f{~|z~~l\~}^znvvzj~n~t||zN^~{~\}vUH~gr^]~~z~~vu}n}~^F]z~m~~T~|z}~}vZ~~~{~~~~m^~t~v~~i~~~v|uv||~N~NV~}vX~v~|Fu}^vnnn~Z}r]W^~lzrvzul]}h~n~n~nm~}yZ~}z~v~n~~f}~t|^^n~z}^~nv~}TNzF~uvzv~}f~}~z|~u^}Y~~]t{~|{v~MtN^Z]z}v^nylvr~V~~{r}}}Zz~}}~~i^~^T]stv}f}|~R~~~nnZn^~lv~^n{}~Z{z^|~~~|{}^n}}vfzn^}~y}v}Fn~~fr]~Df|tp~}~j}^V~^mnvqz~v}utvmev}nv~~}~~~{u}|^t~\^|~~~~~n|@\}u}~~~\}zh^b`Z|~nz[}fnR~z\v|Y|vB\~wn~^]~~~N~~l~nv|~^vs}~|n~n~x~y~~^|}~f~~~}~f~^j~Uyqv~}z~nw^}^~rz|~u~^~vv~n}T~^~{~}~n}tjrZ^v~fZ}r|vZwz}}}|zvf~~f~~^w{~~nu~n^~ztnf{~qv~~HfVn]^~l~~en|u\zV[y}H~vn~t~rz~vV}|N~ynv{|z~]nv~itxnr|iNKxzVl|~{N~~v~QeVrj~u|~nnVz}|dtjzvf{}dnz~n~~^~~|vu~~n~v~~nN{~t\~yr|w|v~{zZ~~nZrJ~~^n^y|f|f~yn~enp~~~b^~}~]ntn}M~Bnv^~x}~rd^rnn~^|rNf|~Yz^Vmzx~~~zm~~\}^~NZ^~nkn|V~~W~I^Nyt~q~y~zjzZ~,False,1.00136e-05
~?@cy^v~~~~~v\~~V}z}{u~~rzfnnh~||~v{^}nnlv~r}U~hzz}Z~~\^]~y~xjsv^~Vy|zl^fvx~]v\r{nzm^|^rv|~^u~~^~|rv~~h~iv^~V~}z~n{~vr~Jn}~pnnn~z\}}l~EW}~~z~}{|VnV~Vyqr~~~v~~fz\vnd}~^xy~vL|\N}v~]f]nzFy|f^wy~}~~|~\^y~znN~zt|~^jJ~jrzqz^}^^vz~|z~Em}l~jNzzF~~|^~}e}u~xv~~nn~~|~~~~~~vmR}tVJ~Jn~n|}j}k~~nQnx~nnXz~zvsnb~|nn{u~~yz}z~im~nvn~v~{vNzvz^z}~n|nj^~zEv{vn^v~m~~~zsz\n^t{]Jzi~vU~`tZ~~v\\v]~~~rc~~^zv~v}~zvj~^}~^n^ln^z~Y~|y~~zWyf^zZV~||~pzl|zz~Tn^~x^v^xV}M~vz^~~vzy~{zyRyV~^~vrrz~~s]~|~y~|^^j|~Xzl~f~kzNnXyx~~|f~\[\[[ovvn^nNyQ~v^jzVlZ\~Qp~Xr^n|^|~vvrM~^v~u^}~lzft~~njxzN~|}^hm}TN|~z~~~~U~zx~^j]~Nvftt~n~n~|n~zL|~^r~Z~|~]~|\m~fzjN~]|n}~~iv~~n|zv}~^e^~V}vnpRldzF\^~fzy~Q]~|~||n|]^~{nMt~~~~~d|~V^~~~zj~~vnN~yzfv~n~~|vfu}~~i~}~nn~~s~}^~~f~~~wlN^~~z}nTy~y~|z|^~~^mv}~~]M}~]~~fzq~~e|~~pv~~b{{~N^~~^n|~}X~^q^n||^{~zut~~jynzr{z~r~|~~h~z}N~vz^v{|}|n{n~~vn,False,1.00136e-05
~?@c|}exd~~F~t~d}x}~~p^\Vv|~T~}~~^~n~Z^zZy~}]]Vz~v}~vj}mv~~tn\n}m}}mzf|n|tZXb~t~{~jf~xvvzzZvL|e^~^~~vv^~V}f~^^^~~Vz~^n~^~~~]|n^~~s^~n\f~~f|^y~~^[fn}x\[\|]l}^z~xt^|~lZX~v\^zb|~[letvhPl|u~|~|~}fbLXx|~jfnmZ^|nw\~}~^~f^z^^vvZv~giv|~{f~Ft~^|rwydgJv~~^nu~u~vnn^^}^z|u}^~\~~v^\m^zkr|i~^~n}~f~~n|nv~~~nn~Ni~ny~~~~~|e{~nr~vM~Vvzs|f}\n|~f|Yzvuvn~|r~}~u~zxzu^{n}]Z~z|nr~z^}~~^^n|z~\lr{~~~~\^~u~}[vr^~wljlm~V~Nx\^^r~\v[~|~~~~jz~NRm~un|zVz]~v^nn~j~~y~{}^Cvx~z~l\^~M~Uz~v~^~zz^N~rz~ntn~~clzr|f}z~||~~~xi~\n~n~xz}~^f|xm~j~xxn\~~ttm~rn~Q^^nv~zim^}H~Zzn~zh^~^\]z~~Nn|~r\}f^^vv~^~}~}\~zn~puVu~vml~vvnn|^{|~~z^]x|~~|~v~xkirnv~yxnzS~~Lvn}}~~tlm|}Vfp~~z}v~D~|~l~~~fV|uv~~~^~zyv^z^~|~nnkt~vvzjXx~~n|~|}Z}~v~z~z~x~|X~v~vLV^m^|bz~~f~F~~^~~nXmjv~t~~z|z{zTv~L~~n{||nzz~|^e|v||n[|~^}dvuy~}z~w~X^~}~^n~^t|~~|}zmy^~}u^}}vzyZU\vnyNzrzz~}`ns~^}|~n}nz~v~z|x~^~|,False,9.0599e-06
~?@cnvx||s{|~yzn~mnq|l^No~n~y~^V|~xF~~~znTr~^h^~x|Vfo}d~~n~|~n~z|^^z~]|nZP~zzyn|~~v~nu~~z~|J^|~~zmNfU~~UZ~~U}M~lx}~~^i|mrV\z|VV|n^|yfZz^n~{^{z~mj~z~vzTrvZj~}|]^b|^x|n}z^f~nz~~nx|y~}n~Z}~b~z^~~~^nUi~m~|en~i]~rVyL~}x[~~~~j|x~~_a]^vv~junz}rn||n|~vR~~v^~~|~z~}~^}~}\~y{zrYj|~|z}|v~v~F|~v[~|Ud\zn\~^bj^nnZ~~~^t~}x^nnx~j~d~V{xn}vw|~z~x|zmV~~~z~knn|~t}z~U~n~~z~nfzzm~v~\~^m~zh~ZV^Z|Nr|n~~~j]~V}~~fz]yu~x~l~~jM}~~}~^~UzxMvz~ln^~nl|vnvv~~v}nr~~~}t~|z~Z~~r|v~uf~}|t~|l~~nnvtv}Z~~D}~~kJ@}zm^}}~NqzVY~l||jv~ZTv~{yrn~u~t~uen~~Zv~^Z|~|t~~|lr~zf}^|^}Xn~|^^xWn^lr^~N|vIzZxfzxz}~~nv~}~vXxm~vu]v~F^^nx~~vm~}uz\f]~~v^~aV~~U}~~n}~}`~^z}|f}~lzf}vn\}~~z~}v~v^]}tzTnv~Vvv{t~z~^Wnt~y~~rzu~n~v[^~{|^l|zt]v[}uf|~~N{mzZzZZn}~z}q~~n{~n]i^ylz|z~j~~|~}v~}|~}zft~}~r|ftvjV~~vRn~zv~~]]Z]~vkbn~]v~\Zz~}z\~Z~\~n~fnnr~z|~zwv~k~nZyhk~~~{u^~~Zyn~|~ln}tv~|~~i}|~{f~|~,False,9.0599e-06
~?@cU|~~n^r]rZ^~x~~|]^~fbVnN~~^~|n~~jlu~m\X{yJ~|~zv~n~|}~~~|~~|Vn~n|}~}t~~z^[~~~m}^~~zb^n|}^|~~N^z_{t^|~vnn~}~}~}y~~~~mz~W^|X|V~{|vnLkn~rY]a~@\}nX|rj~wzr~X^f~~z~~f~vb{tznlNxZ||~~n]n~vz|~~^vjxn]~vZ^n}z^}}|^e^{^~z^v^zv~~~~y~\~lrfn~~j^~~}~~y~~~~Nax}s~~~M~^nO~n|B~{zzNv|~|v\f^n}{~nB\~}z~jL~\~ZY]~\|~xfh^\^|{~~~~~}gvvpzz~x}~v~|}^fzmu^m~~U~~Vff~u^xt{~^f|~j~~wz\q~{Xm{~n~n|u~~lz^~~hv~zd~n{Q~zm~v^v^[~^m}z^t~~m~|^{^^zzV~vz^r|}fVd~Vn~^YqvVnw{z~Uu[Fri}\zkm~J}ml~n}nvn~m~on]~n~~|^}m~~~~z~la~~^^|~~~~n^iy~z~Nl|~z^v~n~~~{[~^n~|v|\Z~^nZ~znntn~~}~~[^rn~^e|z{}m~pm]Y`}~v~||zbffyf~ny[D~w^~D}Yr~|f}}~mVnnjsz|v}{~r}|V|z~~~v~NvVz^]~}y~~|~|{m~yz~vvn}{iz~^}znvv~~^}}|L~~~|zv|lpxNz~z^}znv}{^~nxuU}{j|nf~^~~{~~x~}uuv\^~~|}Vvzel~~~~|vpt^~Ujw\fY~`Z[~||v^z~~^~n~umn~^l~ZAnm}\]zv~X~^~~^t^^Nvn|~R~~~}jv^~^nmp}~~}nr~~~J}~v~^{^~^h~~~~s|Znv~k~^^~j~f~z}~~nz^~{~~,False,9.0599e-06
~?@cn~~\~Z~~Vj~}zj~}~^}Du^~zWzVn~tn~z|^}~|Zzjx|N~~r~~^\y^}L]~~~vu~~Ztnn]Mtyn^~}~~{x~j~]~fv~fnz}^|l^nJV}jv^~^^~t~~vYz~j~nv|~}~~~mt~^~i|~~UV^{v~~Unn}|YzRvRvzV|n^tZn^n~|F}|El}}n|~rx}U~~\}n~^~~~~}|y]GMv|n~t~~y|~~~Mznl~~f^|Zx}m^nnv~~N~~U|~t~|S^{~zyztfv~~Z^yn~~x~~i^~rJ~|m~~~}f~~}~{n~~en\Nn^|}m^y}~~In|~}nu~ll~Y}~~znx|{|nk~Nyr~~{}\V}tttz}^m~n~r~|~~~~Yvywp{^~}~vyVrZ^~VwvNv|xivr~~Tn~z^||~m~^~in]k~j^||~vnznW~vl|^[~u~R|luWt^~~N~}fm^^~~|l}~~~Z~f~Xnlm|\~[]~fi`}~N~m~}f~|znv^jj|vvy\VV|z{nzvevz~{n|vncnn~^J~x^~\N~~L~}znF~{z|ztV^|iz~n}}~}~f~zt~N~~{~r|~~]v~z^nvmnz}~^^^^~}MRZv|F^nV~~~~~V~}~y~xwrM~~~z\nx~~\~^[zun~|~r~\||mv^^|i~|h~vmz\m~r{u~fuv~^~ve^vvn~~^nv|~~Vzv~}V|~{}X|{nr~zvzv~|~~~{|R\Z]j|Xm~n}~^rzTn}z}~un~nZ~~yu\llu~~~|z|}zVf~m^~rNlmn~~~^~^~v{~}nnn~nvLp}\]~~}}\z~~|~~wn\~nj^x~~yi~wmv[tJu|V~n~~~q~z|{^xvsnm^|mn~~vur~~~f}~^~Vvfw~~n~^|W}tn~,False,9.7752e-06
~?@cx~|{v~~^~rz~xl|{V~~~~f|g~Ru~z^z~mM^uzvvzF~}zT~ryvvxy}~M^v~z^~~l^}}}zfza}|]~^tm\u~|y~~sn~l~}|~uv~vrN~~j~^v~on~~h~w|^~~t~^~mf|^z~~}bvn~}~~Nu^~v~^}^m|V]|xv{}~vj}uVn~^}niU|n}hV~z~~~^~]Vn}j^j}}|zvN~z^]~g~}~}|~V~|^n~m~vfz]~rs}~~Nbz}Mu~^\~X{}zsm|n\~~ZybvnyVzm{j|~v[}~vvz~~wn~}~m~}ng~~zn~~nmvvV~v^~yn~~u^j]nv}^y~Vsf~ZNwxvrn~~^|^~~NvM|~nz~~z|t\V~}`}~}}\n}~np~~\~~~~~~z~~~r|~~~Z}hjky\~|ZBbun{|n~l|zzf~z|^yzjt~|n}~~|rux|n~~u~xZj}\z|fl}jy~y~^~^uv^}|vz~~}\f~vvnVtvn~r]~U~vNm~~~z]^~V~N~ft{|zuw~~~^v[^m^r^~u~|~x}x~rv]xp[~|nvfZn~^T||~|rnn~|}v~un~uzxz|vMe|~r~~z|~~~|v~n}~~~n~]{~B|~m^z~~~|N^~x\~yfR}|rYy~znnvz|JHvvVvz\~~~]~z^z\n{~u^ulZjU~jv]iL}Kf{~x~~dt~u}~|lzy~~~~~^nnzmuvjv~nNvlu~vz~nvrZ|v~~~~en~t~n~^^\lUJ~u^m~xrxZzv~nv|}~~^vhh~z~vz~~~z~~zTp~]~Nv|~r|X~v~~v]~t|~|y}~NdJ]j^~~^V|znlfm~q}^fZ]^v~{~~|]^\t|n~~{vnnv]~~|f~uM~zj|}vV~t~mx~jqZv}|t~n~j,False,1.00136e-05
~?@cz|}V}~}n~nw~z|{|~|~~~~]~ry{J~~~|~G~vuJ^zvn{~}mVR^~|y]nz~|Y|vpzwj|mlzuI~mv~uljz|~u~lq}nr~~z|}v}^hF~u~|[n~~~znznh\|~~nZ~]e~~u~r~mSx~v~~~n~^^zM\nu~jv~~~}|j~v}|rjz}FNJrN~n~y~x~~~ltv~~|\~nn^\v~|f^~~z~|tf^~y|v^}n~~u~Qv^wnnn~~~{nuN\^zf]z~}~~~fz^~n~v}}nv~}tz~~Jnn|Zz}v~}~~vnvyV~n~~~~}~~z~prv}~^Ez^{|~~~Indv~f{l|z~}n~^nu~v}~}V|nz^z~vzvlt^~n^}~rnz^~|^Nnfzh~J|Z~mln~~tlN}ZvJ~Nzz}uVn~|v~n~n~~X~jylt~~~~`\~~n~|~~vl~nyZonv|n^nRz~{~|}vrXvuj~t}^n~{fy|xD}~\Pnn~}Vpvj~^~zk~~~v~u|~~~v~t~~~~~~}v}|yNyNz}^~v{^~~~~~y}^~|mJyb~~|~y~f~|}nmzi~f~Nz~}~N^vmdt^Ns}V|~^w~\]mz|hF^~~^^vvntunn~~p~mt}y}|~~~~jrv~~}Z~l^^}~Rv~Vzbz^\vZn}mfx|nttt}lmqd|~j~xnLnzmy|~~z~~n~~}|^}~v~U~Z]|Z~ntlx^z~zn~e~v~~|~y{~VnS|~~~U|^Zu{zV^^j^z~]Tzu}~n|\~vn]|zvmv}~VznVfj}~}v~k^^xz\~}U]~zmz^|n~N~~}}z~}Bz~~ev~}~zh]~fN~~q~\v~l~\~q\xy~Y}~~|Nze]vr]owVzzj{~mMjZ[xz~R\vn||~rnNzN^~}J^vzz^~,False,9.0599e-06
~?@cf~m~^}zqz^\~v~~F~|~^yV~~njTR~V}m]zfq~\|uvV~~^n~tnznnn~nr|j~~}zu[{S~~nmvZ}V]}}~~v|Zd~f^~nn~|}n~~Rj}v|]}z^~d~Mns~~z|nV[}~~~~rL~\|~N~b]R~V~}~}~}~~nTzf~~F^f~^^~~}~zl^Vf~~}nn|~|~~u|XvLz{j~~dz}}v~zye~|^^^j~^|fzzv|~N^~TiN~~~}~uzjhnflb^b~~~~^z~l~^h~~^znz~~}v^n~||n~`~n^v]~vnr~^uzf~^Z~}vnz^d~~^^}nvNL{~Y[~|~~xu]v~{zXZ~~~Rt]NR|}}~x}s}{}~[}~~~|u~~n~uz}|Z~v\mLV~\~v~~Bzt}~vv^etz}}~|^|}~z~zz^^zj{ZM|}n~~}~`v|v~B~nn|~}}m~~|MW|~~?^j^~j}N~Xytj{{r~Dz~fN~my~Vt^^^vRjZ^m[^|uf~nznU{~~^{n~~ywv~y}~vn~~~^^~NNZ^k~z~Z]~~~nn~JqbnlZ~|~z}^m}}j~y~|u}~Vz^}L{lEv~~v~t{[nl~NNn~}^d~fuEn~~~~v|~n\~}~~^tz]JVmA~n{~~}|^~~NFf^vzz~V~n}f~Z~\m}~v~U|\{~^zzziz~~~vRze|}~}~~vrv}j\|~~e~dr[}}~}~nvVtvnml~|mNx|zXsf~F|~}ztn||~ne]~fu~V~~|ylZhX}^f^~z}l~|~z~yv~^~d|dnt~~~jn}~z|~^z^zu~~vz}v~|]~n~~t}~~n~v^vf]~}~N~r~^}Nmv~~]^v~z|~~r~}~~~zyvvvpcx~\m~B|^}nnnv~j~^~nmz|nqu~^|mu~~~,False,9.0599e-06
~?@c]|~~d}}z~~n|mn^vNnf}v}}~~}nl{~z}n~uz~}Z~M||xmxs~z^t^nin{z~|~u~}]~~~~^~~~|trj~~\|~I~n}~~ZzJV~~~~~~nJ~F~\~~x\ZX~{}~v~~zxzfjnn~vnZzfmv~~Z~~L~nzV|hvx^~t~putuF]n}~{z~Nc}uyj\hnt~fx~kZ~|~fc~~~NzfyuG}vJu|~z~vy^^V~f~^~N~Ltp\~^vr}uNd^^wvZt^vlmZnVv|iz~~~v~pd[Iw}~}v~~~dY|nzz~{v}~}}fU~m|Rvf^x^q~|V|~n^wv~F@~jvmlm}z~|^n~}LZzv~}Tf~q~zvo~ly~Z~Yn}^~v~cv|~Nuuf~|v^~~~~~u~|nZKv~~rkE~zr~~^|]}~zib|X|~|^}~~|\~zzp}vnxZm~~|}]~jjv~~z~n~v~vff~nN^V}J~wvl\~Zb}n^nZv~~v|~}]~~~z~m~}]xszlrv~~||~}e^~Jn~~~u}v}~^}~~~}}mZ~vz}T|~~~|}n^n~|vz||Nj^~~~fzVj~}rt~~~{fZ^v||~~~|}~~t~njvx~yzdx~z}\~n~^^~u~~|imLZunm~z^Q{f|~~|z|~~~^~~vnj~nl~X}v|f~^zz~Xj[~nwn~Z~nvrxtezv~~^~~vr~lfr~Xv~~|~~xV|~}X}|~~|j~~f{nFt~}{~~~lNrvvvbltVv}]v]nvz~^tz~~b~~unl~n~^~nj~^f~~jN~|^~|f~~^z~~[yNv~V~^^~~}vft~rnvvUz^}]z~[~znn~^v|~^~vn~}~X^z^Z^Z~l|unL]e~N~^{U~iZ~z~]~d|~~~n~~n}t|Nx}~~|^~hxFt|}l,False,9.0599e-06
~?@cn~l~^~n~t^~^~vnn~j]~p{^z~~sv~u^VT~|}Yn~~~\~t~r~\]~m~^~Mx~{T^v~lFnk~~\~z~~|\NJlV[f~}{~}\~}v~}}~~|~~n|^~tm~^rquD|}^~m\~|{~jnbnH~l~y~~`~|f{~~L~^N~v^n^~}nnr~z~nttzvN|~f^^n|~zu^nr}c~W~v|vnzj^}dn|v}n^zlvj^fW{~^^p~V~vBtxZZ}\||fz]T^snz~v}hvy~D~~_z~^lW}ln~~s~~zyj|~~l~~N}n~~vV~vVzvvY~l|yf~nns~~^NmVa{}~~z|~lfvlf~|fv}z~~~^u}}~~L^ir~~~mrM\Z|zwnN~}~nlv]yF~N~h^qq\x~|Tn~~y~|x^~~~|~~~l~h|j~VNlv~~]|{n}X~}~~~J|M~zun|^}m~vx|y~vf|~~I~nvh^|~~fvv]z{n^}^Z~}~^v|v~m|V|kvm~~vn^^Nuvz}~~~q~}m{|^y^V~\~~~~}|]~^~Kmjun\~~vu|zlxN~~v|u{~^^~~}|r}vjlv[~v~v~~z~h|m^nnult{}~^~vr~Lt~\qt~|f|~}lv~~vz~~^{nz~v~n~~~n~~~~~~~~~fm~D]~tx~^~n~ny~h~|nvv~]|nV~^L||V~~vt^k~NTr}n~|X~n\}\~z|N|uuzn^v|}~^n~vZ~v~}|~|]jv~~t~Iv~p~}S}}~}N|~v\\{^}qrz^n~vtz^^NfzVRvn~~|d|zn~^~Nj~~^z]puz~~n~vv~tv~TJkk}V~l~l~jZ~jUs~^~|U~~Jn~nNn~n~t~}n~zzjNz~~zv~bZlrv~|~j~z}Nn^y~v|^~^N~~n^T~nm^}yZ{,False,9.0599e-06
~?@c|^}nv^z~~~FvK~}pz~n{^~~w^r\~^~n}~^|M~uyt~}]yHui~}^z|z~~}{~\zvWzb~sV\Zezr~wnn^~~q{}n}~n~zu|^jr^v~fe~uv~nT\~~~~^]~y}~z~uz~|t~[~h~~~~~x~~v~}X~]|^z|p~^~]}~~z|~j\|}^vjnvj~u~~nn~}t\mvrrx^^V~N~nwv~m~n\~~~~ztLnm~Rnn~q~P|Zz^xv~v\~Z~{vZn}v~~Z~}~u~|lvx}~v~fvV~n~nM~zmny~nj~|~|~\rtVV~n~}~~lzE^^u^}~mn]~yR\n~]Zvn~~ev~r{^~V}^v~r~|tvy|vnh~yENnv~~zvz{l}l~~zt~~~~xcn~[~~~vf~|^]~~n~~~t~dznnz~~~v^j~z|fnrJ|e~nn~z}~jiN~^|Ylr^|nPnr}zn~lU~{~xyf~}N~|z}jz}~|~~}|n~X~n~^M|Vj~y^nln~^n~~{f~^r~n~~Nf~zZN|vmd^trv}~~}|f~vxV~~~|J}nvZ{lzj~Nn}}~p}z|}v^^t^mly}~~~v}~vN~~~v\d^q~u|~n}z^lU~VR^~^\~z~|~v^~^~t^~~qxenzm~Y~^F~d~n^s~v~^v~w~l\zVz|^yZ~uflVw}~nv^~|\n~~n~~Tr~~V~tz|n^}|}fu^^vZ~n~~~unv}^}}cznj~j^|Vn|~u\^^u|~tq^~}~~^mz\~n\D~~j\nhN~{Fj}~~m^|~TL~]fbfflJ|~~pvq~~v\}vnj}~s^~}Z}Urz~v~fv^x~\~}n|X~~vy~|~~|jn~Wjp^x`}^~z~~n~tZu~~tl}|~v~^by}zvmX^L~[}~~}jNz~n^r}~}f,False,1.00136e-05
~?@ctn~}zy\xj~t}}Z~~f~}~n^Yj~vnz~jxj~|nzn}nt^}x}z~}n}~v~v^}y~tmzs~zz|~Rr~^~z}x|~^~|b~z{vz^~v{~^dzt|s^^|~~z~]vkvk~~|||m]z]}N\~v|~Z~}~~Rw~~jt~Y||~}~^}Rz~]{\NNv^zv|J~H~n~l}}\~|yy~z\z^~l~~v|~^Vz~R^Nx}{|uN^fX}un~lVFNjZ~zV^Xn~zjv~~^~Z~|vy||~z|}~^HV~szz}Jv~~~n~}^]~xq~zt^ln~}[v~x~V~^^~~~v|~^~~~sgjN^vv}~~z|~Ly~l^^m}}|lk[~j}vvxx~vn}~~mnxJty~|j~K~vy{}|]uV~]~r\vp~ljz~ml~^^^^Y|{b~N~}vnn~|v~~z|~vtV^~ZVzv~tZ}{lz^~z~fr~v|~~v|uz~^fu^|~lznfnVmn~xx~y^~^~|z|~tl^zltvzTnb~~~~jmn~Xny~Zb{Tlz~M~l]~V~~~l~ZZy}v~~~~lsnk]~x}~V~|^^~|~l~}v^tpv^u~d~~]~]zv~}~tZ~~jDnnz}^pZl~^}r[}\\~}~~}~~nmV~~rj~VVmVv\nnrM|mX]~u~D~zrY~|^~z~v~\~{zi~|Zzt]N~~~Ezf|m~~~Vyl}|~~Yv^~vzfnzV~hbVtJV~~}Z~~l{u~^{~m~^~]j}tn~^~ff}v^|z~^z|}n}wvrw|n^d]~~i^~|^|^~~uf~~}~~~n~z}z~~^^\}~Yv~f~|vc~~n{zxvz~~~~vtZ~Zv~Ruee~^~~Zrv}t^v~~|^~z^~zruzn~rnp~~N~\~v^~~~v||nj|~n^]}^|~}fU~z~~|~~|jrlvTniVv,False,1.00136e-05
~?@c~M^^mz|Xvx^Zn~n~vz~~~Yuz~~]~y|j^~~w|P~~~}^~u~mnn~un}\]~vV~}~~vYxZ{jy~^^mp|t^|~v~~]f^~~^y~~~zvd^v^fvZ|l~}fn|szn~|^^vd|x}~l~vt~|^^Vnllt~j}nc~~||~~]~]}mm|tl}v~T~~VjV^|~Vv~~Zr~v]{^MumFf~|z~Vx|n}}|x^N{yuq]~rnvv~~}qV^~~jvrm~^|znv~z~]zy}}^Znk]~~x|m}v|~zJ~~u|^~nn]]|l}vt{N]y~znxk}z~S~vf~yzD~^LjzyJ^~}vz|l\n~mxttj}~}|V~}~zynv{v}l^r}~zVznzn~dl~r^n^yh|~^vv~|~mv~~r|n|g~~g~~f|Iw~en~}~v^xn|~vnymvy~uz~~}}z~z|\~i~~|^\^n~~z}vYv^~~}d~lr^v~U~}~~~v^~x~^DZ~^~vzvv~l~n\~|\f||T}{Zz|~}~v}~~~~~UR~v~~}m~g~~kvQnr~~ffzVvz}~\~}^~zv{t\~n|~~ZnL~~zV}~unn~zl~~~]^~hvvv~szl|zU~z~i}jr~~~~xl~n|nLxtl^nt~~U{}jnN~~~~\t}nT^~|khv}|bv~z~vn|~~z^v~~Z~jv~lfznY}Z~^~lnrnId}t|~^b|uzl^^|^m~~~^~kUn~}|m|L}ne~~N~~^v~nZuv|v^^N~z~zv^~d~v~Vy~z~f~^^Vtn~~nrv~z~^{s~z~}v~~|k~~~~~}~n~Z|nl}\lU~un~zyjnHMZz^YZn^}~^~^\~}V}yZz|NyrnF`|t~nv}m~~Z}v~~v~i~M|v~q^~|sz^~e~ZJ~|}~^^~y^~y||N~,False,1.00136e-05
~?@cv~|v~|Z~Z~~~~|~yZnrP~nvrun|h}n~~R]~|zN~Nnsezuy^Z|xrl]~~V~mvv~^z~y~~xxz}n|~UrVqn|~|~}~r~j~}}~v~vfoV^^|n~zl~^r~]~]~}h}~~}~~^~Myfl|}y^tnlZ^xi~Vn~J}d~^{z^v~v~~\nz~VKv~vzf|yV||vb|z|~t~~zr^|z]}v|xz|v}}zzzv^n~zf}~N~\|v}m~ubvfz~~Tz~~{~v]t~]U{x~nn\n^~nVr|vr~lxY~x~~}~|zn~~^}l|~~~Zy^rY~vnf~j~|Z~fjnV]~{^znLu}n|{r~r}]~zl~}|~}~u^~fr|XR}}zzrv~Zr^U^^znznl]f~e~~~~x~zj~~~~vz~z|jnt|V~n~Jyv^N~~rvvhx\~gz~~|fn~^~Vn}~c}~Z~vz~^wxjzr~Yxrv~N~^nm~}^nv}Z~jNv~~~|n~~z~r~^nT[~n~}zrrz~~hF~X|~~r|zNjnz~~^]~v~~}|~tv^~|Z~t^~^z~|v||v~x~YvWz^du~yt{vy}]t^~zuhQNr~~uh~w\r~v~|xzv|^x~lv~kf~zN~~t^}z}mv~lh~}\|~N~}}V^nV]n|^zF~}|~V|f~xM{z~~~N~i~x||V~~|rdvNr|~|r[z^vzvxz~~zv}zq^T~x]rn|^}z}xncn|v]n~{l~|Z~T^l]~y}z|~~~zlZ~~~~|~}|{rxq{ynzn~^~~n^n~zz~|zkf~}z~~~t}~~~i^lv\~|yyn^~s~ynj~~~x~b~~^~}~~~vUlVy}~~~\N~|z~^~~z~}v}~~vZSR~l~~zZV{|}nr}MVr^L^LNNT~~|un~]~~]~Vzzs~z~Yf,False,1.00136e-05
~?@c~F~zft}}X~v]~F}~Zn~}~V]m|~Zz~~Nn~J}n}n~zyy~~||~~~~z|Te~v~~~{Lt~~z^~~Z^zTvfvy^uR^n\N|~yyvy|~|~}tfUXn^uW[zzz^~~|~~y]~}u~~|f}|z~}q~zMn~In~^l}|~~[vhvxrj^^v~~~^~nnyt~n}n~\ifn}fvn|~mZ~^X~^[|~z~{|~|~pZ{^~fn}_~~I}^r~|y~~z~~~~z~~Vn~vYn}~^~|Lq}vZn^\N}]bvNnz\~Z~~~}~~yJ]~zz|x^~yM}~Zz~nvzv~v~v~Cl}~e~|]ZF~~|r^Vz~^~y~y^zz}v~M~}^~p~~vznn]^|n~|~Vu|~|n\tx~z\}~\ml~vk~^qynz~~|{zz]vub^m~n~~b}d~zv}]~Z||n~~L~|l~~^z]{vzuN~~n]m~n~~}tl}~~~Rn||~v}mlFq~~~Z]~v^r~f}~~zyEvT~^Ul|~s}|t~i~j~|\}w|~jz|\vz~z||Tv~}\|~~~~}z~~Vznu|~z}yZ~~zvv~ts~~mynZ~}~~u^z~}~l|x~fLf^~^v~]xZhzzmt]~lwv^}|^m|V^}vGv|Ft{zx~wy~}~~|{fv}~~y~mzm]f~T~~l}Ln~m|zzu^~nO~xv||z~~nz~Vfp~nl\^fuZ}|~^n}Y~~|}rcv~n~~vNNvNnv|v~pnlvxtN~Zvny~~~Zz|}r~^^|~mx^}u~ff^~~^vv~\n^~\\zvvEZ|df~zz^z~~~r}^~~jnnvn~vt^r^zj~|~~~[X\~vr}n~yv~n|z^~v~{jxj]J}ZNL~\^V~~~dv~~M|~z}tz}^^}n~v}v~z~r~V~}}|n}\~i\]z~~z|v|fw,False,1.00136e-05
~?@c}]|j]|j|P|N~v~~qvkqvhy~zVz|~t\~un~|fv^~]n~]\^V^}rk}~]nz~~v~~~~fY~Rz}z~yl~|L{~vv~tzzvz~bvvZvf}~vzwvVr}vn~e}|}~nVn|}r}mnzvv~^v~z~~~^e~mv]uv~z~~f~v|^~yYun}}fr^u|n~e\~^fj|~~zZDSz~~~~|}ovl~{zm|~Zmy|~k~~jq~tn|tnZ~|~LVn|y~{tvz~x}z^n~|~^yf~^nbxN^unV\qn~d~~l|~f|~^}xnzZfu~~~V~}nvn|^vZ~s~^~n|~|Zi~UrM{]]mm~z{u^V|~~vV^~nzt~~~~m|~Y~fZnI\~y~~{n~z\n~~r~~~u~\\v|~^]t~\}~~~tl~~m~^~~^]~~rvr~ymz^|~zn~zJ\vmvt~|h~~u||qo~nZ~t~zn^kz~~N~yJ~v|FiLjf~nnzp}|~Mn|mN}nj~{^M|~~zf~~n~~~xvu~n]snM~z|kVnz~~d{Tx]~nUmu~~\~|~N|n^{ml~~^^|ryz||F^z~nv~~v~~t~~wUj~v{zj}Z{~^ZK^|xyxv~}~z~vmf}~~~~n~}s~~~v~zz~X|JnVZ~n]}z~x~~~U|}~~~^mqv^jF~}~~~]}~y^ylvz~~\~^~^z~nzd~^|~n~~z~~uj~~~{~l~mu|x}m\~}]n|^up~w~|~JZ}~j~~X~nvV~mzvV}|~|vyx~]nn~t~QZ{]~vx~~nxn}L~yzm~~~~v~z|~vvwyFVV^~Mn}^~}n\~z~iznnzn|vzzvm~}~O~z^v}{^~~|}|~LuEzz~v\mn|^~zz~v~^}nPLB~Z]N~Vzn|vt~|nznn}rYxz~}~~~|m^~}~,False,1.00136e-05
~?@c^zznx\}u^~Y|}~m\^|j}|vt}N}~~nzx}v^~~rn^k~v~~zNNr^Z^~mzu~}^m{j~f~v~zn~|zmZt|~^v~~nnU^\|x~Tu~v~ft~Z~~nf~~nJ~b^~Q~~j^zY|j~inw~il}Z~~v~|~~v{~y~~~~j^~~^ny^}}|~n~~Nb|}w~z~]~~~vu~m~~h\~|fM~t^~}~|~}}}~}}v~^J~{~~p~sNbfzmt}}l]z~v~{~~~ezvvvz~znyl{~zbN~z{]}^~|xvysMnn~~~~or~~~t~|{[}M~Vzz\ldmy|v\~n]vv~f|^~\}~~~{Wn~^zn~~qjv~~~y~~~u|j^~~^}z~v^~~dn~isv~^|~~}rl]~z}n~^~mn~t~vf^}^~~be~^mxf^Niznj~r\~E|~v~j^|}^VV}\~m~jv~N]~~|~}fvl~}Zz|~~~J~~aXr}}|nNr]z~npVrx~~sz|lyxun|z|~~U~~|Nn~kv|~~^}L}~r}\~zz~~~v~F}~vr~mq~~~\]~^~n}}}qz|j}}VnfMnk~~n^}~V~^b}~zN||rvl||~\xD}f{j}r|~]}~Zr}jNx~~rnf~E\~~mvD}z~VvL~tvX~~jZz~^}y^W~z~~~jh]pv\zyvT~n~~f~~~^~~~^rv~}}~y}xDnP~z|n`{s~~zu~i~~zh|~l~~~jh~|N|u~j^}ny~~|uv~}xlzrznvxz~~~Ys{~zZ|~v^~f~l|~~Mnnj~~~i^~n^l|}~i~~v~zvn^\~~N{~~v~V~\fnzjvf~z~pEnvm\t~f~}ncy}z~nL}~vrz~nZpu^^~^v~^~|]~}^nn|vu\mnFbz|z]X|y~~vm~~]f~}\xu^~Mj,False,8.8215e-06
~?@c~z~{v~~l~z\^na^z|V|~F~|yVn^VZv|\em}}zZyz~~Z~un~D[n~r^sz~~\r{}{~~R~xMn]y}~y|~V~rzvzdmnel{n~yvnV||~nn~RZzn~j^~~^r~n}~~Z|t~j~}mxZ~]Tjvnn\rv~}~|~|m^|}^nJ}~V~\Lx^fLyV~v}h]|V~~~ZZ~kv~Z~z}j~zm}]u|^~L^~~z^{~V~|v~z^~|~x~j~~^}~~~}u}FU~vNz^zeV{zxZ\~~fku}r^nzlJ|~~~fv^t~v}~~v^x~r||}~z[jz^vW~v~bRc~n|~z}}Z}Lnn~t~z~pv]Fvtv~v|~nNznU~z]z]y~Fz~n~}~~}^f~\~n|}n|v~}~ntlf~lz~|yt~|vvnz~~~z|u~Vk}~z~|vmn^Ds^nyX~~~}nv~zv~z}~z~~^hK[~v~oR~|~~|~xz~~~~~~l~|~V~|~qN~^^n|N}nRv~~^mmNknFvfrsn}^~N~ntXvVr}^~Ht^n~f~~^~ni^k}~X~|}~K~~x~v~rnrH~~tM|~nrvVmJv~}v^~j^|v~rnv^|~}~^r}Vz~vN|~vd~\r~^y~~~vN}J~vjynZ~~~~x}v~~~}vv\}~l~nun~~~fn~Z~{v{V~~|~]ZTn~pFzN~~~~Lw~v~s~|v^^z~nV~}y~}zmF}^}t}e]NZ^~xnx^~^~^~hzxf{V~lY^kz|vU~zn|t~m^mel|^~~}^|^vN~~~~~|~n~~~}nzv~fu~z^~}vzz|v{^v^n~Lr~}~z||\~~~~{z~B~n]Ztvp~^V^~Vj~v~yq{E~~n~nn~|nZNXm~Vv~}\[~rlzv}^~}nu}nn~~~~^z^|Vh^}wtTt}n||n,False,1.00136e-05
~?@cNtzvVzy]Fkjv~md]|~^~\u|lr{v~vr~Z~j~V]unJu]zin~b}P||jbX~}j~~^uN]~{v~~zV]^z|^p^v~~V~~~Nv~l^}j}~z^~z\~z^nnvf~^~~^u|}z[VK~|Mv~N|mtX~~h~zjZ}nz}~zV~z}~vz~n~t}v]~~|^~bv~~vZ~x~~]||~~jj{jyv^vz]zn^~}^^~^mX^}]vV~~}fltfNY~zPz|[^q~vLziz~\}Lmnq~~^~^n~}}nv~~ut~~mz|lft~~}]N~~zv~|x~~|~}{e~Z~^nf|\zv{Vf|f|}v{Z~|xVg~hZlF}T~t~|l|m~e~vlv~]~~|^\Zn~}~nzz~^~~v~j~}zrz]nRn|t|n~l}^znuv{vNr^~zzzun~~jhv~|r|v~^z|{{~l||zzH^~zzV}v~f~~L}kNJuz~l|zv~v~tnyzv~^N]n^~~~~|~x}z~|m~zz|~jzyt^^~zkzuzrUzvv~~m^b~N^~Z|Vx}~n~tn|v~vjV~~~vln~~~|}h~tvz~z}R~nv~n~f|~^Z^xy~Zq~l~F|{E^~~|i}~t^^~i^}~x^|n~^zz}]v^ysu~j|~vn~}sn~Z]n~~|j~n}vN~~^n^~fzut^UV|vz|~~^L}z~puezx}Z~~Vz~n~z~}~z~~^~fz~v~z~}Vr~[h{}|v~bX~~^v~|z}~vmV^~}~r~~vx~y{}Mg~|\~^h~nn]^|~~~v||~x}~z~~vz~~~~n~~~juuv~~wf]z^^zY}~~^~^~~xn~}~m}~~~uV}^~^~|~{n~nlg]^v|t~v~]|R~Nv~|~^~~h~jZy~^~nLT~\yvVYz^~|]]~}n~~v]ZmVd{^~RUWz?,False,1.00136e-05
~?@cx}~^Tlv]^~nZY~~v|]~|~~~f^~~~|f\Vvw~~vn~q~~}~~v~}j~}T\~~~kv~^~~{r~m~~v~z~^^~}zz|{Vzv~|{~}~~mT~n~~^}~T^~f~~}Z~~H}vXI{||\nz~fn|~in~G}m}{~miZlx~}|z^}^jzj|~v}|v}y~z]n~~V|nvzp~nv|k^v~~|fvt^v|~v~zuvtYv~|vn~u~v~^n|^n|~z~^f}[H}n~}oN{~~Z~~v~vq\|v]r~~V~EZ~}v\zn|~n~|ty~zn|kn~k~~~~~}~b\}^^}yjv}~nvlQZv}nT~|lHn~~}exv~~v~t~zWx~~rt^]n}wnx~n\jm{fu~sJY~~|~~u|vz~{~Tk^u|~^~v}l|ut}vt]J}~y^~{|r\Il}^}\MT}~vj|^}nL\y~nx{xL|||~~}V}t~fzZ~[\~|r~Td|nnvU~zx~^{~~V~yt}|^l]jv~N}^~~~v^|n~\~}~}|zRb~~]n~n~~Vd^z~~~n}}~|~fkfv{nzLnvNj~nN||j~kz~n~^~z~N~~np~~l^vvix||~~~kj}~~Z|~~j~\|zjfL~n~~~rnqzl~~v^n[rrn~~zy]N~|t||}~^zxd^\}~}e~y|sz~~~{~nv~~n|~|uv}}v~~\yz|}|^|t~xNf~z\|~^Z~~^}}pVZbdF~~~s~`~r}^~fzVz~|~Y~}v|Bz^Jnzn^mxvn~~^ry^}~~|b~v~~j{}~Rlzymn^]Z~|l]vr~m~N~~\p|^N~|}~ni~n~~~nxl}Z~\^v^~~t}~uV~|v|||n~m}tnnd~n~r}~~jQ~n~^~~~~|^zb~u~}^m^Revvj~uxn|Dvmj~pRn~}n^~nJ~,False,9.0599e-06
~?@c^~}y~Wz^zy|~~kzZn~x~Hlhzq~rnz~mMxm~ny~~f~~t}l~~n~jt~zLYv~nm~N~u_~~nEKnfv~nTV||z}w^~n~~^n~^v~l~~~zz~~tx~^n}}^tcVvvvVj{un|i|vvSnXm~~r~~xnv~|~^mjvv~~xts~^\}|Z||~z^jfE~Z~~Mn~^~~num~~jm~~~z~^vr{rZ~xm}n~~v^jj~v{~~}}z|r^u~~~~Y~}\n~~x]j~|~f~~|~~z~y~jnz~ZvNy]^m~n|vqJmz~~|~v~~^~r}s^mv}||^fv~~~Zmvz}Zyzf~}^}vhm||~~~~}x~N~~vn~zn~zvv~\~Ir~}xMvz^vmnvt~~^~~nv^|uy~j~i|dt~z|~nz|t~N^~zr|nfn~~uvvVNvtLZv|V~lp~~jvh~zN~~z~nZ}mn}yXzBt]qj{~~}z~m~^^n^{z~|y\~}~|hZv}~v~{~v~y~~~~n|}|vmn{n^uvePn~r~T~n|}z}~|~jn~~JMj~~A]yuz~ljnjK~v|z}Zv~~~z~^~m}YnV~vnvz~~|[~|z~f~~~~}~zV~~^sN|z}~~D~Jx]|vy~~njxz~Mv~vuvnmpz~}~zx}nlf~n\~|nm~vfvrj^V}sv|}rNz~zylnz}}YnVx~n^l|~|x~^rzvrxmnn~ev~m}~^m~f~f|yK~Z~rz|n^~}~v~^z~s~^nXx~~n]~^j^~nizn~zv]t~~n~~n~]Rn^^nv~}^vvvv|et~~~~}v~F^^uzzx}ZdHl|zvj~~yzvz}}~Vr~v}hz~Uvvv~^tl~~~^V}}u~l~~~V~m}|vH^}t~|v^zsnt~sm~|lz^{oz~|~nwlzVyW~M~f,False,1.00136e-05
~?@c~~~l~j^]~z~Z~|u~t~^^}tu~n~yL~Y~z~Vz|~V~z~rn~}~|~~zyd~~}lV~|ruZ^nd|l|Vn~c{x~~^~~~^^^a~V^`|~nvzl}}^~]~~q~~r\~\z^MlrvdL|~v~Vy|~uz~u}[y~vzvu~r~~xzr}~J~\mM}~~s~{zF|Nxt~^zz~~~n~nz~~hmz]^~znz|zN}VV~}}}~~~^ejzt~~zV}|}~e|[uj}~nxzn]^~rn~}vz~^~vxzn~nv}~P^\^~vhRpr}~nZ^r~~~At~vnq^n~~^yvNv~~~c|L~~~~Z^x~~\u|~|{~~]z}r~P}~bx}^yk~yvqzrV~~}~~hXJ|uzn~yn~x~z}}~~hx~]~Rx|~~Z|Ngldm~Jku~mv~m|z}N~nv~vtr~nn|v}nnv~\|}~~n}Iuz~^nf~~~~}y^}~~|~{~~j~~~~~^mZ^n~^|}]~T~~F\t}~{wymN~u^^Nk^{}}}vX~~l^u}^~ynZ~n~y~UR~euz}~q^~~~@vFv~~iruk~[fzwz~\^zxNXVxz~^Iun~vv~nYvX~~M^e^q~|~nv|nz~z~xy~^v~~}~zu~~u}nNJ}^n~~^||j~o~yLvVzm|V|~wv^|{h~~vz~~v~~|~|~`z~\^nmV~~Z|Y~v~^^~~^t~n~u~N|~z~}|fz~L{\l~{xF~|p~~vxrt~\|v~r|L~~||]hzv~~~zzJ^U~|~~eU|}hm~^~~zn~t~^l~n~r~T^}J^v~tw~^~n~zn~\~}~n|~lXf~~t~Nt~~~vv~~l~~{x~~V}z}~vtzs~\wj|^]^~~UN^h~^}~nn~MP~Nq\m~u|~zz~~f^x~^|\m|~Xf|}|vv^vn~~,False,1.00136e-05
~?@c~~n^nz~~n|in^~^\]Vny^v~Yt\}m~~lh|~z|mM}||~y~}~z|~~K~~~|Vjjqpx^z~~vnmr~n~{ir}^uz{~~vt~n\}jz|Zu~~|~z~~~~x~^J]m~ul^~t|~~~~^qu~l~v~~lz~|~^in^]\tk~Vn~q}~~|v|~n^s|bv}~~u{]z|k|{yZ~it]zMn|s~~]zn~}N~~^\r~{~f~^Vnr~Yn}~z~|~fzi^~zvuf}~^nrn\\z{~^u}V|nnm|z}vf~}nv}~Zz^z||^n|zju^[vxF~~`xp~\|~~|\i~^~m~|~}vHv|m~~{~\~Ft~ves~^~k|lz~~ZV^|}uvnP~~^|n}V~j^~|n~zvyz~^n^fl}kyd~~m}zmz~z|z~yz|Z~n~~V~n~~zz^ZTq^v~|t}n\^rlj~u[r~|v~rr~j|||~~m~jv|~NV~^Nx|jv~z}u^~dngiuj^^}}v~tt~|}~t]~~{~y^v|n~nni{^ze~j~~\nzz[^}P~um~vM{|~~v~}~t|z~zx~~mX]x~^jjmt~m}Vz~~z~~v^^~z~nf~z~~|~zB}~vmu~z~]Nz~}}Z|~f~N^y~}|~]nznfmyn\~`nn|j|r|vv~|vz}~[^jm|yv~}n^v~V~~|^|~z~~^|}rm}sk~I|}z~~nvj|nu~}}\x\|^m|~}vvy~|Nn}m^~~~~~~|~]tN~~n|u|x{pH{uf~t~zsnlz]^xquv\qclv}~v[ln~~xv^~un~n~z~v|~Fvv|lnl~d|zz~zjvn~f}Vx~r~n|nZ~]Mm}~r~^pz~zxvvj~]~~~j~VL~|}~~~lz~dvVJ}z~|l|~Y|~nV~nv~v~n|~|^fX~vt~~~~z},False,1.00136e-05
~?@cX~tdf|zV~~}hjg~UVtltvv\j~~}b~my|~~}nynfMvunt|ru}|^enn|j~~zmf~zEznY~fvn~mf~v|zz}r~~vvZVyv^~z~nnjmf~||~oyRR~j~~~}N\vt~~n~~~~ztvr~~~jZu^n\~~vZyzvYoxZ^fr\|~~mnzn^xz}~{vzxvz}}~^~~~Nz~nj|^~~ze^lM~~d~}\t~z~~nv|~^x}J^^|~z|~~p^Tv~vX}~^~n|f~zUhv}^~~n{~n~r~zuU~dzzKf~y~~~r~|~}nv~~{zm|n\|mv~~N}nq~nvyj~^|^jj~|^vUtzvvm~~}~~v{}y~^vy}L|vN|znu|~Z~~y|}vnvv}n~]~V}lnNl~^~~zv~~yfwxmym~~D}~]~~dv{nf~~~~nvU~}z~~|nouvr~v|h~^|j~v||nn^nnZ~}~~n}z^nvvZZ~~~}n~~[z~~N|~v\{}n~}~~t{y~~vRm~~|nz]x~i~~n|z~lr~]Vn~Hw~~R~n^~{zzv|zv~n~d[m}^Ri}|~~rtllvv~z|_~b~vi^vvvctz}~}zXmqml~~~n{vxn}jt~~m^\^[v~fv}n~{Zo{^zxf~~^z^^~}~j{~~|fxz^~H}mv]vUwm~^~^Zvz~~n|vz~~~n|vV~Vtn|]}N^~~~~}j^|~mv~ee~Zvnv{v]v\~l^yZ~v}jn~vN~R^Zs~z}}]vn^~^}}f~~~v^^}N~~|~~|mr~~zm~Z|~|^v|z}y]~~n|v~lx^}~nEVfSxx~vvNvrzut~}r~~~Nvun~kpzN|~vT^~Z~~v^~pxYvx~~^z~vfnn^V]y}{~~~|~~}nJ\x~~{~~z~~}my|n~pn|zr~|x,False,9.7752e-06
~?@c~]~^}nf~v}~{z~vLn^|~wrn~~v~~~A^}bp~~}~v~x~v}\~~}|xt~]^}}vV~VXlmZ~}~v^|^jv\{m\x~f~m}~}xn~nUs~zmzn~u|{~hxvtzz~~z~v~~~~N~vqn}f^~|nZkqvvz\^yjx|j{n]~kt^VZ^U}~~^yvni|n~n~~~~|z~v~}zX~}r|~v~~}~v|~wyv~r~^rn~^|yT~z|}}|zn||nj~~~f~^m|X|vTM~}t\u^^~nv|yzs~mn|vpx~^~~|[z~zvvvq~rt|\^~~|YuV~rvIv{n{n\~~nbzlm~^n^\vr~|F~z~~dv[E~dZ^j^y|~]}~v~F}^}~~~vntzzfNn^nv~|v~ne|T\~Jz~Jz~y^~|^nU}~|k\vtVn~v~w~~~l^~v|^`f~|~}~|~^~}Z\n~zW]l|{^w~~Z~~~|Vw|v]~ntv~|Spjr~|zln~~|z~V~~vf~|f^^B}vvznx}~^~~r|~ut~zuv^vr\tk}e^~Nmnyu~}~~~X~}vmN{jfv]v}~~my~~Vm^Y~~^~}~nm\Z}Ztt^t|~vn|dk~~z~u~|^~z^}vf}|vvV~vU^g^{~z~|{~z~}zlDXl~n}~v~Vf|v{n~{}Z~T~FzZuy~]MNZ}|n}vf~~~n^[{~rnv~tN~~{~jv~|Zx~~~~~~V^~Fju|v^}y~}~xZ}zf~~^emuv~zxd~\|~\~[~z~l~}}n~~\Uv~~|rv}~~~vQTw~~~Zb~}hr~~Y||VJ|z~E~b|znnRx~v|z~~nj~~vN~|[m~|~nn^m~z|y~}nn|~~vu~unzv{~v~j~zrm||~vm}~~~\~~q~~~m|{^~~~~MBm~~v^nmy~~~^t~h,False,9.0599e-06
~?@c}~}}n|v~tw~~~~}dxv~xU|v\x~~[||u|f~~ewn~^~}n~~}~vU]^~vTz~z~nbnVg~z~uNrMUr~m}Z~|||}^v~}^|~^|~~l|y\jv~^fj^v~}v~~V|]Zv^nlv~~zVj~N~}r]~n[x{}}V~n~zv^~}}rnxVx~~~nT^{~|~^~~v^~^}~~v~R}~t]~n~nZ~~}]|uZfv~~~}nz~}~~kY~n|~n{z~v~Vzx~{nN~}ddv}y^z\iz~N~~^~zy^f}z[xVf}^~v~j~~}~~irn]Z|vVv]~~^~~}l}{ty~|^~~v}nE~zV~jP^z~Z~^]^jvZ|z^Zq}fb~yT~^vz~}|^~~~~z]j~zy|~nn~~y|~^~~|l|~j~}~t~{Z~IVfv^\m}n\u~nZq~}|}nf|\}~~|r~tt^vvbr~~m^}VRvYmn|my~{jzvvV|]~x~~nn}Jbm^v|}~~v}m~~}n^x^r~~|ef^evn~~}N~M~}}vrN\~m|~|N^n~J~|g~|~nr~}~n}d~~lz^vvyx}^v|U~~zN{nr~zjztHiV^jtn~nnDV~e~~b~~UfPn|^~|y~v|z~\~tv~T|~{v^LTUlnn~r}~M|~v^~nv~n~]~~gq~~l}nzvv|~l~}|u{z~~]t~fv~|z|^nv~nnurfnbuzv{~f}~Z~~i~dq~~~^z}v~}|lMnHyz|~]}^\b|}^~~v~ty~~xvn~}[X~z~~|~j~\z}~|^N~{{Nz~^{N~~^urfnS~v}n~nvN\}]~N~vz||Xv}t^~szv^x\nh||~z^|~l~uTz~^~|T}l~|u[n|z~zu^|w~v~}~]~^vj]~}vfv~]fn^}~\~z|\Tsn]}~vn~~|vnt~yn,False,1.00136e-05
~?@c|^^Ft}nnL~i|zr|~~~~^~zl~v~vlvz|~M}~i}j~^z|Z^vfkZz~~|v\lvz{~h~wz^^}~Nfnx^~|xnvrRzn|^Z~~hzn^\^n~fry~v~f~~fT~^|z~~k~nd~|~nb~~yr~vv~m^~J^n_z~~\|d|||VuZ~~\~v~\v~~nr~|~v|n|x~zz|zh~v~~wZ~~~}z~~^f^~p}qXuT~vr~p^nF^~~~~|~~xVl|{g^~~~n\}\nf|]~~I}~~lj~v~}~~~udZ|j~~~|Vn}~vMNvn}v|~^ztlzZ}~~x~mn|}rn\\z~x~~~~^Vvlnz}~x~~nx^qtv^b~^n~ypnTp}n^~n~~|k}~}~~nz~~[~}TjZjzvyumnb~~}~^~`~f~X~sN^n[L~N~}nz}l^}~z~Y^iTv^~y\}~~~xY|f^er^~~~^~n~N}~V~}n~|^nl~~wz^~{ym~zy~J~{znVrjn}nfniRZu||u}UU^n~N~nz]~~zlR}v|Zu~~v}~xl^~wn~{nz}|zvuR~]^unZx]~Tr~}{~}zL|~v{~T^}~ZZ}fv}~^^d~|vn}v|zk~\ty|Z}~f~\~~~l]D~}^~wv~v]zjRz~fZa~^^\~rznrnzr~{b~}zV~v~~Vzjz^~z{~^~|~Fl~R}z{^~~fz|Ev^f~vRn\~n~}X~}~v~f~^hZ}y^~j]x|_x}~~}Lf^|\|~|~v}~^rV}~nkz~T}|~~~^~nvvZz^nju~q^hjVz~{n^dL}u~y~[v|^~V}^^rzzz~~~~~zyyl~~z~zz~~nnv^~^hz}~~nnvnxrx~b~s~]n~]}~mnnm|~~Jvn~|~~~v~~~~n~^m\~z~unVt~u~y~~Uzz|xn,False,9.0599e-06
~?@c^~{~l}z~~n}zlV}~^vvz^]tl~|~fn~~nV|[~z~\u[z}xff~Vju|Zzvtvf~}nf^n~n|}~nFmz~|~~jv~yn~n~~n^n~n~z~l~~^~}QJ~^~i~xn}j~r[zvN}]z^~}}\m~~\Z|^}V~}~N|~n}z~^]Y|^}~}Nm}}~|}~n~i~pR}J}~T|slzQ~~|Z^~n~}~~^~v~~MnntenmmhvXlmun~}^~u^m~^^emm~~~jv~^v~x~~^~bYnxjtz~vz^zzw~[}nv||j~~v~M}{~Rzrv~qnZz^~fv~knfd~~nnvV~nyv}^\nV~~|~~tN\|}Z~Fy\~~~Qvv|~x|vjnnJ~v}\k~Hwzl~^~{~vnznfzV^n|~~ni}Xz]y}|^i}}^fT~v~uJ|v^~V~vnvz}~f~Y~{z~~b~E}}vv~n^unn}~~fyz[n^|}~~m~]wm^}~z^~~|u~~f~v~~~n^~n~z|t^lznjf|]~tnn~^|q^uf~~F~zd^{^~z~j^v|m^~~[~r^vn^~Nez~yz}q|||xnu~}^Zzzv}~Lv~~zz~vzEz^V}nn}}~|v~N~tn~~~rz}j^vR~v^vzXx}nz~~}xh~}{~~n~z~Vm~j~}d\zZ~~|^~f|}v\}~~~^Xv}zZvf|xnzvn~~~xnf~|~~~z~z|}vfVX|}^V|}L~mzHk{r}~bN\f\|^~M|}~y^ln~u}y^~~~~|]fj~~~~}ZnvDrf}z}n~Z}}~}nm|rnV~nnvv~~|~~~zr~|]\`vF}^~v~Nt{zV~t~Tnvt]z|x~ym~}~nP^n^~n~xvvvvd^P[nZ~ur`jle|^\~}\}~||sZz~y~^kj~~~~n~~f|~z~|z~fV}vnvvt,False,9.0599e-06
~?@c~^~~~wv~|^~n~~f~N]~n[n~j]|}~~n}}Znj~rl~||~x~}V{~jL~v~}~~mzsX~~}^~lnzV~~~}~~~{~u]|~~nnNm\|~{f~~~Z^~Lu}mpl~|nv\~~~nl}\~~i|~z~hlzv~y|n~~m~v~^|R^~j~n~l}~]~tl~{vZ}VZ}zhn}Z|Xhzvz~unzu~~^|~fr~]{r~~|k~~^z|R~k|Vn}z}nAfur|ny~vv|V}l|u{}tudQk~~yyV~m^}~|Vznj~j^Vzh|]jvn|^~vn}}|]]^Lzp~}]tt~{jly^n}z~\~Tv~~~~z]~~l\~~rxvZ}}kzk^~~n~\x~vX~jm|^ynz~k~~{rxXx~^w]X~~r[~]zLl^t^~~`~{z^zr~~zv]uxT^mz|~nz~~v}nlu~x|^z~~~v|~~n]e|^\~~e^~r}|~vvu~}lz~|Mb~x~s{~zvznz^^vv~n|]k|gzzl|}^^m~~vz]~Tz^nn~~z~~mN\vb^~~~H|rizun~nV|~z~^~|m^~}znvj^zr~z|~hn^~xNnny~zvzu~n|~z]mwx~~\]}v}n~~tf~}|~^|xv~^u}wfp~^vxve~~p{l~^vnmvmv|^Zz{lSn]^~~jrv}|vv~n}~~f}v~nV~~z^~zv~~~rh~z~{|mmVvv~Lt~y~}~|~|~^|frvnz^~}|~|~V^~v~~|~kN|n^tZ~~}x~~~[~Q~^[z~}^|v}}{}^Z|zz~~Jxv~~x}nY~|~|~r|||~z~YgR~|Y~~z~~~U~t}v|~}~}~T~^|J~Jh~|I~vZzFwznYNnf~n~lv}~~~|}rn~~n~b~Z~~~~jzutJ}}PFxF{~~}^]}nzw}zL^}z~|^vN,False,8.8215e-06
~?@c~zFZtxn|jk~}z~s~krNm^vK~jvn~~~v~]zvm~|x~}~v|^\iuZ~F~~~~}z^vf}~}hyz\}|~V~~j^~~^^r|Z}~nn}p||F~~n~vN~V}}||~~nz~jl~Vv^~azrm}|{~~Nxndn~~n~~]z^~v^~yy^nzz~x~J~}~mx\|}^~~vv^]jZ^v~j|n~~~~|^n^^~]~}z|~}^x^p}}fvxJ~vvzUz^n~~zz|^uZnz|wWvn~|}|N|}ZN~~zn^jN~v~NZv~^y{~]z~Q~}N]^rOn~z\}~Nl~^~ft}y^~z~~zZ}nn~t}m^vp~y|~}j~}RmJvxF~]~u~n\}|X~N~^~~u~R~Zz^V}ry~X^Nzwu{n~iZxvNe~^|^j]nr}nv~|}~tLojN^N~x|n^~^~vjzl}~nv^z~X~}~vb~}^z~B{~v}~~}vx}VijmU|v~{l{~^^r~~~|~|J~ZpvZHl~~|~Z~^X~v]nVtfz|n~k^~}l~j~|vxf~~nwv~~H|zmj~}nvzrgzu~|fjn~~x]^~|~Z^~p~^~\t|lvehz}v|zv~~~vyN~~~}{jzn~~~liv~\^fz~xvnz|tz}~N~F|\|t~~z~~~n}xvv~vf||ZR~~}ly}^]~^~~zy~}~N}t~~z}~vz~v~~fz}lU|~~x|~v^ld^zzr~~n{Mz~jlvd]v}zvVb^|vNN|Rnv^r~zZ~~~zV~j~|}yZvzZ~~{}e~nz|n]z}zfz~^}}~^v~Mfn|vvd~~~~{nt~~zr}Rv|~[tFn|z~M~]^~~~vrZR~t~z~~iv~\~~~^}r~}n}{zvj}zjz[^Utv~V~zt|i~~X~V~{~vv|xz~V|B}x~~^~^~z^~~z{~svn,False,1.00136e-05
~?@c~}r~~~\ybz~~z~j~~|nm~~n^|~n~~~~y|Nvv~vz}n}p||h~MzF~~^~~|{~r|}|Zl^vv~}~~x~f~xMv^~]~{]~rusztun~[F}vm]}v}Gfncpy~^|M]|^t~~~~t|yv~~z{~^Vn~^~}vj}zvb~{VjrvzNzvv|mmt~~zm|vZ}~~]lhn\mv^~vfp{~r~}v~zY|^}ul~r}Z~|v~^vN|j~~}b~}~~~}}zvnz\}|vV}^l^|f{^^\]zl|}~n}p^nN}^vn}uZz~V^^~t~^zPhl~v~zn~|r~n^jy~z~u^~n^~xrv~v~|~~^z~~|~UbvvL~u]tu|N~~~~^aXvle}f}f}\n~v^~}n|tyz~n}||n~Yz~s~r~|^bnz~tM~u}n~fz~~v}{\~z~~vz~uh}vz|yZux}}||zVTun^^|t]vu~v~|~nnnMzd~n~z~Z}zFf~~~x~mv~x~\yyjY~|t}^v~}vx~Nensntt~iv~v|z~~w]|~~~]zZntJZ~lnL~~\^}z{|e~nv^zm|~~~~v}X~~~~n|{^~vnH~qw}V^~ZV~u~~V~~z~t^jvn{{~|xh~rv^^~|~]nr\y}\yyf{|}n|v^|m|\xv^F{ve^z~~}\n~~X~zx~~^~~m}~^K~V]|~}j^V{^yzv|^n~k}~~y|}~~z~z~~}}\~~~fZ~|~n~Rx~~~^~|w}y~}z}ni~x~^dMlr\v~vWYJ|lv}VmtNJM}|~~~||~~~}}~n~~^{zn^n~}~~~j~jvwvNnZ~~ynN`n}~\Z~^}lv}^^~||~~}\nh^yf}\zvb{~f]z~n|yvn~\|~~}~N^y~ul~f~^~^}tzxn~~xJ~]^~V~\~zw\~,False,9.0599e-06
~?@cvz}~[~my}U}FnZ}\~z|^}jt\~~Hy\j}V~K~vx||^}z^Nzn|~l^z^nz~}rzz~jlr\vzh~]}vzvV^dv|n{vL|~d~~]v~z~}V}~fvRz~e^~zz~VNvz^][v~^}~~}]z^mY}l~vfvlj~{~w~~~zt|}~ht|K~~~vv{imj~}y~Yv~v~xn|v~d|}]~~}\}NZv~t~nV\~v~uxvm~|n}~t~d~^nN~v~|~~^lv||{yn}~~~m}uz|v~vLRr}~v~{rr|vx~f~~n~~~uh]M~Mn]n~~nv~|~Jnn^v|f^~~]~~|w~t~}~^~~~r~~}}~]~f~~n~~i~m|Vy^u~vz^^}|~V|rx|]~~Z^}~zlr~u\~t}y|~~|nvr~}~nvv{~}rv~nNyX~td|U~~v^x~}yZUi~|~m~k~n}nnjnRz}~Rrn~|~fu^Y{|~u}zy~~^fz~~m~zu~v~^n~~Nu\xp||l~~}zm^^~]{~~tnv^{\n~}|~~~|NrlnVszn~z~vzju}nn[n^}VxzN}jnvnzUf}~|}h|y~~nm^~}Zv~~^zV}D|tzn~n]~T|~~v~zT|z}~|R~n~~~fv~\\r|~{}nny~TN]}g]~\^Y~~]]N^nz}~zvQZ|vy^~m~~~m^tV~xvmmNpy[~^}M~znN~vm}~u~||V^evn~}~~|~~nnr}z^~nv\~zZ~~r~~VV|Zlz|~zfN}i}rNu}~~~~~j~{~|}nZnr}Yj{}~~~n[^Ut~^z~z}~{~x~zwmnvm~|ZOv~Z}V~Z~~~~^~vv~|sl}vzdzznV~r|~vzI~~n~z|n~\z~q^~]x~n|}zl~y~v|zM|}s[~~s}]zmu~zxZ^wv~n]vrn~~~N~,False,1.00136e-05
~?@cZ\v]}~~zy~~ll~}u~}~Jjtj}[\~nzzvtNkE~~~}zz~|n[zv]uf}|}}|f~~t~}|~~v|~~|nu~~~~N~e~}~~~Uvzvn~\f}yz^~~l}n~mleS^~mv~N^~Vx^~vvx}tv~||j|~~t}~v\Vtdzl~|^uzUVv}hr|fe~{I}~n}H]^t\v~]l}Mt~vnZ~mfVb}z{VznnxF~^~}@~}|~]}t|~^zr~|^}x~}{{^~~~zu}~}~~rjczn~~~~qZm|u~nnn~]~n^Y~pjr^Nv~}vvN|~u~~]}~~}}}~z{X|f}k||}hvmn}}zvR|~~i\~t~T~tnr|dn}n~v~R~Y~~z~~n~ez~n~Z~~|~vMJ~|}~}\|~~F~|}~~~}z{W^|h~z~F~NNTl}~^~~nrpk~z}~V~m~~~Ys~\}z}~Z}~~k^s~~z}E~Y~z^NInTVb|~~{~}|n|yY~t}~XvNv~^~Np^U~~~g~fhl^}~~inv\~^~v~VRr^~N]~~z}||^z~~~y}^]~~^Vv~v|}w~v^e^uz~z|~v~\\~~n~^l}||t~M{Fzr~^~z|d~}~vvv~B~~n}v\Mv~~Niv|vn~^^j~zz~vv~~~~^x^zm|x~uv{~\zjvVz~ut}~nVSf}z~~^z~u~in~|z|~|Jv|]|vF~^n|~Nm|{~}^u}~|v|~^mnnt~~n~r^^^~n|^~]e{~~zq|~~zv~nn~^Nl}nZzv]^^]~|n~ezf~{ltnz~rhj~zZuvl^\nnzvn|zz~n~{bz~n~}|b|Zl~Ns~~~|vfnz^~\nZn~~T}zj~Emm~v~~]|v~~}z~\y}~~^vx^jj^^x^|q^f{~~{~^e|~tt}~lv~~u~vYr{z~^n,False,9.0599e-06
~?@cvnVXL{z~un~~`}nNvsm~~}~x~~}m|uvn\~~zv~v}}nn~~x^~~n~~~}Zvj~}~~vxNvZn~~jzJn]~t~z}|~n}~nV}zvyzz|v{m}|Zh}n~}~nz~~^\Vq{\k^lx~h~|~}VR~vz~~|~nJwnl}f~~j}~f^~fvu|et|~n~m^Nn~n}rn~Sv~u~~}~vv~|Zx~~z~~\~^n~}}z|Nx}xnvztvsV~nuf}{n~|}vftnmu~~w~mu}vn}~~v|vN~z~[^R}u~zu~~~lFT~vtz^^~~~~r~~|n~R~vrbV\}}fNv~}~v}N^~~~xzJZnr~n~^^T|^}vn|~|}U~XvZ~}~~P~^~~|y|~nv}^nwx~~z|rzyd}~~{Zxqy|v~]N||T|xP^|~vxZ^y~z~~rr~Y~z~}}z|tn~|k~N~fn\~~nw|byn~^z~nJ~i|]}~vg^v^Z{v|^m~v|~m~]^~m^^~}kln~~J~~m~^hv}~]]F~vv~}nu|e~}~v~~e{~whnN^]~n~f^vwnmN~vnvv~z~j|^|zvtTv~^}~K~~N|nt~X~lRIeL|~z~z|nz}n^~j~~}~uvNt~znu~~j~Vn[tZv~||pj~fbt~~~~~tn~uv~~r|~VNy}Y~~fv~j~~~J}zu}\}~~v~}^xu\}~~Z}^~p}~ntt|z~~|y~~~z|~M]Vm^n^e~zp~}Jbe~v~^^~yzwZ^\xmm~N|}^j~n^tVv~~x}n|Mj~~v~~t^^}}rwv^~b~~~l~j}~^|}}nv^f|vXz~Y~~r}v}|}}~Z~}znjzvn~^~^yn}~}|Zx|xyn{Jz~^~]|~ne~||Vez{~v~v~seJ~]}~r^{}mnnLZ~fknsZ^}|nz~],False,8.8215e-06
~?@c|{zV|}}N|jn^vj~vNe}~~xU~|~]~|zNvUM}~~m~fY}~n~zt}n~l~|}}~~~Vpz~vV~}~j~~]|~~xnlv~Elr~}~ur~~~~tSv^j~~t}~~~n^NV~^~~}mu|~jn|n^~[lvd~n~zz^\Lrvz~vu~~z|^nZzvz~~|uznr}rj~~n]}^V~x}m~}|~~~~}|V~~~~bZ|v|np~Nzh~n~x}~}~e^^~~~~V{{z{]v^~}f}\}x~n}v~~ZJ||\N|~nR~}|[v~VMv}n|X~~~vj]\V~}n~~fyN}~vz~Lx~t~}tq}y~}f\nv^~mZv|z~fznlv~\^~}nz}~uVn~~\~~}nF~zv|nzXfBzqyVVn|~~~]}l`~~z~}|z^r^nZnZV~vr~lm}~NvYVnvUZ~~x~~~~~~sy~~~nn~{znn}vt~~~^|z~v^~|wnmn]}~~~m|~j^nn~~h}Uv~~e~v}}zvu~~nzV}}~^}]\^~~znQm~n^uzt~Yz~~}Z~v\vq\\~Z~fZ~v\n~j~jZ|^~n~^\x}vy|~vzz~R|V~zfFxv{Fzn~d{zn~z^{N~~~~~F^^}|}fyn^~~f~jM~Zv\nzv^~^~~z~\p]FAlLlu~~ui{n}V|yv~~~~vTnvv[u~^nz~~~|JZV{ut~~~zT}z^Vu~j^~WMluzzz^}e}klrtn\re~\zj^~v~c|~}}~z}~||~r[~z~|}z~vt^n~Qz~|zz|xdv}b~z}J|}|t}|~p|~~zZ~^|Y~^V~}XYr}||u|j~{o~vnFN~~m|v^zrvnn~|\tV~nv|K~vR||^~v|~Z|~~z^mvznn^Vv^n~^zzsjZ~RfzVn}~^z\vv~~zn]dn~~rM^~~~Y},False,1.00136e-05
~?@c}zyn~b|vn}w\zn|fZMD|xz|vz~]}}v|}~~f|x~vy~~}Z~|~vv\}n~v~r~~{~|^rsdnz}^Nnrc~\~vE~~~~\yTJ~~bJiXfn~rZXLz^~rn~vymVn~~}n}}zjk~~n{tm~V^u|}|~~~N~~|Rnn^ZmZ~l}t~}x{v|j}v^~iVn~H{~z~n^^~v}D}}i^|}s~vm|~n~vnvt~|~~v]l~K^^y~||x~^~v|m}~Zg|f|~~}u}~~~|J|}N^fzXty}FvH~~Fz]~v]~N~~F~~zN|~|^~u|~v~~hemR~{|]xnnz~c^xuv|~e~z~~v\U~N|vyz^hv]~z|wiW~n~}v}|~|v~~}j|l|R^[m~}z}~~l~vv}kb~f~nw|v~~~nF~^V^ujj~jm}|V~~n~}nm~~jtlmjrV~~~~~|V~zzf~}~~~~~~~r~^i~n~{zz{~^^{~|}}~p~im||nzxv}U}~eV~|lNzf~}~~~~|vz~lm^~|^~R|~~LZvr^Uvz~~p~t}~~}~}z~}}V~t}vjv}~~uNml~~{~vln~^T~z~}~xn]~Qv~n~{Env|Z^~~z}}~m~nv^~Za~}^~z||~z~{n~|nxzx~z~~~^~@li~j~}f]}v~~~}}zrn]xntvh^}z|y~x~V~^z~^~}[~{zf^\yniJ~^]N^|~}}zvz~~vtkz~|Iz{~Z}}~R~|y~[^nvt~||~v}fz}zz^^Vqf}{~~Nx~ZtnVT^v~^~~hyn~~fb~zR~v}njn|fz{Jv~Mf~|~vnozn~nmz~o}~^^~jr~n~^^v~~N}~~Vz~N~m{^n~vz~zv|zbzV]yxrz}^~^^~f~f^~}z~vvV~znxN~^~|}~N|}^~Z,False,1.00136e-05
~?@cv}~v~h^DY~z[vv~Ljz~ftdzmvZj~V}~R^z}sn^\~]~zYNnt^~|zlulzvx~n~^TZ}^rlf~~f~f~~r~|njZn~HT~^]~y}fB\|ru~|z^zj~~{y{n^|[{E~xen^~|^|~Zv~~zdll~~}n\~~~z|z~f}~nvz~~mlnl~zxZmj~vn|vnVrnM~v~]~^\zZ{\z~~vlInY}n]tZnn~xwR^nvL~Rz~n~}~~~~v~~{xz}~~zL~n~N~u~~n\|vvVZ~^^}z~~wv~z~nvZ}|v}}v~~~~Z~t~~^i~Ivz~~^~zX]}~Jz^mN^vXQjXn^~^~~~]~~zym~n~~z~xn}~uj~xvy~^^~vq}~~v^Nn~~l~z~v\nymz~|vzunv~~~^z]^}~h^l}~f~\~jV}zdv^_i||Tj~tm|y]~|vv~}\j~^Zq|}~~\~vU|]~|~r|}^z~nyy|Vnzz|~z]n~~~n~]kNlzpk}}n~~^rv|}bzFtu~^u^B\~~z}}z^~~v}~~V~~mavRv~}^yLZ~}~|~~k~~~L~m~}~^x|nF~~x~~v}NXn^lyp^~|~~~w~w^m{|vX~~}}y^~vznF]^^{z~{e~vw^v{|~uLvdj~RU|]|Ny^~nznna~wl~{~n|Nnvv^~z]nz~JVy]zt~V}}~Rrf~^|~pn^~}^n}~^z~|tv~]F^zf^lf^~i~~^~~^^j~^~}nm{znz^l~|~~}~z}~z~z~~~~n|~^~rMU~v\~vn^v~z{|~\~m~^r~~t~~~|w}|~zVN~yj~z~v~~}ylv{~|[z}nZQ~|^v~{~~v~|n|nv~^\|~Nuvvv_|~~Nv~vL~m~n~}}{u~vvnjz~ny}~rnf{~n|vlw,False,1.00136e-05
~?@c}B|}~^q||zyZ~~int{~^~v}~zq~v~|~n~Mv}vz~z|~}nLT~~~~~z~ru^\tnfz~~Nrp|Zv}|n}z|~}uj}tyv^~v~Fjstx~Vvv\}~}~jj^~m~~zN~~y|~m~|^}}}nml]N~xZz}nVyr\^~{||j|~f|z~m~|[z~]yn[~Z]~~V~}v^~^~T~~~|rt~z~vjtvk~~nUb~~~|}~vN~}~v|Znlzf{l^~~vtN~|}}Mfze~~v~n|~~}vNv~~SJu~izl^Vtz}r}vf~~W~~^^Z}Z~~Znv~s]n~|zn~nr~n}v~]l~r^~n~|z~]Ln~|vn^nzY}uy~~v~kv~j~k~y^~Y~ty~~~yzf~|xlZU^~]~uZn~vnbld~|~~S|~~~~~]nnzf^?|t}z~{w]||^\zNx~^Tdb|~~}~Z}zvvn~zuv|v^n|Yj^v^|~v~}}~fw~v}L~t~~n{~~~v|vv|znn~}~vV^z~^^n~z~}mv~|S]Jm~~uvuT]~~^jvjn~|~nV~dzV~e~Xd\v^~vv~~]~lv~D}~~ynz^Z~]\zz|v}z^~hzz^}^~~~inv^y~r~~~~v~y~|f\zd~{~M~~zn\}q^~n|~}~nz~^|}{~vNtvv}|fn~^|ftt}Vq~nvn~}]}~^|^l}v]Dzls~Qzj}L~UnP~V^a}z~xz|j{||~n~n|}Yfv^|}}}~h|V~^~~n\fxn~nUx~u~^~eJ^vnnyzz{v~||{~ez{~n~~~~}z\b~n|m~|r~nN~zzN|~}|l~~nZ~F}~n~zn~Vj}~vvDzQVN}~^}|L\~~nm{|~~~~vnjuntlv~\jzzm~mtlum~]yL]^^~v~n~^~yr|tnlz~~fzr^ZF~^,False,1.00136e-05
~?@c~~||jy~j~r^j}Zu^}~~x|mV~n~v^~^}F}vyz~r]~z}n~z~n|v~j~zM~t}^[|}kzvYuLv~}i|^mn|zbrr~}x^m^}f\|z^~|vZ~~~z~|~Z~u~lnV{j~v}~wmznMN{^v\~^|n~~]lZM~nY|f~~}vx^\~}|z}VV~~\^vt]^~~]rZ^~~~~~|^|~h^~nZy|]Xf\NZz^zm}~b~z~NzV~^n~vnjB}|V~~v~|uNjv~nnn~~vZ[~^~mx|vz[\~|j~n^n{n|v^z~~ivV~N~|jn~dfnyf~~t\~~~n|Vr~y{~^}zf^z^nv}d~bNj~Nvtz^}~Zzf|ZN~~znv{~vv{jSju~~T|~r{vjv~||Jevy\zj|}Z~~|tj~w~luhnzf\~^~^y}}~~Zv~rv~~~zv~vrz~jt|z~^r~}~|]|H|z~ur~~~~}^~z~~|\v^|vf{w~~|l~V~z~B~~ne~}^x|yGyntz~~~|~^n^~nu}~~~~iz~~^jv~~vhw~y~~~~~K~V~Lm^~U^v}R]~x~|~z}zyKvvwvxVY^n|~~my~vn~|z^~~zzz\\v~~}f^n|jn~z{nrzzxn|I~vnnvM~^}}~}zxzz~~~~~^vfvv}z\V~~}|vnvD^n~~nt~v~~~hk~~}}ztY|}~jyJn\fs^nxN~~l~~~tvZ~zn}~Zjnm~z|llWxl~L~~ct~l~~p}f}nj^Z~yUzf~Yp|]~]n~|~~Z{~v~~nzzfX~~V^~]]z^`rzz]}~Iz[zX^~z~~z~jRtV~~uu~~~~}^fv^u}n~~^}u]~~Tn~jZFfm~vzzbT|yn|~nf{~^l~^~y~z~r^^j~^~~n}}^w~~fz^~Vy~s|~~n~r,False,1.00136e-05
~?@czvzNn~Rznm~^jZ^zv^nn~j]}nfZv~~f~}u~L~z~ln~~vRj~~~~|}nm|v[n\naF~vYnN^nnVi~~~\}MPl||~}|~~~v~Xnvj^~|~k~~u}Vz^pu}m~N~m^rfv~\N||zy~~zN~n~uN~nV~~P~~l~u~Lzxz~~Nzvu~~^vmz{z]nNv^}|~~||luv^}nn~j^|}~|~|v^~fvz|~l~n}nvz~jk^vNTnvrz~iNZT}~~VtL~~~~~}|n^d\~y\vMlvU~~~z~}l~v\ZL^^|~|^~n~^~~v~dnNzynBNvmvnB~rz}zZ[Vn]~v~^~~n^}}z}^}~~rNn~Zv}~zu~}~^zj\z~y~v}x|vSn~if~~bc~j\V~~zZtv}Zn}~|v~~~}v|lz^^^~v~z}y~~~vv~}z{p~~~p}}~j~rz^~}}{x||}^~~~~{~VZh~~|l^|}\n}|~~yfk|~v^y~ZVr~|}~zrlZZZ}~trhn^~|N|xn~}lZRv~u|~sVvL~~yTv|~^||pE~~n~uun~}~~}ttynb~~f~~|lz^]|}~~~zXny~y~m~~z[ux^n~~^]n~vt^Zf~nb~{^[nz~|~~z~yz~Z~Zgar~}M]|}^^^sm~~z~vR~}qz}kvnz^xNjhlz~~nnm~uR[~vl|vc`ev^vv~T}~~vv~V}}~fvl{^~}n~}j^~~frY}|znZ\|~T~~^}~On~~~{v]mvfZnq}nv~lfn|}nNV^fnz~j}~}{|v~^}}zn~|~nBzmyy}~jvz~^Zl|v~nz|~~|yvzj}l~r^||~~s~~~~yi^v[~tu~nz|f}|z~t~^|]~~|{xv\~z~~v}uun^~n~~}~~~y~YlZuNTz\~^~},False,8.8215e-06
~?@cuJv~j|m~~uM~z{s|~~nnZvz|V|n~^fq}V\|^z|~~~z^xz~f~Vfv|^~nk~xx^UMzn^w~rxrNPVn}Rt}zzzv~vn{x~y}}~r~ZR|||nxz~F~z~jn~\}Q~~}Xm~p||yxynmuk}jnU|v~yn~zjn~^Nu~~ntz~n~vJZ~|z~zvu}nZTnkz{^~|T^vsxn}z^v~~~||lz~U|\}]n~~{p^~~~h~nvn~~^~qt{n~v^~~~V}{z\]~~~evn}xl~~n~~{ynn}n\~n~}~jy|~~]ZZkzzL^ev|~}v\l^}^Rx~~~Rnzdx~vl~}n~uzr|v~~^}~n}Xv~~v~zz}~o~]~\~}|~NMz^jvj}~rrLyt}qyNwnvv~\zmn~x}~Vf~vmntu~zz|~f|~vn^\^Hv}~~}ZYzn~V]N~}~|lnL~~~Xi~}z|\z~mvuz~~~|qvMzvpt}~~xv]~^^~x}w~nlvk~nlm|Z~r~]~}~~~}~|~vyr~~~vpl~~j~u~~}r~z]N~~~np~v~~\^m~vl|~nN}~V^nw~]n|y~vfk~~~y~jr|~~~~^nni~rv~zt~~m^~}~h~~^mDTnlXJtak~]hn~nr|x]~wn~~~^nn{t^~v~tzxzuuvx}~~~^eHl~~~~^~yn^tntzkz}]LN~~}^~^|]^zyt|~Fvdv]~zjz~~~uVt~~~~Z~~^vvyTzz~zRznp~~vvz~N~~f~v~m}~z^nuvzzl~~~~r~n~^Zd~~y|~^~}m~j|n\}~}~~~d}~{~^N~\v~^~~~z||zhnlX~P~z~ltt\~nl}~~]l~~yjexf]Zmu}m~~|[~Zz~|~|k~{~Rv~\u[nN~~~|y~~~^~~||v^~~yt,False,8.8215e-06
~?@cq~n^Vvy|~^rr~~~^C~mnnvZ^Z~~wv|^|w|jv^zn^~~~rvje~~b~~~]|TE|~HzXz\~~rz}~~~n~Nz}}Xn}~|O~nz|y~v{~nNhvnX~vvj~^z~nn}~ru^t}tv|vhj~k}tan~v}Yr~t^q|lu^^xz~~l~~fj~ny~~Xv~Yl~}zV]yl~|~z~m~}|~~n|z^n^~}ngr{v~v~}u~n^n^zyzvm^~|n^~kn{S~n}~~y||~N~yN~~~vm~Ymv^~~}n}~u|}^{z~x~{{nfj~^Nv~|^n~}|vz^fvyz^l~~n{u~\~j|nr}~nz{~~~~n~\Umn~|x~Mrm^|Y}~bVN{~~^LZvz~~^~}v]mtFz\Uzv^N^v|z||v~]~f~}aqv^|~~~Zlvl~z|fv~n}N~|~^Jw}~n~Y~]mvh~x~l|rzny~js|m~~v~]vvuv~nNl|{}~}~xun~~^Nj~vZ~mmzRqf~~{z^|S[z|~^^~niVX}~i~^jj~~~~x|~~~f|Njxn}z\zlV~I~U~FzvZ~r~zDZf~||~~]jN}~~~~vmtvl~N~XU|zx~vT~|~~T~~Y^^wj}u~^|}~~Z^v^v~~V\~v}NUtfJ~~|Lt~r~z^~\~~|}|}v]Bzon^~lzm\vn~r~^y||~~v~z~n~nj~nv\vm}~~|mnt|n|zvr~|~~~]~N^{zs^Zz~u`v~}~~Xx^~jy~~~z~n\|~V~~~z~~~~~yztzsl~~~~~Vdzznvo~~h~~frvntn|l~nv^nnv^vz{v^tnv~}Nt~~rz~~^{m~|~v~~n\n~m]\}wdz}|m|~zu~}Ff{|zn~rn}pm~~}|}|n~Jn~v~~z^}P~}t^^n^zvz^{~zzR^,False,9.0599e-06
~?@czz^vm{~~viqz}~N~nmjnn~~R~~mH~~N~v}]}}~|t~run~~nz~|~znv^m}~~y}nf~jbvz~FXvnz~^jtzl}m^e}dV}Nrn}n~vznln~|n{m~|v~xnc~~~bt~~^z~~nm~VLyNjk~\~|^~~~lK~|~{}VzuuU~u|~~vsn~~~\\yri~z~~xZ}~pL}{w~|r^|rX}ry~^^F|rzz^F~~^~~~~m~[^y^lv~~d~yN|Vv}n|zzZk~^~}v|nnbrv~~~n~ziyzz|y}z}|}~~n{~~z~rmZ~~Jz~~Zt}^^vmm^\jv~~yjjvl|n~~v~N`~Tlv}uv~nu}r^E~|}n~X^nyv^r\~m|~n~]~zN~|~~^v~m~~~r~|j~~nnr~~]\~h|}n~|~u^jvnb\Q^n~pn~^bl}~~^n~}m~^m~jZ^^z|}{]j]nzx~v|~|y}u~~\||txN}z}Lz~}z}}~n~y~}xz^~f||^nvFf|}^l^lF~~~~~x~u^n|}~f~f}zvZ]~|V~fm~]^~~~^~~Xzt~~f^ak^N}^||~^[~Vvrv~L~~\~pjf}v~{]~Va}~|Up~nznuu~~}~fz}~]s~}zz|zrjut~|~~~gy~znv~v\vUZ\~~}z|z~n}~~{~~yz|z~vzr~iml~~~jtl~m~XY^}K]DznVN|^z}^tJ~]znxv}d~n^ezx~~~|~N~n^d}~~wFf~~K}Bftvv~~~}^|~|L~]zZ~~~v~z~}~\~|f}~~~n~{}z~}{~~~q^h~~zx~\~}\|~}]~^}tzygvN~}~|~^z\}Rn}~~jv~^~^Nz^Vn~~V|N^~~vi|~Zn~|~|s~zr|nNwn|~}~~cnnM|~|M}lU~dvzz~rf,False,9.0599e-06
~?@c~~^j~]vz~zz~{wn|^~~~^zZ~|}]^I~zzxZ}Xnkys}[~{]H~~d|~}~m~nj^N~vmN|~~~^^|}~zz}~]v^m~\mzv~~~nvn^z~~}|V|~~i~~j|R|rnR~Z^}^Rz^T{~|z|n~~t]~xf~~R}V}^{\vnz\~ln~f~nzvmzmuvYum~^~^rrn~Xnv|v}nn~k~|~~^y^nN~u]h~znzn]el^~~^Z~z}kn^|~fvnv|fm|~zjnxI^}~~n~nNz}nn~}yfVX~rz~jh^^e^z~t^~Zz~z~~n~mR|~tp}v}~}vn~}~}nV{v~vb^}|nUz~~||~~|~^]~~vl~~~zV|~~~Nr|^}~|~Qn~~xLV~~zjV~~~v\~rn|Tt~}~~|Jv~nyv~^H}~~n|^~f\zn~~~^f}dfz~~}Zn~~~y^\a|n~vxv}~~~~~~sln|}}v~~n}n{vI~t~^~Ll|d}}~v~~zr~}Je~~~~^Zz~v~~~~H~z~Ihvno~^~~n}|j\}rnzm~}rUn~|~~~~Zxkyu{^\htns~{z~Rrv]~Z^nvb~^z|nn}zgzr|NvfZZv~~~tx~}tV^^^V~k~F}^\l|}~m|vvvV~jy|~n|J~~~^^v~^nv|jhz~z~zln~v~Ncv~~@~^f~~~yf~~t~~~~N`r}^~|j}nT~~j~Ul|~X~nzf|lT~v\mtNt~^qF~~p^tn|rzt{~~^r~}z^vm~zj^^~R]ts~~n~u}VZpn^~~lU~|~qyZu{V}u~^|vv}~~~z}Rmr~}vV^~~zz{znx}zNnzj|z}m~^|^}F~~vv~}j~z\vzp~|~n~~}Uu~x~Mv}h~vnt}DeZz^~~|j~YZl^fW~|~y|Z|p\f}~^~~,False,9.0599e-06
~?@c~znNzv}x~~{n~~\nw}~n|^~^~nn~]^N~\\m~v}nn[|~~mm^z^~\~||~vr^m\~Nru}}||NZ~|~z~|~~nu~~n~~]nr|~~~^^~z~z^dv~~~vtn~z~~z~nyzeu^~^nfz|t~rv^~mj^~n{~zz|{uz~z^~k~v\~}Rm{cL~]p{{{v}~f~~}~fnNN\|m~Xz\t~nq}x|~~bz{~vv~v~~~n~Nk~vf|^~}~hn^g~^e~|~~~]}~~~vr}^~~^~ny}t~t~~szfyNy^}^Rv`^x\~~~||nzVnzs||XZsk~|zn|~jy|E~zN}~vxn}v~xw}nzZ~~^^~^w~~l~x~nnv~}ny~Zwvzr^f|lhnv^M~~nX^~P}~u~\^~|~~~r|nvv}nv|z|zvY{[lnx~zm~YfjVs]z~v~|e|nmzm~~~~v~ln~~yN~[z~zin^n^v~]yy{~~z|xuv~z~~v}~`|tnh~~zp~[~~ru~~vzyYN~jy~\v|]Sf~tk~^|~nxn||nnZ~]vt~}~l^~~|~}~[~Xlz~~bZlV~|M{qz^nt~^nInn\~}^fr~^{~u^Ty~]~}~~~v~F~^yV~d~~Nb|n]|Nt~~U]mzR||vi|n~~~}fmh~n^vnzw~}~y~^|u~ry~}~vY^\^~v}j~~j~~~[~{]t|vsk~~~ar]^~~~XR~z|xy~Oj^~]Xv}z~~dv}Pp}}~~~]n}suuJf}u}~t~r~~mn~hnzVT|Z~^ult^~vnz~rXn}z~\unm~~~z~|~n}~|}l~~^th~~~Nzz~~|~~r]f~~mN|v}V}z~nv~~|n|n~mmsvznz|^|N}|~|m~~~~zz~}nv~uN|}~zNvX|~vt~tX~|Yk}fl,False,9.0599e-06
~?@cmr~~|U|nz^~y^~x~n~|lv~~^S~|~U~~jZt~nyzn~v~m^}VZ~}||~rxj~}~zwnjr|^~s~v~]c[Vf~~~}~mH^|~}~n}~nb~~p~|~}\{~~}^~|~~}z~~^|~}v~^}j\^mz~|~~v~q~fvZ^~}Lr~~~}|vvfL^z}n{|^lz~~Ycnv~|v{u~n~ev^nz~nfVzw~|}jezv~Z~]^}~^~^||n~|^vv|j\ln~{~~|m|n\}mv~~~z|X~xgvrpz~uJE}{nV~^~vZvn}~~zilZ~rkuVt~^znn~~~]~~~}ZyU}~vn|fJvn}}^~f{v~zt~^~^~z~}m}~n~}u||fVY~|~y~j~^vz^]^iz~~~~dlz}Fj~~~}~~|nnL~~}|vU~ls^~z|~~Vxv|NnyynVbu}n~n^^}zs~n~~j~}}ni~~lx~~Udz~|\z}{X~^^~b~\{~{Z}zV~~~~~|^Z|YV~zPqN~]v~~~Lz~Vtyv|Ufz~^`~nx^~vpyv~v~n~oWv~zZy~}~~^^n~^qLrv\{~jmvJ~~Z|~bn|\~^~|~{kzf\y~z~}~^~vV~z|l{vt}~zM~Z~znn~~vJZ~{znrnvj}v}^~~}|~n~~^SzvmvffznTz~m^~Lvu\~}L|k^n\~NvPzv^v|~s}m|[}~ft}ft}~x~~N~~~|~|}~n]|Nv|Vx||^ur^^Vrs~n{~]}zn~rx^~n~~f~zz~u~^~wznf|u|^\~znzvl^|~}|fNn~v~]kv~t~~sD|^|~}{pz|^zv~rV|~}Dv~~|~j\ntm{djz~~F~v^}lm~~~nx}~^~~{||]|^cdrT|l|~n~t~z}~~z]~}N|}ru|~zx{zdn^{z}VRv|~v,False,9.0599e-06
~?@cJ~y~z^}~snynf^}wNv~~Tk~gzz}Jdv~V~nrz~v~^fm~~~i\~^~q~n|r~fN~z~^~n~|~~z}E\|~x~~^~V~vN]P|}~}~te}vt~~s~~ZVn~uz~yz~m~z|j~Zr^~nl~z|z^unS~nz~\V~~|v~^}uv\~~~{||wZ}~|~f|~ZvvnZ~~~|UN~^^v~~N~^p~N~~[|xn~^|v|~|q~~^^||j}xfNhvJyu~|Sx|^~~Tkvulz~|neL~~|}|{v~~~Vl}nV~v~v}V~n~~~In}}v}}WZ~~~tr~^n~vnk~~n~j}k|fz|}nVy}~z{M~v|Z|}L]||~}W^vnte}Z~~~u~v^~~|~v|}^~z}mz~}}^|]hF^^vfz}Z^Nf^Nv~}^{p~j{~jZ|nnn~smj\Jp~~vmnbZ^~VV^t}m~N{^p^\bm|t\i}~~~~}v~^~~}}|uZ|]~vzvv~~v~||}^zu~\yz|~}]Fuv||~nve^|~nw~NN^~tzIu|~frnv~~~~}vqv\^v~vv~~n}zmzvr||lv|nV~~x~~~vm~v}}xn}nfwz~Xo~bz~}~e~~Um}Vv~Nn~~v|z~xtY}}\|j|~~}~l~nnjV|fn~~~~x~|z~z~n\n^]]~~~^|~~v~~v~~r~enNw|^jFt}\v^|~n~|~z~}u}z^x~ty~|~~n~|iT]~~v~^^V~y~nqzxsVn~^~~E[xvvTml}f^~~cZz^zfV~tZzt@zo~^fy~rv~{~z~|r}z~~zK~Z|v~zN|J]j]nrr}np~rz~z}p{~~V~yzbnv~V~Zu~Z~ZVRR}V~zv~~|{~~~m~|}~q^^~}||Vnnn~knz]xz~u~}}~vy~~z~nf~}x~\~~n~n,False,9.0599e-06
~?@cvfn^nvz~mv~z~~|X^^}z~|x~nL~z~]lMxjm~b~|~}\|{~~^rpj\urvrvX~nn~v~lZ}~^~}|NNbv}z~~th~~~~fe|~]}~|R{n^||~dlrZ~~}e}~]Uv~uvvN}~z~HXd~~n{V}zob\i~~\~}vz~n}vF^t~N~vme}^~~}rz~~~V|znNet]Z~zj^yr~~M|~\~nU~VM]y]~~ffx~~~}}R~VZzr~}tV~~^~~Dv^}z~|~~gvx|~|~w~~}n[~kf~vm~}y~\~~~|n~Jrvt^Z~]~||fn~~^~mn}zxn}kuu|Nz}\t\|T}~^]~^nx|}~^~}~z^lnvz}nnzntV~~j^|n}~~\fp|^^~~vEN~rt~|~v}{~tly}|]~~~|N~~~}~~n}}~B~~^}~|~~}}]}xn|~npVzi^x`Uv}~z~~}t}mnt^H~~zfZ~~~v^n~v~~nn|z}lz~nnNnz^|j~}~nx}\~V|n}~~r~E~x^v|z~^x~]\^|N^v[~~|~a~djnvkzN~|~r~Vrm~nz~z\zVn~}~}j~vU~~^~|gyvzzZ~tZd|~z~nz|~~v}k}~~~uz~mvr~L^~{~f~`n~nM\^vzpp{~^^~}vvf~}zl~^b^}^zN~~{}}sR~t~|zz~sfvnM^|^vVuv^|~z~~~zz^z~]V^nVt|||||^r~xNl|~~z}|~~^fnnj}~N~zY~nn~X~B~~zkh^\{{|Vn]^~mv|~~pzU{~vmz]}~rt|vn~d~f]yun~z~zqy~Vtzn~}~Zt~}nv^|jxzz]t{~U^v~^n}k~~~~Lzl^~~~~~wn~Zq~pnz}xf}m~~}vlv|~~\~nvtXVv^~zf~ztr^yv~|~~~^evk~~,False,1.12057e-05
~?@c~nS\n|~u|zZz~~L~l^zzv~v~~z~ZZt~znNF~zrTQ~z~V|}z~zz~~n}z]~^eV~|~hnrz||~v~u^|zY~~zNQyv\n|N~n^~l^Z^nv^~v~xv~Z~}~~|~~^vr^~{~n~XmZnu~z^n~~^^|vzzuv|~xz[q~n|Xzv}~{~n{|zx~x{\Nr~\z~xv~n~~]r~Z^~x|nvrlv~]Rn|M^~n~}~r~~V~}x{f~~~vu^~|rz~v}|{~n[f\z^n~N~vv}]f~z~zFn]~|~^~N~z^vu~~V~n|dZv~~}~~lR~n~~msz}vrsNv\|flz|n{zjZT}~~x~~~|t~t~hX[~hjzl~\zVZ~vz~~]|spvdv~lv~r|iYzBf~nnz~}|j~^n{q~]sv~V~w^z}~znN}~\~V~fviF\zvvy~vV}~|~v~rvvZ~^g|~}tHYv^un}nV|}~^~}}~N}v~llv^nn~~^}^z~N~|Vy^~zE|{~r~j}lJ~zN^z\^^||^~~~r^~~]tx~~v|rnzny[r|D|}|}nztz}~~\v~d{||n|Uv~z~M}~z^}~Fn~~^~w|p~vnt~~vV}||V|xnvf}}^{|z}ik}T~u}~N~\~~^v~~~~Te}~~|fLzz~}jn~^~vzl^~nr~nvh^~fn|nh~[f||n~pVn^~~j{|n^u|Z^~^BznMN~~y~aFv}^yM|y|v^]~~|t~}v\|~v}~~vJZ~~{~uw\NY~v|vn~n]^~]n~~Y~Zvv]]\v|zj[^nnv~f~~vz~n~~lr}r}\r~ju~^n^\|`^}^^~nN~}|m|Zzv~~~J~^}~~~vT~}|P~v~~~~z^n~Zz~~Zz~~}mtmrzG|F~v~}~n|u}vzxjn}z^n^,False,9.0599e-06
~?@c~z~ns\|zf~T~~~~z}n}~e~~}}~mr{n}|n~q^|N}x|~n||~e]~jnd}~~Z~\V~nv|R}z~n~u}fY|~L{Xe~mmL~V\[{~t~n~r~r~~}^~~b}pv~}rvb~}n{v~~}~}~~^ev~n~^rn~j~NX~Zf^N\zt~~}~mh}|~]}|^~KxRv|lb~\nn^j~^~n~nx|yus\sV~uv~|U{~~zv~~|~~juZz~mz|\jzx}ll|jn~}~~^v~}}zvvy~~n~~y~Z\^f~zLx]zr~^|^~k~m~~n^^~|rvv~za~Zz}jz|m~~|v}~^}f~~}zn^~^}~}{vnzn~~}~Vxv|l~~v|~vyt~}s}|zJRd~yzzz~~}itl~^~r~|Vnv~vn|~~~t|j~nrzh]v~v~^lNzx~|vZ\~~xz~~|nn]n~Xv^|^sz~z~]|~~vVZ~Qrb~}~pv|jrbvz~|zvjJnvmz~~~~F~^~~|~N|V~^zNzYp^}^Z||s}|~\~^~~~z}^}{~|qnF~[vnv~GVnn}f~^^~~^ym}~h~~zZ^gvv~~e~n|env~~nayr|~|N|yz^~r~^~zv~u~lvo}n|~v{l~lr}pnv~t~r|^]e[|v|~}}~m^}zntm~~zn}~~vn~u~~nz~~{l{}|vuNt|~~f~|n|^j^zsg~n^n~}h^nPj^x~Zfzf|~^fVuX}U~}}~^~r~J|^~Vv~z~~}~x~vz^z}~z\|j~~{Z~t~vf~~n}~^N~^VZ~z~}jr~@~}}~^X^ZJu}|{~uZf~}^~Nfn|~n~n~mjpr^|n~|z^~~V~~^^JUf]x{}~prVVr]^~FvN|fv{znFp~z\n\n~||l~zv\z~zzjr~~|~~n{}VBFn}jn~~,False,1.00136e-05
~?@c|p^~N~znZ}}~vv~y]}N~}Z|aVv~u~|{}^Ev{ZzVvfm~~j}~~~~||h~^~nqz~q~yym{]}~}~~~^jz~v^nV~~]}M}znzD~x~o~ty~t~u|Z~N~v^~ZfVw|ezsZm^vxVn}|u}~t~~|Rv~~|\~{U`vzjv^~l}v]~v~~^u~~]~~~~^~~^y~v{lVZy~v~rn}~}v~nr~~|V}l|jn~M}Lyu|~j~nzV^w~m}fn|{dv\]z^u}~km~Mvy~fn^|^~rNMv^~^}dvjm]n|YhNz~{x~n~nt|~}f~|V~Jnnhnx~z}~~u|~v^v|mz~^w^n}~~nsz~fo{~V~Rvnt^nvn~{~~jvZ~t~stnvzn^r~zm}W~v~~\~z~|^r{~xLyx{mnMz~V{}}~P}Qe^~~u||nq~x~J{n~n~^}zhjz^yWnlX~~~M~|nVv~z~~fV^PW}v\nUz~m\Zv~n^~zm|~^^~n^}^~l|n|~~^ufn|^vJ^}~z~~p~]vu~\zhfNn~^~^~vyv{|nZn\~n^uzu~~~rvZ^~zn~nrvnl~z|v~vn~}p}^V|v~~m~~~}vj}~~n~^~Z~~}|~~|z~nn~vjuzTEv`Z~~e~~n}]Xc{vRv}~v~~n}~~vX~zfvvx}\z^~vtz|~r|^|~~uJ}{|~vvk~}z~~L~~z~~~}vt~|^xY}^~xl~zk~n~xz~vntVyny}~~^uLnY}}~~~~~~~}~~\lzn~^xz}V~^t~~~~~vnX~vuX}M}|~iV~~v|wzV^v{}vt|^]~~mn~Y{v\~}|]v~zr}~Nzy~^^t~zR~\v|j~^vd~~y~^^Nv~~~mr~\~~z~|mrzvnkr^~vv~~zn|~|}~vj~~rP^,False,1.00136e-05
~?@c~|e^|d~|e~~v~~fl~{urw\~n^~~ln~]~}}~~^~~V|nn}vmpf{~^~v}n~nd^l|||N~~~vtosn~~}Rl~^^mn~~U~|Z~|x|}R~}n~n}~}nr~rx|~~nl~]~z~^}}^|{~y~~~~~rr~nv|I|z~s~^ux^}~mvv^~vn^R[~~^vr~~\~]unn~rV~e\~~mn^|]j~|xtz~^|z~V^xl~Bl}}f^^}^~~F~~zk~nZj|vs~~}~v^zj~}^f]zN\z|~tZ~y~z^~~v~b~~Z^a}~Jnj~~r^^vz^vzv~~~\|jj~^^~}~~~n~~^~F^q\X~~yUt\|z}~yV}~m|unUp~zn~tzznv^jfr}~z^z~v~rnzz{~xfafnx}z~^}}~fvh^|v}~~F^uz~nv^nv~~rr}~^vv~^~xUX~yfwjRvnYzv~pdm~~~z|v~~e|T~y|^ulvp\~~~l^~]v^~~z|~j~n~]^}~n^}nn~zvz^o^v\nv~~~z}vf\l|mzt~]n^~m~zw~vrf}Z^\fzZ~Mz~tv}v~~~}~xn~~~nf~u~v}nN~}~izxn~^\~~Lj}}~|~v~sln~|~}zNu|~jz}v~~~Z]~F~~}n|^|~~~qf]yrz~^F|~x{k}|l|^~RzfJ~v~z^~~xm}v{~vyv{~N~Z~}^|n~}~ttnFz~vzv~~~vfv]|~|tn~}~~}ut{]}^R~\F~~lvz~n~n}}c~~~|n^nl~bx^sv|~~m~V}|zz^N|T^}~^F}~~HNvz~n^K}qnz|~Nunv{p^}~t~~qr\UV}fn\^Qv|J~zm}xz~Z~G}|B~^~anT~~R}xW}~vnXr~Y|l{~V^n]~^}jrI}~\v~~yn}~~Vju~v\sVV,False,9.0599e-06
~?@cvvvZrz~n~fV^x~v^Nv^~}bLnZz~~~xy~ej^]|v}~vyv~fNfV~tl|~zz|x~}V~r}u~a~NZv~~ty]l~v\x~T~~}~~}jH}zmzk~P^}r~Zz~ym{{n|ZR~{~vu^N~~~ZVMfuU~}~t}z~fJv}|~xh~z~~vb~~}^}j~|n~J~v~l\~~~^}~\V\t]nmUv~Mv}z~e~n~~^q{l~~|Z~~mnv]N]~tNX}Xv~^~~^vm~~~m~n}V}^}~v~~~^zL\]z^~~~^~Nnyi{Fu~nYpmvvn~s~|X{|~~j~Z|NnT|z}q~Fz~Te^~fm|~~~~~~Lnz}r^~v^~vEruV^v~V|~N^~Y~}nt^~~nzn~vXTvx{~N}~^~z}~F~~vukt~{n|{~[~zn^~yN~}zz|n\|~n~vjxn~|~}~^x~~Z~~|j^~~bN|}lJr~n^\zv~~vyjx\y|njv~~~Zvz|~~~z`|sR]~Z~~~t]^u~Mz~~^~Zivl~j}YyN^e~Z~e~~~uv~|~~z^}v~~F^T~|z^Wjj~~nn~W||vN~~t]z}nl{d~~z{vrjd^dU~n~|}~Vrz|^u~n{y~~}v|~jp^~u}~~N}~Vv~~~^}~^~}vnRZ~|\}un|u~~~|~nT~~Nz~z{nv^~Z~~~j]~~vz~Fnx^^~^xryzjl}s|n~Pz[nv~~L}~~~n|}n}|k^|}~V~|^~m~}N{~tB~~^\n|{bzMnxfplmz^~^uvnyv{~zNU{^|V~yyvr~}~Lyinxv~zM|RzJ~~~v~~z^Ziz|v^~~VN|~^~~~~RzvnzZ~vntan~v|]^~^z~~z|~r~~}~V}m~n~^~~yZl|nr~~Zt^~~x~~v~~fZt{~|~n~~}]B~,False,1.00136e-05
~?@c\r^~~~~]z~^n]v^}m}}na~n|~vQ~vx~^~ekvv~Ns~~vz~~~]y}NvnyZ~fiMm~\t}~~x^flv~^~~jtn~~zv}^izl~}nz~v}m~cnJ^\^vv^fzz~v~~|J~t}~~~n~~|x]r~}l~xn\Nn^~~|~zN|Fu^~Z~u~|u~_z~^Fvyb~n^Ktf~}u}o}|z|~x|R~mz~vt{l~n^rtx~~xnl~z{\l]r~~~~ktz~vv~num~}~|^~Z~y}n~zn^~r~\Yz~}^n~m~\nn^plx~n~eF^XX^{nv~nTZvU`~V~r~j~~rvz^~}tymL~bz~mW||~ylnnv~j~~n|~n}Nu|Vl~n~~{~v}r~~~y~z~^mA]mv~~]}~|rn~~~n}dvnpz~v~v}Vn|~x^~hwvN~l~f{~||V~n\j~~r~xu~`kz~||~x~v~Vlz~V|n~}wM|^fomzz}r~z^v{nt\vLN~}{jl~~nv]~nn{T~~~mzfzVn~s|~^}v~N\~~n}~|}{~~n|~}~}Xmz}~~}z~W~~z^^u~]~~|n}~nnm~~z}[|~n~z~}|z|zr|~tR~p~Znqj^~~~^~{~rr~nZmnt~{^nf{^lv}xf^~\~ll~v|~~~~~m^|}~utvvnzz\V~|~h^uN}Pyd~z~s^\}[~~d]||X~j~~~~tzr~x|JZlr~VZ~xz}}}|[^v}~|^~n~f]N~j}~vi~yz~|nr~|vnk~i^nf~{}}~~Re~|~|~^eFZ|Ttf~~}^v\u~~v]ry~~f}~~~}~}~~|}]|}~~|Z^^V~^^~nz}yt~v|~^~^^t~}M~v~~~rrj}x~nVe~~m|znv^^~^f]j~~t]l~~mVneiJrn~}~{}]^nzzzu~N,False,1.00136e-05
~?@c~r~~]^]}ZL|~~~~~~r~vn{~x~~~~~~J|x^}Lr^~~l^vz|~jz~{~v}~n~vn^n}~~nyN}z~|i~x~~Oft~~{~~]}f~n~^u~\}~zvv~^Fz|~~~jb~vYt~m}km~{~v|W~L}nZ|vr|~z~}vl^~n~Vvnrjt|v~~zn~}jz}|V|^|vn~v^z~z~]u~xT~~}s||^xl~~F}~Yzf}Nf{^l|~~\n|~z~~\m|yVRufmnangrzm^fl}av~vz}v~nUvw~nzF~lV~V~Tzr}^v~{~nr^Z^}P^J]V~}~}~^{~ubu^uq|Z~~zaf~~}^h~{ndNz|~zvn|~~nnn~~V{fr}N|~~|vftfz^^}|vv~^v~{z~uuqz~]zv~U~T~~J|~dj|}l~y|xiYvn^r}~yu~\z~o~~v~~|~~]}m[zn|zv~~~~s^}v|~~~^|n|vvf^j~|^|}~v}xfN\~}~y~M}~v~}v~~^Z\~|nZ}}n~{~|}}{\}~~}vzll}yr~\~~snR~~l||rn^^nzV}^{~nVz|~~u^^N}~Nv}lz~v\^~nz^~JvF~~n{n}rmv||Z^oF~{kk^~n~~}^rrz~bZf^^m^~^}l^x^z~tn}~|vv~i^~~r~Um~{^|vvz{m~~N||u~nrV~~r~|nz~nvNt}r~fLq|~|~^~~{}mu}yvu\QKf}z^~t\w~~J~v^tun~t~~~~x~zWs~~~V}u~{|nk}n]|~[v~}evn~z~zvz~~~Z~Zj~L~~|Mrxo~~~^|{zmc]~~~~NJ|zxmL~N~z~U~~ezz}nM~~~^~F\{f`~~~~n|z^n|~\n~x~v~~zx|m~}~|]n~NmqL^T|~~nzN~~vz~zp~t~~lN~vN,False,1.00136e-05
~?@czZ~pn~NiX^v|}XztZ{dz||~~~~~~TY~^ym~~pNz~Uviq~yn^u~n^n~~~b^~|v~N~h~Er|Utv}r}t|zvvnux~R^^~~vz~v~^nY^~T|W]~vzz~~~nTU^u~~V~x~~zu|~z~nsvnz~~~~~~n}~\xi~nx~j~xZ}~~lZnQ|NNz~hf~~~nR}~}v^v|v}~^~v^M}z~Rmrvu^vv~~~|~TZtN~}z^~z~~~~my~}}~Vrvn~~zn~h^~z~y~z~^^v`~~QVx~st|v|~vl|~zkV~~vt~zz~~R|u~Nv~~~zx~V|]v~mVxxln~|xnnxnnz}lvz^~mz|~{z^u~}nr~~zxm~zY{]ym~yqz}Rt~~}h~^~nzv}l^nn}}Vvvv|v~~}lr}|^y~|zj~nn]~~}n^~xv~zrz~YX~~|~~h~y~{f}Zy~^}^~N~z~nfj}r}m||~j{M~~Z\l~uV{P~j~rlvNva~~n~v|^~}Uv~^\]z}~~^|~xn|~jzf~j~vv^~Isnfz~~xZnLz}^~lm~~n|ys~|~nt^}~^~~vvN~m|n~v^nz\z~^h^~~~|r~\cjI~v~v~n[Njzzv~nfv}|~|K~m~yt~~nJu~]|zvzZn~~n~~~hzw^n~~|nB|^}[~n~^f}zv}v{nh^n~~zz\~YnJuN{l~uvN|~{r}n|n~^lZ\n{b~Zmse~z~~}}{~^}^B~phu}~}t^~}~Mc~fXnt~~}i}|rouz~f~n^z|Vz^nt~F~\|V~lz~Vzzz]vxzn}|n^~~~~z~~~}nZ~{|^~z}}pV~~v]~~~~^~f~rr~z~}{nZ]j\dnN\\~w|^Y^nzmZ~^lVZuv|}nxn~^~u}~^r}~~n~}^,False,9.0599e-06
~?@cv~Pnn}U|nrzxmzr}~v~n~^^Lv^}~~}nv^z~}t|y~~n~l~^~}v~u^z||{[|h~~^}Fv~Z^^j}|}vnm~c~~~~}z~uv~F~|v~vZv}~n~VVxz~}vkW~~~~n~jv^r~{]~]~zNM~ev^yv]f^|^~nI~}n~n~}xvn||~n~~~n|i|zVznx~zj\~Z~~y}~}Ynn^~bu~~~~~}}j~^u^dM^~~^^dv||l~}V|~n~~^~~~^uEv}~nun~~~zZzv~z~j~X|~Zx~n|vz}n^}nzjj~z~Jxy|~~\v~~^^^wZ~n^Nu^w^{^^~{qy{znp~vNv~N~~rNvn^f~~}t}Z~]}rn~~Zn~}^vlt~~{~~x^Nl}v}^~@~~v}vM~m|nh]z}~l^t~y~lvnutl~y~m}zt|~~]~YMnsz~|}~v~~}|zzZ~~~[^nz{x~|hl^~lv~Z~v~~l|l~f~ly|~m~l~bvu^|}~~~|~~yj~nx}]~z^u}~|Tx|}jn|[~~zz~lX~z]z~}lvuL\~lzZ|r\~Z}z~~~|vFfvx~bknjrvVYvL~~^|n}~^n\e^}^axZb|~VrZf~~I~t}~zjzvv~}szX~~Z~x}}~|~~~}~J~vt~|]{y}r~h{~z~yztn~{znV}\zd~h^~~k^Zv~~~vunn}vnuxzv~{r^zzxh]}NrNv~nzvnz|{zrvZ~~~]}~sq]v{X~~^|m|V~uZmn^~~~x^~}`~|n|~~}^l|rt~xvNmnt\|n~]JRz|T~~~n^v~~tz~}~~Z~l}[~~nx~~fx]z~~~nJ|^|}m^V~ztz~|zh}~zj^qzNn]U~}~vk~ux~f{~Dzv~m^txwk~]zVv~~mnxx|v~fvn^zvi~,False,1.00136e-05
~?@ckrv}~~`~~xI~Z~^^\Zze|lv~~|n~qvY~~nv~|^zuzr}^n~^~vkvnz{uzFv~jn^lm~~|z~^|~~~[n{~}~}|~~^}Yavtl|L|tYz^n~\jz~s~vz~~~]nngo~~~~F~n~~~ix\^n}lmz~vvI~~NN^Z~U~X\Xvzry~r~}n~~^Zv~~X~^v~Z|~n~n}lz~ZjzznT~~\|~^~x^yo~f~T^Wz~~^zv~Y}lnzr~^dt~|n~y^V}~j}~x~~~~Y~~nz~]mlzz{~zV|bv~n~~~~^xr~~}nrz~m~nz~zz~z~z~~N~~n^~j^x~K}z|||~~T|z~|I~M|z~v~v~n~fu~}^f~r}v^v\Yvx~~^~Jrdn~w_v]]q^~~~z~~Zf\|Tn^z~^~vnzzN~nnv~|j}~~Zn~fzn~v|^ZN~KUyL[rtJ^b{fn[\^~l~~~~~vvR^~t[~nnf~v~~\~X~~muxv]^u~pv|^d~NL^nmz~^[~\~~~|\~Z~~y_}~~n~nzmzunX~~~zt~mzq~z^~aizn^~z~~|j|n^|v~~nn~n|n~i~v[}]~v~^^r^zr|~qf[~~v^|~V~~r|jz}~{~|~}~l~~v~Uj~v}z]Zz^Z~[~~~~|~m^vl}~v~y~|[Vt~~v~Yzb~}nrmv}~|^yvn~r~j{n^JP\e~}~t}}~VunnvN|js~~VU\zN}v~~~^re}}Xnvy~[^z}y}jc~{vvuVvzvt||vf{~vn~~n~z~N~EyU~~x{^~|~~~~~]~vtnvv}{Y}pj~}}Nlqz{N^n^Zv}nP~]XxXvvf~lm|yy\~nnb~^n~z}~|~jz~~~~~}~~~~|wx~}~mjl|}y^Vzunt^\mr~~}~nu^zz,False,9.0599e-06
~?@cLrv^~^}~x~^x|^~v~zbv}llum~}R}n||~r~~{uFNzv{v[~}zz}jef~}~~z^}}^~vz~}]^vzs~vv~]~mVn]L~~z^mY~^nv\vn~~k~f|n~vKn^v|}~Z~xr^N~n~tZl}{nnlny~~z}~~|K~yv~yJ{^~|m~nun~sq|^~~NRnl~N|zyt~^~~~}~vn~|~~wxF~~^V~nz~^~~|b~v~~}nJL_N~~nv{~n}^zxv~~vfnNf~u|q~zvnmv|lu|hn^{}v~vv}z}~j~}~~x^xi~ltFNnVd~afvN~~}~~^|mrqy}n~\~^xzn}z|~yvRjx~~nz^Z^{vx|V~Hniu}vhzVVz|x~shlvf]~vzr~}|}M~u~z}VYy~~v|n~~~~~~|n||~v~~nv|zv}}|yL~~~JnV^}T}~}^T~^byv]ntzVz^k~~vVf^yy~~~~NrH^y|~u~vvnr~}y~^|v}|vZ~v~n~~Nnh{vf^~~T~N~vv|~n^N|V~znn~vzll^~sx~}~e]JTx~|~~vr~m|R~z^f}uf~~mvj~bnyy{~w~uxznbl~zmz^~uU~m|y~|~|}}|n~~^vpzvT|~~z~]~vvz|~~}~Tz~~j|{r^j~}btu^nn~~^~~fnnv^vv|~v~fr{U`~m}]|\}{|~~|N~~Vzj^v^V~n}n~~~~lZVN~^r^^~Zyz~zn~~xz~\f\z|r^~u~~|~\\v|~~~v~xv}^vl~zv~t}vNz|^NvyRZ|xzn|t^~~yT~FnNz~^~~Xfv~zvvqs{~R|z\||Zr~vz~~}NYi~N\h^Yz~~S~^~}~~~e~}~xj|d~tb}n~uv~v~~~~}^~y~|^lvZn~^~{vwv}v~|~~~V,False,1.00136e-05
~?@cttu}~Z~~}lznz^~m~Nz}x~jpvtvzz~`~|\~~}~|N^n~{~v~~~sn]d~~^RlfZ~i}^~~u~n~~euzzZZ^|j~nvfnj}ly~~v~^~~F~^~}~k|v[~~v}~~|jFM{~L~~n~R~^nn}nv~yl~z~u}~|n~tR^fy~|~V~y~~^F~q~z}v~^vnzzud~wu~Vn|~~xVzv~~|~kz~~t[{X{~vZ~|ZE\^J^~~z~fn^zv|nT~~vvu}P^lVvmNM{[Xnm~^~~|~~nnv~~~|]\z{Er|~n~}zn~v~~xn~~k|rzzv~~^x|b~tu~~|n^v^Nt^nZ~u~\}zvnf|\~^]n~|z~vv~Puv~~m~~vuV}z~~~~tr|vhvZVm~~v}`z~n|Z~~~m~~m~RV^~n}~jv|]\|v~H}}}n~|~~`|ivN~|z^vnTf~~Uz}{Nx\M~~z{~~}nz~n~}~|z`|]~~^vz~l^}nzj~rZ~}Zn~lu~y~~~||NEjZ~n]vtz}~mx{N^}|~~{^~~Lmm~~}tz~~}J^V~~i|ZiZv~y~z^~N{v}ny~z}y|x^}m}~Vvz~}}^^~~|z|\Hz{fv|I|nj|\~zh~zr~z}Y}~l|~mz~z|~Nvt^{n^|}|qvx~~V{|m|u~^xtn}^}v^Vx}z~X\~~^xxb~~{|^v|}x~t~~}~}~z}nv~nlnvvu~n~~~J^}~ZyV~~Zhv~}xn}|}~Xe~m~s~nxs~w^}^sxns~VfT~|mdvrvn}~zv~vEM~}~qr|y|ltv}n~}^ku~^V~uyL~~^~~~^|~J~z}x~~}v\~v^m^~|NRv~~v^rv~rd}n~\[n]Nyk~~Zmv}jV~}|^x}~~{vUp}N~n~ny~|xnv}~~~,False,9.0599e-06
~?@c~}~~~~n{v~~^[~LQymb~}~zt}evt}xz~}~zn^~R}^~j~e~r~~||^ln|f|~~ju~{Nzt~nHwu~yz~u}t|z~fVz}\~~hn|r^~uz}v~^\vd~X~}~~v~|}m~n~~JvvzvxRN\^|B]y]n~~n]r~zl}vzz|~|x~vqNvuznv~sn}}\|}^~]^zx}|~}|z}U|||~~~~~nV~~J~~flf^M~~C|^~rzj^~~~Z\~||w}VxNv~~~~mR~~k~~n~v^z|z~}~~vZ\}xz~}F|{m~VY~v~~vv~^~^~]z|~vV~~n~^|{~l~v~D^~}Vj}~nzsn\|~vzZ~~}q}ay~rz~rN\|u^{}nn^nZX~n|]tfvzvn~zx^nl~~Z}~z^]gp~Ub{~K~V}vtL^V~^nv{~n~j]N~z~p}~zlsV?~n^p|u~yb|~nzN~~}~]~n^r}Vmh~zn\Fv~uP~Vn~~j~ujZ~~~R^~i~~~v~~~~h^~j~~~~e~}n^yn^ykVznm~~j~|z}n~t~mu^vR|rz~~j}u~~hx^~vjnv{|~nnNr~fzu}R~|y\|{T~xv~^v~^}~~o^~~h}^~{mz~Ml~~Y]vf~}z^|~nm~~^zkl]~]vs|tZz|f~~~jqn^}|~]z~D~~~|}nn^t~\v|V~~\z~s~~~~~v|~}j~~jlv~tx}qzp~nvvn^~v~}~~z}{~~|~ktj|Nu|^{}Zf~b}v~^^~~}zv~lve~~b~|~~tnmr~]]{mW~n^v~|u}Zz^Xzf~~~X~z~f~|U^VJ~vz|~^~~^vn~^|r~|nvUn~|mn}zK]Zj^~x~}nzn^z|]q~Nz}rxzy~r~t|nv~zur|Z}vTz~}z~v]~]nvmvsvzb~~|,False,8.8215e-06
~?@cnMnnz}z}izr[v\zvz~~^~~^U~~b~d~z~]|v~zL~x~}l|~~^}f}~y~z~|}N~nzn^~~~vq|L~N}~h^uvm|~~~}]~v^^X~N}}v~\Bx~z~bz~z\n~^~~~h~~~vvyzr}uV]N~v~~ln~~^vF|\~]~^]LVlnZ~Rn^}vj~vv^~~}}~|~~}^~~^~|^vd~trkj}]zk^zn||n~x|||d]bii}N~^}nz~]^Dt~Rlzlzx~vn]vz}^v~]nTc[~r^~~]fj~~~{mZz~~~z~[zd~TT|s|W|Zv~~}xtu^u~u||lnntv\~zvL~~vzVv~[|Tv}~^fv~|zZ|RnZ}~zz~Mh~}IBV~JVVvY^v}^yz~T~U~n}~Z~~~jmz~ul|}Zr^vv~J~Vzf}jR~yzz~|~^^XVtvf~Kz]zXsn{~^^n^x~znnt^I~M~[zRx^|~j]^~|~vl}nv\~|~~|x~~Vn}|~~[~~v~]^Z~~mrN{l~~zn}mzzzn~^z~|^^^nJ^v~zv~^}tfz~yv|z~~jz~~v^v~{~^|yzz~}r}vtn^~{~zvx~||n\^|r~N|~yn~|q~~~mn^}Pyb^~~~n~kz|mvz^]nn~~z~^^b~]yz}~v|}~z~{z~^t]r~zvT~z[~|h^zfvw~nr^|x|~X}}|n~~zzv~z~v~n|~~]~~nz{{ztfv~un~ozn^^nnv~|n^~|jnn~s~|I~z~un^~v~jz~~~~~t~~~|R~|z]uxL}~nz|Vn^nIb|Z~|~\F~~~vvzt{z~~Jf~tr}~}~^}]j|mzf~}~~\~^Zn{~~~^|i~T~~nUrr^zlq^m~zNln^mVV^}~~u~^~~\~nyf|vZ~~z~hy^zv|mg~~mtZ,False,8.8215e-06
~?@cV|vZP^|zRz~^zN|zv|mmZmz|t^vunu}|xn|{f~f~Zyz~}z~~r\jn~m|~jxu^\y~V\t~v}W~~|t|~Y~~~~v}~l_~vxNZ~nzn}~n|~ju|nZ|~\nt~~~vT~uptv{n~^vvr|jn~^v]{n~N~}^~~Nz}~|^n]~h~X~l~Nz~u|w]nv|~\~~~vx~~~zuV~n~zu~^~}|qZf^^~vv^|zUv^^vNNzcf^~s]}z^mz~zz~je~^@B}R^fxn~~|n~}h^zp{~~xz~~}h~}^~^^v]\vYnVj|wp~z^jvv|~j~~lu~~{v~~|~vvzzz~^~hu\N|~|}V}n^|Z~n~z~zv}~}|}nnnnZfq|~|j}~~q~r|Yr~~^n|Y~j{~ltv}tz|v|~F}|lvujJ|~B|z~{^vv~|~VzZ}~fzl~v~~Zv~~~t\nj~~^|~~~u~~^t{~j|v^z}~vvnsx|~u~Fzv~R^vnn|N~]^mz|zn{~~Vwj|n~F^zw~mn~mz|~~}jIn\^rttnf}~k~vY~|nNz~|zY^Z~j~m~fmDZvR^fZ~~m}~}~x|z^nN~~~~zV~||^|~~~t~|i^z~rnnz}~~s}~Vmm~n~~[n{y}rnn~~Zj||n~J~~^v|uvzzVzvzn~~n|jH~~^qtMV|~{nl~v~f~}||~~}~x~~~V~v~~~Znv~~]~rnz}v~|}}m[|t~^~~~V~~~jz~~}Y|~~zveZ^v~~}~v~vvF|}f^^~~ZMyXTVzrsVn{n}~~]~~nzv~}|}}FTz~]~vYLiAV^}zu}Z~n~v^\^~~}e^~n~nl~z~}~nF{|]|rt~~~[R~rix{wnl}~jfzZn{~b~vtz~|~z}|~~~vw~vN~}zF,False,8.8215e-06
~?@cnl}n~~Zjv^Vn~fl]~^nk{~tvjrnzz~~|j~Elsn^zldfJ~^fnnv^^^U~J}nqi~~^v~~^ZZml~~msyzz^||z^l~\]]~~hz~Y~zyra~~|zL~~|~l~~~f~^Wnn~j~YvF|Mfj^m~L^yl^V~nzz]f~~|{][|N~xYvn~bvq\zzv\~z~~m^|vnl}^uy}~}f|~n^ln^~|]n}Fjn|^V~~z|nvm|~~Zm|lh{Zbv|j]BH}~~~~~n}yvjxZ}zx~~~y~e|j~|v[~ml~n|tzV{n}U|n~}Jphz~~z~tvV\mzv~~~]nnpyv|~Tj|~~z~^n~v~~\~z~vy~~J}~q~Z]j}~t^z~~f~uL~~r}t~j~M\^Z|}~rv~^~v~}~~Zv~~L~~Xvu~v~y|~^r~[n~|~~|n~^~~v~vw~fz~~nxy^|~~t^Z^NB^~w~~}~jpv~t}Nj|lnn~~~zz~Vnm~}n~|~\|}zlU~]{~tz}~ntzvNvt}T~\~fvvv\k}^}~xt{v~fzu~~~~~N~z]~Vwq~^~h}l^~z|ln~`{iVMR^^xnv~v~~Qz~z~^uZ~V^r{nj||~}z}~f~v}^um|Z}X}x~y~~n~~|^|~j{~|j}|xVjh}~n|n~~U~vvxfij^n~M{^~^e^~~V^~utrz~uz~~~|b~~~~~~}\z~~U~}Z~~]zvz|fz~~~|V|eV~z~v~Np^^^}^~b|~~^vj[vzv]|\~vzd|~~~^v~~^nevn~~~^~~}f||~^|~j~n~~}Ztn~nz^v|}F}}~~ynVJx}\^N\~~Nnnnv~zjyj}nv~nlesNu~lmznbV~|~x}|y~||~~\}^~\[~~~~R~vm~^z~~|ns^~vxrn~u~,False,9.0599e-06
~?@c|~~V~urx~}~z}z~~~n~~}n^~VF~p}~xcg~|v[~rtz~rvvzz{~||xl~v}^Q|v~~X{~~~^u~~^z}VJ~~ev~~~|J||~~z\X~n~}~z[N^b^|n~|Z~zx^~rV}Z|~[]~I^wn|~|u]rZu\}~zQ~]^~vvz~~^avxZnvn~^n}|N~~f~|~rqVv~\~n}\~Ri~^ykv~~fzlx~~mv\d~~ZzN|~y~~YnezY|tr~R^V\~~~]wz|^Zyr~N~~|~^g\nz~~~RzVZ~~|z|^~]~{v}n~yi|~\znvi~z~z^qnrz~v~z}bnzY^tTxvvv~y^^|{n^}^kV]]^~~~Z~^^^nh~v^Rn~^u^Zru~nZzLt|~lzr~n^~~|]nt]~~~~~^~Zvzjq~}N~Ftvez~~~]~}^|~v^ne\~Ut~}hb~z~v~vzv^~~~Lv~x~|}}j~~n~~u~n\~r~|~~~^~~ol\vzh~~m~~^zfz~\rE~~MvzfNr}z|z~~Vn~}|~~mv^~~~~}||~v^~~L~V^~tn}^^p|T~~x^xEr|}v~i\}~[vd{vm~n|~^xV~~n~nty{~d||n~zf|~|~~jvvVj~kzvr|~R~{}v~nnvmvJv^}~~}~|~v~~~n\v}~]~TS~tX~~o~Vv]f}}^XnN{x~ZV~~z|N]vlx~x{}LnT\{z~^|^~Vnr}}w~yb~~~{Mf^j~z]XZ}^n~~^n~~nnzz^mz~v|nV~^tN~~v~m~vw|~w}~n]|~d}z^v~~Uf~n~v|~~]}~^z~{|mv~lt~~u~~}}~|~u^}Y\~Uhz~fm~T|vxztb~vfz~~n^ynz^XYnf~ju~V~ez]|o~~vT|zn}njq~}\~~lv~vv}~~xv^\,False,9.0599e-06
~?@cVhvbn\~~|~vu~^|T~tv]~nzz]V~z~~~~~z\\ln]}~~gj~twx~vn~VfZ^}~~t|^jy~^}~Nu^W~zf~v]Z~~~vfz{~|t\~x|n^^~~zzvuZn^~x{|^Yz~uzv~jfl^n^{{~yzr^b~~j|zn~|tY}y|z~||~~Z~]]~~v~|~td~~MDxN\nu|t|~{}x~vn~p}}{}|U~V~z~||}zm}~wtzzxv~nnzz~~f~~NV~~~vv~^~eq^Uxr~~zy~MQ{v~z~n|Uft}}TVxb]zp^L~~~~z}n}znw^^{z}nj{kmu~b~i}|]~~~~]~~Nz^^ZvznbF~|v~^m^|^iZ}w~~|zn~~}k~]N~~Zf^R||Snn~vzn~~~~z~I~zuV]~|z~f~v|~|tx~t~Vn~~~{[Tn|l{|x~~~~v}^~ZQ}~lLz~h~v~Tfzng\}n~lvx}~um^R^tT~~~v~v|~^}z^}~}jn|^~|}~Coa\vv\^znu~|nd_v~^L\~vv~v\z}cvvv~n^vZ]|}Vxnv}~~bnn~N~jnVz|nNn~{yvj~^~yz}rnn}|~~^y~p\}nSZ^vf~v~^l~~~~r~vyyy^}j^||~~z|^zv~~y~n~^{^]~~NZ^~z}~N~~~m^~~~nx}d~y{rFV}Z~~~~ntnmn]vz~~~dv}^vx|zz^|n~~^~pFV~z^~~~v~~n}~vb|JN~~vz~{n{~}~~nZ~tzvJ~}~f^~~~\~|]}s~n~zyK~r}~z~v|r~~v~}NTn|~r^}ZvV~~}f~n~F~~z~zVqvvl^~~^nxv|^T~^nZvvznv~r}z|nh~n~}}^||~~^~o~mmAm~NNnF~v~~nzRv|nr|~xNVnzzR~vwvn^V|~lv,False,9.0599e-06
~?@czny^vylj~HnZFr|rj~um|Jnuzn]n}NZN|k}v~n~~zb|tz~^~n{v~~~~||^~~x~v^~nL|T^z^}~v~v}~[~vFZ~^Vn|}Xznun|z|~zzNz~f~nnnMIfN~vz~{f}~~]~|~~r~Z~~~r^^n\|^~~N~X~R|vn|v~~y~}]vmv~VfVm~^zFV{j^~~nmN}^^M~}|e}|NQ~~j~|}~v~\o^ev{r~^~NyV^iz\u~f~~~v^~ul]{v~^}N}~^^|~V}~[e}~|}~}}tz~IzZ|}f~{x{{~t~|~Vm|]p~{~n~xdIb|}~n^~nz~~~etlnj|~~~ei~v~~}dv~zZnpn~~|~}~J\}\vzvn}~~yrv~m~M~~~zvfn~J~Z~M}}~^arz~~x}~{~~~}~z\~v}x~y^|f]~~~~u\^|~Q~t||~~{mzzZ~~n~\^nzt~~}yzyRzU~uZz~~}^~~~~~[t~v~^~l|o]]}|~~pzUkzv~|~e}n~[~}v|~sfnpNn~n{^rz{xv~e~ut~^~j~Nv~fz|w~m~~]~~~~~z|vnrexxf~~~nnxz}Z]nxn~nun~u~~|~`Hnvv{}M~lx|vZ~~vqzn~|nul~|^~]x|^~|}}yv~[~n~~}~~zn~l~d~t}Mj^~~|zn|v^v\lTw~vmr~|~~T~F^~i}]^~y{z~\r}^~nzn|v|vt[u}~~~}~yznzy~^v~}AV}~Z~vn^ny}Y}|~}~z~z^~b^]|y]~|qzy||~lnz}~J^~~ll|~^~t]Vlg~n|mlj~rJn^z~z~~zz\~}NI~n~Invzuzr}~|z~~m|n~|~^u~u||\y~~x~lr~vJ}^vt^ynuh^r^~}vv~r~~rv|Zzn^y|~n,False,9.0599e-06
