g6,attribute,time,total - 0.0012
g6,isDistanceRegular
~?@cyvye^~~}~j~xvz~jyv|^v]~~~~~V~V\~ix}z^^}vvv`zUmmFz^~~\~~v}}vv^~^NxJ~|~~z~z~|~z}~rl|~^n~zv}}nz~Y^Zh^~f~~mb||F]~~^^V^v~N~n\vN~z^u\r~~]~nV^\{}~nvr~~Vnl^hvr~j~~~Tmz^z~v~{~r[~k^{mt~~Z~^|kV~f^[v~]z\~~P^~^~~^{}~~~tzl~u|n~~}llqvN}@zn~}xrvnuz~]zf~~}uy}~n^rvt~~zrXw}]vz}~~vrb~vZzN~|VywVxnX|nvYxY}R^jzxNr}Vj~M]bnN~}~uvf\~^}ptz\G|v~^~^n|]}|~wjllm}ny}n~^~?zI}NOz~r~^]~v\t~|~}~~~~zJxm}nk|nNns}~^zFttzm~}n|hnnx}L}~}il|mqr~}|}VnnVev|{}UN~[~~zZ|v~H}~Nv~\jv~}vF~V~~irr\~Vl|]n}|krrzUl~}v~\^Vvv~y~zwn{~^^^||~vnzm|~\|~^}~V~~~xv|}j~|n~{n|]FNjl}jn~^~~u~y~vzxLktZ|H~~~zvkpz~zVls~V~J~~~v}zFn^snzJ~~~vkZln~zx~~l~z~|Nu~|~trv}}~zzz~v^V~l}u|vy~l|znY~HmB~~}^{R}~zUlC\~|nnVr~nJr}N~ZEr~\v^~|~tZ~~|^t|~~^tv^l~||an{x^~~|z]~^t~~~[}~ZNNn\R~zzyr~Eb^~ur~n|~VN^aj~v}^vvz^h^[U|~tzn^~~f~}}|}f~tNv^zd^Vx~~|UQ~U|~h~~~|^t|uh~[~j~Uor~e~h~|w^]~}~n]z^~~^~N{~\t~~~|n\~^hv~~},False,4.00543e-05
~?@c|~vUvjr~^|}}V~V~Vv^N\|h[~|~^f{~}nvt}z|l~lxvfNvvvqqv}f|dz^zzn~~^d}x|^||~~zN~q\~iyx~r~tnf~|^}tv]v~nqz~zfr~lvRxT|}|NxvhvL~ny\~ySl~v||n|z~if~^v~~Fh\~jy}V^vl[n~{nz~n~~vvv{Uj|vmuVf~}vvlyUxY|~t|~Vnu|}zXv{zz{~M|~}~hvZ~t}vj||~xn~xztx{]f~f\~n~~r}zjy~}z~vn~nnWyn~tV^xr^Uz~}^n~jF|u}~~u}ur~m~}n~z]uUz~f^\}}N~~}^sfpy^|z^wmnFu~d~jmvm~|nzyz]z|z~~\v~|[zNn~vB~|vtx~q^~^vn}~~f~~ty|nvN~jvn~f{tx^~V`^~~~z~|\}jmb}z~nvwvs~zvjZ~~v~N}~~Z^~~w~y~]^vS~j~||~]|ms~~s|TQ]~nxvU}]s~~|~zZfJvn~z^v^PZe~~~~^~rNn~~}~xj~}^~~}uwn~nVv^hmthp~|~z~~vv\lNV~{~~~wntf~^|]t~~x~Vxf^~jr\x|~L|R~^U~vky}yV~||bvuvz|^ry~mya~x~u~~f~M~yn|~\u~~fy~Y~~~j}\fNn~|~~jzrr|O\}~nv~n~~N~l|~]r}v~Zj}q|rv~lf~N~}@~vzcjnj}wt}^^n~eU~~^v~[M}~n~j^~x[]n\~~|~~nv~n|~]z^|Zzn}V~`^~kU\e~~|~Zf~~|^\~Lr~n~~~~~vz~uD\N{~x~Bu~tzmn~x|U{~}|dz~~~~un~J~x~~~~zmzuZf~~XvNF~~~Ul[~kxj~v~z}^r}u^r~~~}|vM}v||^zw~~{mfn,False,1.28746e-05
~?@c~e\~x|^p[XZz{~n~B|vV^~}tvjjv~~n|~y^^u}~~hrq|zbltmp~sfzLUVv~~z^znp~v~~~~~^b^|nl}V|x~v}zz}~tm|m~yz~re^rfm{^~Z~]~xz~vkv~|}F~kz}~Evy|n~}Yu|s~~j|Jlz~y~hnzw~~f~n{\|D]~u}vz}~}{~zlj||zNwnz~z]|nveN~Lux~nX~}j|Zyz~|f^}j~v~]{~^yf~vm~vZzd\~n~~~^]~~n|\nvZ~vrqvz~^~^~Z\~~~\|nv||~~nh~~kJz|mn~~nRznyxz|~~n^{hzRr|n{Yv^~myv]^]x~t}pzv}]|zmz^nn||~~VlZfVN~Vz~j~|rJr]v~~lzg~Y~~~~Wqnvlz^n~Vnvs}}l~K~~Tp~vf~~hz|{~tn~|Auu|~}v^qvVn|}n~~~}~V~~yt~~Nn}nJM~~~yYF}~zf\Tm~n^~~~rn}v}zjzJu]v~^~}r~nn^vntn{~~N~yivn~\~nv~~R~vt}f~}|}^J~}r~nfzgn}~|~n~zmmnfV~~Nndmj}|t~~}~znjr~~|j|x~~~nzb^~l~vvi|~~~|f}|y~z~m|W~ldzUv}nzz~zu|~z~nz}U}lzx~b}|~lvn|Uz{v|~~|^^Jmv~y~c~z~~^Y~x|~~}v|v||m}d}~~m~|efS}j{^~Xl~}Zn}~yzmNKnNzv~l^z^^l^}Z~xq~^v[z~^}v~~^tloZVxv~~~~pzlzzrzvv~Lzjwm|zn~N{l^~Jxy~v~}|y~~Rjtynv|j}xV~zTV|~y~nNYvf~t~z|ym~hn]t^~zhtt^~^}K~|mu~}]wk]^nN^E^~||v~^YnM~n}^]z^^t{,False,1.09673e-05
~?@c~^ufY}^|~Vz~Ncs^Ln}|~v|f~t|{~vr~x^}}[~^f~fV~|~|vz~~}dxTVm^j~z^n~v|nMouL^l~||~u~fr~~~~nlp~~~v|~n^n[dt^}l~^^zqzzR~{v~\^~rvE\^~bMXvN~s{^}~F}}p^^y{k|X~b^mva~~z|Z}{X|nrnvqn}^}~^~nMVy~fzp}}v^|||}nmXVW~z~d}m}Uv~x||{~~v|n}~s~k}my~^\l^znz~N}~q~n~Ux|nr~lkvzDkxu|}zn]u}~Zk^~}e}yz^~n}n~~zzyu~x^^~vi\~~b~nzVna[~mJj~}P~~}vnn^^m{~~\J~|tN}~n~m~}zb~s}vnv~n\jx^Z~uLzM~^l}~{u\}n}v~~~|zv~\Z~}vmnn\N|}~zz|vsv\n|\~~N{vzv~z~~v\|~n~\~t~^~t|~`~tqmr\zn}~~Zt_~}rs^qu|[n~n}uz~~r~e{zT~}{nn~~ryp^nU~]n[|vnh~nVm}~~~t~zutv^|z~~rv}f~ZjVn~r|~|vn}~vefFN}Z}|c~}^n~~~N~f^VE~n]z~rnV~vzYzz^~^^vy~n~~zr}yzv^zYv}sb^}f}{~z|~Naz\\~nz}vZ~^~|gv~|m]^n^ezz~Vx~~}~N~}MVvd|}{{|}^^z~~n~b~rNvmfN|~}~~zz~zx~^uyz~|m~lZdJNM^v|k~bv|}}X}^~T^zmxf}~u~LnlZS~zn~yh}~~N^t\~tvvnvj|~v^nnn~~v}}~~~j~^~tn^z|V~|~^~nFzVn|zzn^~fe}~^tg|vZz|~\nN^x~~~y~n~~n~||N~~~~r~~~^Av^k}|y|~E^rzYL^Z~~LvR|~r~,False,1.00136e-05
~?@cn~^n~uV~~onMfZ~d}~nn~XvLnn~zzxt~y^x~f~y~tf\}}vzzlNzn~ujTkv}~}~~~zVu{MV~~vewyv}Xzu|]hv~~x~^|~}zn{N}}t~~}^u^~|Uu]~fzu~}}nz\~~fX~Vz~]~~wYx^zq~~}}lhxv~^~lj~T~~^n|kZ~P~~]rkjl|~~~nm~]Vv~uvnv}~\V~~|~y|nxvm~~^V|vyt}zt~~Y~~ZKM[~}lZU}Luf~^~u]~uiZn|~u~y^p~liZlN|}|\~^^nNW~}~SrnXh~|vnv}Vy~^}~~~^]^Xuvj}~|~nul}^m~z^N~~qv}n\~|}~xuj|z^m~RZnzxXzr^xyZ{~F~yv]~fV~}~}^~v}]z}vu~~~ylw~]v]Zv}V}~^rU|n~~n}}n^zlw~]jU|z]|z~|~}~~~{Vnnsf~Lfm^~nfxnnnmf~Nr~}td^xZ~}|}npZ}Y\~~|p~~z|tlY~xz~u}NV~~f~~r}v^^nvz~}ztzyrx~~~zvt^x|n\~^ztp~v~~zn}oyrz~~zV~|~Z\y~[A^Y~~j^z^}vSvz|zfzzZ~nxvV^xv}{}ru~~^|n~~z~zW~~~~~}n~~~Nnnvzu~~vsi~Zkzr}vzu\znr~]}~~w^lj|~\r^~Zvzvvzznv]|~~t~j~V^{e}ax~~}^Fz|^z}rzjzvT|z~ylfM~~\vux~V~~b~}]~yu|j~}xuvj}|~v}lFv~lX~NN~D}zd~Fnzv^zLv}dt~U~pv~~gZzz~~~Fvv}^^rmn}~~]v\]~fnv~z}|rohnf}n}{]~^mv|vlnZ|^~f{ey|^~~~~yv~|}zn\~NjVz|fzn}}~kYbv|^~vzq~v~^~},False,1.00136e-05
~?@cZz|enN~~~~r~vur~v^^Nm|n~~~N|~^yj^|jV^~^}\~lvUl}~zzn~lz|~FUv^Z^yxlzn~}\~}}nz|}p|Vvw|~av~}~tzj^n~Tv~n~x|zu|^^z~]v~~v|~\~zJtly\VFB~y~ry~~znn^~|~}~z^vtzvuz~~~Vl~|iz|uZZ\n~~k}|]~|^~]vj}zu{jznv^}|V}~lunn~~nvn{~]k~d|jnz|~m~}z~V|}n^~|~~~~[cxizz~~~xvw^~v{s~Vn~~^~}n~n~|^}vt}|n\ivnyU]n|~^^^n^n~^Nt]}v~zn~~~n}uy|^^|~h]zn}|x|}r~E[t~y|hNv|V]|ffv^nlZ|NvjlxRz^sDf}~zYJZ~Z\~}m~}~v~VHz~svz\^xz{\LvzVlf~tnz]z~[l^z~zUz~gv~|~vVM|v~{W|v~x^z}~~~~Xm^|rzJ~Vl}nw^zs~~~~n|~n~lny~X^l~~rN~~zJFvn|~znz~e~y^zVNjx}r|\~tbzj~p|bamzr}}}~V~|~\znnreuv^yNz~l|nn~nf}BV~NL~~m|^^~nXt}~wu}vn\vf}n~~^n|FB|x|~vj~wml~lF~M^~f~T~v|}n}~~|^fbr~j^mYnen~|~V^~m~V\xz}|u~rV~l^[~}~s~rJ^m^v|Vqnm~L}~Zv^nn|\|~B~zzrz|}~]Nfv}~zz|{u~v~~^~Z~z~~ZvvzTn}|~~Mr~z~l~n~~y~~~n~kbg~|j~}^[vz}zln}|\~~}]~vNh~~V~~ZbsZ]|}nr~znvrtmli~ln]v^LO}}nf~zr~\zZn}~fn||^y]U|zvtz^Z}^]^]m|xt\vu~uf^}~zr^n~u^jV,False,1.00136e-05
~?@cn~yyyh~Jisz`lznv^zmn{L}}j~um~llv^xRT{^~|~|t~vntz^}u^|^xrl}^Jnvt~~rz}xJ]}z~m{~^~~x|}}v\vzn]N}z|~vj]~^~L||df^^yN~zh~s{v~}||fr~|~zl}~nj~X~~xu~~|UuZ]w^~z^x|rMyb}vxuoL~~}vyZ~r\v^v~~~vvY|~~~n~^v^^~n|zu|~mnf\vlr|NnlfZuxv~FlzZ}~nZzmxym~~zzy~tLx}\~~~^N~tvNj~x~^~npv\Nrv|~Rz|h}xtnZ~u~~zZS^tt~r^~~~~a^vS~|vt|||\~n~~v~~V~|~v}v}y~~~~n^xz}~q~^v~~f^}r~^~|lr^n~e{vl|n~{~]Nl^dVy~u~^]qZ}~}yhj~h~n~^~lN~~jq{n^Bzzyz~Jf|^s~~tvVg]tv~~v~~|Ny~j|~^zn^]~czn~}~~x[Rut~}lkZN~n|~nm}|z~^~|nrkh~zS~Wvn^~m}d~~|z|}}|Zj}y~NNv|v|vnbm\n~}~n~~mz~N^}r^Z~}v^s}zz~n~|zM~l~N~v^zv~rr}~nM~~x]~~^\^ynz~^Xm]i|}V~~b}^z~~nnF^{~{z]}}]nx}~^~v^]~rV~~~Hx~|muFfm~~ztFxz~zvrz}t|n{~~rfV|}z|Vzp~xs~~V~nnFpv|JrzRm\z~}~~t~~~eX|bf^sfnmvv|bvnv{}~v~Q~kRT|T~~n}w~}M~u\n}|nz~~r~\sv~znne|Fm{~~vS~xz~~Z~~z^~l|tn{N~xxZ}~~f~^T~xy^pf~Z}|~~t|^~n~mZv^nn~~ty~~~}zfTvv^|F~L~yl~~v~|ZZ~~{Y}^zv~fuZj,False,1.00136e-05
~?@c\~ob~zv~~^vR~znNZ^znv~jlxvun^x~pfjvupnUu|f~Zvv^_bZ~^N}~^~zyv^Ruqnti|u~~jZ|qy}Nny~|}HZ~}uv}[|^n~Q}^N~~~f^~y~d~uVx~n~\~\frI]~yNzz~~n}{T}~v|gzr^V]nz}~z}tY]~~qyNUf~v]L~~nj^f^~{kxu~^w]m~~~~\|f~vZ~]~~|Jn~~~zz~|numE|}fm~vlnz^V|n~njl~}\i~zy^ZzN|m}bb}~vtvfNyk~n~^@zx]v}~nrR^ZzvLry~~|n}~z^}M^^~m~[~~~n~d~n~r}zV~}Z~zx}rp}j\j~uZf~~}fzn~^z~~nm~^{vfolyv^mul|b~~^}^~v~^f]z~^y\orz~^\Znz~|uV|~}~L|^~~|nNN^Re~zn~r\|]~~~~~h~xdjnz^~mU~~Z}n^}]Zv]|~n~~}~~~}u~~e~~}NmZ~vmQ~fum~z|n|j||vW~zu}|}u^n~j~v~n|~^zy~b~w~~_i|~~\snfvz|flV~~~{k~X|vmz~znt~~~~^|N~SzinvjNfMj}nw^}~^~v~|j{~~~^vz{~rVj|Z~~l{v~v~~~Z~}r\~n~cB~J{{Vuzn~~n|}z]u~}\|\r|xZ~vkz~w~~znZV|]~~~yvyNrN~N~~~N~Mj~hu}~~~zk~Tzz~`|z^|vvz|z~~wffz~~rz~~^~}~~}^}v}\}v~~Tn~Zf|~nF}|f^}~v^vgzv~j|^Z|z^}F~x|N~~~~v\~|^ybz~R}~xtXzzzV^|z}~^y^}~Vzx|t~v^~vqnnz}^qn~|j}v]j~zZ}~w^~~zdtN|~}}~|jef}mp^~}~UZCMM\|iu{z~,False,1.00136e-05
~?@cr~^|v@~z|{rU~uvuzl~~r|^v~^nv^v~ln^|Nw~xvkw|~\yd~nnwn~^v~n~~~n~|^y|Z|~c^vn~zYv}~}~~x|}wnzl\~hv^~~|}|jtunn~~vjN`nxY~~Fs~vr~~z~^mN|zNNXfM~je~N~f^^|jZnxzn~~}f~~|^j~~v~~uv|~x|}~iZk}~lf~~Uv|z~{{vzm~~~ZvtmL`^R\~bxn~^~N~z~z~v^i~w~l|\vn~lzz~~}]n~~}~zyF~~Z~]nfmdn^~j|ntNxVf[~|n]~Rnz~IzYzl\^JzrwvZa^|enn}{~~N]~^v^|n|~~vvyq~f~~}z^Y}zl~vx~}|u~m^zznt~~~~^LtzZVzvY|~[v~fz^{^zn^~LV~f^Dn~^|~|}Zt~~zrn~|{~|v{\~d~y]n}VzvHm~l{F]z~{~|vrN~~^}nvnL^lN~~ZvTnqV~bdv}|L~~}|t|yA~yz^}^~rXvz\z~m~~~v~}vj{nvnmrtrfvXzt^c|Nzvf~z~uvs}^~}}J~u~nMrZj|]EIf^|rnTVX}lL}z^ndn}z^nx~f~j|~^v^~vv~~~z}n^T|i[~Rnuv}|]^^^}vj~fN~^~~i~mt|nrvr~x~Vwxu|v}vB}U~z|x~~~z}s}z|ln^uz~~zhs~~pnvm|~~\{~v|~jk~n]~~~z~j~n|^}s~~~~_}~}Qkz|~zT~{~}m^vVz~zz~n~p}V~~nzqznmuv~}QN~}vR|~j\~~~n^td~~nN~~~fUne~~|~rz^~~f{}~~n|]wn}u~~ZFvX\\uj~^Nf~z~z~eR^VvvV~}y~wvv~~jv}[{fv~n^zjNvamznz|~~j~|xzn^NrV^z^,False,1.09673e-05
~?@cnvn}}f^f}~lti~r~~ef~~~f~^~b}zf~n[|k~zzmwXM~VV]uznz^^^kzFmzhjz|^|F~fzqk~n~~fz~~Rtn[~v]}ZZvv~~^~jQ~v}z~~Vt^^r]z]~n~]~hr~J~}~n|znQ~^|^d]VF|i~d|~~rzn~^t`~^~z~zzFvyT~nj||~n~zM}{~}}vj|^h|^nvum|vr~~z^f^k~l{~z]~~u~~x~zv\~~}~~Q|z~v\nn~l^t~~|}|~~~~yf|UyN}}^e~^jVs||vy`vvn}~^~v\nZ~\~j}v~zz~~|_\~~n[nz}~m^z|~~]~~nZ^m~N~~|nb|\~|~^|lze~n~^y~vT||~xn~vd~\zZz~|]~z~vzVv~]mny~~s~~R^NZvp~^~fzf^|z^zjn~~z|hN^}~|~^|F~R\{nhvr{nvv~yzln|x}||~x^iq~~^~n^hlNlYN|\~n]Nxv{|f|v{~]zkf|~UjZJ\~y~}ql}jn~[^~V~}zFnV~~~|w~|\nz{~L{g]zU]^^M~~}^nzZd|^v~dn~qjrr^~~|n{|F~Nvrz~|z}r~^qlmYzXZnF^~~}nv~}\n||vnx{v~~ebv~z~^V^~~~n|~nt}{fn}xG~~~~~i^\~f~pvIy~}\|jw]{f^^YV^N~}zr\]n~Zj{X~yNzm~^^|d~F~\~}}}Nu~y_Vzv~N~~~n|~Znz}nnvp\|[y\nz}~T]ztf~^|]z\l~~~~N~~^~f~^^L{|^mV^xZ~V~zzxz}nv\^r}\~md^}~}z~}E~Q}}}|~~vv~fn}v~|~v}nt~z~~^uJ|^~`mb~~yz^|vol}\N~fv^nnfnv}a]Rw~}\z~^~^nz^|tvvmz~,False,1.00136e-05
~?@c~uO~v~n~^r~]~^m~|~^}pq]~z]|b~~}\}~rvRn}~RZz}|zv~~~TmX~v^YL]{~z~yv~Z~j^pvL^vm^~n~zN|~zx^n~|ut}M|flvV|NllZ]~ur~~~~wx~zVjF}v~n|^~]~jtn~vv]n~|~xnv}~nnV}~~vzn~Qw~~z\~~nSv~}rnD^m|~}~zrz~v~Vzuu\z~^~Kn|kj~\z\~|~^z~yM~{j}~k~Zlzz|~V^~~zVnT~zf{}zb~vulZ~~R~VLbqrvt~jnn^x~jZ~^~Vu~nx]q|vn|^vl^~~|^zz~@^~v~~~v~vn~fuvz`tz{Zx|^}~~~~vU]~^~|v~~af}^Zn~}r^^~~}Vx~fvzzs|bL}v@~x~~lw\U|x~~}~\~n~vtz~r~~~}zln^f~z\|evv[t]]v]f~N||~~|{^zzj~fz~~|v~t~x~vfd~V~~n^]r]~{n|ur~|~xn~xz^n~z~^}e^^\|N}~~dv^^I^bf|]|nv~|v}^u{glZ~l~^vR|R~~q~hvv^zYv~fz~]qHg\uz\dmZv~vn^vlzr}vv~{u}~|dt^}z~~~~^~]vj^|m\~vzz^vn|t~Qfx}j~n~~e^r~~N~nru|~u}lz]^b~~r|zn\f~J~ZvzjxnVnNt~^~X^zu|^^~\{q~w^~~x|dzNnmZXvoG||~xvx^|M~}dvnQj~i^xT~}^vzU~|u}^n~Nr~wFx}\Z~xl~\~X~vz^^rvz|V~mv|~~\s^~u~Vl^\zfxrDd~e\~u~]t~iz~~nvnv]^zhn^{l~z|n~[]n]}}V}x|zv^~nVh|~|{~s~~zj~n~n~zv]u~}^}~v^v~{n]x~vnXTVm~|zfv~}~~,False,1.00136e-05
~?@c|FzZ[v^lvfvyn^}z^lv}nvxN}|d|v}||m~~~}|^n~Xv}sz~^k^^~txNn~z|^{[zY]np}~nn^~u~zmzMzzzv]^~|qVZvR~ve~~ZbT|~}ln]t~r|}|~vNH}{t^|~{~N|~qnzfx~U~V~y|}|~vNny|^~|||~^~RjV~zm[}|^~}}O~Uj|~~|m~z\nv~|v]{~z~o[T{}|~~L\~n^~~l^ZvZmvyLnn\~~~vlxm~{nihv}NtuTnZq~MN~{tnV~^|~v~n~|\~}m~|^z~~Z~~l^^mz~uzm~~~B}x}zj}~nf~~yv\^|UnnvRLu}|vzz^nVntX}d|}|n^v~||~n~mz~wt}{}fx~~~|^R~ny~v|s}~~}~rv}~bnf~whvz|Z~t~VRy~\]~^xx|~}vDxn~}}^z}~zn~}n~n|~}R}]z\}v|y]~q|~L~^~Zlv{pL~u~~t|n|^v~uz|~~|~~Nj|ZXtzY}^~~mx]~~l~nMb^|~^Nn~x\n||}]|~n~|nu}|~F{|~p~~Z{y^r{{JR~~{|vfVjt~^F}~^^^fl[z|~~~z~n^}|Vf~v{~|~]^|~|bvvz~}qnNy~@vy~}}~~l~~rf^v\iZlj~~x]}~~}|~^~~V^~z|~~~|zetzZn~ny^~bTn~v^^e[~nf]~~~N^znz}yy^u~zv~v~~|]~srinz~^|~]t~|n~njV[nnEk~~}nq[rZ~||xyv]mtm~|nt~^|s~prz~}vmzi}~|~}}mnz}~^~}qNMjnTz~zvd|}{~knd^uq^~}z~Yy~z~z[nt~n]}Z|efrrm}~r~zy~nnv^s~}sp~\||p]~x~yyt|~r{pvnz^vm~}vvvtz^X],False,1.00136e-05
~?@cx^nj|f|~~zv~emJ~v|nv\~y}|rnlwtln}~n}~~y|{twz|n~jv`m{nj{^~zp}|]s}cz[~~ngBvz}||~~vnnz}n^~|\~zv|J|~~m~I~Vtn\Nv|v|z|l|{xv~~|^|zz{~^v^l^~vuy||tvuhj~vnL}~~zn||u|\~N}v|v}n~^v|n]e[kl}~t|~vyxn~^~m|~n|~~uwz[ennsnV^|vyz^~Rz~m~~p~]~~sy~Z^~^j~rz^^v\rzwu|nrVfv^~{}~~~f~~V~}Z]}ujY~zf~~yox|rXnj~]}}R~~^L[Z^Ulyxp~]rVV^]zzm|n~w}vz~v||Vv}z}u{|V~Vz[^yv~~|ml~h~u|x~{}~V^~y~~u~~^sUdf^f^Z|^~vN~tzn~~x~~zt^}}~j~~~zl~n}lL~^~~~zY~}N~NPt\p|Vv~|^~}fz~~l~rFb^|~z|I~uzzt~l{fb~n~|^~n}x~v~}zTn}n~rfnMP~ynrvl~x|~m}t|Rb~yx|^Zn~lv}^~}~{n~B~wm}juxnn~n~|~~ltjz~ztuu~~NTz^u^l~R~\~}^Uzyz~sly}~}r~~~Ln~~vxz~il~T{~usvy~|nz~~ymu}~n~|~~^Nn~~N^y~~~n~]V~jYd~vn~zfxx}zj^zZzLf}^|Nvt~Tzf~xxv~~|N~^y}~a~Q~~z~~z~~~~ne^Y|^~uznHfzyF~~Lxyq~zi}|]xf~u^~j~nv~kVznz~n~d]}nz{T]]N\~vrpzxNm]]^~^t~]~~}vV\z~^qn^~y^~^~~~qczz^v~RY~ynn|~NvS~}~^|~~~V]jl]^]e~]tVzlznn~qv{|n}~rg^vyu~~u|~}~^z~,False,9.0599e-06
~?@c~~P~zVj|NvzV~V}|^~~^vfYLrvKx}oU~~vn|}jZ}|\~~{~~~^z|t|zYV~~@n}|Yyy}vF~~~~v}V~~f~rx|D^ndj~x~\|~~^~n|~N}~zU~J^Zn}v|~fH{}ffsN{vv[~^z^]nzr~~}~n\nu}O}n~~~^d{r|nh|l~SMhz|j^[otfvnz|~~}~^njb~Nt~mz~nnUj|~~~\~dZ~nnrtz~y~^~t~xzm~n~^jz~}~LW|~ZrF~|\P~ffxn\^n^z~k|]~^nl~zN^}zn^nV~~o^d}tz}xm~m~nn~vp{~~~x}mm~x~Z~VYvv~mnV~uzy}}yW~NUs^|y~Ziy~u^RVxt|nz|nNMvFusZ^vvy|\~~~||vjn\Zn|z||~~}~f~b~~R|n~^~vn|~iz}~v~wZ~~\n~nLz|t~n^alpvTRn|vn~~|^~]uW~~|^Nnzvf\}x~~^nn~zZ~^~^Y~^nysT}~N|}~~v~|n\nV~\R~{u~fnE}v~vn~}L^|d}~s|~n^Vm~Xinm~mNNn\zvXpwmU~~n}zjl}vn~u}j|^y~|~f}h^f~}vrz^K]~~\~^~~z|z^tTx}v~}~~~rN}~v^~r^nb|L}N~~~y~|~U|}B}vtvv|~~rvf^T^~]~{n}{~zv}]~}~zvn~\xjxn~r~Prr]x}u^~~~Nr~Lh~~]J|~}}l~~^^bmV~z~]lv|]~~~j~w^~|Zv}]~|n|{~un~~~~~zn}^}f\^~i^j|mg~X~v~nznv~p^[zys~~~\l^|z}N}e^~zfv~^]vMxVz~s}l~fz~\f|}NZ~|Um~^nyz~}z~Z~yzvx|~~vzN~~z~~n^s^rvvm~nzat}~z|tzrNl~t,False,1.00136e-05
~?@c}uz|mz}|~v}~}z~}Nn`~FnxZ]td|zMl~Z}|vuz~~^\}^i}~h^|~foV~ZM}cvnzm~}n}}}~~vtz\^lzu}zszn|{|~^~zIj}|mun~x~x~v^~~|~~vf~}~~v^sl~XU]|^~[B~VXu~~~~~Vz\~\Az~n~ZjVm~XNz^~uvz~~ln~evT~|n~~~|}\y~v{~]vv\}nqu^]~~|tunf~^~Z~n~xzf~jZ|Z]vd~jn~\~vn{^|~zb~u^uq|~m}|^~~zN~|Yz~vn^ntdz|~~]z^{^url~NY|y~bv^V|~z]]hRti{|zd|nXvuZv~}}}~vvvZ~[~Z|iT~f~~ny}\F~~^~nn[}~^~~n{{^^neVqv}v\n~]nnni~|~v^rzx~zyn~|~fvZnNyl^v~~\^j~nxn|~n~~rx~S~v~~]~h~~n~F~~~]vRnM~}cx}Zvv}Jv^~vt^~{[^~|Vn~}nj||tmh}M~u\~]^zZvdnu}nf~~vn}Zr}mn}[z^~~xuy^]Zbiyx~~x~nn^|~{vv~~^Znz^|~v{vV^~~}~n|}|V~f^|ziznb]~f~~}|x}lx~n~tf~^}^~L~k^jvVv~Vzea|~HN}HXvXjX}nz~~~Zm~yn}~nFvVx}l{y~lT|TnIUn^\}{d~xl~~~nx~~|fv~Z~~yn}Us~]^^u}Nf~N}u~~~wo~~~xmv~z~y|fn^^tz|Fyzx~~T{hm|N~}~^~~|z}}{unT~~r}Ntl~~ymzvxx^~n\xvY~~ST^y}~Uy^v]\bzRlv~|j]~|~~~xBuvpzz~^|}n^e|~~~~z~}^~^~^~z~ZnzF~|J~^~~mv]|~yxef~mZjvz\}un^z~~}v|m~yn~,False,1.00136e-05
~?@cmz^~]]zvzj~n~FQ~|wrq~k}~q~~jv~~}zr~Q^~rvzy~jn~xpZnj~v{}~~~~~n~enZ}~xtx~nnffS~~^}[f}w|~~~~|nuzmnrl~V~~lT~rwhn~y~|~fdw~~yVn~n^zZ~~vnUq]|^~z~^nNu{n^^{N~xv\gvVq|~zn~~nM~rzxvf|~~~Umr~|~nL~n^_vu~n~~yXu~Vvzwv~Zx^~}]z~~~}lz}qa||zx^^m}^zz]~~~xn{v~vztnqY}j~|Zm{z^}enDVRA|~|{|yfz|z~{n|dRiM~~~\tNqnn\~n}z~Zj`t^^]~Vn~~]{~{W|^J{l^vqu|~~Lv~u~]~Zzt{vv^nvT~vk~~~znv~v}~G~}~~ZU~}Znv~v~zt~y}rf~~~zhr~u~nr~vvJnj~|Rzx]}unvv}~~zv^}|vvt~^~Vl|{z~~fv~|z|vz}l}~nn~\xv~jd}\^r}tr}^~~ny^~v}^nv~}Vl~^|~\~~n^}cJmv~z~~un|mnYx}x}zvnXr~L~|fVZz^n~tt~[~mZv~mJb{zvt~ba}vyvx~~}^^en~v~z~X^^~N^~zz}r~Z~~^~hY~nT|Zvoz~z]\k|~s}~~~~yrutw~vvxVm}~~l^v}zVu|||^^nZ}jr~h|~z}^}~{}zr~~U^~uzz}^z~{~z~v~~|}l^xTnUyd~zVBvN^~~mVnzz~v^^~Vl^}l^^~tnv}}j^~~^^^vY^{nvNnQ~}~t~^^}t~e^uNnz|Z~T}{}~w~Vt~z~xLn|}}~\t{^nuvvtnv~|]v^|}~Z|v\^q^|y|\jY^^zS^~^n~~}xvuxnZ^rX}k~^zznmn~`m^nXnx~\n~nl~~z,False,1.19209e-05
~?@cm|~}yV\]~n^v}z~vv^~\~r~}yfFzmM~x{n^P~ZvN~t~vyt^]|~\~|Z|~~n]\jtNNj~zZ~}udTz}Z~~~~vrNf~\~vfn}xjznV|\Z~nnvZ~~^~t\~N~~Y~nv^V|jz~~zm^l~]Y~v~T^~s~z~~vrtvb^}z~dl^~BV^z~~l~z~i^NnvVm~z~|]q~|zVNv~}xv~v~z~rnuun~~mz|z}w{yk~n~l|~}\~~||~~j~um^^^xvRnn{~z~~~n|y~n|m~~^~]mvnu|}~\Jy}~l~z}^M~UV~z^|~bk~}}|vn~~~]zn~~w~~~v~~Jvv~l~q~|xeu|mV}~un}Av~G|y~~lrzpnIijn}^~~lJw~x~i|^J~~|~~|^~vmz|~z~^v~N~||}^^N|T~}|V|ulnvzu~LZ}~~vVl~nz~~}J^vT|a~~\m}~f||Z~~~~fr~Nm|{}dwv|DzVz~}zf~}`^t~b{~vrj~{||}{xnzam|mvj^~Xm~~zy^~}x^l\{}tnv\~}RZ}~~}~^\Y}|nmZ~]wYn~m\~}v^n~f^vnvvvnmZe^j\nn~dl~x^nv{fzLzv^tb|n~Kxzm~y}~~u~N|qZvSRnx~a~l~^lr{~nw~rvn~n~]nV~on~zr~~vn~Pz}muu~y~^~z\]nn}v|r~e|~}v^n^ZT~{n~^zVvU~|~t~vb|rb~~z~~M|Rzm]n~{X|nvv~Z{vntM~~V^jR}nm^mlf~zslFV~y|~^U\}vs~^wu~vb|gVv~i}hv|ktmZ~n}iN}|j}|~^n}L|lj~~^vk~~~~~^|^S}nn~vJNzzxnz~~V|U~vx~lYz}dnjz~~~~j~z~jx~v^Frz~}}i|],False,1.00136e-05
~?@cv]^z|s|~r~~Jv}rvu]v~[|^~]^tRn~L~^r^~~Zvvq~~ymy^uv~X^fU^|d~~~mmA~}t}^|^~uz~zfzv}~ZTnN~kPlnr~j~|~xlN~v|x~~~]~|D~|t~}|~~z^n}]~~a~^N~XvNnvzz^Y\tbjH~|f~H~~}N}^{vl~^~zVvvmznf~Jfu~znz{z[lx~Y~^j~{m^wy~v^~~}^~z~~Ul~ji}|~|}~jfvv|zV|}\v~fy|nmWtz~V~~zm~^fzw^\|jmn~||~v@\mzu~^~x~|dozLvn~^p~~G^|y}v|~|m\z~nW~|~]~zfZlx~~m}t|v~js\^\^~nRnnt~v~~f]|n~dnn~~tv~zz^v}v~f^H^l~ijj}W|n}~r~~|~^Z]zyo~|~}nt}[~~L\Ry`n~|~y~x{~~t^~w^~|Zx~s}^~}efq~btndl~mNzmv}~}V]~~~~nzrnz~Z[~~yvjn~~~mn}~||~~|~fw~|Wz~}~~u^n~~v~~znFn}f|n~Yz~m~n^h^~~tKu^vkpz~~vq|vZ}}~^z~~uF~}~}uz}zunxN}{}^^~\eb^Xq}nRJmnu~zNp~rzV~]}{v~|^}Vz}f~U\n^}ZRzje}n}v~}j|z~|]^~|zz[lvn~{v~nv~~|`i}zz}lzn]~}lvv~~n~nqk~~n}~}^J~~tvnnn~~fVqdz~a~~~y~~~zv|}f~tfvNzz]{ilM}~~^u}v|vpznvZI^[~znxzmr~U^vzjz~zt~~X~|~~^^^~~~~|~od^]}^n}]~~|yudz~~I~bmu^}~^~^nVy~~}~zx\U|^yz|v~vvzX~ZrZY|T^}~~^dhf~ftn~v^nzr~lzn{\~mYF,False,8.8215e-06
~?@cl}vln~~z~|JpZZ~N}~lbv}~jxn}~Zmev~~~R~~vxl~y~lv}}oTv~~~hv^^~uj~vIlz|NXf{^]^~Txyu^N^v|vznl}|T~sn^N^p}\v~~}{Mv|^ZJ~nz~\}zb}f^Pzxb}f}~\~||vD|~y[~z~z~{pBzxv~z~NZ~^|nm~fd~~n^Lu{m~~|^z|ihZu^~z^xzmpyvd^~^~~~~n~~x~v~~~~r{n~l|rn~|\nj^^z^~~~jqn~}{^~~~v~Z}~Nfzi~zv]vf|~~~^v}snv~]_[~n~{]|~DV}|]^VnNN{Yvz~cg~^~l~~~x\|zz~^^{e|u~mn~vurn|}~~z~]F~jq~}jzZz^nln~~z~z\Vv~vl}~~Zz~~z|~^}vjv~zni~~|}zsZy|}~n}z|\N~~vlnf|~n}n]}f]K~y|Z|jn~nmp~v~l^tvnlZN^^~l}~|Z|vvn^z|^~]rE|n|~~y}z}|v]yn~[u~Z||MvD}zvzn|r~pv~e^nb~z^|~s~z~|n}z|~^n}~Vl~^s~p~tl{ri}~N||z\JizlZ|^z~|Wp~~yn~[~rzvzlijwn{vf}~v~}kzv|J}I~|^~d|a^]M\]vm~n~ef}r]x~~vv~^Y~}V~v|lJ}UNnt^nap~~n~~~}nNfnp~lu|~zZ}~[|unt|h~kn[~}~fy]^|~~Z~U[r~N~m~}~^y]~Mtr~nNflr}^n|^~VNxtyFJ~~Y]~}z~|z|^\tv}n]Nz}}vxwzl||~}zI|~nn^^~^~~~|~}v~y~X|~~r{}Yy~vx~~V}~~z~z|T^y}|vl^}~~D}|~~}~}}~Z^zlv~Zn||~vn~d|~xny~xk|~v]~~|TzvDT}N,False,9.0599e-06
~?@cvnvyzu|x~~xru~z]\]]Rz|~~tN~~v~N~~~zrz[L|~^{~^~}~\vz|{~^]xvm~~~}}z^v~v~^~N~~~}\\]\\h~yuv\~~Z~v~~j\m~|~~]v|[izvn|~F~~r|}~tzzn~r^ehx}v~zvZNz|nz~^~~^`z{f^n~q^\x~{^\^^~~xeNv~zVv~fz|n~Ir]]vvxt}~~b~Nz[xhNz~~~}|~z~v~e||l~jy{X~~~Fs}V~}iu]ub}vl{q~vr}^^~}s^{~X~Mzo~~~avv}|ltN~tX~}\v}~z~VLu~}Z}zfzf~zPz^yzXu{n|zz^~~n~V^~ztn|~yv~{~zriwl]nzV}n~x|~~vn|{mknfzm^~~m~n~zUn~LN}wz~}}ez^evm}TtC}a~~N|r|l}q^~i~W}V^x}^z}Uv~~V}|ftxi~~~kvnYvf|n|Nznyv~n~n~]~mzzju}~~^f~vlq~}~~^~z[}~}Z|^Z~~\v]rM~x|v~v}P~]~^eytrzFrn}~m~bZz~^~~`|[{~b\rRZ~|~}^yi~D^xzr|~^}z~~^t{N^N{n|~~~v~~}j^~lzvN~v~v~}n|wZv{mZzz~\~nl}jXv|~v~}L~~z~~^^xZ[z^r]^~y|Kvbfp|Z|}Sz}lv}~\nL~~~V~f}n~^^~a~|xuV^~J~|^|~~~~V~z|~n{~~Z}r~r~f~]Za~Z~Nz\~s^}f^vt~ZLT^~zz^ZN}ter~zn}B]Zyv~~~]\n~n~F~~}jhqst[AF|_m^i~]n~}U~]|~uev]~|~N~~ntZ~|^~~~{~~}n~rr~Vbu~~v~^^]Z\jf~N\zvl}~|}^~~~]~|\~b}z~\tkVZ~tvv~~mvz~}n,False,1.09673e-05
~?@cvnjn|~t~L~~|inz~n~H|mnlyv}mznkV~|{zV\^~lnTkx~~Vvf~~zj~Jz~~hV~~~v~Btnz|nnv[v~j~~~zR}^}n~x~|nzu~~z~M}J~~V^vfnr~^rn^~u~yj~vZ~n|f|j~}~dK~|vxtvnvvvn}T]z|rf}^V~~ev|uzs|pyzk~tVj~~lL~r~~zmZt}v~z~v~Fi~Zzwv~vv~^}meY~v|jy^nzy~^nt~|~j~xnli^e~~u~xnNnvv~nu~}~}~f^vr~}VkfvljutVf^~uf|}~r|Nz~~v}}rrzN|Vz|u}}n^}~{j~~y~~~~~rp}n~~^Rnz}|}^nz~~nMv~nnvxf~~|xnkp|~uN}nVa^Z~~v|~jrs}l~R}ojFvm~t{~~~UnLjxj~kn^nzDV~~~p~|||o^|^}nn~}~L~fzd~{}Nf|~}~zvhl^^M~zgbv^v~X}ZuTysv|~|~|^v~nn~~~~N|lnx~~vrvun]~mumzuNx^~^|}~V~yvInl[i~~~nv^Nv]^~zrvZzj~\{n^N~~u|b]v~lvv~~Z~v~\~~R~Pvt~n~\nu~w~uy{~~ln^~vrVfu~zkS~~nv^ylztnx|nbRzej~nnlvnZmku}u~o~]pv~f~tv~~fvl^~ln|\^Z~}ztf{~~~~~~~~xzvf\~^~^~^x~nv|{y]~p~N{u]evzrvV~rf~|~~sf~}^z^LMzn~RktvNjzzjN}vtv^Vy~m{DzzuY^~\j~|unnl~arfnAn~Zfy}zxvn|~u]~Z|vnn|fx~~^~Z{m~Uzj}nN^^zZ{~~~v~V{}^Yu~^~{~~zM~y]b~zZ~|~}^nZ|~L~x~\~|}~~~N|n~~wR~y]x,False,1.00136e-05
~?@c]~~flzu~nzml~~~rN}v~\~{}~}b~nzfjn}zjnNn~|^nzvznzzyU|Innwkn}~vt~m~ztzvfTmznmv~y~V~~~Tn^n}~~~nn^nr~~R~h~^jzZEn|]nmV~Z~zywN|~~d~Z~~~m^szY~l\yljmyfy}N}nnnvVuz~^~~~|f}~jn{}z~n~]fvx}Um|z~xel~~Vv\z}j}nmd~lmtR|f~zv|F}~~{~xv^^m~Y|^qtv^~fVn~\d~~~vz{]f~|j~v^tltv]^w~~}nvzq}zNfz~~yz~~^Jxz~~v~z|~M~vnz}i}|mzMZ~~Kyv^nn~|\}~~^~]~n~myjx~z~~h^}\[NN~v~|{r~z~~ZrZt~r~n~z~vV}|zjT~zna}xzb~vf^z]Xz|nZ}~x^~Xt~vnr]~yl^~y{^~|umxN~~xz^~}yuz}r~~~{~Z}~Lq]rrzmWV~|x^Pe}y|^]|^j\^}nUsIi^}MMn]yNvfsnmd}n{r~\VZup^~f~txz\nn|~nzv~j~}nv~n|mtR~vmN\|f~Hv~~t|nz~|}~sZzxfey~nzn~[z}^zxzF~~vV}~~u~^N}vmRm~~^zzzp^~^^nl~xt~Ve^~nvBF^nZLu~zt~^||nRz}|e}xn~|~~F~mb~Rn|~zeu^~~|r~~~^H~~~x}UjUt~\~|~|l}~J|v~z~}x~|^~}u~~nU|~Syhz~vjm~n|~{~~~~v~v^dq\|}~~vltnv~a~xvxz~~z~~l^|v}z~nv~~{~zzMv~|ts~^y~~}za~f~tz~^^nqn^nn~|~j{le}~nx}n^Vh\|V}~u~~~t}v~zJm\~v~n^^urnr^|vz~m|~vfeDFUH|ntznm~,False,8.8215e-06
~?@cn~z~d~nxzz}]Vvnzyvv~|~jVnnn[~Hy^b{~~vnm~znR~~^h}~~x]|f}]y~vmzxzv~Nujl^znkz}b}~~w|~~z|rvyj|v^~NvvY[t}nfnl^XZ~}~b~vv~~nnx~|v^}z~xxFzznZw\zt~~ym~nv\n|~nz|Mkz~}~zEj}~]N~NznV~~v{]]~RvJi~@~|~~\~}U~}czre~^vUj~~~~}~t~n|v^S~~}hyV}}vn~[]~~xVKan~t~H~|n~z~zn|Nyur~yZv~~|ym~L}z}fz\}mrY~~f~^n|lVn^~ZVybN}P~|xv^^|vr~|~Tzb~}nV~n^]jnmxt^}zzvnv~^Nv{lmZIrp^|\|~~}^zTyj~n~^M~Njnr~Ynn~~z~~rMf~t{^~v{\^jZn~v_}|~j~~|~Y^v~J~n~hR~z^zv\xnn~l|nZ^yNupZ~Y}|u~~zzM~n}v}\}Nz}~v\dl|~enrlvN]z~~tr~LRnv~~nM~~~~|v|uzvX~[e~~\vvVi~fl~}J~v~\~~~n|t~\x~~vVnqq~fyu|~l~~qx~}~Qvx]V~z~y~j~|v~zn[v~f~~~|y~]}nvt~Tz{~}u^~v}||{~}\]vz{T\|NH^|~^j^m~^~~q{}n}Hn^c}~Jl~zt~|}n}fz~Zj~~}|vl|~v~X~}~|~z}s^uje{v}~j}~~tn~Tzz}vm~^Un~~~^z}n~Yt~u]^~Uv{f~^v|~~m|~^~y~w|f~^~Z}SG~vv~m{z]}zvvvv~~y}pru~^vXz~N|z|^xZz~z^}|zqzvCb|v]z~jr~{~~[UnTV[jnnZ|~~x|~^~~^^x~z}~vfz~\^]]}^Uzlv}~Tl~l|}y~~d~v,False,9.0599e-06
~?@cr~q}|vn}z~~mTMydyNlnnntz~FKmN~^l}~vl~j~ylnV~~}nn~~N^z{x\|}jlN~~b~x\zs^z|~~k~M]\~~}z~|^p\^~~~|VVNr~~|v|js}m~|f~Vmr|~X]~~V~{|~Bvf{zv]N|u~nZ~~vJz\vz~}~}Nzv~nf]mfRn\Ymnz~nfzjl~~~u|v}qnzv~^t]~~lmV~vNz}xr}^tmvt^~~Z~VnrvM]~||~Z}~^}nlst^}y{osn~l|v}~j~~}nzw~^en~}vrt\nvne}{zt^}z~uVvnnt]}ln]n~D~}n~~~izr~|{}zmu~}|}Vn^~~wvfu||}w]Jx~x~h|~~UNz~}~~nmn}}jU~~er~]zj}rz~zN}vnt^v^~m{]Cn~r{~|nnv}J\f~zvi~V~}V|v~~~~~^skNnr}mVv]mmu}n}^~}iVnf~Mnn^~~rzzf~~~~~y^|~^zu~x~unvl}~{jz~~^yz[kvX~z~^tVz~V~^z^v~nryz}tUv[z^Lz]zmnn{z|vvlV~N}||\~yvl}^^j^z~\}NTZnxj~|~~zv^~}zvz}vu~|ffniv~|[p~v}f|]vpv~kryn^nmZ{^~^^n~W~~v~~n~|~^v|V~~z~}m\n~|vV|vzZ}X|nR^~}~flsb~M^l~~~vz~}V~~R~}~j}~~vQ~i|}^J|N}VjnZ~nfn}t~^~^m~xxNv^ZNn^n~rvt~n[|tm~~u~|Jm~fJfN}~\~~t\}xy~rvlS}[v~yVRr~lv~ym~|Zmjsv~z~tnrX~hnvfv~z^x}~n{|~Vyv[x}~~dvz~~~~n}|~n~NU|}e~~n|}~z~xxVvf^xWvnZn}v~}pz~t~v}~vjo},False,9.0599e-06
~?@c^~^~ve~~|~~~vn}|js~|t}~hz|f~wz~|{]nz~Z\tle{\n~ZYbn|~~suv[nr~v~vlbJm~r~}~^^t]vt|{~Jtz~nLf}}^~|~v~~^r~~Fm{~xZ[n^M~fz^y~Vd|nNUZtV~|~r]~{^z\|~^~n~}~}^~tf~~~\nuz~sz|N~nn~ly|~|Pf~yz]v~v}^~yh~jvv~bn^m|~nn~~f}~}\r^|]^zx~VZ~}v^yzl~^l|^^~Mn|yymL\~vV~n~Tvy}~||~uviv~~~f}|~t}Ng|||du~~J]lL~r}v]rt|zyj~]~|yRZ|~n}v~\zns}|~~~U|l\|~xf~`zmr}}~n~fnXJzz~j~~^Ze]||X~\xt{nrfY|xkv|~Wmz^rmz~|n}vV\|~rj~nv}H~vz^~~Q[NZ^uN~~s^~~{zpxyukfn~v}~nxvj~|~^}f|]Pk~e~~zn[yu~zzz^~ru^n~znen~v\|v{^~~Vzuv|xnl~~~|hn]x|]i[v~r~}|d]Zv~xeYT\jFz^}r|nrxF}vm~~~~~vv~|n|^zz{]J}z~x^v^X~lv~~`^V|nn~~||\~~~}^]|~^{zmrmz}|hZnzv~u~nU~~~}|z~Nn|t~QYZNp~^Ntt~ttln^UrV~J]~Cx\^|~~nv~vz~}rv}]^~rjm}{~~~v^v^~jztm~z~}z}~~^~f~N^\j~~~}Z~^r|u~rivyy~]~z~~~d\^rvyyBN~~un{u~v~v^uV[L~}~l|~n~~~zn~~~^}~~T~~y~z|n~nK~P^t}{V\zlz~~j}~bj~Xy^}vBvr}~^}}~|jf^|Yn^vl|v~^t~Z^yzv\v}|zv|zx|xz~vL|U^~h}|~|zzR,False,1.00136e-05
~?@cZs^~Z~m^~nn~|n{Vrv}Nvi~VlNLng~~~^}~Uh~q|nN{~vv]}}^^f~n}jFn}y~~~Z||v|~t}nxV~}}~|~^^b~zyv~n]~N{z^iNU~~unyfr~zv~~|~n~~~njutny~{~|t~~~~~mf~jzn~|~nNvz|fm{~~Oz~~Z}|~}m}^zt]rTvq{^f^~~n\Vzn}n~\]tuy}^{v^~~v~n}}zFrn~^jL~q|uvtrv^}vv|~VvzY~~fl~~b~Z\F~^}~t~mvf|yy~lM|Z~]fMN\~y~zx~~|}nK~|{nn~~e~~~^|v}|lv^|}{yn^}~~~n~xZ|j{O^~~~|u]nh~~Zl~P~Wk|vn~rS|r~yy^~vxf}^vi~~zz~~M|~|j}r{~j~J{~Qzy~~{}|nv~^zttnv^x[D|}|~zTvn^uDV~\\j~v~^|~T~|~~r~{y~Zt^ZX}v^~w}|~|vr\||~lzzyv~Qp{vV}nVTujUvz}z~^~X|v}v~xj~~z]z~~ns^~|}^Z^vz~Y{~vz{uf^z|[F~~~~}uy|TpUVmvmz\uN[vv^}}^|}MQ{z||N\n~}Y~^vu{v^y}}Mm}]~^lx~~vnm{~~X|]|^Z~z~}{\~~~NvVnnJfk~u}~~]~vnnx\zjn~~nxv]NJ^l~^R~zn|ztunu}Vtf\~~vruf~ennt^vnz|nV~yzq^z~N~^en~~~^vh}Z^~~~v|b~~^|xl~~d\~~z\X|~Bmuh~~u}T~^zl|fuln|n~^fn\N|}v^xm}z|j]|n}wpn~f}|}u}wnv^yK~n~}~^V|^yjN^Xvnx|qV|~xa~~r~~~~^~Fv^~{~~^zxjb{~n~NvZv}tv~ynt|~^}^~[vz~~,False,1.00136e-05
~?@cp|Z|v~nz~~znj^n|~~y~~|~v~NTbkzv]~t^~{Xzznz|v~mNUn~}^l^|z~v~~|R^~~|j~n~nn|nunt~n}~^^~~^~|xzyrw~~zrZm}~tdrzZ~mMN^H~z~nn~~d~~Fv~~~t~]^v~]m||wpz\\}Tjvtvvx|zpR~~V~Nzv~~n~vvDv~}~~^Y]^~~~}Mr||~Zj~~z~|{\n^U~^NQvx{~]\z]{vn~n~zf~|~tnz{nzv}ov}y|n^~f~~~tu^tfN~^}m|~vzvTzf|~~nv~Ljv]a^v^~vvl~b\zZ}~|~~^~|^df|f}h~~N^~fT^^F|z~s}^~}Vn~}~dn}^[X|NV^unn~~|}~lmr~rn|~wnVzf{^}fh^ym~}z~ukslXnV~Nyf~|n~Y}}|v\xmnnlv|~Ljivzju~]~{~Um~z^]~z}{}lvn~j{n^~^nNr~~mut~|~nl~~txnuVl~~~m~z}V{|{~zZ^~Z|vz|\x^AV|nmN^~vq}~t|r^gNSH~\}z}gXvZv}jD}{~[~|nj^r^Ln|~Yk^~~v|~tnd}~v]f~v}xSz~nm~^mryz~Z}yv~}~htn~~]~zvN^y]z~~N~]V^miM|~N~f]m}~f~~vvvz}|t\z~znz}Z^u|jR^~~^r\^N||{~j}n~v~v}N}n~z~}^~|vg{}P|~^z{}Z~|NZz]~nrn|}}{nf~T||~sAJQ~Nlnu||zn~~~~n|~~nRnNxvmnv}~r|~ftvDl}zxbm~~|v~ixus~~m}~L|~vvZm|]n\n|z^~m^LZNe~~|e}^V}~|~~~z|tNz~ez[wv~~r~v|}vN|jz~~owu~Bn]zVY{^~n~zn~}^~}|^z~n}Zv,False,1.00136e-05
~?@c~NUw}~~j^fv~|u~z~p{~Z|~^u|iu|~W~^Vm^utl|~~znzTk^~u~zmju~~k|{wz~zfv~~fv{z\|{~}v~~~]^ebp~^{~V^~}~Tj~~X}~Ue^~FzVtx^]|~lx^^pnf~m~}fp}my~~|~|ezm|n~|~~|~z^\jz~Y~nNv}]v^sBen~xv||vw~~Zxev\yj^}~^~~}z~{u~~N~N~~unn\~^Z|^tn~Z~fnz|vz||xz~~z~~^Y^~|Nf^^}lVh|^~nz~b~~vv~~m~sfzz~vl^Nvv~~~^}Z|}~|yN~lz~~|mzF^nhz~~~l~N~n]m\~~~ns~|n~\~^}u~xz}]z~\z~VpF^hzmu~z^Z|~l\}k^}v\~T~zu~nZ~^v||xuYz}~||zM\Nvzfv]]XnvW~T^zz}jz~}z}~~urzy}}Y^~~uzk~~zx^}n~\}lv^^]j^n~m||^eNj\vz^~}Evmj|n|Z~\~^~ezz|q}yv}^~~vN~~~nv^~~~|v~~v}^EL|mfj^~X[~vzjzPx~x}~~~tn}~zn}l}Yn~vz~~v~~nzy~vv~|~zL^~nuv~}tnw}~i\nL~|Jjxu}|^n~f|l|x^v^~en{}Dmvvup~V|vz{t|Vm}~~^vZz}~~t~u}~n~fU}b~LYk}XLV^~nhVzxu~^xArzz|vz~{||}v~[j|V}~RV|}|~xyVw|~~v~nz~l~}l~~Jyz~m~z{}}nzfWzr~tU^~zt~r[\V}^Vi~^Xzy~|}\~}^z~~jtnr}~~mMR\~^~v~VvY^N}ouZ||ZVxNvV~v~Yz}~~z~v|nr|Rr~}|\ylf\Zvh~fJh~hx~~~}}{Md|~}Z|~I|~M~vFJv~v]~`^n,False,1.00136e-05
~?@cIjlnmu~NZ]^hte~yz}~~]]}y}lzy|m~zm|^\~~v~^Z{^hft~|~~vH~|{|^n~j~^Kq~Z~~]tzq~X~fdnn~W~~~{z}~v~~s]Z|||zF|N^y^v~~v}z~v}b}nn~|tz^lx~z|]|v|y~V~~n~y\~^n^~HdZvvlv|vu}iNt^Az~{wl^z~~^~zvzn~fttnq|my}~m~|~~E^vUu~g|~vkn\|n^]J|nv~n~~~n~xkL~~vLry^n]zj^|zdfR[n~~yvt||~~N|~Xrm~~ZVF|]m}~^vzy}~~xf^t}~~nnn~tN~v|x~xnxv~}n~t^v~jz{~zu~n|nn^zl~~|}X^~~nvmf}vzEb\M~ixzlq~~~^~~f|~|~\E[~fj^zLXl~n|n{v{~~^lg~n\kUt|}nmn~}jmnzue}n~vzru~tnm|~\~~tN^~^n`zvh~~n}eV~~|~vqz|p[mzj^v]}z~~~r~v~~nYzvzvn~zvxy~~|~M~~~~U~}t~n~Xj~mi|{nzj~z~^~|jX~M}y~~t~x^nhz~n}Lv}}z~zr~z~Z\j}z|jvHv~~~r}~}~vllJ^lzkl^~Vnsnx~Gnmv~r~Jx}v~~\|~v}h~^zn~vzvN~}vr~vzV|n||Zt|z~^uvu~vj~|v~~Kzdvzn{n^|v~tbxb}YZz~|~{lnp~yn~|zf\~jl~nce^}^yzzn|t~{}n~v~Z~Nz{~~\}q|Zzly~K~d~Vr{~~p~~~~~w]~\fm~T|f^RY~l~x~u~fzJZ^uuum~vnv~^m]]x{l~n~~~~j~~un~v~h]~^M~~y^p\~zN~yz^]zf~LV}|ktnn^v}~vir}vnZN}~\^~\^v{t^|jZ~|Vnz,False,1.00136e-05
~?@cf^hu~}~nr~XxvzZfj^~wv~V^}y~Jrzl^\}zVzzvyzzv~^zl~n~|V|u}U|l\~~qrv~|]per~j^^nx~t~l~~^|^^V^~^v~b~|unv\lneijt~fm|Mru|Fv~Zjvu~Fyv}}~vZNz}r~|wV^Vs~z|zjnt^s~bv}s^||nLV~~Z^~}~~ZnzdFvZ~~Z[~|~l|kn~^tm~~ez{~{syz^~f~k~~}~Lx~~^~v~Z~|~~rw}]vnt|vvnzLf|l~~}|Evy~~lZ}\v~~^vv~zdz~znu|Y\Nvmy^\n^l~~u~n^^u}zKlv~~s}~}z}Zt^Vn^z~rvujugV~yv}yzn}^~||}\~nr~n~m~b|~vf~trW~~n^Nz~~]~|R~xz}}~^}V~~}v~|}uZ]~~z~kbnzZUz^|}z~~}|w~^^VvQ^ZvP~}~z|u~nrvv~|~Dn~v~~}~znvl}~|nz}zz^~~n~Vi\w~~N~~z\vi~~}v{vztn^~m~nV~r^vv~rly~N~e^}}x~|v~lzujzz|~z~~^~]v|~s~}[lXn~zuls]s|uj}Y}p~uz|}UzZ]rZ|ijY|z~yX^~~j~|vrT}\u~~u]|F\^zF}xx}}_|n[~~}k~nl~^{vu~]n~rv{~}s~m}^vz}]~n]~~V^~~~z~}^ytl~v~~l~n]~y\Z~M~~N~^vt}~||~}L~y}]z^F|y~~s~~lj{^vVlf|~~Tv~ZrjvzM~|p~n\zrU~Upn^^nV~~Tz}uvdpvun~q|~lx^~yZV~jzuf~\^|@^~^n|v}~j~f~]z^yPpdZ|v~V~xx|vknu]}n}~\fv~~~ezzvj}}jT~~Z]tnf|z~v~m}v~}\~ty~~}~d]|]}~^,False,9.0599e-06
~?@ctyYVnN^nu^~]~jzf]z^ZulnnxFlKz|~}v}z}m~~~i[jy]\|z~ujvzvv}~^l~}nhdXzvB}~^zV~f~^~|^~}~^fz}nn}~|s]MZz~vO~~Z~Lk~}Fnz{mnn^z^Nrivt~~^Zvf||vv]~Zj~~~^^}~u~z^~v~^tz|}|l\}tw~rvmxzvv~~~~RlzVZ^n|]z^j~iwzv~nNzNZ}~~^d}v~^]l]~~zny\Zj}sn|F~v}R~z~z~~[ju}zn\uYh}rL}nfnx~n]vr~M^uzzn^Zx^Zi~^vyw~~~z|f\~xsLF~^j^l^zt}~~v{~~v~y^^}^~}j~|}n~r~|vnVzj~\zv|n~}|ytVn}VU}~z^xzfSV\jnu}v~n\o~^rk~xw~X|jwvnv^xZlx~}\l~nt~~~v^]b]nnnz|{{z~P^l|^|}~~}z~zn^^l~~^frzzz^vvz~vvv~ft~~~^^~nn~^~J~n|nvrn~~~}~n~~^emv~|zrvdjv~uUvm~^Pyv\|e\~nvU^~]}H|s~uZ]Tjvv|\~nLv~~N^~H~~~~|vzxu}|nVjq}^nmz~|~p|^zfnf|}~}N^n~~~~ZFfln~n~v}^}zv}hv\~~\~Zn~^~n^^z|nz|}~~pv~R~n~~u~nV~v~~f}nj~Z\[~}un{n|}nb]~zvnd}nn~f^^vsi~^~vv[zzl^Sz~~ZRn}vn~~M]Vj~r~}zm^r|zvzy~Emlfvvx~N\U|Z~V|m~|~X}~xn|v\nM~|\}~n~z~~~~fmzvFyf`zn~|nvxf|L~~^Meg}yt~^Tv~~njZvN|D|^^zVf~~~h~zm~\zx~eV}^nmrz~~{r^^nvezu~VzWn|z{}m~~~t|,False,9.0599e-06
~?@c~j}E^tr}}~v~f~u|{~vvzl}z\Enty~~`|}zu}}u{~^^n~Vy~l}lvV~^m~|^^N|lYPN}L~}]uv]^}Vr~Utnm\y|z^U^~Z\^~~t|yuvCnln\]v|~~~Nt^~r}l}~~^B~}}}~v~n~~~V]fftx~t~|t~u~v~j~vnqXzuV~~}Vz}zHsWx~av~vzlvxx~t~hy~}~~vv~~|Zzf~]~~~~v~u~~vvX~]~N}Tqx|~|lnNz~}tzyy~}~yjV^~y~~lF\|eYv{}|L^v|~v~F`z~}rvjzd~]f~^~~vVr}~|vfyV|~~~~~x~tgnh~~^[L\vqv|n|~d~w|z~Z]l\ny~vf~X~yyfz~}^n}{XR}nx|Zl~~ffy^zn~xV^~~~NR^~~ty}]nt~~]~}~uhU{ez~v|uv~~~ztz~]}~hYV~|z}n~|a~~xn~V~^znz}z|~kmn|~n|v~\~~~~~~|^^Tvz}vvmNynz~|sn|Ou~~g|Uiu~zt~w~n~}vy\t}z}nN]n}vNly|z^~}v|zg~j|u~|j|^zu^~tv}Y}|}~n~\~uZ^|yJe^~}}jV]^vzx}~lnQN~f}^vN~^^\z~v|~VnufUvz^k}m^m]~z}~UZ~n~h}|tnznn}LuVvv~z}y~~~~mF~|~T}lZntq^]~pj|^k}~zv{}~uv^}|zz~^h|~bmN~Fi^f~~nNrV~|n~t~v}~v}O^~vz~tZ}~}~^|t|T~~xvm~Nx|~~z}yxnf~{~|V]~~NUV|x^nk^~|}nj{~n}]X~~~}|nZ^~~|~~hKr~nu^p]Nr^~~}]\~~V]~~v|fh}V^z~~^xj^|~VvrrLe\~t~~m^~]~}~z~~nzJzvsvdj~{,False,1.00136e-05
~?@c{Z~N~^~n~}^~~]z~z[~}]r^vw~~{}vnv\z}~}MYywV~|^nvj~o~z}zv~yu]\zmRn|LrNl~~^~^ln]|~~|rxr}zvsrj}z~~|mvts{s~n\Rnyj~^~~~~~^|nZ~muznv}zyn|~ZntlrN^xt~}v~x}F~YuTb~e~|eZ~|~~^v\^v\O}~}~~~^r\z^^{R~~r|nz}s}^Nm~fvnXen|~~]n|~l|n~~~lby~kvvn~~pUnWntbyLr{v~X~~v[f}yn^n~~z~t^zf~|ws}n\nirm|Ytx}[v~~~VmV~Uuz_]nnnuNwf|}~^~{}z~fvr~~}~Fl}~vt^zj~~^sv^zmZ~N^nr}~e~z|zR~Uxnp~n^}x~|}}~q~x^}n~^}s}~nv~}~~~~h^lx||~fz~n~p~mzf~Vy~^~f]~y~~~|}Nvf~N~~z^~FzIzz}gzzf^e|~}~~^]W]ehnf~sfz~ez}~Fz~f~}my}{z|~n~tn|yvnh}~hnx~kj~^}f~ny}k}~~jan~Xji|j~|~vpv~~~~~~|~~mTnr~{xv^VxVx}}~^jT\~vnj}vv~Zxvvvz}~z~zZ}o}r~^r^^zV|~~N^~{\az|{lF~~pzR^~}mb~n^^z]zrzz~lz|^Mk~YnvxnVnsvnV~zv~~^~z~Vz~n~~~^I~~~]ij}|zr~~e^nu{~~]^d~fnzynuVf~z}}vz||~^~c~{{fV~]~~nz~}Nvv}t}}Xn~|^N|rr}J~\z^v~~|^^^~~yzx~~Nnzb[{J|n^|~xv~nxz|w^n~|bn]\}~rZ~z~~x}~~Z~}z}\}ETz^]frZ{lv~^}||nz~~B^P}r~^^~zV~fm\~~bZ]Y~vy~},False,1.00136e-05
~?@cr|s~xr|vz~~vr\M}zvwun~|~yv~~vs~l}u|~^~}~}|l^V|Wt~tnv~~nVN\|~}y~Jl~|j]^}~{|n]n~|}U}nnzz^v~v~j~~N~]~~~]n~vi|z~Xy|}VUU}}t~~s~vvnv~~~^{|^{Y~~n~zt}Zz|}|~}vn~~}}|~~~z~^~lA^|~vW~n~n|d]~J^~||^}mnvj^\nt~vYlnzne~vxvJVz~k{uju~M~mnnvrvnn~^^~v\T~l~pnz\v||neV~{Lzv~zFz|~n\z^vvm|vn|^^xF~\nm}Nn]l|^|{\}^y~^~kN|v}n|TN^lZ]}|nv~~~nVr|}dum~~~~v|y}rZNV^t|v~njfrnvW^~~~vx{Vzt}n|~~VnuzJz|x~~^]~mn~~j~XMzl~{i|mn|hzp}]~~}~[xjn~~V~ktkz}~~f^^Jn~yizN~nZj^m~}M^~|^v^^~Nn~J|mxtu[tvrzrn^~ftv}MR~V|a}NV\^~dz~W~vrNw~}{|uvNz}uzl~vzdv~z}vun{^Zvv~|~|]z~~[~~bz~~jX^T|{yfm~^t^Zf}|ZNf~Zr|l~~|^~|~znYvn}nn~m}}^}~m{j|L~L|}~v]Hznn^~{~]uvdz~bMN~n|lv~UUXT}]j|vV~t~z^n~r\bvynuy~jnnnv~zYz~u~l@zjv|~~\c}~vzw~[~|r~fv~N\~z}z||tmtnr}~~zn~N~v}~n}y|}z^v]~n\zz~GVZTnrnd~fv^znT}~|p[~jnnzv~nva{}Nl~~yNv|fvz~~n~lQ|j~v}z~N|~vn~b~m~Hz\|^l~v}vn~~vn}r|y}vvvnnmbz{v~~f^~|vv~~n}xnzv~^xz{,False,1.00136e-05
~?@c~~~}~~~lr\~m{vn}^~y}zq^nDx|z|~nnsv^n~xt]n|d}~ti~~v|~xtjs^F|~~nmz~]f^UV[nnmX|v~vvm~anz~xnzzN|~jv}~z\fVV~}~^F}d~vx~vZr~l~Rvv}|j~vt[mnz~v\rzz{}v^RnrzT~nXvnZzu~|~vzun^nmy{p~~]~^p^~^txvnuzZ~z~~~Z~}|un||~Vylll^}V]u}K^|}^n{~^N^j^\ujv~]}S]f~~v~~Z~~v~Nnznnz}}zl~[}v~Nv~df~tx}kvtnLfvZ~u~~]nm]}~{zr~~qf~Znjlt~Z~k|n{ln~~]pZ^RNv}|nr~qlg~[|z]~}|~~lnyz|e~V]z}^f]v^fvf^{r~U^{~srb[}~|~nn~n~~^~~vZ\~~Y]|n~~U^~^~y\u~jR~nlzn}^|jv^^dvNJnn^~zz~n~^}nzmxS~\n^W}\z\jp^}n~}v}X}^v|m~}v~vyrfv^{nn~v}]yf]vy~|\l}Zt~~Dh]y~~vneF|bzy{f~~~~~mv]|lz}|nmJvV}z~y~iv~mv\|x{Y~]^zz~m~n}|~^z{~~z~ZZn~y]~}~Zm}v~Mvnw|n\|~}lul^l|~~Lxtn~~\Vvq~~|~V~~}f~x~zz}rv}nf~}r|]~n~T|~x}~~zr|dggr|t~{~|||~dz]nvzf}~||NnzFl~~~vvnzm}rzh~}~fVvt~z~~~|fB~|~{~z}tz~~~tn^~z~n}z]|FyTm\v~nv~~\~x~~}|L^|ynx]{]j~nr~nz|nl]}U~}~|Tv~}ef|^|f~vtnZw||}}~x^~~zR}^A}~~|\~~}~}~j^zvsxm~v|xz~{zn^N~}L}mjh{r,False,9.0599e-06
~?@cui~uEh~xOz\jfl~{n~}}~n|~MVtb[]n~zy~jL~p~~lNz^q~{}~ZzhF~]~v~N^v~~m^|Vu}~m~^SZz~V|z~~nf|rF|~}~y~um~~znne~NzZM}~[xV^n~u^vMv~^Vft}n^}nz~~z~~~^~^r~\~pnzvnx|aFSjz\vZ~n~n~~^vhY}nmZ~~n~n~j~VyxzN|}^fZV|Fz~^~wv~~vZvv\j\z}rzEvN~}nzfn\neln]z~T~vz~y\~urN~xz^l~Nn^n~F}kq}vizrf~~l^\yvxzzrj|Vv~Nlfny}|vfr|v~|zvsz|u^~{^zvnh~y~vRzz~Ltt~z{z^v|}FFR~zvun~T~~zx~s}vvvv|]}fl~Zz~~^^Vfz~^d~jSt~~}rxyn~lf~}pnt~^^MmF\^^\v|{w~T^v~~zn]~~n}|m|l{~jZ~jyz|~~v\Eg~^}z~}l~|v}n~n~~N~uTB~Uz}~v}~~^~^^z~~m^~z]~~n^^zznn~nv}v^~u~}n~~~vJ|tR}y~^VV~~~~u}U|~_vy|zn^^v^^~^{nVI~\{Y}~v}z~}~u~s^~x~}~Njj~]nn}^b^V~tEG~zt~~|~~~}Nv~n}^jfn}v~knx~~ffuj}~z~~~~mU^T~~z}znKLnyN~vvnj~~~d||^~eNi}~{pv|~~^~u~n~^|}|n~lN}yNqr~j{WRtw~~~n~{|~frY~}^~nN~^zn}ZN}zxznfvz^R~~jN^g~^~xynV~~f~Az~~z}t|~vlp~~yZnN\~]|Tz~~N~~~|nf|x~~\~V~n~zm]j~Vryg~|}vVK|v}~|j~mx|ubZ~^nZ~n]rvf}}jua^r~v~~z^|rXr^~ntf,False,9.0599e-06
~?@c~~~n}z~~hdZ^xn}v~|~zzZ|~|^~yz~t^\~rz^||z^^zzl^v{~~}vt~}^~}^r|N~u~F~V~[}z]^Zqnvtvr~^~NlT~{Q~n~~t~z}~}|}\|zMnxzfNn~}p^vv}~z|z~^]{~Bd~^~zvYZ~]~nrz}|v|~p]v~}~V~u{~~^~t^\|vx^{~j[~~n^~lv~^~|n~nXg~}iVx~`lv~nv~~Vq|y}n~zzn{rR^\qzbl~zVrnz~s~]~NRZn}~zz~}v\}f~f~nTzinh}^t~~~jypXLt~~zx~vMR~m~\x}u~}\~^v~S^cmwl]~r~~vZzz~n|v]~yu}um~d}Mnlzsvvlzn~~N~y}~jDuz~~{vN|Ny~~EyI|~t~N~]|vtjn~EzH\^j~r^Mmze~~~F^n\^jVy|lLn}^n~mvz~~~^{~zvV~x~nj~~~{ZnkZ~NB|~|}}~Q^]~}|}fO~b~]u~|}xN~^vu~~~}VA~z~~^K}~}Z~~uv~|~~~z^|~xz^^~jD{^]~n}~|}}zVv~CZz~}lv~Mnur\~~|~xnNN^juf~ndvX\\~f{nZu~}[]n~z}vz}vepn^NA~~uK}m~x^Z~ny~d|n~~N~|N~H^f{|er~n~v~{~|~J~~}~b^tr~}~~}~Z~uzH~^|z^t~}~Dnnuu~~}J}m}z^fP~zv~f~vnmr~|\~^rnz~~v]{v^~N~^Nyln~qnf~myzm]U~b]f||^}{^nz~^~~|N~n}J}zn~~zl~y]~}ynn|l}~z~\ufnz~|pwlzvzlXg~v|vv}^yx~N]r|}UuQsj|zU|~uz}nZt~mi^~Fj~|v^z}~l^~~VvYmz~^y~~x^^~Zun~~~|~vnNnt,False,9.0599e-06
~?@c~Y}nzV~}~V}zZvw~~mr~j^zv~wK~~zN\{|lo~m}z~m^vTy~V~}^ye~v}Nzr~^~}gf~rn{~~~VN~N]Zzvvv~jlF~N~n~~~kz|f^nxz|jn~nn~~z|}yfzvnz~~vdwN}~~~~~]}}f}j~uZ~|zj~VN~~Xv|Av~n}ZveZ^~t\|zN~Mnyzv{Z\}|}~nn|l{^|~~fn~yf}{kl|x^e~~w|mlVzm]^j~VQt~M}|{z}Z\m~lZJl|z~zn~FMzZt~~~|~}^vn^~}v^Xzn|Xr~nynj~vvv|j~~zz^v^u~~y|~z\V~u]}}~zR^~y~jnl~m~]|rlmy~nzVNnN|mlN\ddnr~fn~~~~ZX~~~v|~~^f}nMD~vrvv}~z}xVrNUvnz~V|}~V~~zvz~Zl|~~n~~y}v|yZ~~|qJ~^~}~bz}N^~zz\}{d~zmVfVNJvz{~^u]\vN\n}]}zyvrq~\Rr}vn~z^~un~Sz^mj\^u^|~zt]y|~~{czsh|z]P~vV~Tvj^t|^~~}Yr~]~v}zN^tkv{~|~}|~Z}xvz{v}|{zZyzpr^znrnnn}Z{~V{v||~mnnrr\~^fF~n^|xtnNqn~fn~~~~ln~l}uq~~yoz~^t~rz~vloujz^~^vejnt~~~r~~{j^~zl~V}}nqn|n^}~}u^zrznlv~jz~]~z~~z~j~~~nTmr|~^vrT}~UN|]~^hy~~z|~}~n~}d{E}]V~F|Vq~yj~~r~vNiz~v^~}]~~}~~LDn~~~~K~nnz|~~^^}}}Vt~l~um~^~zZpv~zepztM|h}}}~N|mD}nV^^~zk~TNft]~~t^^~n~ux~zv|MNi}^LY]z\~r~~tn~^L~~,False,9.0599e-06
~?@cV}n]|~^vze]~nJ~v~zvux|z|Vzyz~n~^x}]x~Zn~~Wejzy}jv~n~f}~vvp||Zu~|l~\Mxi~~v]|Vv\|~~Z~~^Zqf^}n~vr^invZ^~}|^wu~nvvf^l^~m~~~~I^~~nvj}jL}|~znvY}TXn~rzzm\zt~n}kkzgM|~t}joZ}~l~zjZZ~~Lnfu|Rz~||t~|}rzuqrr~^lvnFzfN~t~~y~~zz[~v|z^}~~~}n~~n~nXV~^A}n}~~v}ncf|x~|~|Uu^Nfq~z^y~z^~z~j^|j}^~z~t^~||lnN~~|~~~rly~}pF|z}~~~Qu~~~]}~wfT|~~E{|v~zut~~~||~~|v~|~{zVfz]|j~z^VxDr~~ml~^X}|n]~~t~R~~v{]V\j^Zm~~zrn}~uzbL~}~fz{]||^~k~~|^|N^Wvyrvnn~dVcmnzj~}e~L~Z^lfv~ni\Fl~^]mt^tnj|e^x~jz\ZXfvxtv\pvn~^~|v~T~~~hx~~~~w~}Zv~ro|]p^N}r}{dz}~a}~Z~|n~n~jtnv|~^jn~~|sJ~mzfzRZ~ZWVn}}^ty~^yv~zyzynu|m}zZ~p~N|l^F}fs~n~~Nzr|t^~v~vv~}~nYnf|X]~vj||Ljf}~~y^f|v~~z^x^}btdn~|ugj]~hv~R~~z~ZtJ}N~zV~xzf^~~vlbz^xn}^}}^|nuav~nm^^nl]it~n~|~~~~\tnv~u~~||}{j||^utjx~^|m|s]^z~x{^~Fr|}ndnjvmv~vVVjNv}b~~}^k~|lfv}`~~~n~}|v~|yrn}v~v^n~^t~|~^~}~F~^~|zQ~vr~m}|v~\Z~~]izw^nl^mKvvf~m~vvv~,False,9.0599e-06
~?@cvty~y~vyv|~~~y^^mr~BtC|{Zv|U^}v|pNt~d|bp~v]nr\|h~neu~f~|}}}^~Ed}x~|||y~N~~y}v}|z|~~tn|Nv~Z~||]|nrnv}~Fr\~|~}lv~uF~u|~}e^^F^v~~fyv^~n~vyz|y|~|~f~z~nz~~ln~n}m|n|~hmk|^~n~^~~j~|~~hxyfjy~~`qn~n|\v~~]m~^Xtjrl^zmv|^~mR|~~\~^zfl^zny~^z~R|j{}}Nlv~n|Y]rvz~Pz~~Im~e~`r}vZnwVz}s^~~`^vdz~~~|]f~uX~h\~n~]~]~|a~~unv^\tzfvY^}|~}^}n^f\~f}V|]|}]Y}n}~|Vvvx^^rff~un|vls}~~^m|h~~^m^Z~z}V{ne~~y^^^~^j~Mn~t^vv^Nz^~Nntv^yx~b^n~zvz~eNzH}~~vvbounn~V|\z~^e{j{^t]zwizv~rz~vq~~~~~ztr~~\|\y{{^~\}~}~tsyz|rj~v{v^sn}Ze~}nrhj{z^]|v~|\Z~l~}Ru|~]i}u~zNxivzln~yu|uv~~^~}}q|n}|^~^}~~z~~}hs~^~~vjyzVnvzznxlwn~~m}lTZ}~v\}bzv|X~~~n~~m^unV}~xf^z~~u~^y~n~y|lZvzI|}|j~v~~fFzzv~up}un~Rud|~~^n|}wqyn^z|Imv~Z~]vxE~v}v~r^~~r^R~~vf~~r~~L~tv^}zxh~~f}p|~~~~~z}vw~d~[nx}^T~b^Y}vvvIz~^n]t~]Nwzv~~nX~~VzsN~uKj~~}zm~V|Nd~~v~~n^n^zff^}~_jmJ}~t~~~y~g~|~|}Vryzn}a\V~^nkz}|~Z~{~V||~,False,8.8215e-06
~?@c|vz{rVvtv~~v~~^vJl~~~n|jJ~|Z^x~~nx}N}~y|Cyv~NbVf~|~^}yzHjt|~xg{~~}^Zw~|]^Z[~uzYnn~n~~y|^d~v^v^^~~~mvn~zK^[h~vfX~mn~^yjR~~}|Z}~Nnliz~\\~]n~}NsBm^z|LZz~^|km\|n~y~v|~~yu^Zhnux}|[|z~v\z]Z^y|^~ft~~z^lLZV~^v~~}~yzn}}|]n^ureJ}~N~{|m~nyN}~~he{yRr~u^|}z^~IZnnl]zhv~~vn~~^~\q}upl|f~fz|V}}f~xv~Y|]T~x^U|u~~bN~|v~eN^~|Vn}~~f^Zn~nz~^xuf~|m|~~|{u~y}ze~~|~~jVv^\~^NNnzm~|~t^vT}|r~]z~tg]zmn}m}~~f~~mrPv~~jx~U^|~m}~|^~^^t~l~V\av|^|n~~~~~z~vm\nfz|n~~~vq|]\{~s~]~^}^vz~n|nujyN~|dw|^~^f~nzhnlvn|~\tz}]`zv~|}|x^}v{|f~yz^]~~~~z^z\zt~^Lnzn}}~JN]v~uv~v|w^^~~vlv]zj|~~V}~~]t}u^~v~n~}v~v^~sinl^ud^v\||}z{d~m\b\^}~v}s~ne~~vV|~~nx|]~U^~R~n~~lvnvz~uzu^y~onl\^U~~l|~~~^}^~jV}ymvu\vn{||~YZ~vzxuyEVj}Nl}m~nTn|^^mxxmjtNexynrN|m~mv~p^}xM~nlm~yUm~b~m~ZnUmX|f~^z\{q|{nn\]~}v~~z~~~~Zt~m~Q|~f~n~~Y^]~~~|]vZ{}{N}~~b|b~ZV~z~rv}y~lVr~ll]k~}z}~n~nmm\~Hu~vlt~]z~~zvu|^,False,8.8215e-06
~?@cnVzN}Y}}h|^~~}^|m~t^\|jxtl^~|vv|~nZ^~z~tvTaTzr^z}~~^r~w~v}e}Vnzn]n~~j~~n^v|~n|~|vu}^z~m^~|^m~}^Vzuu|\z^Vhnjn|~zu~\~~~yF~m~~mv\~~sx~jv|Nd~^~nz~zw~}]m~m~~z~|}~U~vN~^|~z}|}n~^l~~yYxxZXv]|~YzV^n}s~~~~~~Vasz]\~x~znyN[ZJ~Sq~~vK|v}vn^{~^|}nZ}]}~|^V|nUy}^~zynx~~J~t}tnw~\z|}~nuFN}~~~~j~~mn~`tjvn~}~}y~^r~~vztO^Vz^\v~X|Nkr~mt^\Nx}~~zl^tKwftVze~Z^v~|lJ|n~NLrzXN~|}~mSqz}}fP~^~~n~\}lz~{^~~nv}X~f|}{~zw}}V|{v|nn~vr}zNUvZ~^~uZb}~~b^~ZzRn~}\uv~~~~|~xnF~^j~nn~v~^\xu|}|[N}^xe}yvv~~Nl}Zzmnzv~z}tZ~v}m~^~~|n}|^zY|~^~}L~~}jys|~ze|N|{~nU~z~vV|~[nmzt~}}nxj~z~^~N|~qz}xtN~Ru~qy}rfV~]~R^n~lhTn~qf]~ur~iNm|}^~aR~}}}^~{v~mlen|kl~^n\DN|~~j~j|v}~|jZ[v^]z~^~uR~~~n~znx}}e~~}z~~niZ[~~v}~Y~~v|v~~~lw}n^nj~Z}~zz|x\`~J^z~vv|^~lj~mLZvvNzn~~~~~fkXN~L~n~|^|^}~~[^j^}~}znxjMx}qq\L|qX~yzzr~|p|w^Z\~~{Murtllj~nqZl~|Uj}u|vy|~{uc~n~~n~vur~t||zl]i}|v^]vv^M^y}~}~}vU,False,9.0599e-06
~?@c~|~|~^zO}nlv~^~~|NM~\v|ynv~}Mv^uvi}~^|AsznM~r{~j}vjvv~|~}Tt~x~\nv~|^}zzqzzrm^N~ezf}~zvv{||~kz~~}R^~~k|^e{nnnh|z~z~NrM~l]~|][F~|z~~~N~|`~~n~~~^^v^ZqY|||}V|X~V~zzw|~^f~|jyv~}ybuF]n~vzN~{^~{~yVXn}~z]~^v|~}|~E{yz^~~n|q}^n~|\D|}n~~~f}^~tl]v~~|R{}~mR}~v~|r~zFWtlzV~|z~r\~n~~^~^Pznn~^vJS|~{inNi^f}x^~|n}~~~|u~x\ou}}mpu~nz}}^mzz~uvkv~~yrVv}~nn~}^|~zn^H~~z|S~~~}n]qr~znux}D~}v^ZN|Zrnq}~knvnZql~rkx~v~~v}UQv~tur\jLTvt|~n~zy|{v~vV^|r~z^f~~}|~|^|~ubpj~u\^C}~~rMVzt~|~^v\{n|lUnv~~cx\Zzl}u|~v\]uN]b~^Z~T]~~~v~Z|X]z~zxZ}f~~z~|~\y~U|vz`^^~v~\n}n~ni}m~]~|n~Uu^v_jx|vr^uf}|}~v~~|zzT~n|M^zv|z^~y|~Zf~~~f^~uz~v{|^~uuI}xrfu{~|pcwz^^rZ^y~~M~Np}~wsex~j|l|n\]zz^f~zvyn~~vV}Z~n~^^|fP~~~v{k~nv~|VlvvnZ|d|~[i~~~n~^r^j{|^nn^nv~^Mnun~^|~~x~|F~N~nzQ^Rz{}^\~V~~~V}~njvzn}h~^~~~~~nzZn}FnV~zv~mn]nm~v|~b~}vsb}X|~vn~n}zv|{V^r~w]~uu~tft\|vvv}~tnyt{^}tv}{mn~}v\,False,1.00136e-05
~?@c}m~m~~nv~^xzv~n}}|S~^~~f~}~r|}~vnNn{ezv|f~yZr}z{M}{nv~q^f{yvMuhlj^}~nxj|z}^~~~lr}z^|^x~q|fn~zZNbn|~~^~^z~k}}v~}w^vz~VtU{v~}~pU}vz]~zz}vxv}~mvL~~~njn~\y~znnNdfNv~~Vv^Nxj^|zVpz\}z}~v~nvn|t}~Mm^~^hc}R}nv||~tu\]~z^Tf~v~^z~l\|^~|pv^}n|Xv~Nn~J~}~yfn~~Fvzn~}Vmz|V[~vn~~z~~F~|ut~mLx\|jzl~{~vzi~vn~}~utwN^K}]z~m~ZVvz|~{vR}~yv~rm~|~z^~l]}vZkkN^m~~ljzZVJZ{p~z^M~}Nz~~ufyj~^zX^HXU|z|]z|r~^jn}nz|~~zMs^tn||n~~vxlmvDC~V}|^{~ny^vZv|z\vVz|vK~^}z~J|}h|vz^z|}z^z~Vtt|v}\y~~~zF~mn~}n~i}nxz^u~]dn^~MZzVzzlmtm~u}z}}~zxvNvh~N}~tZl~~z^nu~zj~\h|{n||k}hRVny~~|y~~~zZ~k~|~d}~~|n|vn~^jE~v~X\~Mv~ns}^n^~|M{|lnZx~^Ng~~xtvtn~~~FY{zb~v|]~T}}z}ZZz^N~nZn~|n~~}{^Z}yq~|~~~}n^Q^nH~jzNdr^}vf~~|}|n|~^}~~n~Z|~~~^p}^nnqv~vzvyz^z]XvT|wu||jz|~{N|l~]lz|}{xnn}~~{~o~Kjz~njnz~~zLl~n}z~n^sv~{~kwz~v|~{zve~^rft~}~}~Zzj~f\vr]~|n~fn~z~F~^U~mvj]]znVV~^ZN^^]fvnUv}F~v^j~~tln,False,1.00136e-05
~?@cz~z^^v~nrzlX}nN~rd^|t~ym\R|ny]~|vezv{~c^h}Z~||juz}~N^J]]]~|{~l~n^svun}^nzzr\J~~~t|z^~]}zl||l^^vy}e^fzn~~zszzn}zfz~|l~}shev||mzoy|}sv~zmwnW~z~m\y~~~v^n~Zr~^[~zn}|~~jefrEy}~v^vtk~[]~~Ymyn~v~~~u~lzt^nZNjnrvpUFr~^j~|~~}}y^~n|}^um}~TMzXs}~^~}nnZ}zn{vnT}N~H^ynn|v}fnzj|nnV~{vtl~|~Fvy~^~zinm~nl{v|VzmR||}xnN}|n^}~~nzv~z]~v~~m}nzvz~~n~V~n~~Zvx~n]n~f~unvlvvvl|\Mj^nzv~b~~|Fvzz~~~}nc~Dhxrn~^vZ|^zv~~znj~~~~^||q^VyF|Y}~Z^m~~zqjV~~]c^btN}wmzv~{~XuV|}y\~R~j}Fv|{y~|y}~N~]Kn~~jV}^~re~t}zl|\~^n~V~}zhv}n~n}fZ~H~~v~zYn|~z]]M~x|}T~^]m~^vnttv}^Zx}zy~uZ^xm~\}u~nvr~|||vqz~z}^~z~u~f~~^dM~Z^~Vb}}~~~v~~~jzN|~levNnz{n~z^jnNv~Frm|{~|TmX~~Z|{vzyR~vV|z}|v^~~^|z~^~^z~v~YYVkwnZ|~TvYni~vZj~~j^~|]vVz~miu\}}nvjnVj~zz~lZmZ|[^^~q~m~d|~jz~]Nx{vv~JRtz^z}fv~~~V_~~}j|inV|}jt~{F|j~~~vz~~fjZ^vNzNru~|Bn}[~~~mj~{~v\nz~~nz|}z~T~z}y}V~~|x~~n~~untu~^x}yv~vzq^~{|}y,False,1.00136e-05
~?@cN{|\n~~mzsx~t^py}vRzm^~~~]~~|yun^ezlT}}Zrn|y]\n}~~~{V~zf|V}nT{N|~f~z~z|\~u~mJ~r~Uvjn~nln~y|X~~V~{VXy|||fz~\^dVd~~vHn~j}N~qvnh}~m~~vu^\\k~T~vL~~uVj^Z~{vJ~m^}{V}}vN~VNjjNnk~NfZwxN~nyj^~I}zvzz~vv~t^^nm^f}}\|v~n}~~~r~e|~H~Zp||~~Z~~mr}z}x}l|~~~bv~t^~~|B~~~nTzz]\~~vNN}~vZ~~^}~v{^n~v}jv~tn^n~|uv^qp~~nj}u~v~zlZn|ml|~^~lvyvSjN}Vnvz~z~wzvZ{Vnzu~|rl~kzvm|U|~~}n\fzz^pzj~{vzmrF~|^z~~~u]~A~z~~^BrjYv~|{~stn]}~~}~ZTn~~n}[^\~\ny}^j~njf~~nxw}}|j^vxjMjZ~}r}rlu~|^ryxn~~z^~}[^j^~zy~xY}~z~~R~th|qr~|~|~~sn|N^~^~Nt~\|v|z~~zv|jr]j|j~z~R~t|~~^V}vZ|J~~^~~x|n^]R}\NU~|}nnfv}n~vM~~N^n{~~u|v~R~{~|~Vn|zm~~~zsuj^l~zt{~x]~FzZV~jIz|v~j}~]]|uz{^]}xnTF~qLvr~I~\ftvy^~~~r^vn}}Z~x~N}nf~t}z}jr~~~~\rzV]}{YJp~In}z|Z~rj~~~|Yy~}cxzz~np|~z~}d\~n~\nz^J}Ntz~|n~Jr~|vZm^nvJ|X~~ZJi~vuz^ucn~rz||v~x|mxN|ZV}z~]N~^{}ttn|l~^~l~~[\wevvjz|~^{}zyz~}~znv|N~z~v~^~^mlr|U~~|~,False,1.00136e-05
~?@cpnz}~\tvpz|e}}~b^]~z\n~rT}~}|XNVnF~zm~V{~|~nn~^^v~Rkl~}n|}^~Tx~zn{^}~~m{vl\Y}yz}vN}k\}~}mv|mvzxZxnWszz~fzNnVW~kyvjzf^^xNl||~|~Yl|f}~|nnvumnTunZQS~}~Xv{^kvRn~~tn~prnx^~|u^fxn|Fun]]~Jq}m|\vl~|}z^nj|nh^nvz{v~~}}~\Z|X~^v}|~yvvvv^{[\z~Z~~Pv~~MZ~v~nxM~|~~{}tn~}{s~~|~zZ~~nvvznnrj^T~^z~j|b~|V~^}]Y^N~R^^mn~~^bcj~}~]}u|{nu}}DL~n}^{{|]qquu~vn~~n{~nPZ]Rkzxt~}|V||}x~Z}i{~~~{~^\^d{~vn~~zzz|zt~^z^~}^\|~v~^~m\|~lZjnn~y~zn~zz~z]Z~jZu~~vz}^yv~~f~x~zMy~nn~vz^~z\|l~t~vfI~~Y~|n^~}^~J~~~|}B~~rv~}^v~yn~~j~~jz}~jv}n~zN|pVR^}~|uvnv~n]]^zj}^vm|~^~d^Zjd|M~~z}fvmT~~|~z~u\X|^n~fNnV}~r}nnBzN||~^t{~~~htrn~}yd^~n[\^n~d]nb|^vv~t~|JntNfm~xz|nZ}VnFNmz~~l~^bszbunnmv^a}v}~~zh^~^znFvr}|~\zlyN~~vvln\~^b\~^m~vn\^f^|Vn~vr|v~Vzz~|\|Nn\nbZ^j{nniscv^~nr~w~~~~w|z~~~yy^zX}|nhzvNxz~mZvnu}}{|n~n~~z~~mz^~^~^n^~^Z}zh{~n|~ts~t~fnz~~Vsvv|U~z}}JrV|~e~~VuM]^^V}~}z~|~,False,1.00136e-05
~?@c~Z~cNmy|v}lv|~D~|^xvG~N^nZ~~mN~Vnzt~VBV~\~rL~m~l^]vr~~~v}vZ|^ZU^~}|v~v~~NNxnNnlxtx|z~|jjV^~^~^|nz||\Vs\lzn~~v}~Z}yz~~|}vz~hz~t}zz}^ke~x~|z}t^t}v~v|}h~zz|N~z~v^n~y^~~v~|~~z}n~x^^~t{~~~v~^xb|r~eu}N|^|}~~~xJ}Vz~~zrTnuzfvWz^WzCf~fnn~~k~f^^~khZd{~mzNB|zzpTv~~ynz~snvlp|~~m{fv|^F^n~~~~x]~nmuv~l^zN@z~~b|~|^f~ZQ}k~mruh~w~^r}mhN^Z~VFp}~a~Gl~^^^|}|^~~tn||F{~mu||]V~|~~vf~|~^n^vz~~r~~fXy~\~ZZ]}nvmxz^~~nn~z~jz~{~F^~vzY~~~{m|VT~tv|N~~zu{{vN[T^zznEy}~L|~nz~~vzz|l|~~[pv~~Fu}z~V|^v~uz|w\|^~ZR~d~t~z~^r|^rnJz~|Zy|^p~nNml~~e|zRn~}ny^~\~~y~~f|~nzn~^~~|vz~zjlqv~av}V~}~}~z~~~~^q}}^|~^vit~xz^~~]^^Qn^vn~^vfvdzz~vUvF~z~c^}|~z]YNy~zZzR|{~~bnmnn|}tr^]lJ~c~~rv^m~~z|^n^T^~|~fr]~\n~nNRq|t~v|tRuVX~|mM|Fnzjv}{u\noJln\L^j}rV}]j~~Z~\\~nt{z~v~~~{}bF}|~\~s~~~nv{z}|vv~r^|Jfz~~L~~v}~s~}~`QZ^~ns]l^^v^~|zVtnr]nMr~n~v~vkv^^~t~~^mlz^}z^lv}MgnvxV|~~^nn\w~jyx,False,1.00136e-05
~?@c~v~|}~~wKr|~~ny~vVn~~zu^}^pz~nptzmB~}~t|~nr~~~~}vvV~~nz~v|~\l}~uN|^[^Z~ur~zznzr|}z}kf}~fzvWn~~^NnV|yn{t}~R}]yL~LvV{j~f~t}~|~Vru|tv~}N~~nv~\~pi~~|ln~}Nt\h~~yzzv}n~nv~\v|xjt]~~x~zy|~~|~~xx\Vn}^~~}~}~~~}n}v^|~n^{lvn~~}z~x~r}n}K~zI~a~vu~u]vq|Vv~fnf}y~~x~vz[^||n}|~n~RNu|zl^~sv|V|yw^~{tSy^}^N]jE~y|tm~r~V~V~~~^fzm|]z~tj~md|~~f}~Jfl~\wxb\nr}\~a|~Kr^n~y~VPu~n^}~v~u|Vk}}|m~~\}V~^uN}ju|~z~kwt~|zv{~Vzvnn~zvNj~^z}x^|zZvsz~njn^Vh|~z|]xnk|~kj}Z~l}~nv~|~~zvv\t}||j|~~]~~\N{\l|~~~~my^mtXgx~rb~lNTzsy}z\rvjx~jv^zry}Vv]x]^~en]}z~|}nL~~^}n~~Rj~wpL~eNZtr}v~F{~B}~~vz~jznvn~~~~zf~zvnlz~vvRv~~z^dn~qvzPn~~~n^V^mu^~}zZ^^zz}Nlf^~~MT~~Z~|v}NwVvM{|~jU~}~nTvJeVyt^~u^~n~v|~n}~|n}|tvn~~v~vxz~~~~~}m^\j[|~vSyUutyvVv}~tv}vvN|~un\~v}|}rV~J^~vBZmm}{zn^}{znp~{|vl^^nTnn~J~zzkxft~[~^zv{N}nn~~~~~uxN]xz~~~z^|@xpme^qf]~~rY]nq^Z}x{^JpZ^~~Mn^vNl}|u~jm~~u~^~Y}n,False,9.7752e-06
~?@c~yv^|}VnM|v}F|xtm|jlnvn~fvVz|~~}r}}~}pVhFv}~~}v^uvnzz|}\\qz^}|f}|j~zfv}~fb~|^~vzVit~~~^|u^ruy~T~}Vk~^~{}L~~~~~|}~~llzjvVz||mUv~^tXx^Vn~Lm~{~^jil|~}v^i~~n{|}k|dxHn}uni\~lzv~x}zm~v~Z~~kznl}}q|B~\jnr|m~|nz|~~jl~~p~\|~]^Lh~~~^frt~~x~mz~n|]v~\}|n~{NW~|~v~~|}y^n}~^~iv~}vt~~~yNm~v~~V~L~rvYvFz}~~un}iz~t^^|~~~j}Zz|~qv}pJmev|z}|^uzo~iyJ~~^zj~^z^R|~^^^zZZnd~}x~n|\Lz|nM~~~~z~n~|Ntnn}|z|g^y|^~xg\G~^nhqZ~|VvNv^^lzxvztnZ~~~|tkZZ~~~Nw~Ki}w~jNr~z|^l^vZu}~]zr~b^zz~zzyZ|Nz~znqZf}~~}N~{~hzq]l~z{~t^rx^{n}t~~z}~~~~~}}j~|znv^~n~\mzzrm\wynv~}~x~~xfTm~svv~zM^~zpa]~~^vztk^s~nt~^}nM}i~~Vvs~Z~z^rdUfm~~~~~~~^~|y~~^|zBV~N~tn~^|]~z~tjJ}~]ezZl}Zl|ne\}^r^~~Nvtxv|^^~v^ulq~~~rjm~~|~~mYn~vRvNyVzxt~~jxq\~}~}Y}v^~|]fnVfvR~l~~~|t|w|z~~}\{}i|qn~~|~|yw~R~zLtz^M]~|]v|v~^~z{}eF^}~vm~||n~^^~]|z|~U|vn~V|\j]jum~~zm\u|\~~|U~V~v^~w~TrNN]m||zyn}~t~RTj}V^\nxa~vh~,False,1.00136e-05
~?@crnrTr\xv~ZtR{|~v}n}v^}u~~V~nr\uxUvv~Z~~\V~f~V~~v~~T~~~~Xzun~zvFM~^vn~vnmVognr~~lzz|f~fzvnvrN|}vivNfvyRr~||j^~}V||~y|~zyz~~t~LT~{z~^ezl~zuXJ}^z^^~~z~~Z}|\zXzv~^|~l~v[sj\}i|~~}t~~~}n]|~s~~~|fzyvn~VBa~t|fuTrx^~nNjvv~gn^f~}zVz~~|~Z}~rJ~~{ulg~~vcx~z~l^~zV^|nz}lx}kZ~~]\kvrn~tXm|v]v^}vv^|munz\]N^vqrz|X]N|^v~^~~~~~n^Zv~~f~~}{{|l~r}~[q~^~Ju\rl~~^^T~]g|ym~|N|~[rv|Xq~[~~n~~n|nxn|~`~~nv~}vzRs|\~vntrmtn~^VfjnN^y}Rw~}\z~|~r~Ff}N}nl~f~}r~y~hv|~N|^^t^z~}^uNq^}~ZZvzzmEzzi^\~z}t|~}wvlZn~^n~\p~~~Vtx{~t~zn^Z||~zv]~HN\vZ\~If~fz~l|~vn~NTn~~sf~vvT}}~y~l|{}^zmNu~^ny|nvMvk~VJ^\nv|vb[z~cv~[z|ne~^~nu~^|lmr~~^vvz~~~U~h~tz~~zx~vRX]vnrL^^f~z}~~~~Vv~K}~Mzd\lu~rvz~tl~z^~x~^^TJlvvr~~~{u~~y\u|~n\|~^zZu}~zwJ~]n|~nj~|mbunN}Z{~~~Uy~^~~z~uzn~uvj}~ztq~~vnTz^U~~^\~|fJxn~|r|^frLz}~\Z~nj~~vX|n~n~z||v]Y~Flvbv~V~}^^^pVzzx^n|zzZM}zz|~~~^^^~|~q^U~~^D{jjz~z|}y,False,1.00136e-05
~?@cpT^~nPnrs~}q|R~~ZD~~[hx~|~~lzv~~h~V~uMf{Zz~yz~~JZ~~~}dr~|~~zf^~n~v~X^lMv|Zu~{~~r||V~~~nvv~zvz|~~q]l~}~{\x~x~~~~{Xn~}v~\uztzz^^~U~lN~x~^~v}v~Z^x}~]H}~v^u~vdxv^x~~\z{Fl\^|p~Zt~y{}q|~}nV~\^|~~~|}|}n~zmf|vNJ~~^j~n~vl~v^zmyfyvv]~~~x~q~}z]\LN}bZr\xnvyz~N~v|nUzzN|t~}~uuNNz^}{u|l^^~~]}~b{tvM~{~~~z~fNU\v~eq}Z~knv~s{ofZz^hdv^nz\v{z~^m^z\n|~^\^}|L^|~}lv~|m~f{v|`^t~ywlx~|n~^T~^iyxv^~]f}~EvN~^ZSuv|~dz^nntxnb||N^z~y\~~nL~~b~t~z~~u~^z~jvtQ~~^z}~m~n|Rl^|~y^lHyvdvn[fN~^z|z~Nzyn|^Jnunvj^~tXmu|IMnt~~^~n~n~|rx\}^{^~|u^}~~^j~fnvy~}v~vr~~~nlz|[zz^^ibzzr|~njt{~~}mz~~v~nzNyRvqnze||MVrnbn}~rn~\z\nnj]~~v}^z~v~^bvzY|j{fj{j~R|v~\vn|j^~ZFZv~f~{f~^~~~y^m^}~i~|zyV~V}v~}j~{~tvlmnt~f~n~lz~J}]v}vZkUZ~~~m\~~~{}^vyn~~Yt~}nxN]~vK}}|l}~nvyQ~~~Z~v~DN}~t^~N||xyjn~~~|m\wz^p|n^~v]l~TvN}]~Nrn~}m^an~rvvvx}~vyJl~|z}px~~nW~~~zz~~_M~|~J|~vu~~]jN~^~{vmv}mVJrh~^,False,9.0599e-06
~?@cm~}~s||dlk|]~~\}zZ}mti^~zn}z~~~x~v|v^|~vR~TNzW{wwf{z~N~~rs~z~xm^Jjv^v~U~~n|~V|fyxzZR~nczn~~Jz~z~y~}~n]~It~mV}zyhe^b~n|~^~~m~~qRz}}}vp~NyzvMvk|~^]zw^g~zv~~v}~v^~~wzvzZ|}\n|~^orYv~~NftzN^~{Ur~~]~imv^V]LnW}]nzVZxX~nvt|nvv|~zl{~|h~y~M~~z~nrxNoN|nmmiLzM~t~~Xmv~~n~|y~|~ezn~~|}l|a^z}nz|m~nMz~^f]vz~~}vXt~j}rmrSV~}vv~zm|^~fnv||zv~}vn^nmJ~~yza~|yzzty~D^~|oXwrj~qQ^z}XhnLN~~~v~^~nnn~f~mnz^nuj~^}~n}|TLnvrv[r~~^}]u~~~~bZ~~zz{~~u}~dD^n^UZ~Z}}~mk~~Vz^~zJ^v~vl^m|]jlZ]v^~ny~~~{{~~Y~~~zvvz~f~zj|}~zzFu~~hj`^~bv|][t^~fv|lt|}^}|}~cV~~~^Xn^~ntx}f~|nt|Zl}u|n~~N^}\T~~^}~y~~~~}^~^^v]]~~wXl]KtNv~zv~||~iZ~~v{jj~j}v]`ju~xnf^~~pzz~fz}~}q~z~|v~p~g~n^XnmM~~n~}Kz|Z~M^~V^~z{nl~~~x~z|^rny|u~\tHl~~ly}nz~^zr|\r|zvVm|z~~}t~z~~~}}}~V^~~n~NrtUv~IY^nl~^^~v|o~ZY~zeznnVz~Z~|ynvV~}ztzXntB}~^~~^|}~}~Mu~l~v~B^~X~n~~ty~~nvlnzrkl~mN{~~~^z]\LnMZeo~^~}~x^^~wr^~zn,False,9.0599e-06
~?@c^nd]~^U~u{bN~{uy~nM^~~vy}r\f~n|y^nj^^]yzv}^E\}l|~v[la||^~zyz}v~ln}VY~}l|pO}n^~y~nnnZ|c^jo|~ztvmvZ~l~r~}q~|vvnF}~Vt~Kn~~N~tsP}|rvv~n~vvjue^Nl~~V~|FznZ^Kt^M^mT|lW~NY~h|BI]~~~n~zrb~}u~~n~vzZ}~p|}|fn}gnN}~}~{v~z}^~~v]e~yn~~~t}~~VfN~~ll~\{~~~z~~}hrJ}|~~~}Y}~~vz~~nnUln{{^Z~tn~~Vx|V~~v{u~t~nvv~ls|nn}|v~N~Uv^k~vv~Un|U^f^~}vuuR\l}zZz^Xv`v~~d~M~~|~zw}jJ~[~TY~N~~m^xNzbnvxz|~nb~~lnz\}~~]~}|z}~z~~||`wv^~~zp~zv~}VNv}V^~n~]^~Ml~}nnzn~}~}u~mhtK~vZZvWnZfnn^plj|x~\|z}rm}{|{~t~}~}p|n}z^~FxuNNyv{}~^~]~t||}\n}N|nN|tj^d~Z|tv~hn}~y~vvzj\evu~\~~}Rm~^~l~v|nfe^^~Xl\bzzct~z~t^nZNV^}}|~nf~{j|z~\~l|v~z\Nj~vVZ^z~~~Nzn{^~mn^VzZvnvr\mb~NFytV~^t~n{~|~~~~ZVvj[vn]fZV|~nVK~z~~vn~m~~~}n~{{Ap~zJ|~vHznmd~t~t}~nyl|}}t~~Zv^}zM}n|vLng||^|~\en}~^yvl~ur~rdVzxz|~~f|\~~wvqn~~n~V}|}}~Rn~^nV~~^~nm~Z}vzz~Rff^~rlfvr~~~~~~^~NN~~xnZzz~Vz~y~~~nzl}~vL~el~vx}v~~v}Vh~v,False,9.0599e-06
~?@ctJYjzhzz~~ujy]}{}t`zU~|~n}|z^|~V|}~nl~zzv~k~^~~l~N^^|}]yNpz~~|z}Z}~i}nmx^[|~zy~VRryyvz~||}zZ}^v|FV{~zn~{nm^~]z~nz{vv~~f{n|zjzzBmlj}{~[jf~~~k~zj~~pn~~vn~s]Fdv~|h~R|nMltf]~t}R]z~~Ymnv~^ui~~l~rn~~r}x~Fl~Vn~}}m^~nvl~nz~r^^}fm~~~zm^]\v~u~tnVrv~z~~{fl~lZT~v|~txu~b|uz~n~r~|}zv\^}zxTj~}v~xyv}|tiZyYzvz~~~zVNvZfU~znl~n^s^m[~~}~Vp|n^rnF]}t~uf~~~j^mn{|u~~~f}n~z~ZzV|~z~}zz~j}^~FZnvjr\~}v~X~z|~N~w~y^~xr~~nzN~bn~~v}^|~lj~~^^|ve]vz^lN~fp~|~}zzfly~~qj^v~~Uvn^yV}|j||}~kz~v^~k~~}][gx]}~m|vv^x^v}^~fvzz}uN~~~~~~~}e}~cb|~v^bV^tn}^v^Srr}vz~k}~|FvRnvv}t|zK[~Z~~NYn|\yn^Vvnknze^Z^]~zvnz|x~|^~}i~z\^|~rymvn^vm~[~[n^x}~}^vL|}^r~vnz~vp]m^]k|z~t~fZ|~~^~h|sN~~~nt~z^z~rp^UzX}vN}rwj}m~~Ul~anj~V~~vzv^z~ZnzR}mvllMjnZvV~}RZVNn}x~nN~vj~~}v]v~X~cpxanv~~z|\nz~t~n^|~^~}dZTrROt~~Ne~{Znt^~~~}~||az|n]un~~F|Jn{~]vz^T}^\j~yxt||vxzv}yz~|v{~v~R}Z~n~vm~N~}|~}my},False,9.0599e-06
~?@c^~\~|J~z~{zp~t~~~^v~~z~f~~xvv^~d~v~ir|ynB}z~]v~|~n^nnuZvzz~f|~~~~nu}~\~}lN|lvf~|v~]|Zz~~m|^~~}~~eHux^n^~]v~V}~l|~[]}Z~beyp|vv~~|]}]~}N^r~~rV~n~^DvF~~}^J|f^TlU~|~Vvp}~~~}\n]_|Xx^~v~~~|x|}v}f^~|}Ylml^[l{~~^^tn~j]^rn~x~f~vzD~]zn|^fm{M{zzvu~||]e~~x|ns^z~~~n|z~wRm^~~e~ln@~|^|trVM}~^n~~~}nv^x~~{~nvlyz~~xn|y]v|D~v~z~Z~~n^~nmRr~u~mnuV^{~~t~~|^^xM|kM~G~LnvNf~~Nz~v~fyv~}^mj~~lz}y^|}~^zvOzVlsZ~\]NVxGyvzN~^~^^~nj~}lzV~|u|]}~~z~^^x~~vtz}YN~zv~}~jy~}~|~||j~|~v^^~oHvnVrzvGQvz~Tsi~|~}Z~}V~~~|Vn~sz~~zvzrnv~\v|~~l|zn~N|\z~JDx~M~F^~tJ^y^~~\v^fzNPN^nn\[urt~v^fi~qv~tm~\nx~}|xz|Vx~lzxnF^z~up~~akVk|vf~zy^v~n\~mfbv|^}R[j~y~~znNl~^|q~mzzvn~~xzv~|zly]^^VxVv}~}cl|wJ}^]zjl~yt`|f~vv|uvNnm^~f~]dux~wL~^j|m|~~zR~ln~IZ\Mvznuu~|y}zX~rnz^~~|Z~w|vp~~h|Zn~|~n~}U|}~|lZZrzv~znFvnvn~^xv}}ynv^vx||~v~n|fvz}T^n|Xn{Vf~|nnp~^}V^vVfjxdu~nzivf}~~dv^f~f~|l]uy^~,False,8.8215e-06
~?@cmnm~vVvXm|y~zev~j~uVzm~^|}zfVX}}lfz~^w|vHx^~f]z~~||~^v~~ZsNuLv~nn~}~^~^z\~vz}|~N~vjvjN~~}mf~v~}i~r|~m|v{jvltdF~^^y~jzvV~~v~~V~~n~v~nvnzm~nz|z~VN~|yZdY~}Nvz^~VvJ~~]u{r^|Lv~n~|vlvsn}~vx~~rvuNNvb|}~|^~|z~}|~~J~^z{zn^v|~j|N^}Pz~qv]Jx~~|nV~|~\t~}^Z^zyu^Vnexh|jt~R~}nu}^[n~tm~vvmg~zv}~{~n~mRGH~Rl~u~Rnz~{|RT^u~~~sVu~|^NlBf|\N^N^~ZvNj[sm[~|nn~~mk}r\^n^n}v}}m|~jn~~\~t|]n~||~\]r~}^^zn}^z|~ntZZ||^lv~~|^tnz~[~~~^^llQ~}NzD~u]znlvJR|n~xn{~r~v~|tX~~lvz~tvnns}}uvntn~||sev~zrnez}~zF|~z~uyV~~n~vFz|~~ZRvz\w~|~~v}nEt~LTf~~~~yvyoYmn}Uzn||~J]v~z^Zx~~s~}v~n|~|ku}||~rmu~n}{m^~~~tyU~F~{~l}bb~n~~yu|inV}nxvz^~u~}DhrVx^v~nNvT}~~|Yr\nx~}~]{~~MV^|~r~n~N~x~~}z~znu~|}fN^Tjy~Nt~~snzvz~^Zm^fn^[m^~~zn~~uv~j~~~v}u}|]z|R~ty~xf~n}^}SBivnYvR^~Z~~zM~^~Zx}~~~}~vz~}u~`n]rmv~rlX|~~^|x~v~u~B~Zfz~XN~dF}n^nx~^~jj~^~~v}t||jZvy}|}g~v~l^Xrz^^nNirr~v~~dfn~{{gnvYNT,False,1.00136e-05
~?@cn~dnNn|~}ptU~M{~vx|u~y|zj~zM\^~r~iNZ~^nt|^~}\kfV|^t|vjxz~~F}~~srLnt|u~vJZz^zr~||]z~z}~~nm~~zvyv|vFmz|~S^^nr|{|v|y~zb~y~}\~^mnLtuqn{~z~b||n~xqvmv~{^Ln~}~]tzbf^yX^I^fz~v{zzz|n\}]v}xn~~~n~xu}~|v^o}|~ul~x^}Vn~n^qvyvz~|zl^mvly~f~^{iv}ZMn~~z~z~nvzVx|f[~nV~~z~~|w|{{]mv~Mz~~|f~i~k\z]~pf}j~znTy~vxy~~]}z~Vuiz~Nv^}V|^~}n}~|}fvm~v}v~|~z~^~r^m\v~^x|n~v\vj~~^|Z~^x~tDnv{~{|~Zt~~]|\~fv^|TLz|^NhxVbvn~~N~nz|nzvZtri~Zn^~|u^^}l~^h~|}zq~z~~ZY~n}nfv|^{^nvfxt~z~^~^z}~ze}j|z~wQ^~pjny|v~nNzmJz|~~Zlxn^z{~z||||}wfe~}fjv|^~pyzztnU~}}\ziNz^^]n~nNft~ni}F}y}~|B~R}evmlzr~x~]In~~v\Lz~~nvVvr~K~~QuxT~}~x~~nn~N}}j^vJJn~zp}v}h~v^~b~Nn~Nv^^n~v^tHv~~~~n~n~y~~nmn|^jrN^xnTZ~^u^zv~^yvx~^d~~Mnz}nx|vo~~v~w~z~nr~~}lr}\v~|r~nnzpv}\N~nvfv~~}w}~zzvv~~l|^v{~n}nv{~z|~^[^^z~vll|~fz~~|~~z|T|t`znk}Vnnvwm^|i^nw|t|\~~vZ~^nnW^rml|Vz~Znjz^zf~R~NT^v^~nnl~~[vB|||^NT~zRzBN,False,8.8215e-06
~?@c^n|~v^l}zz\^niv}^r|lVzvz^ux^}vdnm|nv|~~]{~rZ~~~~zZ~v~v}fur\m]ln~vn~Np~~v|zji\Cxj|~tn~mnZ~v~f~V^jf}nvjtvy~zz|~~V~z~}vny}jnzy{}zy^~~zzw~nSjd\z~~rxpmn~~~|?NUmW~~n]lN~zEr}~VvfN~\n}~n^xy~bvz~^fFv~jdtv`~^~rtjnZN^h~~Z~|t~n~~h^~dnl{z~v^^ZhzZ~}~X^^~}^NN~|zS|}n|~r|V}~n|}nvu}~x~n~\vntm^~vd~|~}zr^nQn}FL}~j~~\~n}ipv\|x|zVNz~lwnwV^z~~dzj~vjz^vnN~z||^p^lQ~X~^~~}v]~~\nexnuu{yjgz|jz~z~M^v^^}aVmz^n^~U~nMJv~^zn~X~v}p~v{|jxt|v|~n}F|~|yr~rn^T~zT\|~pn~z^n~~|^YzZdn]}v}~~~~vnZ|~zw~z^^mJn~~~Nf~}ZxZ~\~~^~~Z~|~|nz}~lZ|~|~~u_}Jv^^~Vg~~]d|^~~}^|f\~nuz~^z||C}nnjvm~tvxmmn^k}Z~lyn^nY|vj}Qzxs~y{{{|~fm^~zm\^~j~^Z_}{xv~~~z|lz~^~|YUn^mr^~~n^~Nz\|L}~^]vvv~|~}}nv~}N^\zrf^~{~~k~t~^JT]}n~|~Wnz^n~~zXxN|uznp^}u}z~Y{~}~ne]NVz~}~\~n~~}~w^^~~~|^k~n|yj}n~Xmzz^}lV|n]~~~h}~~}]~tVu}~\Nz|~\^mZrvz|\~mh}{~e|v~{~lT~}I\v~^~\lV||{~lwt~~~n|\vm|v~|~\r|N|~B^v~n^nkr}~~~{},False,1.00136e-05
~?@cyJd~~~~l~|v\~^|^^nZuu~||Z]~~gVv~Z\}^}~^dv~x~vz^MRvM~u~V~^~^T|~J~^l}r_}z^Z\zj^^lN~no~~^~~tvnz|nh~}}}~g}n}~rx}j|~~~m|~rl^~~~~YLvv|nnfl}Z~^z~x~}z|vz~]x~v~vvyxn^n|jNm~z^n~M~h~}~wLyy^t||~MVN~z~~\r}}ruv~ez}~|znTx~vS~vxz^~~~|V}n~~ZU~|r^sqtVl}Vvj|Jum~fN~S~v~~v|XrM^~vuVu~]M~nNz~~]nuT~~}|~^v~{~n^~Tz~~l~vdz~^f|Zzf^nB||n|j^v}~~fqn~~v}V^FyafR}uT^xxns~~~jzot|X~~n}|}lzj|nz~y~\nY~ezjvvh^{yn|~j~v~Mm|nj{v~~Z}}~n~~~v^~~~~|v}J~~V~]z|qPs~vXez~V~x}~Nz|fv|~V~xj~~~wyzl|nxn^~ly~|~~bnj~~N|ry{f||Xz~Zn~u~~\v|fyZU|~|~^u^{j[rr]~~}\nvl~t~X^r^}^[nnz~qm{}~Z|qn~~^~vl~~~~f^f]~un~}~yunny~|}nn|~M~u^}r^~||rzJyN|\~fL~}iz~t^~wvlnmn}^~Zu\|Z}}~b~}un^tyw}z~~|~~IV~n\v}t^~]`xn|~~tn~Kk~|v|m]}z}q\g~~zn|Nyvfv}n~u~~syv{b|}|{Mzqrz~~^~p~n{|zy\|}uZ~|]^{~~^}}Z{u}~fm]~zvn~~~~vr^H}z|zl~Vn~v|~z~||s~|~iev|VV~n~U^~xN~mzFvRfnzrze~yf\Zn|~jV||~NmhNznzhz|v~d~v^~nvb~v|`}Z~|ji,False,1.00136e-05
~?@cnnN}|~jR~bvtt}vi~n~l~jVzU~v|~^Fvy~|bm^U}NF|~v}~~}[frv{~Z^^{n|^~~|zvhNr^ux}~~l~|^g]{~N~z|n]m^ztxZV~|\zjVY}|vx~~~v\~}{N~]~zN~j}f~~~z~V}yxz]~Vj|vF}zhz~~N}l{s~~ynszen}[vv~gyjF^^n~Y|^]}Fn~^~Z~]~^}FqZ^vv~^w|r[nvn{}~~nnu~^v~r{lVNh}}xx~~~~^^~t^~Vn~\|\RFv}]rt~untNuYs~~zr}lk|^vj^|}}]vy[{~\n~b~z|vv~~~e]VNz~v~nW^zzzV~\aAz}~brr~v]U~~uZ~^z~~~^}~y~Z|Z|~~xSi~]~}~vrfvb}z~L]|~~nvdun|d~Z^^~[v~tz~~~X^~Sx}|n~~}~^ZEmzzvs~~nn|~mn~nf\|lN~z~zzmn}z~~J^zVW}\nz~|zn^m~^~}~~|Z~nz^gznZvnzvVmf|f^x~r~v|r}N~|z~wv|nv~rU|n{|~~}v~~yztffqt~l}wz~~|~~vnnp}v|j~^R~vnz|~^v~}MesYlv~y~z~Z]|[~~}k~vr^~~~n}nVx}n|~~~~n}~^^|^Z}^}{~~Uv^]Bve{~~^F~|^X~zzzivn~m^N~}xvt~^v]tnY~hz^~|Tz~bRt~}n~~|z~m~Nm~v[~~^zvJT|}nktz~f|~~vZB^~r~j}zy~~|jz|L}Nvx}vU|znv|~}j~X}pxZ}z}~z~~uxu]~tnnmn[z~~znfl~}}^|~y}~Zz~~|~i|~[L~~uJn|V^~}~}~|T^~vV^un[ZHvr[~mp{mt|||zVvn~k~Zl~v|Rq~rx}~}~~Zn~X^jnX,False,1.00136e-05
~?@c~|ng|}|~z~Jl~v}lE~LNMy~~~T|~]}~nt^~~pnvn|v^fdl|t\n}t}~znv~}RrV~r~sv~ot~v~vnvjV|vn|zv^n|un~~yVm~z}]\z~k~N||~xnz}^^~x]~V~~|lr~~{j~|~~{n\~J~~N]^^^~xm}]iKVvyzmtzztZz~n^fzjn|l|z|~nnx~|z~mfznm~fv~^\vv]}r~n^~}\U|^|fvZ~~~~^z|~N~xn|n~m~hzM}r}~^v~n^~v~~ur|~~|^{~|}n{^M{^~|R~zyn}j~m~~]s|n}n]Ff~]}~}m~QvKu~n|yevl~~e~W~~y`nr~}^}zLNjzZ}|z~vv]~ord}yx~}}rwn~~}X~B||~|~k^^Fz~zZvr^x|^l~sn\e\}nzxYzf}uJ|j~qf~v~\~tnnr~}vf}jz~ln}n[z~~n}^txsN^~zfR~v|~}rzkl{yzy~P[jvv~z}z^|zlyvvv~v~~fJ~z}]\^^r^~~n~ubxR~nu{v\nn^z~vMv|lM~rv|~v{zX~~z~}t|v{n^l~zk^notV~}~}eF~v}~p~~pry~}nzz~{^~~ylzpVz~nnn~}U]z~}n~|}mkr}|}~f~H^{ZY^J|~tz|^]{vN~v}UjV~j~}~m]n~z~~n{v~~z||Nt~v}}n~zz}|u^l|mv~j~jrz~|lo~|~~~vvzvY~n|z^r|r}~~jj^^|}^~Vvjzzv^|vZn^~~~~~zm~H{rv~~zn}~v~mXr~}{}~Q\}vitzn~prz~w~~]|fl\|}]lN~x\~u~~v~^^{~]v~~v}v^}zvIuYEujIv\}h|~}~~xFGn~pmznH~^p~v~\x]^|n~f}|u|~z^}j^vTmB,False,1.00136e-05
~?@c~~|}vMzN~^~~^rv}^}t~Udrz|e\s|v~^|~n~jdt|~\v~znf~nn^vin~}V~zrMvmny}~~|pnm~^~bV~Vzh~n\|~y^~~~Nvn~pv~~T~\vtfzZ~~v~z}t~|~|xe|}v~S|^d|b~|lvvtN}zf~~z{\d}|l~}t]zu~|uv~}~rN{~f}v~NxeV^v~n~~|nj^nudr]Xz~n~~un^vnCv~z`zz~|~~~rz^vEnr}~vw~}~^vYn}}nBzv~~^Vy~{]~u|]Vl|vv}Yx~^nZ~lrFrvf|^\~}L|NzLf~N^]}~~j~~jr~~e}~z^m}~~Nz^ynO~~~z~~v}~v^~z^]~~z~jzzzmr{ZhmFzcF~{}~z~]M^vzz^y~}YY~Zvpmn~^|zx~|Z~~v~~jx^nvtns|uVF|~x~r~NrZ~|vxHn^~|r~Fy|tl|}nv~{n~y~n~|^VTd|^k|df}~}u~nD{lz~v^x|~t~^Nz~vn~~V||rDlvB~Rz~n~}\l|\^z{w~tFdVx|n~~~jmt~~gt~~LlIn^~~vu|~r}zr~Mtz~v|NV~~V^tt~~z|s|n}m~~x~e~^VQxfy~~j}}x^~tvn|n}n]z~Vt~x~~n~|~v^jn~|tv|Vl~v~~~xm~~^wvrzvN^vnf}v\{z^~sMll\}zz^~|zd|r~mjjY}nv}znz\~~M|vvn~wFFnn\~v{rnzq~~]|vsv~Jx}z~~~^~~wVjl~Zn~~z[z}q~x}vr|~nZJq~nM|ne]vmvX|^|^r~r^v^^|^znl~{^px{~vN\y}mr}^\zNV~|~}~^^f|~f~~vVy~}~fz}[|n~F|~~~~v~|zz~n}~k~^^x}~mWVntR}~U}Phxk~,False,1.00136e-05
~?@cz~]~^}~rlznnv}v|NKn}`x~m^~~Rspxz^}~~~j~~~[\j~u~~j~~m|{~ny~~TzWv|fy~R\u]nML~v~^z~^wf\z~zr~nf\z}dz}~U~Q~w~z^wV~m^z~v~}zlum~~N]s|V~u}zn|Zz~}q~jx}znu~rf^zl|^tE}ul{[z~~h~]zz}x^Fzyry]~^}~uZBllnjLz^Ihv|{}q]~~v~_hM~Zn|^~\pU^~}^~vd^|\NN~T~~~v~yl~xf}s|^n~y|~||^~VI^t^}|w||Fkb^z||u|N{Wr^~~~vzq^~nkNnz|Ln~n~z~~N~^Xypj^nyz|~tz~m^w~~~}~nj\ltz^]^}^~nv~|nR{az~uvrDnf|~J]vV\~v}rn|{l}~Jvn}~n}V~x~~t~m~Z}|nZ|^n}}~z\jYzi~|Z{~V|~nVznrLx~\j}~|{]|^zleJ^~~~z~v~^x|nVb~~]~|}~^lT}^~~x~~v~{~jv~vV|~dl^}^~{x^~tnzLPV~\x~MzN^~z}Qz^}Y]m~~vv~}^}ttUrzzzN^n]vnNN}}n~}}vyv~^nn~}ut}zj~Rn~zz~}~~~jYlqn|\nnR~zNN\f|^N~Jvfxv^~}}^~]^]^^r~|bl~Q^~n~yE~~~~]t~nfuzc}|}~~x|~|~|~}~|ku^h^n|n|~{~~\|n^~|}{~^]|~fv~rm|Z~\|~Vl~^}PfPnv~zP}~~|vxl~{^vn^vlnlz~x~|}~tR~^zu~yU~r~|~i~^~~~nu|zrx^~ntr^fn~u~|~n~~z~~\v~\~n~U}tNt^~^x~~Z~Rxz|V~~V~zi{v~}y~zz}rfZn~ny{^~l^{~\xxzz~vvx~|zn~lZ~,False,1.00136e-05
~?@cv|l~zE~^n~}~~~vkw~}}~}xp^zzjm||~~~~r~~]x^zV~~b~~m~M~z~Z^Htyv~|s^t|f^|^}\nn}^~v~zz~^|I|vl~m{~XvJ~~\~^VuNf~~ixv~v]~~^|T^~~[~~~~~mm~}z~\~^v}~Vvzv^~i|zn~zj~^Vzfvwz]n^yo}n|nqv~z|zl~n~yYNx^|z~j~~~]y|v~t}n~z}|~}|]nzf~q~Z~VZ||fuT]}TM^t~~~ibvu^~n|~~}n~nyu^\znpNM~mV~^~f~n~yq~n||VtZ}~z^z~~~]|n\~\n~Ye|n~}rf}^z|^nv}^~ZVhnjZvGmvr~uf^yQzl^kz\z^~~~^^}~}{ht^qqs~^~~~^Zfz}~|~~]nh~~^|vn]k~~yn~Yu~~vr{{yv|mY~Zt|~fn~u|}~vNT|n~~Vy~|T~yonJ~{nn~~t[]nnrpLtzk|]]Ly~vz[^VNvVI}l]]Qh~d^c|~||\z|nz[z~zy~~~^~ld~~V^~vnJ~m~ytzzfUxvx\~t}^|~l~eb~Z~}Sn^}z^z~ezn~Rxjn}~~~^nY~|x~~nzfnh^vxbFvqz~~Y}l\~~^Z|\~~]n~n\~~m}sz}~\ZmnV~~r~m~l~Ln~u~v}~P^Z~|~VfjNvZyu~~m^r|u~~}x{tj~~\]\|nY~|zzYdn}|~nn}vz~|u~t^zmZ|t}z{jm~uumZ~{\ZN~vxZVvR}z|kj{Y^^^]{~~~Zqy^tVK~~]~n~~n^|^vNZyTZ^|}n|~}}L~N~}~}~NR~f~^~v~l~tvn}{|~Vt~zz~|~b|~}~~}~~^VN~FzD^y}zV~^}t~m~~b]zz~W^\SE~~~|tvr}zxzn@~v~,False,1.00136e-05
~?@cd}Nfnn\t|tZz^~}|FptT?|}}[~zr~rul~|}~~z~~~\~]|nQyn~lE~{v^zVv~~eu~|s{~uz~~vF^V|Rtv~^vv~m|nXl\~|rf^|~|tv~~nnS~}}~MNF~^^fNl~p^}~{|z~~zN{fLv~nv~|~z~bmSn|r^nv~Znz^~~~{~zM~~}X~||tzb~~x~}\Uz~{xV~V\~|^z}n~nvn~zzy^lj~~Z~zn~ns~\|^~u~qq~~ynobv|~JZ~F}x\z~~vy~vN~l}~srt|n^~~Nm^r~Br}v~V~}~R~}Y~}N]VIuvbz}try}}~]nxxN~z|L^Z~NTv}Upyz~br}n~\~mzm}^~|uz^V~N~z~~}~vtxzvz\n^t~t^~zJ^nv~~}{x|Y~~f~~ezvm~jl~j~fvm}{~~~n^~^r~^~~}\n~v~~N]}NNzv|}N~vx\~n|~~\lL~vz\rz~~ZsG^l]~|n^uW~by^~Xn~~j~z~pxBz~}l}z~~v~x|^}v}j|zv[ftuvn~v~Myvmz~y^vl~}n~^{ZRf~L{~~xquftnZljrvN^vnx|~pnVnN~x~|^^l~avm|~}Xn~j^b~nN~~f~}xu~Vv}}ezWzvn~z~v{~~||v~yJu|}^v]j^}~Y}{y^xvvz|vu^\~mn^HzS~v]}z~}Vz}|~z\w~y~Vy~vr}vv{]}~f^~JVZ|z|EYnN}f|juvv|~vuvv~^nfnu~~RnZ^sv}}^~V^Znlvt~{F|pnj}nvnR~tur~}V~nUn~~qf~n~zz^]m\~~n{s|z}z~m~nVvfnq~z}~JZIs|v~~^~~fz|}nz|~~nvr{~~zv~~vs~~~}~|~tvo~N~|~u{z]lvkr~~\~|,False,8.8215e-06
~?@c~z}~\W}~~~it~|tM~ny^xslvm^~]nan~nv~z~~nz|}~z~}enl~z~^t~^Z^~~N]^~~~q~{K~~V|}rvZ|ff^ez|~{}~v~}^}vV]~~}xr~]z}~f[]flxHzn|tF~rzz~~|n|~ip~lZe~n^t~|zn{yx^^d]x~vn}qNj^~|~y~{}vvNn^nt|uzzh|Vz{~LzeZLnevf~Vuznzp|nzm]~|Z~rkz~c^V~~}~~~fS~~gvp~~}~njJ~nnn|VFjt}}^~~Zi|xo^~u{n}fXtZr~~Xkv~y{I\^vX|T~~}xk\H|mnv~z~\]h~nz}Z~^jjz}l\zZ^~zzv}^z|n~zfznz{|~xqyxz~v~v~~~^~~V|T^}vy~~v{~jt|~~y~}lv^~zZv|Z~zbzz|~z^u]~n~ku~M~mzn\|N~~vvzy~~^Z~~j~X|Vv{nnfnz~h~fU~n\^}z}d}|t~z~~F~^^z~by~~jv}|u|~m~Ly^n^DTv~w}~^~bn}v]~q}~f^V}m||~~y}I~n~N~^n}~Fn~Ynt{~r~rz~~~nzx{Mzv~nz~vZN|n~z~~{]~~]~mftn^~v~N}Iu~}Z^znvlyxd}|xxzJ\xs~\G^}\v~z~Uz~vv|zr~Tz^~}u}}~r|~mnYzZZVMx~~N~~\^^dzY]|\^|M~^~}~^|{^^^rfnZ^jT^\~enp~~Kz^~nTZv^}~~}~|~Jan~crvz^~|b~uY^nn~~RjV~~N~z}t}~^e^^~{|zv|~jn||e~t^|}z^v^~vM]^qR}|tz^|~m~m|v~u{yfvlY}~~~Vx~yj~}]lf~~lvJuV~n}vv\^n||yfK~z~~~^~Ln}^zpZvz~z}Vv^~~}~^|,False,9.0599e-06
~?@cvtpFv~dnz~l~Z~NYu}xzvZz|rm~n~^nz|Z]wsf^~n~^z^~j}~nv^~~^z~|z~|u]^Xtz^n~mnzr~~U~~lp|xs\nzjvvvy^^N~n{v}y\zz~~V|}~^Njnz|Nnmfnv~qv{n~n}u{|a~^z~~vf|^uzl~~n~n\vj^Znj^n}V~z~znx]~mv~nzv|f~^l~zv^Xnv~~~~V~N~^f~k||^xtmn^uz~v~vvz^~n~vv~||m}}ZV~NV~zVn{~}z|vL\n~r~n~~~n|X}m`iy~\}n~~}nnn|~~~yfbyvv~~~~~~xJ~~Z~~|~|k^m]y^q~zy\yNhn~~vn^~Ii}{~~zuxiuzv~r]~~~~nxzi]~|NxTVf~~j~}~~hqx~Zy|~~zUv}~[ZX|\}V~V|vn~~|nure}\Rz^~~^N~nm~^^~~TNv~|~jvth|zjztzt~ziL^~v^v~|~m~H^rx~~m~v~nm|~~b^V^fnniv~dvuDYV\~zn}s~n{]~~|V}nN|w^z|qz]V}^\{~~v\Yy~nnn^x~{nvq~yzFTm}RLlrzu~^^~Lt^z~ezVzN~{~z~|rjuTV^}nf^~LznNnu~~~zNr}zu^vf~~~~unEv^|v~~x}z^zfly~~v|Mn|vvmnv}^~fm~z^}yn{~nytnqd~}~u~e|zyv~V^f~Wz|~NvtZyqV~~jMV}ef}~u}q~~Nkbiwu~jn|z|v~\x^vn}|vnvJ~|yztz~tmfZQ~~~n~~V^{vlxu|\\m~Nz}~~n~~z~|V^eV~|Fiznzrud~xsuy\~^zx{~}j~^nYzztsj~e~n^~^^n~n~d~R{V~fY|~~K}n~~zZ~\fz|St~u|~tZin^nxnm~,False,9.0599e-06
~?@c~Hj}t~}\z]m~n~L~e~~moznvNZn|p]}Q|}Nvfv~e\J~^uV~~~kvumzx}|}~v~~~^~|~~~zu]~yn^n~PjV~dnnh\j~zv~nUN|}l|^~uv~~|V|n{Z|y{vv~|\n}x~~\rj}~^~~tz~sv{~Nu~vNqv~Vv|z[j~~~~yz|~r~Up~vR]~^v~^ryj~~v~~^VvZ~v|~urj~~|Jn~n~}\U~||~mxz]h}~|~z|~m~n}Iml]Z|~~{v~~~^x~x|}wvz~}vnt~z~~~^~^~zKw\|~vn|r~}rv~~~~^T^vsNxNn\n}^~vn~~v~ZVvt}|z|n{~F|vsRxjzx}~vuxT~~m~zjppjV~vz~^|vnvnxy~vv}Z^~{\~^~^{m\fn~^^jj\Zf^v\nz~{]z{vrunQ~N|op~~zt~}yn~n~l~}|~|~f|~~^L~n}|~nzkxj}i|~~~zo~~^Y}~{afzp|jrqzz}ll~Vrn~z~knVU|ilNzs}r^~v}}~nTv{v}~z~^m~~~~\zv~z~~}]emlz}zxv~~|}L~~~|NNt|RVv~]~z|~^nz^i~r}~V\nl~znz^~Zl~ln^B~vlnv~n|~~~Fz|~unjvi||~n~~n{z|m\^|^vyN]~~^jmy|MZ^}~{p~~w~~^|{~m~Ynz~{^FNn~~Z]Z}[ZU{~^}Y}^Lz~n}bx}}|~|xuNjz}~}~d~~}n}~]~}^nzmx}mvp~]~}|xnvs|}t}vyuyBt~e~vn^izVZU^d|Pz~Wt|d}M~WUn~l~}v|fv~vzr~^V]~~S~nqr~|z^~Z^jjv~|xnZInn]S^qFynFNj}n|i|~}c~{|~^~}n\~VrRnzTl|^~n|~~~v]mk~fn,False,3.19481e-05
~?@c|mz|F~|}~^}s~}^]^~~~|ZJ}Z}~}O~j]r[x^V^^v^XXnzjvzx^Vt}|}vN^lh{v~^\e~xrf^~Mu^~zmwuNnnz~~z\\wzu{n~n|m~xuw~|l~{w~V~vj~~r^~p~N~^~x}LjzFs}rr~z~]|\~~}nz]d~~zA~~|~^^vzv^~}|nN|~n[~Umvu|~}z~t~{nz~v|~~~~B^~z~~zn^~Mtlnz|Zv]a~~~l|~}z~vzuz^z}unu~vn}}U~zz~ZVZ}Z|]vm|~~~zBg|}^~^~~}zN}~nv~^j^it~znxy~^}X~QUFf}~}z^}v~BV~~f~Tyv|Vynv~~^^~~^mn~\\t~nzz|vN}~}}lly|}{~^\W~f^f~v^}E|V{M`~nzn[nm~~~Bx]xs~~M}^Uw~^V~|]l~vy~~Vzvulz}~]nN|v~~^^F|qlj}z\P^m}zrtt}v~~vNqzz~~VUN^}N}~^|z|v~j~~zn~V~N\^xxVUplmnV~vN|~~~F|~~zmn~Izy]Xzl}~nmz~~}z~}~Vnvf~g~{~~}Q~En~|~bz]{v~~^~~~}~\z~|nhz}li}v[^}~nw~f~l{V}vvbn|j~{z}j\}h~~n|~~JK~]v~Ov}}~nrA~|^zj~v}z|~}xz~l[^wj}~|vVxjx}N{}rU~nJ~z~~^}v}pN^}t~v{Xm~~z~~|~f^~|{z~nq}g^pw|~{^}N|~^|~vnzt~N\~~xjf~tz}bm|{^nz}jv~nU^^v~n~~^r~z{v}v~{hV~~nNzn~|tzLe^}uNx|jnK~nnn^N~~nv~\}~vnj~~}rv|~e^yzjn~xl^m}j]^k]^~~z|v^~v^~~v{z|Kml~^|T~Nsr~lt},False,1.09673e-05
~?@cnn~|vzx}~Y]u|~MPT~~b~~U~~Lbdt~~^z~|y~|{~~j^^inny^TzYv}N}Z~s~~~^f@z^~rz~nn}z{n~z}YnlZ~~~~hnx~N|r^~~Xvzr{m~{mEn~~]|}^{~~~~~}~~ZnzRzvXp~^{N~^}}m~y|Zf~~{zv~on|~rnuj~Rz}M~j}~ntz~ezt~zzvt~z}~|vzq^z[~^]~v}f}|rl^~z~|z~myv^uzv~|z^~v|~zwu~nFqzu}vX~~{j|n~jn}~~ut~nn~b]un|Npm~bw~~~}vvx~u]bz~qF~]~pj{j~zuv}{kzTV~f~zzN~~d~j~\~~^^}nvlzi^r~~~^o~|v{{~}n^krQn~~[Zzzyh~m~|~~~x~l~}nZ\^~~~n~~~kfn~~xL~~T~xbl~|~]~Nlm}^z}~}l~{{zx~}vvd~vv~~U}~~~n|}}fnzx~i~jn~~~}n~z~fUNVN\jxN~|F^v~jf~~~~~~~Tnr|~}]~X~gn~~Vou{]A~~v~lFn^~|z\Yly~v~^Zj}mzR]nvv|T|dv~zNn~wln\Uzsmdzv~uz\v~vKY~ynTzjnlv~~z~^n^nj~JNV|uvv~~V]nyv~y^z|~~uvm~~vznvn|~lYD~l}nynwFuj~|~~z|y~nv}~|dk\|z|n|Vt~~pbvZ}tV}nzNx~\}n~^~a~~\hv|yz}d^~^~t||y}N}d\t}~lmZ^U~}v~~|wfy~|nBLlq|mfb~lf]~|~z^v}~~R~n~n\~m~~D^n~zyN^|Yv~zFvn~sjl|f~~]~ih|~E~|}pk~~zZy~U~~v}fv[|v^Uz~~~n~^}}~NM]re|~v^Dyz|\}rrj~n~\~~|N~~}JX{,False,1.00136e-05
~?@cN^|Nn|}iJ|^|}zy~V}bn^H~yifnNh}~y~|z^y~^nzzn~\mx~zzumnzX~zW}~~}v}xN~^n^y|~zn]Mz~V]^~nzz~zzU|r~Vlmbn~ZZz]z~}~~tj^~U^Nv|F}|juvUu~u~~~xn}^~~~t}z~~x~jVv|~z^n~~v^~Tzfnuj|Z][vu|N|nnZxx~mv~^uZyvN{zz}z|v}~Z~~~tv{|nnv~nvbjz|~^}vn~Vv\~~F^|vk^~a~k~^~\~vonr^]~~~rrnqjfv^Y|nvX]q~v}~zzun|zvnry~vNF|~~^~e]lf\l~vzx~~~~~e|^~~~~?lvdn~vlJT~~~z~~^V|~rN~}n~||Z|W\~tVv[m~nZG|Ztx|]~}Z{RlX~vrZnR|bmtvxl\lyzr~Y}nb~u}z}~|^}|v~~]~~V}vZ~lM\~z^z~x~ef~[mR~hvzS||xizm~~R~\V~|^^U~\}{|v{}{]zv^]^~^k~dx~~~|fvLxkt~}~~~z|Nr}uvr~z}r|f{~KZ~\\Zlvnv~}^~^Vs~^~rZ}xfxf~~z^~nv~yy~zL~~~~^}z~tzvzz\]N~vfdy~zjv|lv~}zZv~Vn~F]~~^r}V~r^l~l~~yb~ntnNy~]|z|n}lz]v}x^j}fn\bu]}|nx~~nzZ~fvyn^{}{~rl^~Vmfn|~~z]~n^n~~}dx~~qq~^N^rVv\~~~|~~zr~~t}~nk~mztm|zLz^xxtZvm~j}}l~}}~Iv{~v^snV{~{~~|V~~l}v}Jn}yvk~~x~z}N~I{zszj]l~~~~|m~^~vt|}lnX~~zj~zVv~~y~vnZmm]~JVx]xr|y~|^xn~^H~^mf~]}~~|~vxnzn,False,2.09808e-05
~?@c}}^zvff\z~~vzv}W}vV~}|m]^~x~]\Z\]}z~vqz}^~||]}\bz~{^z~v|}^|z~{t~}ru\^v}~||Z|Z|f~jvy]mv~~zn~Kxn^re~~Q~v|Mnr~}nDzzzetnvxmvnN}\yz{{z|z}nr^~jT|]~~~zm~~V~Mwsujs^y|}|z~v}X]~n|~v~rlv~~|Q^mz~~]u~z}rR]rF~rh~MN|~jLvz~Z]Nj~|f]~m^n~^}vlfv{nv|}nztv~N}~n|gf~}l|Z~~~W~lcv~~fLr~n~Yz~v~v~~[}~z~^}^~~|{|Vv}njnIstVz|{^~n~}jv|~n^~^l}|zjZn~~yxq^PNlv\vx^q}~}z~}nn~nV}B~zvv|z~v~}yvv^^^~]|vlSv^~^v^r}fU[Y{z~v~~NnvznVj|vl^Z}F~vxNi~YuzvY^zzMu~zv~~YM}z\~v~^~V^}lzs{Yv|zs~zndul}vxuvj^~~}j~Vvz~n~ztzzvf~x~|~~~y}~u~^zn~Z~~Kuhn\y|uznN}~}~^~~{\~vvU~~~Rp~p~qvnn|~~}u}}Zv^NvV]~tVv~V~~zq^|rn~~~~l|m~OR~v~u~z~vz~zL~|~]~n\~xf~~n}u|^^X\znM~z{~u~v}M}|yu~xm}~znzvN\xjZ~]|\xv~~rh~~~z]m}~~vnr^Nj|~VNZ|u|uLN\f^~{fi\~~}~~n~z}x~[zAvyf~z\v~t~vf^Ztdv^nn|vvXvzVjs}^tVxzzV||k^iN~QY~^`}k~v~t~vnj~dzn}~v~ZzNm^nlb}|}~~~N^vrsnnE~r}l~~}rz~}z~}~~\m~n}xj||~}^lfvv~]^lzv}~~u~v~mXV}~,False,9.0599e-06
~?@cj\~~z|~~[|~~z]~f~s~znf^~^t`~`n~z~z~~~~|t^~~V{}N^n\w~Zv~^n~~}~f~ml|mx~zK~~~|pbNy}t@Zrnx|mr\~Y~smyvmv{|~~n~|S}~n~u|yh~^~|nx{~j|h~y~~ztR|}jZlzY~Rpn~uFV\znUzpnk|}Fm~q~~~rMU~~u^x~W~uo{v^{}j~~^}T~Jz~zo~]`\l|d}}zzrp|fwxz~Mz~j|~\tz~z~~svp^|~}n~uspv~{v~}^~L~f|zn^^nj~n~~wxv}|nz}{^A~}z~j~Zzx\~{Xv~nnz|ov~zm~f^~~rN}v~{z~{Zf~|n~n}~{N|vm|}nw@Nj~^zI^|z~z~sz]nL\~~~~n]~Zr~~~v|\~~}x\j{^tm~~Z^~|L}v^~j~~j|lly}\]n~v{fnyGrt~X~~z~m}SN|}^n~^~~v~~mzlz~vzX|z~~u|~^~lj~~|Vnvv~||~|Nm\|nv]nntj|}nVn^vu~~y}|vTz~~|Zj^~vFjmz~}}|m~]^~[n}|vMZ\^}{jD~~hm}~MM}~jZ~zV{[z~|n~}~~Nvf}zt|th|~x|w|Zz^~R\v|v~~w~znvzzz^uzpzuN~zYj~~}Fxl~ru}vhvuN~{~~urz\y}nts}|vSvv~|WtV}|}{~y~~~u\^}nvn}fll~]V~~z~vn~z~^^xnvv~ztzl]|S}n}~~~^}m^N}Z~n~\|j~v~|V~~v|zjnIvf~~~}}|H~l}nlmNz~nq^zn~f}~||v~|v~v^~}u^^n]~Nn[}~l~|nj|Z~z|zzV~}~^zyzVNnv^|zy~t|y~rl~ll~rv~{|x~~fz~|~aj}n~i~L{xou^~Zrmuz],False,9.0599e-06
~?@cn~lyZ\~z~j~~~^jz~~~~Z|~yn~vfzntY\~nv~zu\Mmzv~bj|~~|rvVR}sr~\sv~~~}vk~{rzyM^v^x~vo|yr}n~}|~^}^~~~EZpfPT}~~y}]~lUnzvf~~~a|z|n~z~zn|v~~~^vlnx|cvfn]d}x\F~NT~|n~Zz}V^~\~~fb~x~h~|kz{^^N~~~tu~||v}zvt]~PvVn{}]V}kn~v|}~]n^^y|p~zjnY~~~u~rZj~^wln\~}~~xvnjv~~porzr~}nzR|}~nY^r~z|}vr~~z~|~r~v~^v~m}^~}{t}~~n~d|^~^~~Zz~}~N|n^v}~ZZfpz|m{z~]|}w~^tennl~u|~m~~Ny^Vut~|vm|nptuNv}hMY~nz~F||}vnnz~jg~v~~nzZn^~z~nW|~~~x~^|}~|~^~{l^LZzvr}|}~kt~~~n^y^~n~Ur|Tcvz~n}~lt~~o{~bnf~~jyuzy~Umn~mx\mn}{\hvv~Nt~RxvX]znvznnvx|nuF}{lwf^yxB~MfhnlR~~{||wu~v~fp~|N|~l|Zv|nz`~ztMxz^yyk^^~{\nluztv\TNw~~~~t}^uyxecf^z~l}j}~n~Vnvznv~vny~m\zn|zzz^mY|\u~~~~nn~{~ydz~|r|~jxm~|~k[smvzj}nun~~~t}}^^|Z~nN~nr}~M\j{n~}vv}b|~~~vVu~~vy|x}unk]~nvyQlzZ~fvn}vn^z}Z~z~vtj~zRvmszz~^~nn{n~Vw~~~N~mzy~vxxkrx~jEcZr^~|~t|zZP~f|}|}~~f|v}NM~j}~s~~~rYV^^^~}{~U~r~mzf~]uT~~|uvvn}zx~~nn~|^~~,False,8.8215e-06
~?@cn~r~~nu~~^^^{nR~~^m~~^ZZlm`~~n}^jv^n}|v{~vF|~]b~m}n~~^~Nv~^rn||n^Tu~~zlZb~~^i}znLm~v~v~fv}~z^~uVZn}q~z^y[tv~\X~w~hunn|l|y^~Vnzbv|]~p~|}|j|r{z{~{T[^np\~^~nnm~vQn}|~xyN~nv~n]^zy~mup~nu|[~X~^~^}lm~Y~vz^Z}~|^V~RzlNvv~z~n}}}~^~fnvv~{~l~~jn}|~~xjsvz~R|vz~Z|~tmn~~nml\vY~~~t}njb~^^J}}Zvr~EO]f~rr{fy~J~rnU}nzRpnz~n~}V\v~z\L\~v~`n^z}vm~~vvm~~^|Vl~{}~x~fv~~~]rv|~l|~Fk}~Fm~uf~rdV~uv}J~r|n^~~~x|Fv^~|r~JZ|NvuY}xtifzt~hX~~n|}nfNn~z~ynv~u}nm|~~fm~ylr|Zp~~^vX^z~v~v~n~vnt~jy~r^~lhvz}~~~mhl]^rtF\~~fM~e~znJvb~ysiz|^l~m^vzv}zx[~|~~vmm~f~^|gz|~~~R~~x~vme~~N|vfn~yLY{Tll|mvvzs~Mn}}~Vn~}nu~nTz^^~z~mm~jz~v}]v}~|^t~vZ~\rj}uvnltfnNyR~N^~pvjnvm~ikvflmmzj~^|lxv{f~z~~^R|v~vy|~t~~z~~]~I]d~^p~}^o]z~~v~zl^~|~f~v~z}Xvn~Me~n{~~d~~^z~y|^~`~|P{z~j]^}fmz{|v~V~ux{~U~|~~}z}j~ySV~~zz||^vvbbt||\~XzxVn}t|n~}~]yz}yz^~\^|luxz~\z~~ESxinzzz~g}z[vxznqd~~f~vZ~y~nU,False,8.8215e-06
~?@c}^y~nr^v~|z]}vuZvvYv~~~zi~i}}~~p~ux^}d~l^~|~Mluz^~lv^|nb{s~~z\~r|^N~vvnb~e^~|^vieu~~]k\~v~|zf^^}~V^~N~zdnf}x|r~]^^|V~}Zx~~ynVJ~~~~ZtVvzz{x~}hv^}~}~z~|w\^lur~vN~n~l~Z|^~~|~[v|t^}[n}vu~l~~~zujJ~~~}^l}y~n}f|BtMuT~\~^^~Z]X]~~v|zd|z}|yxS~V]f~^~\b~~]~||~}|~nrNV~}]z~v~nUVfLl|fj~nryN~~|}}U}m^}{{vX]T^r\zx~zV~~f~tzNn~~F~f~|ojwN~\~Uv~~\kX~Nz{|zv^|l~~xvfzn~unzv~xj]~nnbz{xetjz~|z~^Z~~\jv~vlL~z^z~z~^^vWlt|~v{vlv~|~~}~v}^V|[|rz\{fv~zntyvms~XJn^^x~|Anjzyx~z^~^ur}~r}V~jk|zkZf|~vV~y^|~}z~zy|y~n~~}~^~hu^}~rxzn^n~}|}ZzByy^^v^vnHxMv]v|ut|~n]}~~vt|}w{nz~Fv^v~|~~^n{{z]}n~tnzaU}~|^vz~nyLDv\jn}{zd~p^}Vr~zr}u^v~^^}v~V~vmt\z~s]zv~~rvz]~^m^j}^^jXr|jzZy\l~^v|[Z~^NVzT]D~|~~jnz}y\~YfnvZ}w~qz{^z\E}~}fvb~m]~~~l~~v\~~M|sfz^t|}z~unM~zZzz~|}njlX}~xh~]t~~~ZVNrjvv~nF{fn|~~p|~~~~}}~|s~rT~~|^}~~{NNx~~^dv^l^}v]}mv|nzu~^~j}z~rPN~}u~X~}z|~^x|uv~~zn~lt~~\m|,False,9.0599e-06
~?@c|T}\mt{{zs~~~vZ~z}~~}zYR~n}~|f~}u~z~~^~UR~n]^^z~xzr^~Nv~^~~}~v~y\~v~Fm~~~|nz{djzc|n~jz|naM~~Kz~NtmK~cVzn||~wn|~|}\}v~z~~{zvN}nU~|~}}~~u^~MLrvm~~~juT~^un^~~~~{gm~n~Rk~fz|Xx~}vV~n~~~^~~nF|\yzvj~lvuv~uZxnzjnZ~VNrz~n~~~vz~{nZ~Zjv~~|m^|f~{fj||nVtk}qu~v|nvv~lu|j~j^n~|m}zm~}xPj|~yy|Yyx~Jlznzm]n~vp~fvm\rN]v~jN|~^~{~~~~|rlpn~V~|v^T]~~|YxnLZ|NVV|nzU~n~|nj~n~jm~nb{ev~bxrifT~P~L^nr^ZFt]{~uT~z]~|ny~]zV~^v^^|^t~l~~^\z^z~~|~|EZ^zp||v}Vf\jz}zVv{mz~{|yp~grf~i~w~{}^Tztz}~~~~~nN|v}{~^}^~^~jf~VQ^~xjsjz~~[z~z~v~~l}~nvnzsO|n~^~nz|~ynn~|l[iy~^zj~jn~s}n~nn|~v{~vMN~~|Ku~{vnrpyn~}~V~~nv}|~zjwvu}~zV|}jfzvn^~]nvj~}}zch]~eij^m|v\u}~}pp~~zV^rxn~y~~x~m~~}~X|yzd}r]{R~yZZN~Vu~~~~qx}^^vy^zl|n^v~~||vjPbz^}nn|m~||lu}zlvBtktu~xp{]]R~~j~xD~n}~l~Zt|}~|m~~ivzxltVur~n}r~~jj}~nvr^z^}}^^j~yl|}v^~^xzo~~~zn~rn~|~fz~u^y^n~~F~yfY~^~Fnjvz~y~~Zuv^v|Y~}Xnw|vv|zsx,False,9.0599e-06
~?@c|~Zj|~vv~v^jym}^~^~bnu^f{ym~Y~xV}^n~k~n\xzFjfxvyxv~~^x|}~knX`~]vvN~{NMzh~]vn]~vln~zyY~hz|~xz~F~lr||~s~mUnn~~u^w~~v~xt|~n[z{~j\yVy}~~~~~^^n~}~~\s~^Vv}[uz~nf~^Vlbnm~z~u|~}~l~~v|zjZr^y~Ru|~~^NvBfnf~w~n^~~~}n]zfl}{M}p|n|}vZ]yzvt}^[}tU[z\~y~~~~y}nnVnzz~x}|~z}}nv~V~~i~tV~P\l~\T~bn^}~~}Lrvv~w~~~|v^~~^f~~}~~|vn]~n||~z}uEv~~V}^vq~~flf~^|uzn~|jZ}~r|m]Z~tm~~}^[v|~v~vt}~~~vi[ju~rx~|~}rfn~t~~^vv{Zm~nFfzzmy}n~\s|yk~\}}|~y~nxjjz}zFvx~nzNTmvv|~~fz}~}||uep~xfr]rj{yTvvfy~m|~}vf~~\~I~~n~~x~n}x}~git|^v~\~}}N[}]|ne}|m^|\~~w~nvznNf~|vllUy~~\|~Y~L~v~~{~|}Fy]yu~|x|wn~x^PzyuMn]~~vxvzJvfbV~~n|nl~~~\UVc~zv|n~|}ZjNnjJv|~~~]nI^~~lzzr~^|znNj~x\|nv}i]~vzvz^v^p^~~|~Z~^N|z|]~^x]Lnvvm|k^Nkufv~y~~~{~|~^ky~uvp|nyn|~~q^{~Wj~w~z~v~^~~vU}~~vn~l~z{~]fybj\iV~~vxttVdzuT\mn^Ym^V^r||ej~I|x|z~~}]mzn|~}n~~\~^z|vnnL\~~}~|a~~\vV^|N~Ytf~y~~bun~]v~v~}~tvbRjaj^~]f,False,1.00136e-05
~?@cZ~my~rV~zf\~~]^}^nvlmz~|x~Z}Zzxzv|~~|v|nv~Zn~mH||{vVL|~|~}Ynz~uznvyL~vnd~xYF~uv^Zz|~z~~~TvniniUhnvf~Zv~zU~v|~y^Ztf^~~uvt[dxL]nyr|\~~~qVm^~J|}n~~rz~q~^fNu~vzv~}~evT~~v}m^^~|xjN^{{^}em~P~{~P^~}Z|z|~~Z^~~TzN^y~~}~~~~Rx^~]nqa~ylU~nvV~Y~q{~~~^Z~ymnnv~zmHn|z}rv}~kl~nV~h]Vvrtbfnf^|~~|^T~m}F~m~~~j~v~~]~st^~v~]X}rm^wN~fw~z|}}e~Fm~n~~}l^yxxz~|k\~N~vNtN~v|\}~j~uv~N~~~}Jy~n|Z~~zn~m~}vn~zt~~~S|^v~n{D~B~^~v^Znjr~t~~~|r^|~~n]l~k~vy^{~ZzfZxmx~}unUp}^zYjn~z~zm^vmWvv~l~v~Nq^~^z~br}z|vlh~^~V|~vv~~~v|^n[n~Xj^{~jt}vtY~~FvnD~^jrf^n]~nfzP~||~z~w~|~~]~z{~[Fjr~lz^^~sz|vni|~]~e{Zv}~n{|z~]x\~|jl\n|}tnff~z~[~^}~vTN^nVjf~~liu~]}j]n~zy]}\n~tZne~^z~Yn~~nnf|~j~rn~U~^szl\~~Q~X|}~pFnYfnZn~tmxt~\x}~~~n|y~vIn^~jn||~nzv~}jv[~^n||~e~djn|PrJ~nz|~vjz~n[~\t}{p~^~y[m||ttvuz~unvnH~~~~j{~vz~vB~~nv~Cn~~}~~vX~rfvez^|]n]~Nz||~nBP~}~~z}nzz]\tf|\Nv~j|~xf^ux~|jyQ,False,9.0599e-06
~?@c~z~RuKN^R}~N~{~|~n|Vv~]N|^~q]~ntzh}p~L}~j~}~QNs~]^|zrnn|Gvml~~w{}}|}~LzmZknt}}V~}j~mLvj^n}}~~~~~n~|n|~~}w^d~vy^~nt[N~MH~L~~~~p}~r^^^Ns||Qk~rVNvv]{^^^t]~i~nmeU~vwm^wVl~h}V}l~i^l~x~z]}n~}jV~n\|~t~N~~~|n~~B~n}}~Qv\~n{~j[z~~nv|~~^fLvrqn^U~l~vzV|yrn~}|v|t^}zr\mV|q~|Vm~zntpv~q}r^^rNzv~|~j~N^yJ|nlmj~bl}r~}t}Y|jM~z^d}xv~jRz|}Y^~qvujZ~|~iv^|x~}^~ov\uzn\~xbnpn~yn~ft^x~rz||yt~^x^^n~~~~z~~{~n~Vn~~~~~~\{~un|}nN|{}{rZm}t~nz}YUnn|jm}{}~|^~z|~~||~nxn~wj~vnzn|dz~l{~uj\vrn~v}f|~n~v{~Aln~pwu}Z^^~z{~~@~N~z|Mp}ldU^~n}~j~~z~x~~Km~rbn^~Ir}~nm]xsxv~FsvN|~^NN^`ft^}^z|t\~}~zZ~~R~j}~fv~~nVz`j{^J~}^~|}vv~~~~jn~~r~~u~|m}t~i|j~N{~Uinq`~z}n~^v~~|W\n~~z}|ny~~|V~z}N]v}~z~n~z}~f~Z~^~}m|m}x^wzNqv~|~FkE~Z~~~v^}jmny^~|NVZfn}~|rmzz|~zyr~~~zXt^f~{~^zzs||^u|Zzx{VZxvr~[]~v}jy~~v]v~^T^~~~~snv~rm~~~~~^m^Yy~yxn~myf}RnJ^z~ni~}j~V~~~d|ntn\}n}uzn|{v\|}xz~n~~b~,False,9.0599e-06
~?@cnn~v~zY|~~~~~uW~wf^tY}~n~^F~~\y|zeN~}f^^n~~nn|[z~~v~f\vbnx]f~tu\h|~u~{fft~f}^}uzw~\trrv}]nQ~v\yp}nz~r}Vn~z^l~vlmV~^r~xHy}~xvui~z}vn~K~e~~lNmNz}Ly~pz~zvZLt~jzuzv~rV}~|~~}z~|d|zLI~~^d|^xnzn|Zv[~vzzrv~|l~t^v}Z{v~vv~zN~U\v\XL~Miv]~^~~|~pVvm|~vndj~~z~x~~~nxvz^tN~m}vn~~z~t~Xjz^}zk~}zV~{~Ze]ZY~zrnM~v}ym~~vW^z^~~[v}lvv|nz}f^|~|T||nz~m\~y]~~~u~^\Za~||~m^~{}df~j~j{n~^~~Z~jyr~zr^~yf[~z~xuv~z{vMw|[zV~lj^Ums|~]zwN~Mz~]ryRnj~v~z|rs~uZ~ZKih|~~ZV}lzr~^v|^~~\zlt}m~ev~|z^~^nh^{vrn~vb~Tx\n~~Nze~~}nw}^}[~^U^~~uvz~~Z~|^v~|~|ej}m~mzwhVMnp~N~N}|z}^~@Z|zny}~zwN^m~zFjnn~n}{vZt~z~~~N~V~\R~nzutw]zH\kjR^zm~mnj~|~t~[lc~z~fnnfn~|ZW}z}sVlzvf~t~}~~n~~M~s~n}q\~|zd`\~Q\nnwr^}mLV~~zb~n~|Ru{vzx~]f~v~]d~n^L|]yx|~~~]~~lVbyz~nr|~[\|~~V|r~njrnr|D}~y~~~vzyz~~yt|~zz~n|~jtV~^^}f~nz\NY~|f~zvvfz\~}l~^l^j}|~~v~|^}z~Tzz~~~~hy|nxUz|~}~}~Rn}^|~v~z^~z~~~n~~l}f~~},False,1.00136e-05
~?@c{vuz~~sxnm~fv|^ttnznfZ|Lvn~~V~nM~px]znzPxZ~H{}{n]w~n~l}|oJ~e|r~zn^n~FVZ~iN^v~\^zjny~K}Wv~~v}W~Xzm~~N{x\~\qU~]}h^~^~lsvL~~nvnn|z}Z}sr~{~Nz|n~n|x^z}x|C~~zz~Z~fvnYzr}ntllj^x~k~^zd~n~~~Qh{~Mvv}~y]rv~|n~jN~n~vvy\~^~~rnVx~~{fn~|^b~y~n~ZVx~n~z~~J~n\|~~Nxz~~vx|^yyvyz|x~z~n~n~|~~mzm|v^~ev~}ydj}~~}z{~Z~~]Vf^v~yl~qnnxv~mvv~t}n~~}~^~F}h^Kt~~H]j}^l~v~kz\|zfv~~^m~~lyDj}~v~}ynv}^lvz~hzrf[}n|Z~vM}mn^^ZnNRM~\D~u}mvTVzv~T^^z}{^f~zw~v}N~~}vvx~n|}zl~nv~~}m~y~{~zvnu|b|u~~v~vjMbV~~hyj|~Uf^v~lNV|v}{fjz~n\~m~~~|n}~\Zyk~~tbMn~]Vjyv^~|~|]z~nnhv|}L}n|wnz\~}xlznnk^n~~znV~x?v~^~|x|~{y~|~~]|~no\n}}v|~|v~||~^zj|vlnf|evv~}hnr|}n|zr~~~z~z~ly~~|~xmu^Jzy|^Vz~pj|~\zd~n~zufz~~~]~n|f~nN|~}}f~FDz|~nz|Hz}~|~}uzvXnz^~~^{z|~|~~yzZ^UJ^Yz\gSNZnV^N[zNv~|tj~^z~v~nfn}|y|~\|~nJz]z~~}~}|~{}}mE]]mt^f~MU}g~~Nnnn~^n|~~~~]lkZ}|NRx~z~uvb}f^nb~~j^Jvlve~x}v|Z~nj\]^]zNv,False,8.8215e-06
~?@c|\~|n~{v~^u|}N~nN}d|v\||~u~}b|Q~nkqz^m~z}}~p~NKklv]^v~}^iz}zzvf~v~nnn^y^n~^~@Z[zz[~~j}}~|l^~}nz}|k~n~x~rzvk~znN~fuxx~znvv^u~vvx~du~R~~NQv|}]DX|v~w~~}{~n^^b]zdv}^vV~dj~Zk^~~vn~]ZpRt~~f~\fn}~~^nv~|~}x}jzujyvnp{~~~ixnln\~xn}~||j{R~|{z~jn|z~M~}]~^vnvjf|d~^l|~~z~n~~~zj~v~}Vv~~qyT~~l~~K~v]y}|uxj~t|^kN~|lB~~~~|~|~}^N\v|zuX|~vV~}~jx~]n^zHtr|v~nn~X}zxM}yn^~zzznn~}yntn~ttVn~v|~Tnmx|nnv{x^mn{^^|]F|~~FsLzuz~vr~Zj~~^~n^|z~s|}{}hvIzx|}}^pWnz~~~^NVx[XZ|z^~|z}N}~~V~jNz}jwyz|}~}MV~~wJy}vNRlNi~|Xv}z^znx^lz~z~vszhz^~h~yL~Vv^|N}~z}^~y}nv}mZv}^vvl\jv~~^|rn~zVvn^lrR~~\XZ}^t]}f~^V~Mb|}}}\z~}nn]zmnvT~|m~r~{~z[x\^zhv}fz~R~nn\~~n~Vu}~v~m{vzv~y^n~~~|~\n^m~i~}z~~n^vv~~y~~^~u|}svf}}~~b~|nf~nvjr}xz^g||rfx|}X~gz_~|~~~yn^xZlm~zU\]~~~~~^{^j}y^etnV}^R}x~Zznzvjzb|Z^j|vJn^~n~u||~}en^~t~^|]~~fn^}~]nXf\~~^rYqf}vznndW~lZ|{vnztv~~zWm}y\x~~E~v}z~}u{u~rnz,False,8.8215e-06
~?@c}v]yw^~nztzl|^~z~TfM\~v~\t~|xfny}ZM~Tz|~N|~Vn~~nL]xvv}n}~n]utv|Zyn~nzjz^v~~}~z~~Z~{||vZNN}~^}~vz~jznj^v}~~xnv|~J^~~nXj~v}^~Jn~Bzd}l|vmS|^^q^VZornVn}m`lx~ft]Nx~np~In~n|~v~z~xsy^jn}r~vD}P~u~|\]j^|\~{xl~|hNx{Nt]NnVuzVvVZ~|~yT~~tJLV|Za~~R|nl~^e~n|^~nj}vyn]D~E~]f~}|npS}~~}~~v^z\~^^{v~~lMQ~~Rv~~~xz}~htmn~~F}~}}N^}pu}}~v~m~lNL~Zv{~wv~~nynsv^vv~ny|~~Y]~svMv[ultzyv~jV~t|~~||||~^rw~r~~n~UU}v]^^t~mntz^x^|j~z~e~r^l}~u^v~|}zvv|vzN^j~\nmd~vr\}~~~}vood\z~{z\uVvynnJZmZ{rz~f^u~~~}~|~He{tH~~v~~T~]^\mus~~~Z~r~]h~^Z~u~v~t~V~yNqxn~^~}nwt\~|~{xnf|zn|v~~vnu~t|~~WrxZv|z^^~~~[n~zTnr~{}~~zn~w~~v}l|~mzU~|N~^W|}b~~~~n~|n|Z~~~[nn}V~l^u~jv~n^zv||nUzn}~T~d^v~njZvv^~t~z]~~|z|vnlz~|xYn}mQx~~vvf}~~^|}vyr]~zvl|}U^zz~n~~}~v|nvy~\}{v~h^|lf^nznbzf^y|kv~zNun~l]\mn}}m~}^R~r^}~lzr~v~~Znt^\nr\~e|}v~zn~n~}YVVg~]^|fVnsYtJp}~~~}Z~}nvv~mlv~zh|}~|mr~\ftnjv~uvz,False,8.8215e-06
~?@cdmVj|}\~~^~a^~~~]v\ixvl}~~^Tzyp|U~~n{^~u~Q]~rv^~v\}Z}v^z]|v~|~m~j~}^X~zm~j}^Zgzx{~}}v~yYj|~I~fv^ni}lnnk`l~j~~~Vfx~\\~e~^~~L~~{xu~{|c^^\IU~Y~~}NT}~vY~^v_ri~Dt~v~y~nl~nh]^Fnz}}v}x~~|zfjvx|}r}dX|n^~^Xv]nru~z^~~y~~}}uv~jnn~~v~v|~^|}^v~}Ml[~~^~}^~u\j~~~~~sv^xkvi~z~~}|m~~~{^^~n~ry}ne|k}ft^p}dzN^r~h|~~~~}^j|n}u}u]v~~j~vP~jn}N]yvf|f~~}~}m~~h|yZj~~}|~f|z~vv|~utfm~~Yvnyr}ufJvz]~nN~j~Xv~F~~v~|^~~nrj~Y~}^~~zn]yk~v\^{}^N~^ltq~~~nv~^t}n|zXzL~Vx{~~x~~~~|yr~n~~~}^nn~x~~~v^`~~V~vjny~~u~~u~Z~z~]}V]R~z~z|VdZ|~vgn^zl}tp^Rnv~}mz~jztu~U~~}u}|nfzn^|xVeQM}rvzmvmv~nZ~unv]nzv^YNZgn~{tm}|m|qzr~x}~nx~V^vsvWV|U\L|}xyZvx^v|~~~t^b~{n}tn~v[~y^~|n]|ZpV}^lv|~FD^Vux~uo|y^Z}}jz~~^x{^~j|]y|v~}nU~Tzx^f|q^ud^Q~~~n}~~j^~X~f]Jbv]Zvnzr~D|^En~N~|^Nz~vZ|vz}nnv|s|~X~m||nhrPy}}jrhnz~n\u}z~q~~z|]}~z~~n~{~~\|^~~n~|zn~v~~x~{f|mN~n~}b^bpzpYX~~}}^~s^~~K~t^lj||~~~f,False,1.00136e-05
~?@c~~~^~~n~~x|~myYfnV^v{~}~c~r]n~lb|z^u}nv~~nNyV|X|R~^^vv}k}v}Nnv{|f~}fsbZx~~~|umm^~}n~Ez^vvrn~~jfFzfy~lZ|}n|FL~z~~m|Nzt~\zznF]~~NuUV\V|~|}lz^~|nrr^~~~zNnLn|]~~~imh~}l}n~j}qfM}~|r}Z^f~|y^z~^n~\l~~~~^q|M}~y~Z~|~N|n~}e~\s^~l\v~z~uljV~|[{~nnZ^}OnvSm^x^|vtBxfU~^~~uMntv^^~~j^nR^|}n~}xz~Q~}|jz^envm}~\y^z}vnn~x~zhvnu}Fifv^}^[^^|l}}ZUt^}~~wZpv}Zr}u~f~Vy{w\ojZ~N~n~m~|t~E^{~Z]n~}~w}j~|T~~ZJ~~~~~}~~N~~}~v~NF|i~~z}~fvnzvV}}^fv\}v]\nyn]n~~u~uV|~|]zNndzFn~~^^uy{d}eN~|z]\^\v~]}muvl~~~t|\n~vR~|}~znN|~Nt~~xy}~|Z]|zzyu~n~jszn{~~v|n|Zxy}{~vrm^~{Ffzl|f|Z}\|n~~~]n}vb^nnL~f^v~z\nvjL~~|yj}nr^l~~y\Nz~|Zjvjxf|~xu~^^~|~lz~Z^y~}e~~]~|]}zz~vv~~V|lu~y~f~|z~F~~|\Tz~zm}^~^~niV~~l^~^l^{zv~}|x|n|x~{eV^j}v~Z]~^ez[~up]}vxz\~~~\rMm|}~^~~zu~~Vn|j]}~~~n~nM}d~~}~gr|R|^zz[tl|nrw]~v~~y~t^vy~}z~v~zzjZ~|z^~~b^rBrtnzvG~|xMU^n~|^Z}Z}ztx{\n~~~~dN^b|sJJ~}~\g~^uu},False,1.00136e-05
~?@c|~m~k~u\b}z~~~~pxt~^nn^}v]uy~vyz~n}u~}}|~^u|ly^u^Yzn~~~]v|^~v~z~~e~~w~~]Mr}u\}d~{~~nZ~|nnnzlyz~pK~XzBvvn|}J~}N~rJ~~qva|qV~~d}^df~U|nv|v]U||\nT}rVj~~~zy~|^^~Z~}y]uin~|~m]wv~v~Z~yhrrdezNz^n~BJz[lzv~~~~{Y}\fWy}~}~^z^~z~|~Tnl}^~|^~Z^T~~z{~n}kt^n~h|z~nTtN^x~rvV~~\~r^f^Vzfzr~~n^ue~lvf~uMun~~^s~~v}z~R}db~{J|vnnfIn~v~^~{z~}}v}}Vnv~~uMz~N^~ve|n~~MznFjz\n|v~mZn~y}rzN~xjm~p]~uunxZ}}nB~|mn^~Nbz~{~xnnjrTzVz~~x{Vv~vf~vRl|q~}pn|~fVxXenry~mv~Zz~v}WZ~l~u~~~x~vj|~xnuMT`^^~z~N^l~}]vfFv|{j}~~z~vEZ}mq^z~Y^~|mNou~no|~~v~nnnfzF~}~~^P~~mn~n]flz~~N~jinlv}~v|n}v\z^~[n~nztp~V^tn~ee~u~z^rl^u~~u}|^z^jn|~n|{v^~}X}rvzn}r~~]~^~vjvV~Wr^~Zq~zjtt}~~^{zNf~~^~~b~}^vyV^}zln~~n]~lr^Ynv~\^~]|}}~^bzz~l]zv~z~~nj\F~~x~inxl~nn~~S|mjryznz\~j|}n\yn|]~L~~y~^}ybm|z~~~nn~fvo{Mnl^~ir^Tv~^N~nnnV~|\mh}h^~vtvG~\]M|~~fm~Nz|~^v~y~f|nrzv~l\d~|~zvV|~|RTVXv|q~~~~}~^~}~z~,False,9.0599e-06
~?@c~|m^YzlN~v]n\nz}}~^z^~|r~^\}v~jI~v~~dm~~vjm~zhzW~vldZ]x^~rJnh\ry}~~^n}m}nZ~fn[Y~xz~znv|x^~]~nzYqvnn|~]m~zUne}l}}{}e{ufL}|~nx~^vz|^~~~zvj~w|~v~yz^n~yzz~~y~~}~z~tz~Z~}m^~}~VL[}tR{ZN~}^n~}M{M|~^z}]T~~~~}Lvz~R^nfn^]~NeNnL|]mnn|sfzRw~~vy~l\~W|~k~n^UF^Xnikf~}bt~~h}|^]v^}z~vZcn~lVn~Jf~JN^n~~Z~~wz^y|~v|~zvNtv}uY|~Q{~}~~xnn~~lV~~~^Nj|^{xu|v~~v~rTrqmf[~~V^jJm~zvtr^~yut^vy]kx~^~}zmvz^vLX|}~N^~Z~\s|nn~|x^~|F^~~zFzx~~Nvpn^\ZF\^Yt~xpvz~||dn~m~n|rt~F~xzrNx}^z~fv~|l\y~vz}\~N~}nvrT^}~|n~x~~~n~u~xhv~~]ln|~]z}R~nk{}~xv}\znrut|}~N~|~|br~V~N~||^f[vNwn~ta\~|yfn~sb|y^z^n|}Zv~~}~|~~|}t\~zmy}|]~rsLnuzv~}~v^zJz~v~rml~|~|~~p~DM|~|^vz}XUUr~jv~|n~~}}x}Vv|jt\}^|uk~znv~[n}~^~~~l~~}~||vn|N~nz\|nnWv\r~}~v|~}f}\Iu]~^wN|jxTzyv]vu}vt}\~^^~z~~n~zwz^n~~]~fvk~{jz~w~z`~~l|Mz~~~n||]rt~nrBs~~{r~fjf}~z~e~l~vKj~vY~~^n~vn~x^}|JvZ|Hn~^~zzmf~~}j~Ni}l~^~^n^x{|v,False,9.0599e-06
~?@cvtn]cn^yZjvp}]f|s|^l~^~}N~]f]j~~~~|Nu{n{h^|j|Yzp^N\~z~~~~~vM|dSxijutv~ni~k}z~^Xn~{Y~^n|^`~~n~~{rn}n}^vMy}y]^~aL~~t|\~ze~rj|mzZTvv}v^~z~~~zy~xnvY~~n~Z^~l^~^V}^~~Muf~nzz~p~~{vz~lr~t|~yvvfsvN~uN]}Nm~z~y}l|v~k~|~tv|~znuz~}z|j~}~~nvsbl~^v}n~|~EJzmn^|~Mn~Nji}n~~~~}|N~n^n~H^~mZ~m~z}Ytvz]lLvzzzym~~~}lLuvlvNbvviJv|}lpB}\}o||~NN~~~x~e^m~t~z}[~uy|~~|^sVy~{z~r~V}i~Vz~~mrZxnr~nz}^~u^fvv~^tn^~~}vm|r~}kmln^|~N~|vLe[~zy~vr~q~nhv}xyvrrzjn~Uv~by^~kxNze}Zf~~^\tqy~v~zz}|yx}wnv~z^~}nX~}^}||N]]\^u~~n|~]~jf}~]^vrN}ra|^fvf^]J^F~nr~ffvE~~~\NZ~~~n||^[|v|~~z~~zq~^U}nsz~vnrn\n~j\|zNwn^j^~~J^z|nm~v|\vz|l~~]ev~i~~~|ZZ~nrn~~Evuvnf~|z~ufz~~[zn~^v|v^v|yn~~n~z~m}r~|~}s}}^nzeV~m~}f^||dj~\}nIlR~htV~tZn~^T~}fxVk}~u~~u|u}n}XzuzuN~~xZyb}Izz~tz}z~\W{Nyu|Lrz{~~~|~^~H~}~n{|{uj~n~u~|~^j~nZq~^}~~~~z~~pr~nu~^\{~}vmyty~m}l~p}}~~NnZz~rn~V||Zyzwn~tj~~^^z]~~zmS~,False,9.0599e-06
~?@c^~|zynzzV^zN~n~fnYt~jZ{lvjZn~{}s^|q~~~zVr~|kmiTZnn|~~`vj~nv^rz}^~\Q~yjf||Vnv~~~on~{~{l~{~~|^Lv}|~{~~~~}vj}rZXMWvz~A^|ZnV}}\~vZYx^|~vtz}vvfv~n~lz^f|e~~}n^~vey~m~z~nzNnv~o}r^f~{{[~}nz}~}{^Mz~r^~|v|~~lv}U~|p~Nzj^|}N|zu\|j|t~~dm~\~lq|zLin~~Wrnv~nVZvu{v}~n^n~d|~vz~~^vZv~hzk^ex~~ZMZfn^~~~mf}nnmCNt~~zr~}~~^u}Tr~~~~v^~zz^Z~~zrsrT^{\fn~]~~mn|m~ZNnn~z~N|}]~~zF~|^^yi~f~uzzz|[tV~}kYu}{znl\Qxmxr~~|KnzVnfm^||z~X^~tq}^v~~Z~~]z|~~zv~~~n^Szyn~u~^v^vbt|xu{~~~|\~z~F~~~Z}z~~tavvV~ruUlun|}^}Z~|~uvu^\m~~V~|m~vv~~jz|}^~^R~vz~n~nU~z}v~npnznu\w~Y~fv~VPdNmjx~^Jsn^mr~~yslz~rH^~Z~nLn^|nnj|~^~kJ~|~]~}~v~|}VZ^v^~^vvL|zv]nzt~vmm~Y}PNm~zv~Z~|^Fy|{xv||n^venn^VN|~numv~|yI^Zv|z|lMR{V^~}[~zNrzz~}zrzlzx~Fz]vv~}n~tVlh~vt~^~lrmtn~e}zN~~~Rv^~Z}~z~~v~`^v^zr{qTlztvzvv~n^~nn}yZv^t}fZ~l{Nt~~~}^N}}~dnj^n|t|vN}|~|dvVzzo^m\}u^\z~P~mn~^\|^z~~~^mu~}~vv^~xzP~ul~n,False,1.00136e-05
~?@cz~z|V}n~N|fi~~f~y}~]zrd~z~^~v~}f}yvn}yzy}V|^~v^}v|vdn^~|T[yj~~Xus~Z}}y~}~t}~~rW~X{^~n~pt_vz~tx~{k~U{xzvv\^zKrNrlnv~Jp|vVVy]z~v~z~}z|~~Qu~]V^~~z~f~o~fNlv|~~V^~~~Z~lVu~^~y^N~^~~lv}||nTd~|jnMn}rtN~Sw}^n^jlw~bz}zmw|xz~{vxzJ~Vzz~|k|V~}~n~~z~zn|~vv~h~~Uf~mnn~~v~~m~|^~m~nftz{ynnuhvj~nhv}lz^N\|}}~}||~h~sntkynu|~~}v~l}~mz|R~vj~xNnF}V~q~^}{~}zLV^{jv~ntV}^vc^n~n~vnl|~^ymzvd~}R{v^]vF||\xV~Z]y|]|y\yvyyVnn~zrvtz~n~~Zdu~}vs^ym~x~y~{^u}~dm^~lvvvX~jf~nf^z^~tjz}E~yl^}vyu[}}|~Fj~h}~~U|bv~|zovYS}Z~~|v]~|}n^~zzznvV~vZz[|n~p~~\\nVz~vx}w~~X~}z~]||~~{}}~~~N]||v~vT~~}yVQ~\bh~z}zvtpk~^^rv~|~}w~zl~Ynzk~|vvn~~lLjE{^~Y|MNR}|}n~z~~~}y~~l^zy~~~v~}nnvun~pzd\^~tuj^}u~~}u~nsvPKl~z~{nydn}Zn~~tV|^N}b~l~fuz~~~~^dFv~Xv^~^vzzz}~urvV~Z\~Z~~_~|~nzN|v~l~~~t^}||nw^y{fzu}az~u~m~v~p|vvv^~vf~~~|t~z~^^{|p|V~~~Bn~vN~ruz]nx^~~|JRvhr~~~tzx|tV~~vF~elZ~nhes^]~xz}~v,False,9.0599e-06
~?@cz~|~n~Np~^^~Vf}\|Su}|~BlVYjN|TNmy~~jmwV~j~y}n~tn~~bv~|Vtxn~tt{zT~~m}^~~z\~v~~gm~~v|j~~Uzt~^~tvy|R}nfz~nv~z^N~m{v~z~z^z}v|n|~Pvk}fslTm~}jzNZnt~U~~q~}x~V|N^M~~~l^|Z~~~~e^m{^~JV~~z|v~Rj\kvfV^^|r|WMZ~^v^M~zxnuz]tn|z^f~Nlj|~~mvx^|^i~vyzn~~d]{||f~v~\tzP}Fv~V~ivf}]~zn{z^vvv^v|jRon~r~~]}y}]tr~}|vt~m~|~v~x~l~\~z~n{~}TvnVf}|~Lez}}|Rnnz~~nzZ|~|~rrmpn~knl~~Nyv^|j\~~n}||F~~~]h|Y]~~}jR}}lZ}|^nn~~v^J~~z~|vfv~v~}~}BZ||V{^~v~|{~hz~~~uz~|{~^}ff~nyr}|zBtzZeZ|}]^~|wlT{~Vp}~ff~VO]~^k~~|zfTvn~Nmvny}xM~~|~nurrf~w~~~N~{|nHn~{~|~~~}d^An}|w^v~fN~VVmlZ~mvjvbnr~N|zzqV~zznz~||~~vv]~~~}n}~zpl~]mfV}nvnwv||}x}lzzvuzzezX^n~rN{}Mny~n~|j~pzzf~}~^~~njv~|Dz~\\^~v{^Tfnz}^|]~t^|~hsnxzmv~~~n~v~m~]~~^r}N^S^}N~qy~|~s~u~t~ZZ~}~}a~njM}~zn^vzlb~~|}~pZnxxs~~~Un~iz~~V~ukywnv~|~}~j~nn~~~~~~^nv~nn|vj~lrJxb[v{~tmzv~zXfz}~hm}}wn}|nZ~T~LkgR^n}nwt~Y~^l^}iv~\~]~l~N^^,False,8.8215e-06
~?@c}t`nx~}}n~l}fZlv~}fBb^j^^}|\p^]~zusN~}fz^~n}it~n|n~^^xzHvmzyn^^wmr~vN~~m}I~z~]rz~kj~n^|z}kN{z{x[x^n~n{~zt~}Bdn}^i^{\|fpnv^~~~n|dvrz~|Ru~r~}t^vx||~~~~nt~~zl}^}en{in^z~~~~f~~z~~nzvn^k~~y}]rdr}TV|}~v}nqzJ~n~w~z~V^~^~|~f~z~}~zFmnr~~}zv~{nrlv^^fvt^nmNrv~s[v~VVrry||^lty{Zn^z|n|}~v~wxy}~~}q~}[}m\uNl}^N|^~~ljV~~|ffv^~vyVj|fe}^z||sw~~^Vun}nfvxzNn^}nzQyl^ywmVn|R~n]{z~|bmf~~~^]~]^|~~}}~^{~~fzh}~\z~^~}U~~Y~~~~i~r]^\z]zz~}}~~|N`^}t{~nj~r^u~}|h}n}|~v}||R~~lYh}~~{sNNxj]nvUn||v^~n}ns|}X|\~{^|^}]f~V|vT~~ky}|f~v}zz^t}}]vt|}vf~nv~v~N^~x^|n~z~fFx^n|\~n\JRUvV]NfJ~~z~zTnVNzukN~dn^~t~kx~n~^~y|m~~}pVJV~{V~\~Tqj||~~~NvvJ~~}yf~~~~mn|Guz|m~t}r^Fv|~v]~^~fZV}~z{Z~T|Zv~|v~~|k|xr|v~~~~~v|zv^~~nrn~^}\}v\mn~~~}yN^zz|}~zbV|\fm~~pzVzCwi~vv\}u~]Zhvzt~~~tV\~m~L^~~lv~zjVdpVU|dZnFKn\ph{Vz~zj~~~~~~V~n~zY~}rn~z|~~z}j}nV~~Z~~^~|K}nl|vZvn~^~|vNz~^^~{l}N~zl,False,8.8215e-06
~?@c~\v~n~U\~}un~at^t~~qv~]v}s~vf~Iveu~^~~{^v~}~nz}~~^~|\~vzvJ~zZ~{f^[y~cvd^|z~y\j~n~yz]|vvVdJ~v{f~~n{~^k|^Xzx~vj`ztYxV~^\z{~Yzz~~}^N~}Y}^vNyf}vt{|~^~|^g|}|}r\d~]}eZN{vz{vDzI^~}v}~v~}~fz|V~][x~~{~\^Ii~~}e]~}~|~~~^w|vnbvy~~^z~v|Yn~mz~p~u}jv}~^~ium}}ZHz{^|}fn~n{nU~Un^vV~Z|^HV]~~~]mJ~b|vrYvrnZJ}~}~zi}^~Z}}^v~\~~zz}~}~t^zh~^r^~x}~x\}^rynH~v~nnz~n]~vvv~d|ZU|uZP\^s~~]J^~vR}le~^{s~n^X~|n~j]LW~z~y~zmzNVu}^vv~]^~~Wzrh|}~r|~ltntVynzNr~v~^Guut{JV\JUpnN~m}t~avuM|l~zx~fnt|nV~r|z~|~v~~^~^j|u^~~}r~l~zfy}v~z\]Z}rnyKvl~~l~n}~}{Fzz~k|z|~yt{j~y}~~~l|~~v~|yjn}}Ffx^v^lvW~z|m~|jn~^~f~n{nv~|Vvtnwfz~|~~~rlx}n~~nZnm~~dnVnn^q^^lmr}}~vvNZlnzS|z^}{l~~~||~]~^{}b}xu~N|lZ~~k}z}~vz}Fl~~]~~~ETt~v~Z\|}^znf^~^un~}l^~|~z~vmznY^~ZV}zzk~~~tW}pm~~v||v}{vLn~~|^T]~T[j~~m~~e|~u~[|~z}yv}ykVz~^~zr\juJv|v~Z^~|zUN~\}|~z~|v|^~~t~^f}~~\|~n~yNzn^VfZx~Tjvz}n^~z~R~~~^,False,1.00136e-05
~?@cn~zb~n{^\~F[ls^tf}l}~z~~Z~nvV~~Xz~n~}]~zumz^}vm~Z~z^Mznzz~~r|mz]z^~Hz~~oxZuvv^{~}^~l~R}vjzv`~^~~y~z~~j~}z^nj~w@zf~n}tFnozl|ntz|Fv~~f|~~vV~|r^vz~~~uvnhulM~@~NLv|~S{rj~fz~zxN~UF|~yq~{zN~r~^uJ~l{yv^V{lnY{|~}vv~~nu~|~~}~^vY~v~Xz~~~\zr}~z~{v}|ym~}]~r^}~~nZ~sVrm|~|ZV}~y]vezzv~^V~rlz|{~^~~~z~|k~~f~~y|sn~nzv~~~V]gn~z^~r~T~~K}N^~Ffl~z@~q~[~|~u~~^]F|~~Z|}f^b~~r~rq]~v}n^lmz^vS~z^e~~~^wz}~znz~~}~Z^^~~zff~M|y|xx~{vuz~ynvn||]~^~{]~v|~mfvql~TzylY]|~zV~nj|^vT~~nv|z~v~rzvn\~nxnsWZ~~xlLry~rsfdphizi|~|z~|]v}~vNt~zrz]^^v~}P|~^nvZ~Un~~}~vvy~^jNTym~}Vt~~~Zevvvlluzz||d~Kvd^~z^~NZ~Z|~|vnnmu|zrus^i^VWCu~\x~~|z~n}|~~]t}n}~~V}v|~zqqLHK~r]Z~nzzjm~~|}rz]x}~N{~{vz|~m~~R~Mttv~~~v~~|~}f~zxzt^}M~v|}v}M~x\j~|kz~]}V~~v|~~}V}]x}~\}z]~^U[iPy~Dz~|urtvj~znfzu~^z]z~}}|zxv~n^hjznz~znhfz~~xH~~^y^yg^k}zivzj^n~nNz|]{|ztn|jzvnw~tx~zVf|~|fvl}n|}\j}~z}u~dd~Nvf,False,9.0599e-06
~?@ctnv~szF{nRlyznnrzf~wvzv^]zt~nnuN^\^~~n~v}~~}Jb~|]z{It}v~z}In~n~V|r^v~QzN~n~~~Znkxv~]^\}~~}rx~V}~Zlj~Z]nZ{s~|~qv~}|~~]^n\um}^~nv~~z~~~z~^}J~~~NZ~Rf\jp~zj^\vZ]kn}~n^j^^^}xt|~vjyv|{Efzrin{r}zn~~}|Y^tn{^y~juk~{S~~mT~~|jnyS]}~t~z~zmu|~d~J~}}~Mz~ZJmxpn~^~|f~znlj}|]FVN~vxfz}]}u~VVvz^z|Jvvv~nN~{~v~p~b~xf\~|^z~vth}dyr~}|l|T~~|[|vN~vv}q~Z|^\|fX}~|^}~}|~~zz~~}}uvRv}v}u~L|vnyN}f^vn~~~|}wzL}~~~^a~nznm~~h~^z~N}}~vn^~z^d~z}Vmv~|~}u~~~nHux]~~}nN^xp}}v~^j|vjvvv}mr~lv~|j~^^{}~y~rvmMZVjZV^zm~ynVvu~ni^m}v~\~~{r\~fzyn~}~zRv|q\nVju~uYMzN~Y~t^}xu\~~uvnnv~z~lX|~~l^~~t|~[~frv^|x\lNv~nD~K|t~xfvlWzzT~~nt~~zdz|^~}u~}~||n\~yVdYb~}}~l|~vu~~Z|jYfv|]}m}nZrl^^m}}}R~N}hf}~~vl}t~~v|]~y~v^l~bfz]~vmh|ny~v}~~^}^]vv~~rh~~y}^{]V^||mk~h{|t}xv|~~~sljsv~z~~v~~`v}Dv~}i~~yV~|n~\qz~|kyvm|Z~T~v{~uv}|l|}}^}np\^~t}lv}bv~^Dn~F~lvnr~w~tv~~~|fqn^~n[~Zzzm^z~nln^yj~N,False,9.0599e-06
~?@c~]~x|vv~|m}B|~||y|ju}xvny}Vr~^}t{v~^~^^N~|Kvz^|t{~~nnZkmn~vBZyX_|nnyn~vzNq~M|[~||N^}^vm}|n~z}~|}k~^~drZrzVvzU~~~~~|uzj~vv~|m}nxvt^zluy^zn|z^f}|zt}~nl]f~vVF~zl~}r~\~|v|\~~|Sen|z~e^Vnnv|r]pVft]~^^~m|Ntzn~nu~~|^}t~znF^l~VvZz|~~~^y}}^~q}u~n\~zn{~N~nvN~V~vzLx{n~NYhynnjlvfzunn~~|\~n~N~~aFy~^r\f{]^~wutxmNt~z]}~Zvr~^z~[x^n~}~N}v~Xnu~k^~nnY}~~]z~znN{|~~z~~R~t~N~N}\|~Udw|fz\tm|Dzjuzz~nxv}~z~ngZn~~z]}v~~^QutVx]xnzjm}z~~N|}z|xz^|||mrvy~}}vZ}Y~n~~vN~u^wtynZu^nnRfyM~~^~}|~R~v|]_{xf}s}jw^~~~ZJ{|z~n~~l~}~|y]^}mzZvU~~Nz~V}^^}]~~Z{^buZ~NF^L^}~v^m^v~\~t`r}]~z^t~^~~~}hm~x}~]~vz~f|nVv|~}|m^~~~t~~ztz|}l~yJ~z]lv~~~R~v[~q~J}~^f~~n}V~~}mv}~~vVv}yi}zz~f~mrm}|tr}r~vb}~~z~^]~zU~^xnv~n^j~|zlZyl~^~}v}ptw}~}R~^~lnzfmzqznNy~l~{|[^|mnvF~^~gl~jj|~U}vvz}x~~~~}^~N~vi~tJnv^v}~nzl~|Fn}~~F{~Jvy]~J}zvnn}{wdvsRYn~}fnn~mm^tqf~vn}vk~lnx~~~~^x~s\}lV]v]gzvM^,False,9.0599e-06
~?@c}]zFzXpx~VHvB~Fu~^v~~~|^z~~\~nv~B]~|zfznElj}~tt{Fn|~cnv~[~bvVb~vn~p}nzn~~tj~e~~L^~^}j~^Vc^~}~y~ynFN~}vh^~|~r|x~}utvN}\~^~|nz}|v|bzm~~~xsE^~|{cq^^}v}|}wzn~|v~~zv~^x~X~nm~~~k~nJ}~~zq~~nu~^zk~\~|}\~~u~\vN]l}}~~~~^v^XRnTa{~Xn~~^j~~^j}^n~lvntnln~}j~y}^~t|NPZMZN~v^~w~~Nyxz\r^|^^tL~n]|n~~^zuz~NN~^n|~}~q~nl|nnlv}m^v~M|^~~v}N~z~uZqmY~^~^n}~n~vnvjpnv~v||nzzNVx~~nvnwzj||Z~Z~zZ}\vn|^u~}uj~u|Fu~znzv}~m~|}^~z~\~zN~eR]nz]|z~`i|xUx~j~~^h~~DUv}m~ym~f~v|~r}~txhN}]lq~|xoizr~~~z~Z~~~mzni^n^z~\~R~xLY~||v~n~u|v|H~F~r}Z~^mn~ru~ojr}zf~X|~~z~m\ukz~V\^nu^~nm~v}V~jf\~|]v|J\~b|wz~u~[~~^|~Rxk~n~y^}nzqx}}fR|mntwZPy\yV^}^}~\|\z~b[|~~Zv}jmzz~nfz~tyZn~}~~|^~r~fxzUl^~{fz|~Rn]N|m~^|nt~~zvN}x^~X{ZyhM~\~~\nBzZz}\z]~~v|v~t~^unj|~ynz~~vv~vF~~~v~m~j~xn^|}x|v]~zsk|z\L]f~x}~m~~jzv~sn]~y~}Z}}li~^vj}rrzy~xnur~~~~x~|^tF{}x^r\v~hr^|~|y~u~te^zmv~NrwN|FTX~fz~~n,False,9.0599e-06
~?@cx}~|~|qd{\Tn~~}vnn~~^~n{W^n}jz~}~I~^lLvyn}~V~d}]u^~}t|Wx~pYn~}BVnxdnVjmm~}~zj{~N~|B~||~u~ft~~zJvexn~tn}||f~z~Ze}|~~j|~fZZz~~y~n_z~i{|v^[Wi~vV}n}t~nvnyLPtj^Vl}|n~v~z^~L}~~^}^}}j~~Zv~l~~~~}|v}i}}v~n~~||nZ~nvLnnNt~nm~^JvNlZ~e~zZ^m]xX~z~|~|wy^zz~~V~j^^n~z~~v|i~}l~V~u~U{k|l~P~v}m~^L~Z|~~Nht~v~VUx~y~BF~rv~lkUmz~^~v]q||~Nej~~~~]}Tl}\~NvvNv~nx^~~]}}nm~n]~famz~~}|}Z||jXTv~\f]~^~~]Nn~~zzzTZn~n]\V}znr~j\|l||ly^|l~~mrb~zn{VrR}SN~~}~n^]v~|l~m]{x}}~`~||j}z~z^lV|f]n~}|yN~~^]r]r~Xlz~^}hn~]mnQv^my~~|~[U~}|z~~~~~z{~n{^~~n^zN~~{^\|N~v]nn|~~rf~{l|}^~Zmm~}n^Ft~}zzz~r}]X^^|x]}nN|h~fv^n~|N~rcnjN~Zw~~t~~~e{~z^~F}hNJ|~N~nVxtV~}[~N}T~~{~~Z~N^HM}tx]~fZn~sm~V]uln^~T~~vJ}}~vb~Nq~N~lvv^V~^nU|N\~Jzznnliz\|p]Y~vf}^kvvz]\~w}|\nwBz~N{\~vi[z~~~u]\~k^l||vzzyzmvn~Lu~Uv~~vn~~t}z~~~|z~nvLz}~Yf^~f}vnN|n~~z^~|~}Z}}a~^~~~]N^u}~~lxz~zn~{~}Z}x}Zuv||mvxz^r~~,False,9.0599e-06
