g6,attribute,time,total - 0.00117
g6,isDistanceRegular
~?@cDKOOB`_ZsOaoSh?tB?GG@_p??`R]mabCFKtAB|CpSAa?f?pbDmg?@vfXqP_?_SSyAC_GbSGw{BuAhCA?Q_HFOYYAo?GEC?GG?RED@YohyPOzfOk?{E?H@Ty@\I@Gg@CVTlACWPwT_KRP`BF@GAbC_EeFF[`IbsPGhKsI`E?_A?\TCYOR?Phe|K@qtAQhXw@K|E\i{cHV?OF?@t`\VqG?O@zC_I?OPOK?zcohefOMh[W?BB?oCc_CUcAfckd@ilAWAewT__fOOa?}GiGoSph?CQPmUATHMMD?_DO?Rf@QGACVQikAWSsHQbX@VDEUyWDsKY?s@AkSB?OK@CMGAgK?_PYOY^uoioHAEGweOFM[LORV`wAOQGHXHsC?Zo\?Q?Hc`?Tb]doWK@D?AH?AS_ZGQCqEIDtKAAeiSk_SGAc?WypB\Dx{sVGHgA@dAx?@?z?Ac_IQ?jPoU@?OtOv`@A?cIedeD@}DNSsOAW@OMqk@[wIcvDWCR@R_qg[a?fhDEgikGgLH_@c@DASC\bBSC__MQG@aAqxWaMoyhcO@uHNc[wYN@o@_c_CTDOkGOG?SZkCwOKeyasmPjK?cWo?_cw?OTECPTD`g@aAaSxDYLCBL?cOpAC}McO?kPyWSIA_L_eIjOdIO@CEOcIsiAG??[CSC`?Qiu?Y?c@MEkSIA?DSCW\_ilEEDU[Ck?CUSjXOgEOwMoUK?l?SBT?sFF?egTQwgkG_BgG^JOwKJk?AL~DR?Kc_qgwh??[?aBWaaeOfAFP?aXp?agIz_DK_A]RK?`_?dBYTBMgSGcgq?ho@hRWXa^_aEPcAqF{AEsvmq_,False,3.29018e-05
~?@cGkPc\C_?|Tfa]_?aHOTg@_@ubmCDUMocSGH?I?Q??HQjA`Uyo?AwYwCFSMMAhwCSQ_BIpSo?R@Jyh?_BoGiLX_HcK`Du^GOP?PogA?WqdsI?gOC@OwEMEeCcsCeo[?cBwp?ATvBeHODOcDKDC??NGha`ZwOAPTiC?q?\IKFpzIRD@bCOeuZ?W?dOmcYOCj__Chs?WIJRYAJSAiAOD?ARz?AiSiPt?VaW@SaIGgWtauBLjNPphFS?HOb_GAe`Dh?BBK}UFOA_YgAIH?wFk?YNdRWBoDJJM`B]c@Ih^GMc`_TG_qShTyKdCkGbAGE@CxVeavOChc_HPBPwo]ItAS@ob_?ksm]P__AEddCOEHHR?Ke?S@CVpJyObGgYKGG?nra?GgAoaD`Fea_CsQ_TL]re@Ol@Da[AeVzQgGBSDpQACK@yCoCWrCCApQOIPS^_AoMY?PODh[RdSWUroMmHtObIOkSM@aTLXQi?I??I`eD?GM_B`ZH@?p@q??GcDOj_y]?HkKOwr?VSFK?ehWGkqtSu_??d}QBDYQdWPAGWwqZCVvHO?e?KW[BGEUqWG@R]@GSS_@O?e?@A`GLaSM?y_A@EOgJAmA_S?]ah_DCGo?oB^D`_?pgU?@Q@KGGCw?G?VS]MD_EbOQOWAIRCLA?bxAK@O{BvXfODb[U@wW@ZIdI?@AS?yGgCJ@EaLjOCAQC`@?YATDkqy}`IaFAULAMU]G``FSqME_sr}BoBdAnCAHCcO{B?GCeGeNLKx?PlGKIOXO??WTOcy?CSuGE?WSkKBC@pG_W?A?XCPRAOLQGYqKEoOC_PhIG_AabMFBQRu,False,1.40667e-05
~?@cK@BK\@w?AgGa_Vg?ONgcVYERayOTBgonBcGS@j_JHQ_?@QwsaTjMG?CP`IGFKoDs?BCO?cyGHAYpLmb??cODSKdyX?aCpCcK]`C`AaXJPbICkN_??dcBBW@a@?NO[DB?HQ@@_@PHCanWFI`CBI[UJCkd_A`a|GHco@kM{ERDQ\EtbaHHwOCtgGWTg@SoalTQCICSPc_kIljcSaHc?HZvAPb?MaOT`mMPWak_Ea_JGfK?Hh?BO@ZJOIc`a?X`EHgKaQS?AGgxBRfA_YyawADCHW?AAp_A@V@C]_sfoXOPO|hCD[@WBI@g_m[Y_A?QwCCO?kP|[lk`CWh_bh?[U`hMKOAXFY_?cK@[e]mETWz_PTIG@PAoagrcBB`?`AdOLEd@AmOaSTDQ`qh_wbGFsYAGRoi?_YIh@DbogAGc_v?nlQDAcoeVjbUW?Ow?EL_eiMWYGfFP?@~[?jKZLhxsWGY@CAUiEo@_C[s_kOTI_I_PK_VBwOOWa?`MbWT?AT_Gc`_}GQzUo??HPBOoO?GD?\AP?wHMw?DRcGG_?ACOC@faoXqCHbab_?u@]_?Oow_@ls?PWGEKOn_`AwHCOQ?c]RiA`cH?CIH]`?MzXQgHi[Q@@Ef?S@FIEIFboSH|JorviWhC?WCJpSI]WPMpDiHMBQH\@OYCODqCDP?QWOUS?KFZ`RUO??PBAJDCLDo@L@s_CGqHEiBMcI_LVKrc\@AQPQCK@OR`___n@??MOEGMZICbYTGOGaWOWgIgF@ssCHi|BCF_LOo[HKO_YDAzNC}^W?P]COEL@aO_{RAUJDaTOO?QDK_HGOAHyuKc_gBeQ,False,1.09673e-05
~?@c__@YKaClgkIcQWWO@gqY}mIlOMQG?DgmAOWph??Ddcg`TG_NkNCGO?XJMQasVMHWbov_DG??kZDSPkS`?Mk_kGVb_CAJPPefWIjOGhMcpGa\u@@ToLUY@OWGKderAscPPcHOCUgIS`ESOkTs?]@cdcHAw`YEg@?BWAMKHD@GyFDK_tIWEcdEA]YGtbzJwCBO`WOoGGDOCCGGKkCkCiKIJW?aAIYH??@GjH_OeK_TAstA?wRXUBSR?GLi`CHIAHL@o@ONHSk?I@G??OCWIbHC?Ugr_CP?WUGbyuGSbmO^BiRhIDqeL@@{CeUelcD?@FUWGJ_`QWWxyOAkJ[CgTQASJY`|Q[WTGHtO?]o}CsoLAObpa@IAxkgzq??DY@HTQLJ?_COAAP_fTGUCIBOOHJyj?PDHL_{DC}gHWWC@xOkiAJ{AWq`P?aoHS?`diwbOWVbfAxM@?bacAWqGbAGJObKL?t@?G?@_Vh|cr@?GGAJWjUeTgcOW@I?CBcAugcKo??ZhCklq_qA\bMo@F_HOYdyRq?@m`l?sww?Cd@pDBkOsKUS[g[D^tAGYb_DOsJq?GH_ECrH?wIEg?GrN_vAII`XGNC?PsWSW_vhyGA?_?fG?@iD\ShEIO@O@s[Og_NFD?TEv_GOCgGOgN@AArSbDI?XaA?EG@E?pHQ~QQ@_oCOXdcKQKuH@aWiOQActD??ASLCOd@?bc?MRicH[]TEY_lOREbHQsEOAHDWc?gDOHG`POCiCDQeWXF?CC@mRAScCA_@EUg_I`?`?qJ?oAMfOGhAEItDPYGoWRWefAODHAl_CATB`LBb{JOC_Pjp_QD,False,1.00136e-05
~?@cwweEQKwEDHrBqEADB?KhwFPYNG[IWOn??cV@O?d@X@WOE`?_@IOMAjdGD_OSG?O@a?CHuXC?_A?WgYWep~GGAw_Tkn[|cHcGC@@igGcAbDQDfG_}OcSEDaWT@O?HJgq?{Ow_HHwS`A_?_QGHIIEcWpDeA_BICXAGDOGGX@dQUFSH_rWc@?[A{wBuQvC_OQS@[?EWUArsiK[oG`|O?C\Mb@K`DCH?GE__W]?_|@\@WodTcH_wHRIvAf_o?Cs?[?]pP?[WZ@fWoAHJWEG?@ysZU?TCEK[`s?@C@tjWqGWGDhFSJH@`p@?CCeQOCh?iKfzsgCsk\GadHgJ\Aa@W_iCC?_G??QgNdv[T?SEROkSH_ain@NzYgCp`WCTlFAIAojW?y@wuWQec@DkgcAZ]{OQpAQglwCCYz?EK?hs@?scVmCgwsG?kODDKfK_y@OGEJx??HZ[j[GTAgQOHpHyChgY??]m?hP?O_K?\Kk@][i?OYLCWGKaYYwWaW@U}bGsEMpWG_rF@O@@dC?nEqW`GwyUkDUbPWH_B@_duQ`KGqo?HCA`@nOWKGQq?GwFAq@mAWWPG|?XH@Oea@d_A?`IFOl?h?q}GS]Pke}GB]K@OGOY_OiGq@esoAoMG?PTd@d??G_?sKaCJADQCbqgBDC?F?}mHitKUOK?_K_?BAfCUKMs?QB|?aajKDjAIWKtZ@uPCRR@cjc_HMMx?GaKoco_Q@@GA?FcwOBXMHSAOOCgfKr@@H]gooISA?@A_L?Jgk_h_pLB_`t`HFo|oaw?SOS_OOPGhAISKCACzgeROfa@DEPijdLnM{D`SGipQWtCwT,False,1.00136e-05
~?@c?QOCi_dDA_ADiOSkERgbGL_SyQkgwXHEPHFKbOeA_Z_@AwDqDg?PYCDbi{@_b?ko@f\O@S@OrC?LxA`?@?D?GgL@WCB`lE?IKESyoGcbSK?oMaESPO_grcrFa~@@Ao?MGLe?GOSL@_BCi??e|CCPPBXGsgjBoF@SKVcGiCG??TYbD@|gaI?gD@kECGGSgIo?u?OGo_ughbcsWCevaiX^KAMhCOGgT{POblapEafYjGPC@LfcC_O_Ws?ACUGOlyO?b_nB_hDDK}z?jKU[_}M@C@GJkyoakVC`LGa?CH]?CEgIE]??C@U`^@i@g__OOQu?CE?CGB{qw_QAA_iPoJ_pIC?[?GWOHAcbA_QCmNgBWBRI`_CaKh_H[EC`xVchJnsgP_DcG|_RaGgOAEoBeH`kVQqGCjBLG?g_[cOCOM?LAACWDQcMhqDoS`oGm]dOM{MeafD_OS_DF@]oPIWi}IHCb??WL[G`GnegNgd_wABDPb?G?@cCpdoQCCAQRWAb?@B?E_O?pFdy@BgGnGCWHO_rvLhg?eiYOMYo]Kr[C?_qIPXVBBHhw@VopK?IqNQSB@?QbwAk_BogySF?LM]HOoqu`GIOGqG]OWs`GQaKHL?OrkzO@LN|HWOL?qO`i?_CDBg\POKOGc_dobs@Pz@yBaGPGKCQWOPJ[G@haFBWr`qaBoKgFCk?bCsO@BmGLB?_KAOaOAau@_Mo@k?kphA[sGQ}?lJJP_ga{gOAjCH?VETAarC@OgdTcd?COLbDaJoGO?a\E?_`EU\UG]hEe^EB?tJaepOBG@|MJSrPPQdIp?OKfI_aNc`@Hqd_AA`?R,False,1.09673e-05
~?@cAo?Mqa?@Jf@h?@?BeqP@EOfHDEGSHd{_M?GfgPoCwBAITLCOTPWtcOHCyCRf@K_cCYGyQO?KJt@JPSCLMQ]??D_@@rSbPQKsD??CDcOXB?sAYADkc_?RGAEfKFCCUnkDVoaLwc?Yf_EdCIv@_?EC_\SkiXcF?Bl@gRiiEK]OBrIhAPcgP_ODPA?R\sWI_D?]OuoCPX@Eo?maPUs[UFro?KAkr?WbFXGHHBVLW_?GiCHpZG?QS\E@tTTZkKAQETZPiEGy?HB[mH|AHlLCOo_AAck^`OYAwI\dSSIWjbr?]HBeTWw?IJYmGX@_Y[`poAcC?sIO@LOru`UC?EI?ay?Eco?UB_QG`m]C?DaYGSD?SWao??EWFO?QpS?VCDgkbe]??GjAfeTX?E@Age@?EWDyB?etYrQIDSAD@WG?NHI_EqNAgBM_?sC_@GDH@E`IRK?cHWCmAzAGDjWVJL`MTB@aqkdAoKgczpW\kPE`J_OUCC?wgpJtKPAQCJ?LLPI@`?qJEEOTD?RAYTzDoQKiQJGqZr_GGAh^QHKQ?Do?iOU?kgIpZHQs?VXgYFonW\_A{?dcrhH?GJgp@OCWEQaAA_PCEe?O_`K`WI{Z?oBD?cpOTIFyBaOLOq_?M?_?Agg\VAiD[oiG?A@ZZ??@Z?SWeYUzQcE?Gp@@PYddOGZOeAQo@Qk?ApX{A@PiKskUB?wHoZOf_S?CY@xKOBjAGzM_QB?EG??cCtIAQDgHWEKOABHjvY`Epd?OOJG_G?@`tOq]AdKC{hDfAa?BG@jKiChjX?hGJC_S?K?\ALDkelzswR?qoSQEC?Gj@@?pW@Cco,False,1.00136e-05
~?@c?_ec_b@?So_iPHAGPbgJKWTDs?@FXgcC[YgHHKH@@PI?CHoo@_O?BXBjWoIQ_CxGBQ@@CW?wib@as^MEpWacoOOo?@McqSQQBAC?Q@nX_ePbVHRS?GCIB_gEAh?wAW}?vC~GvhxKeR?[CCO]cP@`A_aEfQg?coYQDkO@G?_ZS?SUQpCaU_lbTb?CLD{??]IdYgpASvkTKDCGEAwG_IGOAUOTWI@ZcSGrKE?aPSAGNk\?C_EhI\?W`MoCJM@[Da?lqB?ACKgcEC`Ecoi?_Twbmk\HSC^rAb@H_EWBCFVQaILA]IGC@Ng_Py_EplOI?PGw_BJEYhXAtwOSwYAHGDoqcWKCOCe\_AAs?qE?uo_MWNxZST`HU?G{gHcTdLmCKF?WNID@OkO[iO^Yc`_JW@z_CaHnR_?{_Qg]cBMLb?BAfOCmow@JFFN?QLkGaiVgwsYB@wY?`p?wOSVXexSD_gAKsDDeN_cogo?]CjwqGAOhWtgDP?XKpRuCa?AJQAtACcMkCG?tlA`KwOBAEuBooG~SHteCWkWekhI@C?Odwy]\GR`LGgaS@IyXeGvC]C?IoGsCDYoKaHIYKhDaHbDIG?ZGCC_sGAIab@L?X`?@zpGDTM@?GXsPHy_u@M}_P`gKPOekCNrMGwOE??AO`GD@cGCaG`OIcuacoSgc@??C_OXEgA@?O]?v_SW@OPg\S?POWscpHU@?s_ANgado@@aaCjODGLKxOfH?XDL@`MYAOPmWLrIcCQAb_GJ?aHBD?GAIGOGUBSOEMHSI@_KSBHi]M]g[OT_IWoo`DSdOHg_{E[iOAW?eWfGcSLQmhDpGW,False,1.00136e-05
~?@ccC@ePk?XaAQqOSkmIkSJ]A?TXOdQR_GSPjH`a?bXXB?@CGPcDAGGSP_IdpWRHIjWRoHTiISKu`JNp?E@EzYEcMooG_GOBZaOf?__?fwQ?d?qs_pGC`?RdWoPisPSoLUqiROK?e?@RRW@TcDpi@^_BBMIbslThxChCOAACCXPAWlCFt?aA?EspDZ?_QCjtLxd?YA_OPNDaHO?cjCdM?WLOSI?ry_`gXCCCDwJD@rQmF_BWR?CSOPo[_MKJGQDkPnQ?S?@SgbQg}SBIHxPxBOIQRo_@BUPK``?VAHO[hGOePWG@EQWWo`S@?ce`eKHmn@GBcO_pCGV@GkFa_MkOGRwD?_goK_y\G?_CG_Cn@W??IAKwWxiUC`_FHMrbpGlCPD@?WWoPgrQSI@@w@?S`IyCz`G_@AQ`?`pBNVSQAgTDenwcQCXmgMQOGbWBGbUBEpVFWGRAaDBXDwcsEeye``R??abb?rHAsaiPECEaEDAdOhELm`A@\Gq?QXOhYDeCAAGOI__?D_s{kDKno|p@htFF`aTiWO_gCJS?QgD@rhOPaPT?ODMMgUADNGDZoQ?yueI@GIOkGPrKi@EeBcodP?B`RUtWISRYcSBG`?oe???ASpP_PBJxGPPNAEUld[AJT?QpG?AyD@VR_MCaYCgOkkYXSC@lO?j`SO_xXA?@CL?Q`wOfDgG\wD@QPpRBCenp@l[N`?PKia|Asx[_GAUL_WT]RUAY@a?iGQx_I|MtbVCCRCIGQ@kE?O?]hq?cI??BGYQ`GPj_A_A?@YdDhoCCoAAAGCkGF?L@SArOCGHJ?O?qOf{@P?[SRG??gCMW?,False,9.0599e-06
~?@chGSA@AGiaIt_pQchGLOD?QGbZSB@wLZV?@o?OLBsDTS@ARBI?rOc`XsGo??kC]AcLEBqQ?gQoOOOc??DqA?O?Cg??\GCO?lw^USEY?c?o_AMGOqWguZK?DsQ|aIgFA?@N~}F[bcAWAcO_dExeRAKRnOKOGFQiqK?IZ?UGuAl?dskgDs?SZCBEF_SsQDVYQjCPirQCsL_iE?SALJC?takqU_snGdEoSCs_Ak~FgmS{_C?C_RALG`WofCwPW?Q?EqV@O`EHyhTJPM?ptgOa@I@DEAt_`CKY?w_?KOsAJC@`_OPw@Ocp\gAq}RQ@?n??K?ChHXacKOMhqC@xchm_D`C@SxICFAwDAUs_\KSYzB\ZBH?@OHn]s{GQ?Ow_A[@EGaIOBqS_?SapEqZgcG?Jla`?T[pS?GS_Dc?_g_C@iA??_HWPDW`HC`Af??aBG?oO`ASWROGDo??VAkdc@AO@kK@{bZ`arG`?V?dCOGfYLgOv?AT?g?o@[Qt@Ru?Ky|s{IRCWgpF?P_qcPGVZWCCM?a?GPABaCAhtHWSRICI_iI?@OA?DCkXI_wGSIL\k@qORO_?_w_?YtdCMNWKIGoOTgGp[`OmC@bdGETbgwO?boCGAHoZIzTeEAxLRcialoOoaffDy@C_SAO@ZBeuoICw@AOaH?je?^EUGYKEeJcTJG@KW?PH}DFIoj`OPAGjIdCxBSWfIHJcOcGMsQB_hO\BhjSah@nqzgJ@?GKp`?GCm?Hx~]OaxO?@ALdOWiwD[XR_a_gZOHICCF_gi@LaOOIDIWo`CpWoCQX_Fw?OHWV[qyZVSGeFehEg?DcTPGfZh,False,1.00136e-05
~?@cpRO@?@`_co?Gb_cqSrSO@oIAq`?CQW~oRybQLAeCpWbf?mp@?H]bD?|cohUn?CAWW{I`ciD[@?lbgDDtOQGIoA[XOEUAQAC_S?hQluG___gSFYM?xG`ohhTloE?H_aAq?GHXJBCP\Uk`Q`P|yGEm@yKECb?TOIG_ZS[^AOPmI?S_TkT?gqNwI?PPTGbq``Y{NR}O@HAqcRC?O@W[SI\AdZTPK`_C?WW\Wck?nGzCOI@`aP[oBrO?_DU_?`kS_W`AP@?BcJHqwoWB?_?G]Q_MOpOOXS?AkMiACL[QPJSGCXERPk_M`?IP@y`wbDkBOgo`vmCWCP?pOCQiMM?GoacNYkB?MmECCk?kaqq?I_AboKEICgdQJBc@O|?G?KV?CAa@Bt?@C`JF`_@UXMKXAiCGqAGX__SAWi\AKGgKG@?K[V_EbVgXWGoGy@I?P_tGG@@?odGGHbRl@?opCkg?wIhDSS?SwK@d@O?Eec?IG@OrKEA`W_H@_EDhX`eGARDmEOC?sachMbzcS@QqG[bGWChPEGwW@UAQG?@?aSbO??T@C?oaJcjC[DKKBbyERkIP@CRMOYA?U_kbB?[aEtS@CLSAMDDKT_CH_[cK?PHEgA@jCIs\qoUi`sBADBgx??O?KG[PGYsG?CsTJV?EGDGXR[`WP_`sgU`q`ZbCG`@u?CDmei?]`NCOlJ@XB?{G@B@iuESjsoqo?Qpb_e?QJDNclKiIOxZGAGei_ha?wT?_LWk[sMdfHB`DSKQaDZsycEOeXrHEKEDYMkNHRa@a[WoafPI]BOO?E`?X`xR`C_qH@CGYXTEicfyhFIGIuA[g|,False,1.00136e-05
~?@cAR\_s@`PGq[qw`ICXLR?CP??gModkG_CBCYiUObHwo?jt?asICG[PWQ@}WIDF_MW?PBHPG[ATAhMQI@?wLF?g?oOPhCA_XN}EBI`o?OaHo_h[?[oDoCo|ouA?VwWCf?kBOaECCG?AovIJ_?SeQlqP?LWyH?SC`ag?FbyAogyQHdiW`gSCkGa?EHv`VYKw_Y?`big]SGGTcqCIjGG[@s`EYXiAT@JCGFgJcISOC_g@EOEsG`?UpQOiAhUT?{B@BkGpPVeEECCYdH\C@AfFcWGcQgAO@gQwGOauGIuLFDKBFViQcKBSu?__hJWKskHCBv`CCO~DLRcOQOcL~OYKaYIbdCCpO?F@RdV@VsDoqC_WpBYGSCOl?bI??M[E?IQE?QuBC@gKAOuBWOGYqWkc?yj@?agni`JPoZGOaECOS?@@RP@O_BDEW?EHj_OI@DO@?_ZaE?AOOHABhiIQATdX[HDaBIaBWCCd`TqFoEARjSA?_QoWQQ_d@GOCOGKG_BDfA[aJwAq@jWRLQfI?bUnAS@?@d?HFmKag?QjuSEsSPi_?RTxoxUas@CmWAiOa]yj~h@?hGR_G{?WPbQJOAg?`RBR`oIFnBW[\hpQCAbDlp[RX?HUCHXVpHOASEGeISGlaCH`PsbXG?CCi[uCBd{SOGccB`dTAUDPWqSXfG_NEY?Vl?VQT\BM_iGLFjXQaD@wsIO@GcQTE|?`@b?SDoGoSGKGcbr?yCAQ?x[?|gCaGDHTW@WOacCac?[chDUGAs@UcIlAHP`s[PTR@?_SnOoAgo`gTy[?W?_GrQg?GDBGi@D_@icW_`C_AR`?APiG?,False,1.00136e-05
~?@cQ_?SK{p@GCGAkI[zIMDAOg?Ei??Ic@`GQoq?OcPOPGEHiQ[c`aICelApE{Hf?eUWGY@PFSYeS?@?dKgdAP^AKw?Ejt@_mUHZV_j?[WgTyi?cHI?@sCH_LGQrCYXGQoS?_wtGY?rZ__[Rwgbgt@KGL@UHOG@?GG[ATHAA?_OgCbCsOrabQ_Mk@VEvNcQOJalH@oCDWWdewK_E_GtaO?I?V?ABOn`WWHD[OhsMWoBHAoWQ_OYLA]@wxoT@gi{?@UWG?A?dpMq_Gaxn[vGGjuoSfztABAY_[BUISYeKQIr_?H?woEOCzIOX?y[[cXO@E_DP?}_ac?aHWk{_CdKMoTo?DUaOB?JGFOG`^v??v?MC}A{CQWB_GaCO@?A[GMCGGlCsTApfNq?C?wOp???OCEEm_cU?SU?FP?GYS?ggBSCK?RVFC{iPS@UAaO_@@OCeJaCq@B@JMaOgSNUPZcAAWTqQGGB{AgdSo?S@TADY|lS?OKwZ`pJKU?WG`g[R?H?c?EDSaOaSk@AYqKmpKL?TdA[`??_fkqGSpKGo_ScZFXNLMDSAWsCUM?ikybXuAPW|OgIGaULH[tA@YLYTWCYWGIOQp`ABRO@GEI@HCuCXwxapSEAJdQ@\CqG?YoI\?[WGyoSRDeE_?BVJPoRo?so@D`ZLF?GHPivgkm_oAIYAQalQI__A?H{sIH@PNTXCGe?IG?eyV?j@toke@MTc]oMbKmH\cyTM[P_??Qw?dY@P@L?QTG?F`Wec@TigGDGBP_?AE?MaBXbQJC[ObWwAGw`E_XGOsDJ_o?JB@G?G\A?W@Ss`YOkKHXN`POvJTL?EC,False,9.7752e-06
~?@cCX@xgCbQoU?ywG?LAGo`SGcE`XmGpcSOo?cZ?BEq@HooOUa?O?QWDWL?KM??FmFJP_wyP?ssHia?AGctrWBXf@?oK?`CI?PwcSGhESOoS_??G\?RO?UhPUIcqR?PJ@GNh?ruKFKPgHET?CUQYLGKgUOwICQ?QS^tDq?LPKKaGJbgAs@?BWDe?gCKw``@_EcBS?~??O`QBD?A?O^?eWDgfSxDSc?_`xSBT@?giCp`eqwQ_q`@?ROD[?O?NBqgI_QA?TJb?oG@`CgaaOWC[wAFpgh?_?gC{@iYGcg_wjw_JHwTAZBaCq`HW`A?aA?uBdCDQjCbqMgqGuzKCXcIAPBn@SOUCmAoQcC[?XbDWB@TDW@BV]quMUawkFlBWE?GgEQc@_PTOE@AEygME@AWNCI`W[d_WDG?GvaIOaQ?IQgPbIezhGHqAPcTtbOCnGcWXm{?F?G?H@OBhWF?UkFdo_kO?|L_D_OCeoWP}UA_bICWA{BGq`oHVuaALMPOBceZHOAEMbiCIQwW_ca|RhGPMESKW?DCTUOBTXwYXsMG?uF__FcIHOGG`cr@e?oOgJv?BEo?EKOrOGgTb`OCupg?sIgk^Vc?TGgOiEAPYGAS?d@tUA@GAz`cOHOKtOGgrN\HM@pgOvyZ_`O?k?Al`@SOjBOpgyTOaZMaylpa`oRcWO?AG_[Lc?lGvtFEOCdFiOcG[cHHWaNQ@E@`PXO?DiPRxcefWCD?o?BEEcEEwGOEyS`WE_A_SQSMgQT|Ck_|ckRehT{@RwONwcOy@A_LycE?{D{EIoaiogPSL_ULa?AgG_EEO??hBarKW?k@WPEQc,False,1.00136e-05
~?@cU?iNgW@?wTKAjO`h{|aIoA?mPdO?@AecNBDOIVoM[kG?deoJxAJLEmI@LOWCQV[o@?OPp`qbDq?QA`{Uy?QCXCCCCiiBIfcRKa`cA}?p^?piZgWo?@VZ?QwTdG@Ff?O?W[Oa???Q@?mLwL?aQBGC@CAgoBOlI@WChPaWQ_H?rM?PUCKg?_c_`[aZq?uEp@Ei_iPCm_ASPbA?@MQ?jOH_QWOoMJ?CaKaTYF^bU?MOH@YmZOa[GiTCHQbO]Imp_k??fcAC@CACP`jEGQOpAC{B?C_QeYKJE??N`QO?O@ho?GBKIESmaa_K?]Y`?WBCoBCQOSHdd[C?Mh_\P|QhL`OUSqq`JCd?ZbcKOQEe@IqQBA?`@HCE?ZTHRG?DTWDWb[OOTG_BgwBoU@DWCo{FYwB`eC[hTGUEhbUAMMGq?Qc_AXEJd]cP{{C?xF`?ZcC?DPaHO?nYkGZAyUSAFZK?HzxCcOOZCVHV_aCY?CDC]IKh_\a_PWYQwH}hFp`bSpfG@oSgfOJOV?H?ADGojCg?d?@YDSg]eAhFgIQaogkIeUhsMU`?o?D?YMLg?XGL?G@kFoe@DGX@?saLFT?IIU^@cPPDP_BBdSAFW@GiAkXasy?p\wU^@LIuBpaoEOJCEKGTCYOAPP_hBHAopS`SI[gRb?cqwjQOLcdEGIH_CCGPGA?DKQg?IB@_?f[FXBHAQb@QC`Gm|_LgAWjPG?JNu__ZB[\GyK[GAW`U^?oGWC?Rg?PgS`eBZk_[\AEWcs?@dPC?AGg[Cbpk@lGW`cPo?mHdsSbBOjaaSq^Sb?CR_G?QKEPGAGg?otGqDD_aX`Gce,False,9.0599e-06
~?@ccSxg@APQIOAgckGppA@@AsoUQRoyH?DD?_A[mpgRubFYODiU[EAy_eCbSDONCUR_GaXhLcRkBCSB`c[WWx?gKiOCiok?OB@wHjlODOGHePcJGv@PKOScASQudChV@jy\XAK[?Y?ASCGA_?SGEBDcCPEMr?pGhWCBCTQkkAOEI_DM`@EXGs[eokNiGoGgTDL?O?@OxHSOhQC@AjlWC[RmXci}AGlcCiPJoG?bTKGAt@iQo??BE@eCSUd_j[Q?JACaOg@UAX?Ddg@O@CqkoN`?AO?O?RAR@cRbqQW@BsQO\Cw?dIBo?W@KV??`CPaSEd?@So@o_aCQP?`cPUODGLl_^OquwX@GBx@GX_YtC}MK?_cI?Gk?ObCkoSAGDx_qbqLlOOWAGC@mOC?`sGd@CDBlLhOL`VD{?sU@\?cO@|GYPH`Et_B@W?nosJ?AY{yB\Igrg@SHEHo_AbCF@PO?UE{RVyABCeow?H?GG?@ALZc@PUBqmNDwCpgj?_]noQdm]TQ?S_@wGGoDXQ@qU_jvHQg?KGCtP_Fp{Oa@_CwGCCmwW_f{FIAx?oO?HA?cxo?djN_ccNKMxFP??TqW\FxQab`[?Gg_XRoS@I[V?C@??GeIIC_kEeOIBC?TgDdJcXA[Oo?zpIwADIeEEIss[_U`C?@TP?RbPGhAPc__{PgN_EKFA@kSCjwDl?BOFhEGDw?tATI@CEmBpp?OQmac\CyAgCjM?TgOeawKboIo?CXHUasp?GC\UG?dpcBUY`lWc?HCu_jgKc?gXWaqOOxdAtGI?OJ_K`eqEUL`?@k?dxr??{Q_FQH@AeWrhcIl?BVs`,False,1.00136e-05
~?@co@W?SvDiOG\@eBA_IOOcdGQGyBB_@ESb_?qAKghXGv?Cp|LOuHOUCk_OtamCcRAeaaUk|{??OPG{KORBK??dGlcOHL_UTpCHOCg?_dTz@?cQIKKqSjdE`MSoFNJWSHP?Hw_CTQDIEC_a_BQWAXLk?CGC?OIS?A}?O?@O`Ba@Lh?qYA][cVA?BzGHHO_aPi{AF?mcIXKdGoKGdGKOwWogAtLCBOAFwEBZ`\CNidGak[kGpCoW?Ddi|?Cq?QLQoHN[cAOdlAk?@A@COOqb]QAP{QPk@kLCe_aINF``MHKW?WC?osHqaQb?p_CARCPPVdFdP?`pOQayILGc?JQE`qSGIrSefDqAZHJGjbFudEGCUXaQAT\DSP?O@SMY_]a_WACG?~x@YBJ?MW?PD`AOReEpAOYRGc|Ie}{_EDgQD@E@EQO`D@JS@D_Ua?cO?F_^OCbu]E_CG@`AmAg?D?@bAPYDAEF@EkGehXWPG@_??_??EOADwlDaAUGO@q??[oGCGF[IH?X?KDoI_?okHDADpQlCC@pYJ?EQ`HffC_M?IQl^h\XetO@POgxi^SCChHQ_^OEWYo|LSpC?rG@[tGOCr@UAPEArg@~@DMOX??DDcq?`Ad_\EpG@OWNLzdS_~DchVUyK`WEOPsH@Aof`_o_xO@MrGvCCAy}@wJSw?ZP`dO?`@_W?CbgKDDObKVh?LO?AHoRyIS\IMg@G_pbLfTSacHQIhv}??Kpa@HIuWA?erpXHwKGAa?UFFAKtot@F@kG@@XE__cB{_?Gu]gh@C_CQWGCODG`F_cSSCPhMP[OxRIhgr@IKogQJb?aEBG_[Y,False,9.0599e-06
~?@cTJZ@oHIH[L?{aYYAbLvZCKeO?`BFEPSTCIfKoaigFCg??Dn@dc?wEwp?IWCEAA?qkD?XE]O_Q?iDI\``lIW?miL?gOkWU_VScCKIOp@AFOlDNcJ`BUApC@kJAIc`@b?bPah`SFeegGbPpQGCK_UOPTOUcQhR_PmwogcAZKWP[RTcEc@AMOeF^@Jel??QAQK?aYICADO?IJZCDIHrZ?DwUL@`|OYI@}OO?`?ICOUso?EAOTOdOk?EGchg?a[y`I@CO\zSB?H@K?]BA?PRyeY_IPlGRWTJ}POCk?@JyHJ_c`{@P_PEEg_PMjbOe@GRPoCOO`?BIA?ICJ_ec?E??EQQ}DKpQO@Og?RNO_?OAOJBVoAPDp``[IeiHgWCKi@__aDXsG@P@g?X_i_Qc@QIEDAC@EGkBL??OwHiJpHxaSQISy?cZi[@gA?_Dki??OGOITDEHd``E_c_POADMC|T]ljlAABZwS_G_SOaeMaKTsKZGD|FVXu?dW]uPaY@_@aSheVfTfCO]Kca_FxRG@BGSB_\CaBeUlRAF?fAyXf}h_@?CES_g?gJHyCSAgWCOR`Nvcg@sQKPqOdAOOAeHbq_D?gSfOTQf}CAOGoHXebSOYPWAPCHD__g??OGM?SIcgDeS^?MHAOhUEBeIKCCBicr_@}WoEAEIA_qNq^_ggfApCAxK|?G@Cj_GhI?whKjht?LcJb?APRCISA@EcB?@gdAaIEJ?ICsJaS[L[oPEGdERaF`okD?s_GchSGK?e?_QBV?@Aa?LgGQMyItoEESFUDgpyoojYw@bH_?_XroHFWA?gQEI?bM_FF\_h`BACFCP,False,1.00136e-05
~?@ceG@_OPxDTuf?@OIF?@KCcOKdg[lAcBGPPShXA_iACDipKY?HiNXIc@aLaAHAYQ?@P@_GMG_uATi@ADAv[Sd[oBauBWMESdiS@@D?E??BScBgGACI?B_?_eWtIA_tOeGOm?aFBaaJkF@?c@CTGugE?AUtxbnNoGW`Fsii?_Jy?|D?IoXR?HaxhQ\PA@qFiOPIPXHO?BDOcwqhaQEEKdGBT?IyGaAWT`@]?qEpxBweh?HL@A`tOHZ@POKp?b?zSSRWxGWkgAAiQVckLWxdP\G[G[S_?K_DZg_hif?XoTBOueEzP]oEL_H[LHJK??HOasicSH@o}[@iDdOx_nL?COyXTaO_giwmXas?Z?AH`oCDLot{o?aagLZ{lK?FEChWKdEADoI|@?@eJAWLE_NgxkgIBMXOs]dCgjed?`DQE@E`uTSXBko@IrATwE?U_ZEG`D@PH?GatYTDXIA?`Co_K?bAnQgyWGFbcH_??gG|@RmQ@c_GiB?_OIwEp@rbCqIo?[ySGYjICMCEBAPaPC[DkCo@?rsMcdXBGcSOhhIAkaCKwaHGIIYg_T_RDO~GQGNSxFQUa?WcHIIB_OhK~_Ew?Kd?DCm?D@OPIGnCS@o`IM`?_rWHGAKJ``jpRCASdJDS_@Y?pOeHDSPCG_iBt??K?gCaPKgw@dgcUsr_YO__AclkAG?g?PAcgKoMIIgh?k{P_?_?UQ?COKGdoxDDmWGPcE?WwGGIAO_wjJCB@rzHGCatgE?uxCLAIuC@?OOuCBG\C?aQC_@?CHh@hP_oTjG@_?DCw`CH[X?@O`A]?P[dwFSPe]oTBdOH?fDVuYDJ?,False,1.00136e-05
~?@cPGwaIF[ABOGClq]ajwA?d?GwAWW[@FccW`oNKXfhWLEa_d??KCYCBL@DIOgoUpOI^dASp`dLCkJeoGoWCadLGz^SSm?aPqCRx_}?W?GQB_bb?eObmjOc?LcejT_@TAH?gBTHaFBwtQ`?AoHorCKBD?kSwj?BS`oJGyQ_Ka_sTCeH?AOaG_DQF`?QoB_CmiUMNopPNm[`c_?~O_OD?TOuwQ@ZCJpBouACHc?e_rWUhkSVo|@ER@pIG?GBWC?raLQ]?DBa@?QVIgjB`lxIhBoO[E@?cAsF??`_a}nkCGE@tISgZEA?D^CO@@mlmWeQ_BG|c?_M_ACO@ACw@WWO?AFO^E_Igi@`_AaPWFPkAWhKGJgABlKI\OC[c_w\?eA?IPDU@AmgI?deWSECwDiW{GhGPs^ydWEIdFsoLIj`SDw_HgAL_QeoQg?`WdOZp`O?oPYZo?GDEUA??PHq|@]Ewv?rAAebUHcCP?YrCgEOCbJcR]L|ICE@okzST?@sqajTScHDseH?_M_eSguA?RL??VmJ??P[_LoSSA_Gm_I?iqEODAwaXCQT{?GGg?iC@iOloDAGAJCIJG@Q?DSYoGDGDiAqCkO\gHUiGGSK@x@JK]UabAgtA]e?p@cQ?CfQ@O?GCDC`FYFbS}?@gA?p`tKS?GuMFCVCqH?CuMOcLCwAX@pWAKc_OWYi@sw??PA_@GQg_ApOQL?YoQ_ONHWfkK?YKaNGDcYGl@rGKHACEAf?`[r?\OCHyNIp@oia?CGQKQgOCHM__@apgnKUec`Xcc_ONEyCAVD~?`O?ETAy?HQK[HBApKpDHu?H?@QC?`_GJ,False,1.00136e-05
~?@cSKO@fdFa@A`MOsiWIBKLCkqaZoOOHCgO?oUhPGhc`]MdqPCCKlgYqFS?BAWWHCFYWNAGqDGpQKa`GdBW??YyMIHoE\?pXogC?BkUNOrAsh_DVVbePBeSCbe~q[So`[YdTHSMS@teYPSB`KO?c?_BiEEgcYI^pDSAcOcLeKw?cDbGYSG`a{HKgf`bBw{U?cdSG?AoTiDP?AX?w@O@I_SOCuQOX?Ao@FACoYOW@K_gi`Ce_@boULcDEEQ?TO`C?M?I_S@g@CL?PVgFGKAQ_IWWYq?SUAAj?ZCABPsgooipmH?FaYG?wCNDEJeAStOq`tWSCGHIvDCIGGEGm?GAPwamaB@PcK[GO??CBG?gFEOgCIYIJ?y_kzgaBP`d?|`IhdZ_codocXD?H??hOACbmY{ch@?IC?UWgpxKzOzJVSlB{|cBosA__p@hQO~_N?E__DT@XzDOADscKUiP`UJ\g?ixBAC?AOYBSGGOknQAOGFpFQgOYaHqpHsu@BXLGAOd]IhVACop?Ys@PHXWsQPCL@he`?eOR]_H?^B?XPDCeAPJ_ah???QPdQ\oKWJ?oAg?acyVCPK`OwG`KIMDOE@IGPQ?ICIhqOb?LCCntBGRvTCCJCS@`rmTnFLIGgt?XwT?D`AxEAWMQ??@toFQ`D_IS?KY@EK]G?XkdAFFX@q?o?Ag?_rAAGb@O?_MHC@[EgMOo@HhOXJ`{L@ACG@PfyGGRCAQvL?S`@?Ip_LnQhAaeQWCUL]XUgp`GLMn{CG@eaL?@?DY?SQAh[CaiOA`ddKb@?B@gQ?N[b_OCJoY?JEkEIWvDPGQ@JYG?Vo?_oIGe,False,1.00136e-05
~?@cB}KS@BQGw}FQ__P?Ut?QSQ?HUpRc@Gim?VQlYUyguSC_sIOLSqczUw`AQGC@j?HP@q_T?R_bFGG_P_qBGSie@?`PCzAxoyMOA@G_KBAhQCOjXLGOONpIEGMm?c`WabAlw_G@eK_?]WhOBDcg`XD?A@~OdOkQiCTcpbF?eKuAVBWGhB?FuGEEDM?N?ER?pPPc?C??aK?O^PO@O_R??bGCioQc_`DHEqdxUIc`h?USHKeCbek?|gtSHO?GP^C?u?kEaoHAASx?LmckES_dia`qeoTOdcK_]FeVPB??Bkg]cMScH?GcY`K[CGSWA_O[gObK??QJE_EBCu@osyfAQkbTWHcaS_?qOKS_Mn{tApnD_oOAmxH?@uGTa@WAoiJp?@@?CkGEdTS_@oCOKJI@[Wt?WCfGRAH?SObaS@?sdHCJclGb@_?OEYIsFC?CIgcPhiVApPEHeRPXOo?ZIKS?Uczg?_sOGusIA@OppDTT@Sg\@^JEPfKPGCBHAIfQAIG_@BGqAEC`abDIyQKWdLPadKH?GOoASQcOFHLs?OACD?^cAgGpCA@ef[`US?ZpsrGG?_yFk`GXhR?tIAcJSOL?br?qUpQFwDI{wvIEGWv`ZDTSGCImjDKAKLkHo`YWOGPWduh}XOvk?SOx@AgBIwc@W?SHSR`uWmjG{?Og?DQMBWItLAp?A}@XK[VlP@k?H@_OMiFfSJGIWAGqBJ?{weHhAhYW?O@LwdELSG@WYPXCHKHzQGEOFeFSa_a?W?xoAC?B@XgCO@uIOVcHItaBPoK?Ro?GfGL?ACPCcBs@EOPVAUPFFCY_go??@TM?OH?oR,False,9.7752e-06
~?@cFAK]SBOMGKIPY?v@?tCD@RXAUTWKW??p@WTVCQa@GOCSG@NDE\?BEg@YLhKGtOWPc??jAK_CACGBE?{mtoISNKKPiCPJQoIYQFCORgFsg`tiPL\WAoY??CeZB_ohKD@[a?h_RtOaX_Y@PtgWFg?qE?GGADIs{cAqp?kaBHeGEO[Ogo[MpGSiA?QcOKAdSFH?n?T`D_gDCDASsFw[O[r@K\cGGof_QEGj@P?K??prSO?OH_IhTKOFMQ`?MsbfaAPeCcGKQaAWO`PI?UGCOsI?G??WIC?kxO@^D?]dACPXU_?DsXRzcO_@oGkO_?O`mBbpID?gMogfCGQ?_JCG_GM?GOA?SAaoE?l_WDm_|WY[@pWY@fWB_wHaHWssZa?NCYfa_TDM@FCL[GR?TIjBKLkAGSYHON@AcUYSgISCKO_qaIwHQ@SpOI_e?[gQL?DLd?Lh?DT?RrC?amT?SO[tvhAOq?aKKjNU@GGwrmFOTCn_Kn@C_gq{q__UkugbSUCGggSeL??OADDB?qZaMsdaxgBSVe_bdBw@dDLHoC[g_OK_`h?hW?ceXMp?gOehOI[?cAGrHwrCgRAK?@OFEWNK_SHoDXHgDFW`TAS[cggceS_GDHOhpEy_vdS}A_ccS?Y{wSNNHsHa??IZK@vDiJhmUYOQWDIAKQCNPakFCaGHhE?@ypOWzA_A_kPAAC}td@qAW[??CCYO?CMyC?C_TOEW?O`]G?eSo_qaiGG@^pwf_lCS@i_OpF]yYEGy_GwPCQsoBeXHAAySBXL`@DCZ^~?`h^@kH|?UXOMKCk?LadY`KOXkcdoO@ImcWj?OGIC@o,False,1.00136e-05
~?@cU?i?jJeOJn[h_paLEcA?occcA``A]xLHP_iBrCagGPgSOcnK`CaB_?OZZKuO?cPcECBPWsq^CGOSO`uGWWk`uGDWQCrBK?YTS_I??@zSEuCF??Oo?CUR?jbo`PaiV[??QeSk_DBEOW`{FaGJIWCLxnO?@r@PU[uI?^B?LcsuPCPnF`id_uhD?LhCZ]|YPcEGLys`bjXNhCQWQ_Afqq\Hc?sXZcs?yICDpSaIEGUBaF_?CUb_M??oBU`[?bSOp?HDWt?A?_A?EHrHK_@DKLFGMULhliZixLZOwQV`uG?FcAqUwC|__rQ_Qpsi`iOYA@OPaCm{`BqVG`x_uD@GUHgBKAiqoGl?GbBQoH?Shq?OcSHTIDHE@CaGg?_G@kSWWB{AaIG_bmGcGCOCSOgxHdKEHI_V_]oCN?GDOPGT@fHGLoA@Hg]?QMpHBaCkBCCK@|PXo?evpAa?C?L_TCM@EFip?ShLTXRkD@]J@?qwI_E_EoKoO@OsOjW?@eQOpt@_AG?g@ec_zjGS?VOPMATCLpHApaCEA_pVKPghd@ge?oaa@q@ha?ichID?NBcDEURd?OKp?AGCcAn__O@YAXW`KXSD?whGxc[wGdYCLWgdIPj_xI@Qg_KKaKB@}OPDOC[IP?RpG_@A`CUWmwxXQDB_HGi__i@d[cgPXXEaSIH@VCK?BpBJ?BCbQH@s_CHsw@JlCRPEB??GAPHdC?jH^aT?_waM@_`@_AG?}DBIG?_TDFOj@B@h?IOl_\DGPPj`ORhAuCpGo?_sWGp?kL?eqHY@KGBgDeSRE_KCdIDQoquA?Mg_jvO__@__JA_CsBWJU,False,9.0599e-06
~?@cQi_U?`JOODFaXisCWOG`NEHJiO?_ABGDOs?HoWttG?tKiU|eI_}okWlAic`cqGg?GQIBOap?GPGBOAVIAlxVe}ZcIREEGAL@ZMD_`SrkE[g?G{iG]?wTCScoT@rdC{kcEAYP@C@dQVICA?SDHIcXsOp@gSWyDK[AC_fGD_SBr]aao?i_MKCA_DOzMYpdgrM_X@SPG`@@IO{_CEKYHVw\?GEC?JHAdbqI_DQxAApfcbWAaPOq_IAba@AkW`_GiCJfcFCWLGI?W__OW`bDw`CsFoII?Ms?owdpP?Ph@SIo_?_`PJWK__[qFa`?Ob?iUHOJ@d^DEQjCSw?d?AoECD?WoW_BhtF@FrXgCCAbCQ?cAz?dAoGJASGKI_OnCGc?XWGLaeKBiVIOPytOQYeCBJ\e_Ruaz[@S]B?HAd|Bc{I`[EvCOPLi?LEFAu?QM_?JaqHKGaaZs?{PFQgKQ_B`@?aE@MhE\AEQeJWwPKU`BID|iLmgCstE_?M^LcHBA_WHSLRto@?_JMAuqCO_o`QA_YKjsOLBTIHJ`oCRCPBE?pj@@s]a?`iIDaOTgSCcXC?Lh[AkGOVXhPBbHjC__@_?kO?Ow?`o@fGD@oS?PO{_UAhDOX~cP@_oH?cGLG?dQJB@@?GgJOCtAc?G@CAIr`AxG@Cb@gWWOSFEeGoCCQAadDdQ@hOC?_EDAOkVT?Ju?CcB`U?AqMl?`zC?OAKBiusCA__zKhaG_P@MAd@g?B@Y_DmRCtqRiTfC[CARxO@?S@HoeCLIFs?LMWwK?XVi@o@EpBwEE[P?WgsDoXC?gnH{E|V?eD?f?@Hwu`p_{_G[R,False,9.0599e-06
~?@cJ_`OYKWFOf__?vTGSR?GO@aKWS?CI@GQOfWAW[}CSsP??SOBqCOfpMuTq@dQHcoGG?_nHlGG@?_dD?cJ`IG@q_@OOWgA\NZMQJ@MHoF`pk_`PGTIRTgXGi?_uwR[@@_KqDPFoFskJ}E?UhW{_dWORNISEJrX?rC{C`JmPAX?JkKawjCOWfsaGS_Am@vRZHb?AHaoF@TOsO_EtERWOIHWJ?IAQeaAadC_YBSCMDHP`pO_AcWAX_?KKAHmG[OqPlJ?@KKMCoGFh@DaeG@?H[C?JMNweWB?w?ccA??WdGHRD`G_`@@IHWAcUlaPO{OAD?cIdqOrpPV???[eTwWjIK@_cdcg~e@{P{jwO|LqCcEQ?{|]RoPr?kmCWBDF_W@MU[XO@`RNZhOOvGO`RgosKf@C@AJoGQ?BIG`@BDCGd~DM_DXaP?WGILDO|v_wm?T?]l?Aa@eOdjGGAW_HPGtQddcBZyISAtl??rT?`X@C[i?L[SWS`K??aHI`OeG`E?HOOdCH?RWI?JC`WMpcQ?gAdKkagdEU_v?egP?I?Ed?AKVg[v\rVCcQWul?eWSs?m?UkCPWhdYEnUgKW@@E@CUJaXSCDyA?CoOBYSw_POIAwAFTsZgqJ_OYO@u?DKJ?P?m_QAGaaAcbuA@gewSoO]cBQgEK`H?K@]_o_SokBQ?Eb?ssTIYLAo[SAOPg{?KSc[?c?aAhBT`TCZk?uChAvS?P@?x_gbhebhYQ?C?JW@AcSzWsCItALsOcPO?g[GWOGSgVIgSQ?@U{{KT_@@?ZaY`KogPOG?EF?ooEgCXIEG[B@CsDoLBoT_Np?IK_`IIeS,False,1.00136e-05
~?@cye?CP?ppGAYoJGQYCtCK?wdU_OgCO]S_WO_CBIoj@VFxaGzDIGAK{@EqArcgkGHG_W`SMcO@?SWH_IQeAeGU?yYAbG`gCDPR`ofDcRmcBHpAPSd@SBRpOo{HHc?@?_PPC?^W?wWO?GDUPaachN_lD|MWAgBD?Y?DA?R@cBBrtpKOASOpz`nIG_{cQMQejJ@DQcA?_GqpiC@sA{C?TcC?[jA@sg@r`{dQL?uE?@GbIfaHhc}YuB@?gBFPZrEwqcaalccRGttZPRgj_?OX{OIOIe?WQGYDItaOYLC@pCw\VOWksXF[WFcAQ_Hb?qRCYos?bHGnGOrGQyGp_?Aq_AQRErwOj{?LGA@SeaE_ABgI@@_G`KpchXKGo@@DBBH?rb`yY`RAAbaCW`IW?C?_c@WTSA??KAO?sRCsrAGRggOaiB@bHG_qa?O`XI@CAA`?aSClyYO?ECpXSDh{@HaMZmgt@_OAD?KkFA__B_XhCV@sAT_@YAeKGO?y[lso?yBdxobSOno?g@tIDuAVSCKKq^qHLKAfqPoW@AGOo@F_Fpe??GkJ?HOKmCABPoox`d_bYdGQ??iC@EpRCpG]DOgXRvdAKXGP@A_D{aLlO@GLsdQQED?gFS?pOFBIIWQ@mAphG{WPaejPcjO@ob?PS`?TcIAqCO_Ve@_fO@bkoAcXcC`OacyFC?IysSGLGAQrEIQ?AG`lEWNBLOtiBFFR?ij??Cs?`??eO{iA@HRQAAB?gCDqO|hGbgWGyChoKc|@PLO_T_jfJYbq?[ACQAJCdKQOa??aT_?g_j[F@UgreKhBA[|CGl{GwSWVOCA[ho`G_,False,1.00136e-05
~?@cGGGQq`bWfD?_OHQG@WAOGWAd_^kq`jUHuhW`OdyaHvDUiK\a{|HQWP?IC]ACGvJPddaGEIFhOpbAzg?RO_RPoTHThCi_wM_IOW]]LeDhgb?OG?HPVAiEh?oIq?ODCI~_Nf?{oc_WsHBE_tFr]XBmBERCMU?deqjQ_GoQE_?_q?BGW\Z?ZBH@eABAcwVYksX\AIggDgOF_@_PDrCEe?F@@G}@EQQRgs[PWzCA\GSH|qA_owY?dG?]OU@[_yoICw\IYT?rN]rao_gY_BHS?`OkAGYFo_WWgo_`CKwQf?`g@bH{?iQKWOAmHW`AYqFDD^EiBG_Dx`B]XoGPpO]?W[BX_oKIOgK_CjCIPTD?OihcQZL?C_d_y?cJOW?@WLG@b{C@bCnE_REAG?C@LP@`?iwG[wO@EoigS@SI?@EyaX\?K@jaACOxYWZmC}feCAdO_hsCAAKhLA[EheKrcOguAU??xaIWc?|zIAEIBi?`Hs[{CDpGRsP@Aj?UcaVKlob`AOE`gwaY??bXGAhLH?G?XPOB?@AAcIbeEiHQHH_aiphOFAWcC??o@MDA?B?@ki@tT?cw]CYAs?@wOH?AEJxDOOawABF}g@RAnS?rDIqMsrj@A`A_WDEAKXH_IHiDG_AqSsOOZ[AR_h_aw@?_SiFN|?gEISwQ[HdOs?bCy@CuXAOKOAeIM@`?Co_tcEDGeASq?PW_BRo_pg_A?ACQOO_KT_hIOWAEQoZ?S?_L?bcOcJMp?o?A[[WHZMMQQ_@`W@iVGC?Ip?Pa?YSK?lE_keAcHKArCKoDKrkKdAUdCgCmc?HEa@GJgUg`aapE`?PIA,False,1.00136e-05
~?@c`S[GIW^R?@@BA_R?AHF]GTLhqPHK\?e?Cpf^?CHPYCAwkWxYM~@jSCC@LwyC??QAh?gAFWQ?_XGO{?OATOSWSCoHCPRy@bgUOAD_qc@?aCA?OB@qL_[PwGoH?ONDC@XA??OPtbKyHBEA@gG{t~_GHDP`??_ITViJeUHGU??`EBB_A_CHQlSoGCtceYKhrSbpC\qPDJIEWB@RJHcEgSEXok?eoHodOG?OC{AULCOp@`_RkCBV?G?SvVAcLOi@CI_UDHFQqCC_oG`aB_bL_@QBl|kYxCoGwLa@cOYP`eeOOjAAgJUO@eA_As\h?GA@CNB}fRobSIGIewo?Q?AL`q[S?CS@PeJcEabCgSVso@YOHbwIo}Ssw[e?GG?In?lHxAgYaW{xsBog@sI_HG_[w[IclCoGhQobY@g`M_t~h?ECAo`NRHiOaC??CgO_C_g]gDAMk@`_EGH_YEMLoHN@WOiiCwKeTwAq|?OWbPegS\HCbM_@CqC_Iq[?gsDc?OGgGWWO@HW_GNrQf@k@Y@{LHCCT_TDWLtHZ_HA`NGAKCbQISSRRtIIKgqX`@q`S?KeKO@]`o?QAkEWcSQOhQ@Icgwq}?MeDuHLChoheCQAfEDSO?RAR^cbU?CWGGPJOG_X??]@DObGBQiv?@ODXqVAAAEuAATSZc_U{PH?E_mG@AXjH_]aEOLG?AH?FYOnk@SD?Ly??ADCoDg@@X@?cDB@vIQwq?QAOgoo@_WSFkFC?qi_EIKeg_?IaTrPmyoOGJAk?ea|}g@@kxByCgVDo|Ct@AQJ_rW@oEa@J`@SOrHDiA|COjsKcsPB\?AlC_qReK,False,9.0599e-06
~?@cREAagE@_Kr^GsUDhQJh?\W@DOb?YCHOUUkbcS?s@goMHSF?QH[Ie`OOSOwuOL?@hnGPXRCCRoy__QCEOo_?jXsf?U?g?CxtBAMP?U___adoGCYsEFLWx?Pc?@QCOKPG??A?ocpF|@I?GFYiOQg?M?{LQa?BOQDCOCJ@OWx@EodAAC?mK?XW\SG_F?_WMQ?aKUBm?cMcog_cgse_rwO??S`AJaJO?qafD`GYGOA[AiwRWO?HsQsH?PD?Q|pj@c@KdhGq{?OF`GAOvQB?iTpYwMCLMbFgCcc@IUHBTNP?`iqIU?BiLFAK_QXVho@@oSUageO`KzBFqdPKXiF@Dd@?KS?a}QK?WdGHU_DO?_OO[EOKA}hAT[Q@ADcTlcIaJ?P?PchajRSKP?Fk]gk{{uiX_CwGN?gcF_CsBKKBE_fG_yUC_W_EiKFGf[PGyE?QbXue?_c__xV?[GKGhazPGFgcEioGfGL?EIpDANM?M[f@@WyUaWLmYyoR?mHu@HCaBggoZUDFN_@`qQDPEOgQ?K@JHt??_aax?EP_[OsOJB?ddWhEc?UGQDJgmbV@hFP?MdP`SOOd@?qzspQVP?x_wkQwImfO?czhOXgPgBu{BbTXZIBc@?XAkS@G?oVBQaH_yPX@BTgg?OA\KGPJ??tctc@Ca_Jc?wK?PPB`o@?@EDK[K?ekaCIoTIK??OW@qS?[ICCwCo?jsNBhCGu`FFS@h`_]OIhXfDeWFocSW?iBEcA?QGcJh[ORhKEa???O?OH?Gw`EP[BUiGSjWmaSDc`OcCCgFBkcJBWc?bbwYtcE_GUPLWRiBwOCkaD_PXwCEu,False,1.00136e-05
~?@cCzTA@IENC\IgCPCWL@?tx_dKc_o`oS?PR@CPJfC?PhoCA?HgosdLSSCGHC^AlADcAIPPdMPHGGE`D?G?K@?CGNP`GpCDEAQc`@~^Qw`HAoR@S?yCqDs?_OXQ@ObOO^CUtVIcDC?XN_GBSGboPX?@vkUCGHIBRMEJloAREdq?@LcoE?@F`_A@ESWpG{G?RA]MI??EAdC~CYJCQOhW_HPk?gGW`DU]w??wSEaGAA`?hP_DOgXGg_EO?sO?_Tc_CQt{APThH?oIg?GWWaUfQXHk\CD?j_C`CG]ZOmrXwK?E?__gt@__GsXa?ckaBqnbBDXqYQah?OIaEIQ]M]BX?@ovPWE@DPAGKw?KGCDgQPglW?@JPZVWpo_?S@CPAHBaJRbhcOO?mOP@uUdDTCHqEoA{F@_MbQYEh@owK`bgOBkxqQSoXUDKYLfqGC?ATJMJOoQJM_A@_YYyCEk?LVr?cxFCC?MCJ`GohaSeG?VPq?o{G?`q`oEEG?qP?_KMCTc_CgIJ?oBqVOc?d|AzEhpA`B?xi[ec?cio@Aq{GsH}MeMbR?ABh`[eSdDpOYFQKOUGaGSWR{GiP?Yg?CWMWaU?dcgDGWaDhcoDCeJM_JOsLB|rqUy@_VZEJJs@pgPBFiA?_?v?iGGc?FRvHEkxcOgPDIWGwAlGBSa`OoK?DebB`RaKC?_u??XnW@}AaARpSDmRsgPFE`OHSQ?diDyCSCG?jIGLWeIdFA@c{taDCkACM_LK`KSWkGRqEHNUGOclaw`x@wK`HHkGak@Gadq]AS@SP?aRyYcM?`_`Q?KkA_[OEA?O?fPXSsMCFG?Ol?oyQ,False,8.8215e-06
~?@cx]PWV@Y_lokSgpHP}AG@DsXTJQHCP`[LXSAS?[qf_GGEGAbUw`GAQG`F`C?D_iMk`OEEuI?@DFGUIGF{C_g?]REcSiGGufg??a?WI^Uc?Lw~GAA@gElon[aSpiTPC]_w@]_JlepiE@q@AW@pHIfCg?QkoIHwkOpAoC`OIRgscu@c???_AF@SHGJlc^AhrcK_EGqwA^tCSCp[G?Ggdzyla[?S`GMCIDPecI?LFIdARAXHoTWoA`GPCEpdmM_@A|YzAE@eTGeHqH@\EHCtFWL[Ed@WA~o[H@@r?sPFO_@ggOCcJ?AEp`IUgCrCOoY?GPGoS?VcDKBj{AaAwkZiYAsb`aJS@nWuCL?YDQMWZ`jLFTOGFwopgSwk?P??JaVSAAWU`ahPSrAOoVaeA?l_GEA{AgDDGt?xd@tSCH?AIyC?O@rAu?EL\GWBbo^sX?^?C?CpDO_wp??GJepQ?kKDI@CK_GfwhW_o?dEGGphiBAD?ub[`RQkCT?@CAr?tu?Y@@ck`ahA`OE?GJR?IaHOsWh?GSqG?yOSAWWCOgOCRsOODGSg`f@__Q?JIs@SPcThxAGG@W@@\ggxbaKZ?aeGC_c@e__aC[XoXQ?ObwIWRPKDAS?_KRS@mPh??@p`?[FYYWACB?iG_FHq{?or|hO?I@eBG_I?KMR@KRPmUcvAesdcDoNR{B@N?PvTOmPA`omoCODHECAIOAo`_kKO_cEb^aSuWACEBZ?ALyyA@s@C?CBWIsy@r`lKOSKocOIyCe@KWd?oaXhGHg?y_Ia?hTYO`[QQF@AG?W??kGR?sz]CS?wECAgHAIA?W`_C~\C_l?,False,9.7752e-06
~?@cAasCgR@?HQQoGT_PA__C@XGCarCPYE@AsakS?S@QPcPC_?I?L?K@Q@aZ@AbA@?EOOg??_UTR_GAYGk_CRyHANDqqS?@OC|@mFmOw[foyfai[JeW`?gbfsA?QnI@Pe@HMF`RK?GANGqENHLDp]\_aLbHGxAHjooH@op@_k?QAiiPF`MG_?O_`PiI@@@BKHEOc^sx[k?_X@_lH???AWKL]_?I_CBA?cxDX@[_hWBLOCRoj@wTG?kwCKocibou?doBcB?c`~`O@c[oF}[VOS@o?WnPAYDWuxggOuGwTGaQwLM@A??C?_CEJVQZcs@t_Gj`WC_b@gcXBGXROaSLUODfKhICT?v?AUalCSAT?ICA?@GCgc?BGjGAO?sDwm`DDO`OuTo@HWI?@_?oEdNQtgSDG_IGqhI@F@WT?Etcy]ppHROOiGvA?dG~edoHagwC?oI@Gd`ZBbuCCR[T?[??WWgQJDLGpH?l_?gG@bgWQA_B?g?QwbGkSY?K_vRC`_qThSE@?@tMiAH@UMi@NHzBAJicaA`??C?o~a?FGaSAGhOonE?GPJCL_Ao\KInO?^^urWAg@UKwQWgoXDQm?dKpUeEGKAAbZcVCi??mCgQlG_x@Xp_fT`__Ro?FhAaq[FwE?uAnLsPg@L?IbSOY`SaN\opGttPggWAG``_?]MhoAeTGGBNG_R@G`iBI]HUnPHIEmpOT?CARCkabiWO_CD[?{RA_gQK[gX@@yYEuQTPFugaBPGCCo@[FIIpLDyitDU@U@Ie[sd_?TCNmHPGaEHad@gOoPBrIEFAGOH@BWG{?\??_~LE?qGuB@lDg@WKs@A,False,9.0599e-06
~?@cbgC``EQcN@L_`[vCOSDC@W?AWDpHjP?GD@OAiS]wq@Ub?KwTbaAMMv[n?CBGGVhigIlYHJZGDP?W?PfD@CDKoETBb?ATQm_L?wsF@LQiIKD?BCa?DCu[OebWIJ@GP?ESeYbPCMGJR?WrS`]WOOAqGk`R_AuPL^YC@md@\A[EU@yWAP`A^DcAsI??osbWW[sCSNnWDFIAJ_KHG_FSG\_hcGXD?cHAOO@C?OWASM_G]?_jWXMKPRKR?_IHRG?mzat?Cw@dG{Q?A?tSNqpRBTe?FIFCqMcogQRYAJGWHgYtCKE?`WddG?qgrfPKD[qdDSGVPOlz_hD@d???ZxnTHJTCYO[QDAG?OdthKO~chK?@VOWOJQWRHOxk??IjBApuuHe?I?O@fST@KkyB{?cjoOAK?KmOdJC?Lu_d?pEgA|H?_dI?_s?]E@codwo]\?fogJ?JH@_{EOOx_YQ?\CD?E@C?zRuGIB\EG?PXfDsG][ca@giH?IAW?MIB_~O@C]XN?p{Ao?AcaGOB@HDQ\FwO?N[Ae_g@Bs?G_Y@CCG_CeAXOC_?WgKcca`gkC?OHW?cwC[_`aWAWOjh@TDOOBIWIaG@Qc@EQMgbbVSY_GFC_CSiEdCGXOFE@CmzHIAWbAra@s?wjEclKGaPY@o@P_choeC@`g_ScTD]PCYc\WdsM?DBEw[AdZaaOc@GYSATKKChF[?YhAv@GpCEBsStGoBlaqBADQ?YBQCHSGX_\Aa?ULAgJQB?@eDIIoCKGehRGSBG?^_IdOP?bAGkKUDUQgEO?Ei@wvLBs@kRJHQwGWK?E@TqGOUil_BWQw@__ATPCs,False,1.00136e-05
~?@cQFaCASIAgGOoGe^@oTiT?WBGe?_ICWMDLbGAh_[Ef?_DRxGqC?KJvOWKeBUwAhO?OOWhkGc^fDo?EGDuhs?yC@BAcFOUAcyCoQkjEidPkG?GWDXO@?HHLIF_hIlAKESCPutQG`dGCOKbKU_{@F_?]a_?UROcMWGkOIUAH_cHAp[?S?KCcX]eaYphTZQa_TA?_GoOGaL?yeUnUarFHCFPlG?oSk?mCKG}eO`AkEQ_?A_AC??\PmJP?OX_?YA?ghIPH?@EMjuq__eiq`K?B?CW@TGCOwWEjQQCcOS_DAI_@?dmIhUNwgSqW?QWCPdAYi__EJJSyKZ?xUQSk`YQ_?noXkcDGmY_?_J_m{IW{SXSIcaMI}j`DaPgDpGG_WcRi?OyuDIHHb@s{QoHdEQGOGnYc?Ex?LAoHGas?`gOMUD@YAyOAAPbG_coIdC@W_{_A_pDiedCShsgGH@g?SWggFBYw?IGGWDYHcDpJeB?vP@CME?GI`HEt_B|Xk?PWJGdd_}oIhXoACOP?_`x?PqddKUOsc[qOB?AlggcC`I_UKU@gqTj`OQOtC?L?bQ^??YEJqOAC?_A]niNigFI?gQOCE__Q?gIsIGg`TKRkqBg?[cW@`U?SI??k?Odii??LOB__Hdy?`TQbUFLPOQCnK[B~IxaX{d\?DZ@W?}JI?E`AVgAoeMcrfaoAWIQ@WhQOQ]Bqs?sMkCr@IcDAcXaCDiROMhHGEQ?APrKD?PmO?_@Hs`yq][i}_pUJPb?afk?C?`DPbmG_b?T[?P?Wl_?@q?pAoGY|BvBcJaYCUY`KdII?iAjc`H??aEo?F?KPaD\f,False,1.00136e-05
~?@cvHH?dOzYHGFA?TOIKGIAi__XZ@Xk_O@GHdOGGlSl?aA`UMojAB?sJsHOOYLo@EX@yog`BYNDS?CreZM`ACDPF??diP]FiC?W?}E]@KGPLT?CDAbdSI_XeGP]UOOnP?AMCO__VqAK{qx_qeIaqrPBAlCgOhrH}do_RCB_pgX?GC_qdGPG???^?DIEqJU?Tp?e_E@GA|GMLOY__uHhIlCE?phZqWF?gSG?gqFEdDLhK?GG@WMA_`?Gi?t|DG`?SEQcehDgB??T[C@bGLGG]]Po@BCOqS@W`FbGGRS_ybG_g`?[GAUSpc@DiA?pe}?EAFZ@PGpO_CGCVwfCGSZmGhSECYvYOIQkOB@`k_CTUBfKCBEiiGTaaXjIIgHJSjGQB_?QA_Hrm@hf@@dpGdsRkKhAIP@fTTV?SADDEZOmE?WR@@A@@rI_i`IMsa?WNXJoOEP[SXORRBDsIRdQB@Xas@`fqaHQeCo?eYOE?E_s_IVGGG_R`?CC@gcOAcsq`TIq@EIg`aSi_p{N?pMQIpX@?BGeRXDyPZQJ}f}ePhOJJkg}CSNgSGTXJoxFGcGSNCZG_^D`W]NsQCTI@IKAEQs?GoP`AA_sK?iPeKDI[C?IDiz{w?v`cYP}O?W`ESTcQMZ?aXxZ@?a_j@_ca?WKrGOgC?A[UR@OHB[AKEw??S{@O`??iR@A?goP|`E?DA?A@V_d?LcgB^NH@AWxGG@__[G?ipeAdKYEgiG_cvoA{??sPBpSqAsI`?CdQvwASM?GCg_EEAT?atqKA@@QDEkGFXYWCdCb_L_?RSDOwo@?F?S?aWbGGssC??METAPAGR[?\,False,1.00136e-05
~?@cPIAfGGI\PQNH?cAbLccCbcKw?iPo@?PUAIP_CaEgND_BpOiwAAohOAbkhT[?_APiUAULD`g^dP?KiccO?j[QG?d^a[OPw}CQV@LCg?GQ\MKI[C?HybfSCIH@sqwOrg@IceO?QPhdW^eOe??OLEePAKeFH@@byCC?_mpPQrDDCG@SATwJC_DAAx_sBTACDOQzHs`cW[ePb`pOoC`^@bdjgACqWEihY@@?JP_sLCo_D[gcO_QUAa@?EWN_IZ?wD@OWBH?aIES?DE?BnhMhCWauqFH?bL?GEaM`_HK`NC?cA?g?caKFVKhPSP?GltdGAdGSiYPM`??Ga?G_@_chGDya_?UYDAL?b`LPoGI_?Du?DL?SVROeCW@oe__C`CpGSogfeHAHLMrSZA_dsOO`HMoT@?K{G?T?kD\UOpP`OH?zqeckT?GJddcABVH`BB`Sf_?WsEWoEnWCJP?MoAD?[IdPqK~D@s?X@D\k@DAEcMSG\[MCAaQ?H`z?_GIMiC`IuC@@[OBDPoX\?aKxwAach`?eQO@BG[VDv?mAZQRdpOkHSDrB\tR@Gw?cF]Z_I@`O????WpuAe{WQcE_B@Y]EWAPtdKA_??P??Eio_BIBYSqWGQPOWDWGZod??fofLPb?LOTuQ@oyWtAkco?wCaL?Lw`GHQ@OSCBQQkC_[cSm~G@DLCzCFgKsc{XOEY\WdGeHx?G^Pj_sECOu_t?`IoKIEgcjEatRbDhp[cOg?_KQwTPG[aKpG?gL]Aw?KS`PaD`prD?BPPCWO?GAacYfAYeXAHhGE?oOWhMBSDBawcOKQpCEDC|GwoWiqG[CcgPcB,False,1.00136e-05
~?@c?owUHpa?aUDpH^^C]Bb?C_DikCGQoSYI@_CECX}@UQ{?SaQ`?S?pWAX@XDpO`s`I?BgXcmrRmgDO{I_HWiDcE_]\@BCGk@icM__i?@lnKCkSW{?W@ag@HO?a@IDGaSx@CzFN@KSdAqeSYPBma@eZSaVBA?EMW_R??P?[A?aemY^EoAXyuHBHwMcTdmQqG?`ryG?CBAe?CXp@Hl?@_eGgKOBMA@VGTKGzg@BSwIvABEoGagc[fGVSSosoXMW?snC?@@_{WAoWpUfT_cpA?qs[@?[yAOo?AqXylOHQBGeSpjpgCBRO?C_`\WqDlHCrIOk}IFiOy?pRo^?}M_EIUPOOcckLGO?|uSeGSqWLMOOG]HYT?_]iKOEQHC@OgJNBJkbSAFgACIQ?Ub_rAEkk?vCGWTqMA?grKaIL\@G?q??WYAd?BsGAa?gJqJW?ghQKAKfjA?G?AJAO_OCK?OEBDmFraZA?RrbR?GQqwLnZ`ToKocfAHRBODdWI`As@CcZBil?UUATS@?dGDfrHHgwGj`OD?pD_GoH@Y?BpEw@GZ_RPJdWsOE??[hofT@Dd@Co_@XBwc{c?mTgfaDa?SACAIXgPGO@B_~RI?DEYDOciEAcQ?@kIeKYQmQE?pOLGu?Ba?I@TN`JwGC}YYSb?w?_@QOQ}_HY_cbb[Y_KDChHqd_jAgaGAjAGGHAPaI?bgFbR`EOa?gHBd?o_nUA_?GGPcW`C`\nDTiGE?IrOODXrsA?A\?k`@FcPGxOGSgAKSaCo@RBcO@BK_hKcKHO?Ia?`BdH`gPs?f???o@HK_O\hD|?C`_FWiAPKbQIQ?gbQea,False,8.8215e-06
~?@ckcHB_R??OIGAZOoA{YbT?D?jJ`ACcg@nk?C@SJK?lKYABFjOWGCQp[_`OGNI?TEpDgoFGO@BA@?tSWOgVKcPSWATK@SeQErswPvOhACOC`a]tA{O_P`M`O@DQGU^aiFO_OBAoqIR@`pqou`\y@GIADustCBL@AWBSYi@?X?B@BCGqE_M__jGd?pAe?o{sa?@oeTgDPIJgZEIcOGoaZmoJO?Pw@?h@O_SBHIEpkJHQayW?xPqiAqS@KdOg?gBAAC?aPcLJYGIH{XM@qDJI?Y_}BJLPSJ_oYCf[OAEORx[hFc[OPKEcISE?IM~i_COfWAU?Q@cH@AgP@OCOoi_CIf?bL@PH?EGVCGDidoSlY]xOAjOgd@BCwGpg`QeESHCDco\MCnDG_awWhqOKAOJ_PMAH??ebK?Cb@_AG?HkkKC?dt_CxJk?bGwSU?JpVE@j?ftKzIOj`AYH@PMEDlwCPc_Mj?QCA`_D?_GcROKXGgOh@JwGjdc\HrE{oheWAkaQTD?]DAUCCO?SkpAWG@E?]KdDcFBCKY?@JqsBePYZCJjG_F{gCtGQGlIWIBwO?Ww?`GTDc?T_`@_?`ZBCQrke@WSGJA|c?uK@xKwXuiN@jsXW`H?A??TV?cbdeZ?WasyO@AKlsGHTHgSWcK[A?AOL@DqoxgcQdTUj?gUwkGGwMOHAXu@gxpHhersAPqiX_sPFLGYa`WhybAKYK_@WV[GDOO?E`ChuECuDpjJsFQEC?|Q_ChIo_Dxc_QGi_CUdICAICdoKBZCESCkS{H_cAm_?Gc\OODZSCA?PA??ROE_I?Quh?DAAUo[OK?q?`QLI?,False,1.00136e-05
~?@cO_`Ow@NOPHO{CyNtZGeg[CNCi?j?L@?`e@?DT_cQI[Zxbe_es@?GLhO@PCJgAfGm?bg}wi_A?kCCIXcqS@G``c?]B`AvwOcAUDoD\JEQCh]i_a\?AD@?@ECuck?UCqGqqPdPABpaE_QUpDn^?rayQHh_XHgM@WBaUd?hoFAgsP@DHcB?BGJykCjchCh__CEQZ_?@B?QRyHhTFkia]CIhxITdATp?KAcCwYw{F@LHLZDyhPFUA@oGP?lR???b\POG`_GOdCPsFsG[heGB]C`W@`ILB@SIkJ??gOG@KEGRb|[@REosEoFGCOGcPP?_OCh[AJKJhHQqAOSAgbCF@W@eEahWgcQ|KDYWayP_oHOdeCHEDb??JD_UAOo_GOZx`EWhQC?RTXGvWDIeSptLL?QOHeDBl@_s?D@??eoHG_Y@JqQcRkFCUCgODvaWJCWCCt]uQhZ?@cQSEH@ZWCGOKuD?COO?TGOCX`naQgUWhM`gG`?SRprpnqNGf__PeOEOGASCrIGqRIPK@QDO[@AD_OIAgC_HoEGP`MCcu@VHNS@fGg_OFWGagGUO?EH`\^B_OWgnd?UILoJSDxHsAeAKWOAA]oglaRkg?OPeXsGkOWkWw?G_AOdf_FBddGf??CUIm~eJO?oS?BDgS]QBjcAK_eslsLPABG@_S__eT?`BoCaAB@a?_GW^@@q`CgG`iHdChGi?sQOYHGYATXEwAOG@I[{aC{c_{yIO?CBAAeCeW?_DkDOc@E@_aKacoWCCNA]SO?qbWBq_UKM@cIGIKQSOoC[]Bs{Gb}Q_A?QgG[Ea[@HBkORKzeDg@[_?`sGHq,False,9.0599e-06
~?@cB?rGVg\AXGoO`Q_J?JL?n[DAJBDK?J@g]Q_?KUCK\AsyC]CHXhdhOSAAsaBT@QBwM~nQWhdo\CkL@gPTRcOGHZWE`KrIGOpHca_qakCC@hKCoc?`RC^JSh^??FG?R__GEG?FAEPtWaI?wi?M??JEwIKJANXD@O_AACYOEKp{SAOAhf@?G]oPSyLIDxAWZGHDa_x?QPLG[p?Opd?H_}J??eoKCC^H@qAa?XpXRa{_`mR_?FGA`wAtg@@yA]OtWOAWC?zFaSeODaCqDQS?wRFqgc_`@?DCC`Kb@KBIqB?zs@`uCAf?HHbA__tSKq?XYbQvjm?Y?g_WhDPpcg?|GnGCKbO?OHsWGy?EHIOfbG_BcG?_MGGiBmY@?N_?YjxuDUGsBPNQglP?Co@auDk?c_tZ?DG?FYA_b_YcYlOCZEIQO^RUd`PJYDD@S??kCIr[CeAUPdTf[HHB{qmvKkcCAuH`S`?M@TGGh_bC?P`@hGoo?G\SB?IFH_?fR{iOTX@DDGL_Cg?oByqDGfAAOQFAGw@f}DEc?KW?CAXY_?C`OW]AnnKUEA_aDY_EIZhfoA]cPP\[dh@iP?`B\JHYGBPBFC?OmCJKr?RABaocWEaoEEc\_KSKNOH_bBGRsPDoHOPKmR|a@VgI~?ho?qGNcBdCr[kaAGCfGcMEcC_`KGGQC{NOOC?vI?CO@HxbEKCbziCtOBp`Qw_VwG_K\Cy@@GhPEI?TW@aOSGkoH?bZvoGSifA?IO?K\S??PIHGa_S?{OOI?ALsA`?[B_?pMWbWBUaPKCKEFSOQS_wbsE?HGH_GAbuagGKAHzKcD?M?GD@?P,False,9.0599e-06
~?@cMAO_po?cbfNTg_j`G@gH@FCSFIEKwGChOBGIjmP{F_CpZAkA[OgO^R_EOHeyAQGODNf@o_Kr?I?AaFHhOO_\kAo_lSKGyqOaBp?t?Q?ax{G`DMubA?P~HAIOPZKDGW?O@HSKRVa@V}xIr_?qBaCH`RhX_spCYlO?`Htg_?BfO_foH_LyobPACqZC@UvB@@WABOCpWCU{RE?_SB?@@P@MSo@WIPcgsiDjCU?q?YCGcCFEAA{OKBi`IBGONhDUzJK`BSdv@A_?OtDoPahcm?EmWh~pmhF@O@__@N{dT`CHcFAC?BCGneKRUcBGlBOxC_A_K_AaYEaq_pO`_??|BdCBhBK@_BwDtCU@oj@G??Vk[OI?g_s]OD`c`IEwxKS[nEL?cUdXOoFE@Vw?w?FGpOVgpcOAApv[AQVDoRkSgHY?YGEKPaBd[IdGI?hyXQAt?@er@ASCcDKKKR?D[q_G@W`lh[WKAS?i?OAAA?NJJgLHoea@crMLRCkoCoAogtlI`WzWB?JKWVO?b_X?AB?CO_sOG?CXci_Ko?I?R_cFY`UcGYSJP_K?AA?UFE?{YUGOg[QU{dOAPWQIE@T?gx`??OgSgCwwe?Af@E?MtAP?w@EXXOOpwFAGADBCIqG?AYwbk?aJ@SrOx`PiEJK[DBGpKIYayD\FmBaSW?w`C@PU@]w?IgKyPJc@Bc`bPUmAa_BoL_`aQKPRX`Wc?SP{@?M?u_QG_[^ijH?@AOoPBCUvSbCWswGAE_CE?RI_CAOGOAaC@C?M~gCPI@QGBSJ@cICDKgGcY?BQ|SM`MfD`CKF?lBAp{tuWPBO[YWDuJgGQC,False,9.0599e-06
~?@c@GQJQTy?\ARIeNDEI`?KHAOIfYWaDqBo?kw@dsYPpAJeDaCGcoAgKw@??QzeMSS}_hYAFRhHFL?YpO?_A_@QKo_CMBUE?k_GBouLGD?fi?A[@TqKD?_?OPLgOQ_aQdAB?Ig_ONIZcK??x@gscYQOrIWSrOOWKS?`XdHYT[WHGC?q?KCm@~|F?VJ`?@@?C[tBohVC?S^gGMO?FYJO@W`E_pDAEPrbAGgGk??g_cGMEe_iS?|QEqFgQ?CEQSgbNASS`i[?tMSCkSjPOjGGXWRGoPczOH?IY@@E?WsZPKX?_|g_MGKGYoC@`UOqbNdOQu@ojI?DqkY\?IgF_SIOgEWaF?pc]EQcOW`sGEmUaUSkaOMrFbPI[@GOACE?Bd_HpP?tvBoWXDtbAvAEZpI{LAB_AAGOY_O@pDoCOo?IIiG@GzsaJODULV_w\oq?{_pTKI`hCHADQq[CWOC?A?CUQYMHqGCeMgVuB?GVTcDisADLQ`IAKAD?E__gdCAGoEDPgcH_?U_AGo@O_KSGE_AokA_@cCOhEG?}LnjGRCiOWyj~cPD@PWgoAIyfCdLlAMiA@?WoZT?KnJWOVKCeE_[toOAN|C@i_QMndC~WaEQ?VbxM@?CcKdoAS@es`HZ?cjiaPQ_O@ecgfQIcGp@`c@eKDR[I`oXawOPGUQ@pGg`ngbmM??KEC[OfQJQ_KW~Lk`aDE_QhXOFBK_GEGC?yGCgLAXD`PLBguAAg_owZs@O@D?_@imCw?eDMAEYGF?B?nO?sC_`_WLc@?RXU@_xW_TQOEJLaA?mS?U_ILc?beSH_RPUY_oh\ABGGHEiXF?ghQ,False,1.00136e-05
~?@cI@Bk?OCJaAwD?H[?M`?I?BF?QAVgGK@CaBoCc?ehs??BlJC?S?OAXA@?gJFSAWJPkG`CmS[g?Ihm?cqoGAVBF@GHU?oOEQfag@QKO@[HGzU]AA?t?fAzp?sfHH^APhaKJ\cPD`KSCCOcC?WA{C@Po??`dUAiiE?`HHW`XfCDicAbpQ_h\DAE`eKDCpL_Ld_efGe}?K?O?OSf?OPrOQA?Fqw`GAPsGg@oTfAIDO_Ya?POUcdeSh\]CB@uTdTv`cHciMYWY@_LEOjtsOQUKlL_ogBO@?ZIAaAI@hQkwC`vWNWE_MFAGOUA_UECGj`QQEDiiTHW@{Ab@FwoNv`xACa|O]A?ie?OukOSAJ?G?DdSCL@eDO`Yi?Ch?PDT_QceGGb?RCcGi?qEDE@BS_UGa@{SBY{?vHc_WTJiElCC@BMPCAW?Wc@{?Us@BboAqOHAhcNRILLgGAG`BOBcqGAKxcY@?eCAQTJC@A_YAH]UB}FpGiLIr]oPrm_AU[Tg?_kOoGwooqJOcEWU[WrDCWq?trLPKbO?a`[weM?@EbMAHJKGWAomOJgGOdf?SWQq?G^[dEbjuS@A@CAc_a`@?SO@Eb@GqyB?WPD?OhIkIgS_AMC@BWYgA?fKOECmIG@GG??a_d?JGYc[QV_ELqTWdeU?ESGHc@BXQdCQ??WHLTsrIo?CA`WP_uACfA@K@eFGIbKIEEgd_[OJ?yXh~Rx`_AAFiEhHO_OAeT|AqiKmA[ZZ?DK{CnO]KmiqJp@{HDokSmMGd`@AVO_JbpaDJKd?pgdk_@JB@SA@OPEVOAB\{r?i?HjQOadqOXAEcF?VRbOp?,False,1.00136e-05
~?@cP^odSA}SB\LG?B\?[X?[XPD?DARI?QIG@qstOHI?eS`AtuARHOFQEWOsr}Osc@@f?OpX{geGaQ_]wXCs?EP[Dc@LqIWWUgDKNODCOGpY[VcDUg?OpI?BJF?OYRE?GWh@OCKObEHPOO[SYODYkL}y?AMAFHQIGAaQQx??A_`TmCB?aAgB[[Gg_VDqEokG?CnO`@IaSURX@hocYSdBj\ATAANspXrXP_`IECMZhedyNAP?Tu@@GfGoI?cY_?Mn?[GqHE@d?pVxlQY@DHGCXHkGnOZKCCC`QF_AIcO[IP?KCPG?O_`fOJeC_?gCId?_?RQQ?go`RaQx@?@L?AsIsTXhOGK@gCySIctAc?IZYHcN@KgUIEb_EidakGXOK@kVD@JI{COKH_RCQo?ciCCiQOg?Oa?a?IEPAlBGT?eBQEBI[dawSTKGLUO@wOomdHBgqGC@XRDAIGC?s\?T@xGigagwLcuB@?xCIe?O?QJUONGDtCRPcqA@Q@?j?oG?GcP~oVWfOoBDhvPfaAs_tGd?`?AcIHRl@CEBCN?AqsH?A_PqnGCeecHHIKgPfMOJY_TAkS?O??HTfW`KiWgEV@P\C_MSCEqC]oKXCa`PUP\UPUCCO`DTHQWzE_KF?QHb}p`_@tIsWA`SU??hhX?UJ@A?KGALCXAO@PTWIGNGQKSqcIgC?GcNOKgwXCSY_{A_Cx?SsOOzarXoXiB`[BDoPY@QVgsUCEHBUC[DC?sMca?ECKp]BO`Eg?Mh`HAz?RGb?eIQ]SsPsO@M@vsXD`yf_BtQP?AjO?iSRSIp?APO@lEIA@XjuxA{k?Ga?_gR?ChjQ,False,1.00136e-05
~?@cr_gGXGOA@_c@@?pQH?YSoAB@ZCOXCQ^HG?EYaFb{_gLK?FsK_c?CG?OFcmOoWGGoO?]UXBO@IMYCAqCmG_[O?WC{?WEjcHoTWCaF_EG_qElV_TGAIa_gUx@JBOm@A`BO?kB?_ES`X_JaiWQXGOr_`BwcEPCkgm_enE{HOUZ]hA\C?EcWPO]yWobJGGjGA_MuumBkTqsBoIXBGc?kB@BO_KTmoLOOfMXXBA?ox`YIJb?ZoKCoHGSWiIY}GACcdV??bBg_d[\WtJwACCD?GCm@W`CAP_Wg|AIaT}J?oQHsEK_L`LhdQ__cU`U?_KwUr_QHCqAYWB?PQPjId_HFOc@?US_wA_@EU?\L@@OO`II?`~gCoGmpg?~OGCGSW?W_k@?{gO[s?I`@JAyDpOQOM`RRXk[SB|ki?PJ`MKI_MCA@gACTKCOM@XWpKYQIUICI@HHQOIHyDWdPY?_AMf@MEQCjCHisScc?gcpCza_ECaWmGKoHcQlYEGD_|c@dbGaDAhS`RGGXp_x@?YU_[cq`??_AmO?SR@emH?Wkz@Op[_YQHQXVuPCYG@@G?SGiY?IagS{HcZOL@_hQIOb?A`a?ED@??OEAP_o{@mBDOOCZUqt_aG}cfc@sq_?DhgCGR@?rhf_uK??gbeEK_Swh@HcWah@SLYoeOEOdeDXkVRt@uWAUgX@HYPUpoQPO`P_esGCvHAJpoDn@slcShKI@O@AraBsAOBSGrjBLAEd@hLCph?eW`Pgtg`H?SGA`A_dObAhQU[HGSX`Ca@__QWKGHrnOZKWDX??^dCuGol[?SdjrL?lO??IhsLZsHGogc_H@G,False,9.0599e-06
~?@cgT?_G?DENo_Da@K@uAyS??KOa?R_\__fvCy@?agCWE`_|qK?M?G?OPFGDVkHcg_CgEdl_So@yVfULQcviXBwEW?WGGS?HQ?jPP@hDP_IZ@JCahcQKIzOL[j_KFoueIjGe`?RjSheafCFqCo@q_CxXIKHcT@IuOOCqKhCMCW@SaOwC@G_or_?GOMhDE`CIKOZtlCCIe@kP@_T?^KaoIiI?G_hpgV_iHcBDoGssGc?yCCd_SogBD@?hSOo?pJCcLV?LB?]OpAoq_aM?K^w{DQ?UtKKOHI`pOakKiYAF?PgJ`{Ci`FKbAChejZqjRC}TgEOEW}KEOMj}_?hQB?Wa_XH\RLH_BQOKoAABiyIg`qWobIGK?}dVFPags?Qkl?gQTCPQBEQ?vc_?iTA@g?GwHkK`@PCUEq_IDLCWAOAUDTlAKC@GaHHlEQKmIYSI_GAP@BFgPCKMCWOIfw?L\K?LBibCd@Awo]AAG^`G[CkpUkhVNEKGQ`@DWq?]OJ?oJP}Bd@GUtSCSQI?k@O[DB^CHB?E@ACoKpASsAaOJW?wCCtckCTPWC?eD?ThS{T??mFcA_?Cc?G`O[@CRIScQ{g`SI@@?O`ifGARPUatUS?FHwo\@?g_G@A@IPC@W?AXPOewI@@SN?o?JhtsLcsWkg__Ccc??egSGa_{slBQaRjBMgP@CyPf?GRMB@K_YLMVQBOYOThcsdS_??[TshOIEpcPN?O_?LpYi_[_CeQbxGU@CqMOHHADoYI@pO?q@IUF?bNqC@G][OCeCqgMAiOWO``o\ekFT_OsDG@KZHQe_??WmWC[RJPWmUWDgWGE?IS`t,False,1.00136e-05
~?@c@ECtQpoBSCPqSEb|Hoj_EEKG?@Da??[?_gOLI?l?QKCApK__oJHGToocdox^_GDEkIOgoqBK?WIeKCAKGAwi_A@|hWBKbfObC~IT@[ABaG@CAHW\Oc~CFASaCJvuvWpcfLmOgPLm??cPWfOoT`?UwErwOA@H?ASG?r`?CCQaM?Do@XdA@A`pKEwKbo`C`@U_wiiNMOFjcA?HS?ddSOiPMQc@YaC?lEgPiXAYkINZCcDOG@ALL}@S_?@HgQBzROA?`ESsSA?gedQMd??aXV@?idw?o?`GK?C??c}QBS?_K_fPSO@DGAGaOir?p?Uy@KcOGtpHMWt_D_Q_AC?oBHo@TAIXGogN?aU_@h??DdgAC?t@OExwB@n`GP@\[@?oahTS`\D]^GEhx?BEAbOwTAOJQ@qbcaBTGq_yLg_`oENE_dCGGYPGA_AGgIoZNWvOjEXOfAB?SESIfJtBnYHOIDHDSoOLEAKcqIvGSgJPPg}M@@m_CIGaGbIIogLCBa[@DeJgQH@dAFQwH@?MsZADA_GwVOF?qdshGKE_{quW@Uk_AJGgLogiIFga`_BSOOWuAnGfHLG\?OAWKc@{JmHKbDO`FK?GI@eH_Pwl`wAUDAxO|_P_GItGKJKzQl_pSPZgCc}??}OZe?mPwOWTKrGBORFDGPO[L?BAieH@DPtTDHC?AiRoAW@UO_IACc@?`O]QK_@[@IeP@gZ@COi?cO?pB]OKTX_?xSGGW]SJlZY[soxW_QAONsHCLbQASfWGharD~IcyKGat?NFVUOSH_PN??PGCcEQ[A?AK@OGpCSAPRYpXSQ~`Q?WIro?g?_t?e,False,8.8215e-06
~?@cEgT`@UGMCCW@t`XosOhk?Aqcw_Uw?gL`PTC?AeI_\OH?qU?C{GcYE?G@@ERGb?c[__B@IGB|U`ES@_LdQ]vH_FXLA[_GaqEOBqfW?zKDhBPkBGRKHdC@Sp?PDCAc]EA`HAS_GW@ah?WQPAgIhERaPh?hf@vdRe]CAoZePRWGgO@FAOM]m?BWbhDYUPub`?qXr?CCCWgZM?iS[qGwJLo_E?DCBlWWEpdMAGQI`a@e`U[@g_JaAiT?O?@OJ_AI_@@DgFSC@Y_GwQgC?I?ZOAEw_Xb[?A?b?FEPm[GIdIg__k_?Q`B?KMj??Ej}bo@DhUw?G?~oscicQgK?a`PaBId_i_KC?ODHsAVaq?[gSWoLAEBrNKIKqR?T?GhDCiFOn?aCEaypY@Dk?C`DnjdKPBP_TSaPpHQCQACAGH^?AACgA}_CKS_AMleCEgK`W?HocNCgQyBGoGbgGaCzgApKkPBgCC?ObKWPAbzPx@WOICSP@OPEWIbqX`WCI?S?x`PC?@\CXCRMO?FJaCvOOAGkPaBINc?Gg`_U?_EP_@jv_JDsTQeo@OG@H?oA?a@I`?D]PG_HudB`yoUqIO?jvNH@AaARtyONEaXGCQ?]OmkHqH?FKA@UOmrOhEFCd?WkuREv?aECDodCkGBPilBBqfMIpWCHOMGgczKbo{l`D_ld]aoSDPYCACGB@aW\@t[UP@CpwoAE[EL_cLJL[jEIi@@?OBOUVVSYlckaGGCoToc`ZGWDbP@BppXiGwjoEq@]E_g`GcY@bCRWDK@h\Wp?@?QASIB`SNE_MtsxBk?CWsDAyWKC_^_@?e`HJD?A_`u^B,False,9.0599e-06
~?@c_OTqE?@WSPAaFawAV]DAwt@IOoN?H__eoKGIa[?pQyd@OKbVOHAe@?d?PDl`E?eqEA?C?BiI_PCLqJq[spUC?|YBwGe_YOFx??Ik?`_MGniEj@HiGGkbGR_JX]COQnmOQhCcl@E?Q?W_QEag][O?@LetrVI@PQOeOOdOGwKMoGO@QqQKVQeWaXrooajks?_GFOst`PkUdRzH?F_PgAcGDoOg?SGdv__`O`xYWYg?Wg\ofeOPtMGIK_OLtuglHSAJ@WXXCP?gWITkE?``kWQBLA{kciE@h?Kt`EQdqOAZj?x@AO@ZDcweabU@UEBB_h?^R_gIy_Y?to@?oBsMNCC`dga@oP?CUn\K?Q?LP@W?PBRIc_K__FAOcETbJyouUdp?WDJ@V?p?CW?urpEaICHgG?w?GoSKPC??XhOEAtHWRIpI_CkdEBgH]?O`dghoh{{?Asa?FgWdC?Ax?Ptldi`_YCF@SOGiBaPIJCcdUHoPhAdthcCDs?`qMP?PDCKadGEj{k[?~O?@`R@\?b{SOGA?cI??FJuU_OGHXcDOeiGQqPcW?@yio?OiBHwH?VWH?Cscmv?__|cP`W@CaEDEyQWBBgGGSlKH?E\T[PGhgPH_S_LC?YnUtIABPs?gsAICOa`AO?@TOR?LHTp?COCi_\HL?AWwiocNA_PGoTOPfwAAOXj?OqCOCF[c[rrYI_@ALK_y\WG_ACW{KQGHs_wGFkOC_ApT?OkaFv_GaAjBPUS_CC`GtL_]evKYcc?W@k?SG\BiW]a\?R?dWbQ_c?`DKIK@QG_UoIKCxScZE?q\H@@@`?Cy]SS?_I[Q`o?Mf,False,1.00136e-05
~?@coCl?F?ObGA@W@YCOBoCGbSq@@xpc@da@e_Dghx]KYP@OaXr?Dd^LAGql_FWLWFBpH?DwIwuKlPsdxKqQd?CAKC@PSC?@IN@caWEm?X^?C?C@]@I??pOG`LBORpHj??EQG}?`NQkbDsANMeLGE?GgWHir_CWQkWUdEDHAQ@xcfwh@CzOIV`??|C?_{jaJbbOASSikIEgYO?ImduqDe?CcAoU?qUDgmsl?cOWDSs_@IO\IOP_wGF|`DOSqCcPRja_C?@P_H?OFDq__pPD?oWV|?WGc@@@Bo?`a`UUhGX?OxY??@cOA_PuOGkZFEy|NITAIej_IotPEgJuE?UICG`gkmDAQQpb_gDLajQPFWE?wVcgpQOqNCuxC@?`HaCAI`SWK{~aQT@HSaAi?GPX?hpE?@a_jOY`RD_JI@Hg[g?ClVgi@QOqyYWskOPA^BCGWaOTOCC?HmX@BZ?Ge}?K?_XLWKC{s`_qGSAcG?ug@?fGS}BUOCH?PqWGyGHpo`H@?O_W@IKgAqSJ?FSKsz`D`D?Wv_Gc@PSIGFVFiOqCS^eFW@KS@\d?]?CXbE`[N@XAcGPECzohQCHOZQA_gNpDbKDGoO{@AYX@OIXvMTiW@Kb_OB`ciAIPKGYb{QOSJDGKNdkppAwOxDhPC?SoGWsG|DWoc`XB@H`TsOPVKa@JD?xJC?OE@Cek?GEPEwS?I__G_?hMS{@QOeTWg|giNAO@S_oA_?_QRPQO@OWLgcAg`AsOD?DqC?MmkFGhEg_SCA@DGS?YMGDWf@?AUa_PAs_UB_JK?cCLwYKVQW@G\TKT[G?rT`BpOUSme[??plUg{P,False,1.00136e-05
~?@cFCUAwRT?@BOQKRH?RZW`gINJBwueP?LePaIGPX~GGXOHCOOkpL_O[SCFOhH@|DkQOBg??ECO?D@_w?XcpyaDfgPK\AGe__Gi`^GK@KObaKgQWKCEcOdC{iAPS{IdCDHsQ`P@AlU??LAU_fRlLV?_?OIPGg_C[u?NDAIlaH`JkP?EAOsHWdDfoBsGfaRMOpGKwHdK`_wEH@OX@EKUO`Dy\HPbxb_CoFGieCQTcUD_?I@tICOT@bjG_GAlFrB?A{]CQS_HApIiaR]avOE[?kCQ@F?\mBO[?sDc?GEID]CbSsVwoEEch_[DHtoGH@S@ZKKVGECwOAoEQoEOoaaHQOQG@G?K?ffT{@_S?FCGTDE@_IbMJBKY@CPF?|HEJ_H?CoT?C?|BoA?V@a@o@BOoQqKSOK?RKQtYs?`KSHKhgPMPtBaQiWGSQWkSHWdWV_Gwk}AC`c_|hoCgUC@OCB@?OAKB@lOAGW?kAwCSE`q_OAaiAKdD`@OW`D^adSPoKyGQ?Lp@C@BXC[@bGC@wHQdoQPGOI?KmDrp??B`_WlCkq]GAPhq??GacDHgQ^Wmtf`I[?WDECQIgXb_IBtWrw`QOC@JSkUWbOUYF_AgPkP?Zc[AYUeYQ??SCpNwyGcI{c?_hfWos_H?EeQDCD`KoEACOBY_PxGxv_DMPJO_uGOIcOGDY?oHHkB`LOof\fK`i\oAYK`awJ?hwWA?OYPoU?HEu}OKO@EcqLFbEOGoKI]WI_Dbjh[IM|E??{COM?LQAsfEpG@QAYcEQGY_hCS?l@eA@@pGwGti@?Tc`DD?OBFDRXgEGXg?b^G?\HOOgSUmQQ,False,9.0599e-06
~?@cQIQavDkoQ?XSBCoxWgAwWyNPHDC?NFOObAy[`nJWHQak@d?LwKEHOWqOA_dAMxA@gO`]A?GHAGDLeG@G_@?sdEOXq?HKjy_kN@haLiG_GcHkcdbI?Bi|esYKAL^we?`BkS@???QnkG_xcs_AGo@AhEvUOg_VGA?pCCgp`?_GXZQdbXA@POBdHCpqcaq@SK?BLG_KQAGLw_v`Rq?__?\?G}@_?AKCoQJ_mQCHtOeC?CCkFCUQHr@KKScV^LaO_Gesk?CoYOPoOKRPG?@?CHQpE?BaD?r`CG?@W?SKYLg@Wgv`ahws}VHpWZ[QXE?DWECXmjBZ?FD?H?DCE\exHDGYmGOSWAXGcIs[prO?[g?AKGOPDQDO?GcB{h?gF@GOSaQGceXYMDWwmG?cSD_baO?tG?M?SrrT?OEYIaXUkKOr@gp{Co@HD?s_TICE``hTIe?WdaIhSGC{?dS?K?Qa\sZmuKc?Ap]L?AVgoAInAISkOeMC@?`jiPsOlUjWPK||??FZs@?kAa?iS?enWCC@G@ABWS?PT@WQeDRZM?}a@?OO?CI]aiI_`Q_b?rQ_qZ?h?CLOj?RQAX@HVdaGa\dPA?UGfKpDg?a@svpGKYZW?u?b`@wRCiDPOCcHUY@iBgUeYpg?yEEHAU?lvwFI@[@Sm_?CgdbYACj@G{AbOz?oGCKXYGz_ISg_GAydBeXh`g?qLkA_kOl??@sL@[B^?gCgD@?HDGg?M?iO|bwqnNSWB@CLfGCQ?g]@F?HocgAB?WAkjsA@QooLHIWL_ecCGPcdeLjQBfGl_MKKp@m?SGW|@EE^c?`m|__TAOZM?eCj?,False,8.8215e-06
~?@cksD?PPTaEbrwP@GAOp[Gaece_I?BW_]o?PWAD@L@G_F??eSEKU`y__OGhS@PP?NCBACGsKE@dPAGSxjac@PUC??_[Eg?g?GACp?HPYTOoCEfBGq`FP`oPTVfYGUMAcii?Ga?C@R?_KVgeGONHOr?KH?IHEckE{oICG?dfX_aUJKSkWAE?Z_?DQ[^OY_?S?Cb\usBDGiKgPkhlML?AQWgemg@HGoc@CO@T?EAO`BPSa_O_?HWCoGOaJTAC?`HKI@AVtISUWBDAG?BBczDN@cAD]??eIOMsYIgaWa]gLICWOM\@pgWiWA|iKUVOIJ?}PHC_arErGwCg@{?_?OC[sacdOTHUWGa?OKhqWDwQMO@KHGABABGVEPXeh}A@oKgG@@GFcBK?OAxp[gKM\CPiAypfUP\hAqI\paRAOGZC?gLPuBFBTPPRM@SKAU?`OawwKWLOVO?scU?OoC{`CIRFJ?c__??UcaY|dsCKYAT`EKCJXGmdpO_hAIG?PQFGD?HsTXtA?ojEGKC_@sACfD??FaDDQCLPOAwwCLOOJ?AZIMcVRBwJD?u_QdkH@y@Is__DPG?IHTkgPXIHAvnIBcpuNV`ChJAU?kDKTUHejQkSUxbwjLg`DCTgWSG@C?ERmWQ?Fa?bJGCIO\INGC[S~OX?YDOOBo]cs?Uro^mkEGIA[AGoGGPaRB?HCi@CAKRbHQOIJhQlQaUG?Lng_?OAOuA}AKPNlosJ`_MSaZ?p}jUZb@W\E@ABqYg@GZWE@?bOpleC?__H[GOhHK?nG@aGp?OI[ABa\Ip?tsQXfKJC??cQXKlE?y~J_VHKAG`[o{e@,False,1.00136e-05
~?@cE_PdUtXnDOD@GAEuYSQOWOhGSZf`IW?gDPIO`AcMCBk}\ANIC?KsGGBQg?kPC[@sHhyW`S_S@MKM?GQIA_^_OIKMIggJQbotGPSdCAA@PLGG?@oPwwLOO@OeOpIY@EkDr?C@lEY@U@[co??{_EMia[_QhoeWc?kpBua@?ci_TALCCXSGocHoaUoH@?_AcZ_bA{_L@?`CGe@pzIQZ_@Reda?]F`AKFRbQM@eODTCGd@O`_E?eKQEOAjb_][EAuykGDhqIdOC_SCW`Gog?HlcRLPBK??B@gR?`LtQ]?bE?HSPHCA\?woIqaa?PGJCDTVCt?iTnCMPZev_TGIX?IDCl~a_LF_PjHcIAF?S_EWc_[AO?_EQIWoO??IRHuChJQ?AI@yQ_[PO@Ti{`j?JGKfDx@DXmhH@?|P@gY?_gJ[ekC@AiRYQR??bb[G^ACFcWeO_?Jw_o_K_GIkGHDX@?wF@`o@OvHd]TH`h??JgACCI\VMZYb`?P`_l_bOS`lCzO@s?S{g{?C?GfFXeFDAAADPcZARmAlOPrx?W[AoAQXHCgAk?lPgFwjS?T?``s??bBqiQdgL?@qWODQSW?L_|HZsGl^Ak@@?cGPAwPAS_UxPK@WXIBJhIQHJ^GpBVKCQoRP`@cdGE[DROopC?CAP~cEaGOMHe?aZ@hFSNa@BEOtoCCAESOBIJKGQKfKMAVC_OHW[OSypHIBKOX?mqkDBBj?EKypSnbCPAMMmqITsB_QOEG[?_O_}gAOrP@?_oII?C@eVXaQCCzTROJJIosN}W?AG]A_PYGTEY?DNa_G_gEAN@E?WW?adE_IaNdCS?@Y,False,9.0599e-06
~?@cEB@w@?C@oahsSkCC[wOiA@[tMQHxgFE@GG?EtRpC_?}ya?BCMAHBbcluAQg?Va?I{ALGGAD\??IzA?OqAGHIYeP??EADLHKv?BACdBrjRb`H\gCTFCsUGBL?QC?sP|mZ?EglC??EaPNJBa?__@c?cqWUA?AOKo@SISOLoO@GCYa\ISDB[mr??eAeGW?gBYYm@RC@deALY@@D?QQ_CM@OiklgcFC@XRAbP@N_LXGDM@Ea?AAGow@OsYsPMQhDKAS`RaJA_cgGbaKhcCbLeE@?a@GapoDoODedIYRCScEpA?ETgcXf?SYbf?CCEw@OOodDg^jVgFFL^OW?GjCuf@PGRO@@wS@HDEa?W|c?sAsWRa_c?Y[QeT?HHGdNQwb[jWERDWC_L{K?JkZg{CwSr_PUAHI_CgP_@umA`bwDuoUoOGAASAS_BqSBpGA_BuhKI@YB?_?BEQiFe?HCkk[@OCKq@Ug?RcQqAAEiAoqpP?`CGOoBg_OiRcqN_P_SZMWlmdk[OgKC_?aZgKhdJOCIVYcPHkarqAeDgcj@KfHx@MOP@CGK_pXv??Ta_DKCfdMXlUHTG?oRHocWwR?g`_E_H_u@qOc@OELADHaCYCCG_IvC`\f?jvBRA_@pCxW@hLgSWpuck_[g?kBD?KgCAGLgaP@zVB?[?ebMIpIc?[`IU_`eeCS_GEt`POLR?Gss?CCGa?@Bt@McBR?Nqbeoj@U?WJI?XohHgJO@@yD_tsb`ADWcR`_kg?{@tSNX_TRr_AA_@A_gHoc?W_@DcBQOC[tTbycRNBOoIZoXR`J_IGoACZuHOzGK~oG_GccbG?DSq,False,9.0599e-06
~?@cAeg??vDqaOhtTpWPpD~cOSHeYA@ua@gACA?Su_Y@[G^a`E??cDqOoDBHJu_HHoaV_FUEBSACPiDQJT}oKO^_A?oJBiSGAG{OVCHS@_LZAo?VI?Ecdg?DqD_I_a?DihaSiU`ARecaOqGCRgPE`FOZKJ_QLPCGWC`a_J`Gp`dPKSZoQbOO[Q?eWC?Z?uChuGPdG`PH^DGOO\@OBO?_]HrCcWh_PLGVtwAsFSelYaIF`cqWYl|JS@SKCIeqkZ@HsqEag@V_A[@\G@HoCBF@X_XPqt?S]?bWH?BJYqODAGDN_CaeNGAJ`G[\|WcZWBABIGJs??AG@Q_QtRJbIai]Gi?ogPEpaApQGoHzmc?H{xO?ih?b@sOTxE??FoGg@BP?ACPmDp``G?QX`Y?cRW?SG@AGCjH`P@QGQE@?R|QjJPo?Q_\C@pI?REQfkwZG`@a_cIK`SeolOB_]?SY?DP?TBacqW_ZEM?GE@L^FGO_@RIh_gIsq_dP`cQ?isGSb?GCHACM`KCGF`LpG`wKvHyG{BhGh@ZaqSKH?fdDnCWiqGAWo?DXYhdSOEHkPiB?GSS]CuEcE?Ch_GON`m?@AS?gCXebOcedW?DE_RMCC]SskS_\cLAKB?OY@fUA?gDobga@ARPpD}Ai@Q?hCF]KC__`_WOcrg?oASQWnGGK?E}?pxDPcSacIOJkTE_iO`SwDsC`MOaCE~USCJ@StuP@b@pWtkCT?KKCYPcCJCoED@IsBL_OqGkKDygWiERp?wOK`a_S_DKDQL]@cK[Oc@SA@Ec@c{iPxC?OBAC@XHpW?sO?sAA_?^~`y?gqOsOqq?e_c?,False,1.00136e-05
~?@cOHEcE?{PSu?e_RCAaP?GD???N?JzHII?KAaomPGLGsrO_M?CWb?QeflcCQHQED@IJIow{[cb?SR@ciFvAGqepG|_CAowf?FiD_z__JN@AO?AYoKKO_ELWDKo{WMRAC`GGCG_hiydIQQgCkEfhMZUy_?gH_?PXdHna?XIvgCKDG?IK@_GAo_\SADQPBM?s\AHEh?s?B?ZbGd[CxHG[UR[GbaCpxRDA?@hkALIKDChFg?_cQSs\s`OgKQOSY@Ac]AQA@?Z\?Pm@RQcA{LgAB?dwO@Zqf?Q_?goQSh@OCRb?LCbLLIa^@c?r@h_uHW`@gLdHOOaWaBBZYBB@WS?ApKPLEtDlP@WGL{axsKFZA?xk@suDgm\@HCTM[_Pd?rZdN?NsEHC?@`IDOZ?qF@cCWh??UKBCj_QL?A`GE?~_?[HKosHAlAYdA{wE?c_lthCLCEHClCAQBJqS@Kp?Pei_LsTGCBKP{HW_AkBSOPI@pO_APDg^`bWCB@KCIGXOSC@lh?cLF@`BKeDkUIcbWo`PFDur{oH_@_G@W_~a@SGBGuTCbaChP?UK]YAFROAP?HXLRhXHiC?a?PHlw@Gg@_s`o?whJWtOE?A??A@g_adD[?JAF}bgoiO`?X?`CE?JDBpJHuygWx?|?O?Lb_?HjB_fdOC^@GaSFO?VPH?KWO??_BToMWKGAB@o`KIdIC?hJC?Gfi@iiGcoBGA?hSdOLK_PGHc?IZp?@yHH_ymJYq_WPACKCUa_I[EnHLWsHuDHBEcGfaEPuQogcWK?r]S?@lC?o][cmEIAxGcK]BlZ_jOG]_QR?Qd@OaFK@qKcf}_g,False,1.00136e-05
~?@cSAG_?@eMWu@rkgI@c{Cx@G??mAKO`JTECGOOL[Ks[MJ_CiO?plAWAOW?XM`XiaQc_c?MDyHM`cY@_mW\SOcC@_dBp@IDOYkXyXYNDwDdI_dDBBRGdYOf?JGVXEO`I?_S_`uG?AJ@CP_PKp@c[CS}k@?KDz?RpX@[OhPQ_CIue?IPmoKOh_S]EBGcEK?NKwDzCLNDAq@Gb?dO?IM_olaS?kdM?CkJIWlC_kR?_]S`aMA@DkBc?Q_\vPWC_?Y@O\GBYo?RaClKeCGDGnHC@RHAXfBBP[a`qcgxBXOoO_G@A{l]CE?crWJOLG@?L?g_J`HPqBA\ko[YGSlM?MH@GCFNa?X?G?xDMuHgMAchPgGq`GOJVPCQE_odqkc?UdGUKAsc`?E@?GQ?PhdQwP?AcgdJ_bP@_AIR?_cKAD?WFPTu[?_OBbYOwE?bh??fltdhEJ?iQE`HFY_ERQIG^A{KqS[KiysAWAQKC?CKukcd@D}}DRROagDGOgcAW?OJ`ODkFlUMULIVYtAeiCCgPoKjHAO][AB[XTGKoMgwAOGjLbG_SboUVfw?hIc`WgazzOVicj`gPGGIQEf@BBOT?aNRNEoIR_HOw?gCIaDKrD@uLxSJiAR?FCqC?OUKS?C@AQs?WqjCOS_M?@KAgcGS??COyQsGiac_SCGDj?`XN\AhpKOCAr?@@c?ycyYioc|`GCR?OoiBNAOe`h_PsL?IM@MAAk?VIO@CDd_osPW??OA@@A?A?oPiLKSsUJNDQC?arD?IsqTdiUq@@XMdr_Q@?pcjP@aB_Do?_IYGAdsoFOKQohgaYfAcPGAQjlGGCoJhN,False,9.0599e-06
~?@cS{kBCPDXE_@crR]UTIJGDBEgQeWcg@R[o?oK{S|PlOk\@_wLPLxOeoYLAEWXDg{fI?GG?AgV?H@GQ_Ws_@Ts`TW`qx_beW?_F_EAOaeCJAGO?EOegPn?A_WEakgiCAPaup?D\]Gy?AGk?wVhP`@azQzaqQGB@CJ?oAIqAw?@rA?cBCC?_D@bC_NCqAC@ITWBBOKaOESP?}_@D?zLQagAC~]Q{WlOG|S`LS?M_Dkse@ohp{ArQYDC?fGCASAKoBPDCpCEcE_?dV?dGa@oH?cGcR_jGgcKLAg\Hq_}@CAiT_qyWbolRGgHGd[BS\_I?EK@hbBQSm@An?C@eSIlOAU@CfPsTRD|@A_w_pDG]?LJsCdGhBWp?]?GO_ja}dLTiB?WB_bEbUhF`__FEEYeS}OcCFqy?@GC]C\?o@aHCOI?ZC?kKY?FYAA@bMKrSAaFJYMdx?_JGmG`mO@_UDOia`Ypw_ABBfAWYy?e@K_rH~XAaA@XI[uHHBWb`?ScPDwA^SC_hNwOKB@_H?CEOip?X`_Q?Kou`eGpfU|qN_`K@k_`QDdbKAcHKEoA[USDbg?~@dNZ?AFCIGqOQ?cCWUeEA]O_`AM`G_WCR_Cpq[T@ggPCdC??OASV?mxWGgsWZe`WLLKtgoU\Gy@FO@aosc?a?ADbs@gZAAWGQ?RmFqAPa@{u?DA???Ig?H?P_?os@s\?JWW`m{a_mMCC~iAoggowpHJDAzisRBmTwgCOI?awZpPSCBCGQow?yEQC@Aa?GSE_OS{EDXoBA_LOA_BOH@CCR@?IbCr{CcMs??m?YQqO@a}oKe@SCRoG?O_a[SoGA,False,1.00136e-05
~?@caBaFeIWGQIS??Y`OkRQTN@kGUP?|el[@WgqoKAkPeHREdOUYHA_C@?D?CrkfM_Pgc_BaAD_CihaOVOE??wO_?D`uOTW{bOI[?EOBAISA`XAayDIIcBL?uaqaXDP_re]T@kEAI??EeXQF`GwaOH_?DXb\`oAH_HWp??cAUXa`oWCY_OFMOOUIEoKsD@l@O?GePTrY`@@|H?}QY?KgMQ?kYc_UkoD?}E_TJEYB?g_`b_I`Qk?@??Ua^HTe?@SOhOTXtLs`G?HEGHCQkr?}?ZCB?APsB??UGEKLDGL?@KTArO@oA}CAD@oWK?WAXbfwGq@B?`HeUmVDhoZW]gB`nGSc?OIhGgHT??EbXAe?E]bXaYF`Mc{IShKDwEbGGcGS@_@g@xIROAz_DUC`@OPGW_ldJsR@Ta[BAY[BYW_kISwa[@WrgC?HWHmkAGd_kKHCOkWwJH?kBE_`X`xJoe?n__Lya?aicCWHYV??c_SBik?oDQWpGaJGPr`C?YwTIDUjUyOoahAAO@DL@_H`AFSGgGOk_O?EAMAB?b@hH@CEUXOWAXLBKN?G@LHi?g_FWeaOQ[QA@tKXCeCDFpfKTIGQOMa@FISRaIgA@P?yPKycxG?{C_FWGO?LPGCRZeYehQ?YkKsBaCeDDcSoIi`coCLZ??GCs@`BMkJRGW_?OAox[J?_qUJK?uIoFHMG_OYocMDWCxeGSXc@O`?wIkhKWUOGFesodW[oY?qQdg_dC@AOe~XSjA?iJG_DAcB?ipOFLBIK{_[AXB@mH?\HCAcJkpXE^}D__cazRcKFqpGBBcg@CzGx?NHLDlS@At`nM__aC,False,1.00136e-05
~?@c_I?`W_CWj_ocDpOaLal@LQCG_{QZGDIYAPok??cbgsL_SAAAJCM@BG?e?KB@STD?aoFOP?qU]HC~D{EO?@TsdH[@iAUGCcDA?jAH??OT??AIG?eBPKcY_ZS_OgNEacJ?`?g|Gdi?A?MT?`bE^?J{h?CK}ioAAx?O@QgG?SJ`MbMF`u]?h]xuOAw@UPn?AcJ?eSROdD_ogKEm?@kJICHRGEWFDMpGg@dD[PDCARH?UHPKzL`qDcDgMhE_GE@FWegO@u?OceIiG_?jB?DT@?AYs?@C?L~[G_AOjF_AP@G_vQ[Kwc?WKrLZ_ksBvbLQaQElVOgxnElGoKbBwgII{|`Ag[Ic[IAd?rWPRlCQwJE?KQf?R`PN?Q[D^@Rp?wW@ElE_L@?_vPziqQGBGTpiraCsKpCaADEG\f?I?OtC_SO?uOOO???dWWqOEXQjWCB@C?OKqDg`G?bi?J?PdO}@xGlcKajgGKpKIt@UHgka@C?t?wE?GCf?s_PRS]JRXVW?@@S_ip_aGsCamYGLkfG`eoCcbsAcBcOxCOLbRaPGGO{AWYLD@Dk_YRiOPdYlH@VqT`hkCLQ?`A_FpO??wM?A_?QMgU@?`K?IkyNCDPc?HHA?D^@e_DM@BYw@uRpiGsCOPXK@?W@C_A_Ae?~To??AvR@_NSCdIUyqER@gIeNLcQlGMadDsSEMas?a@EsR\KcK?EvGPGga_`DQWA_A?M_vRqIQs???EI@_a?smcut?AGlI`Hd_KGD_DYb@Kw_Hu@`gxCA`CYSQeOGYPvXbcuU^hAEKIOHBLA|EyHIXA[??OXMgAHg{CC@RvCgEAZWCZ,False,1.00136e-05
~?@cDOC[[EGK\CYdBWpdPqSOB|[pa@fFAeu@KOa??OOc@CJaSYUpBiy[mQyOVL@FPkWOGA?@ApAAOQsY_sB_BP_O_KZIooP}oDc^G@D?_EbcKQptO?_OFD`i?~@G`DyeJXgXJngG??GEStI@{?GG[c_?eeyhO?EOiS?c?wd?bYoKUwCO@dCO?CqsowKfSAaw@CdFc?RSQ@_EESHm_zoeOh?ra@dOT?QOfKC_C?RsACOCkJEJ@_E?w[OtEGDSscGGp_oMEoKDFRYG_Ys|rEPGXKAeoBXeqCg[~AG??dG{CRNHAF?oK`__?p]PDX_G@d_`C@EQIGZ??jzxWOMb`oVAqKGP]wiPQGsAP_?@Qqu{z?gK{_xA]]_xc[aGWZWCSPa^WaGOGEByGOwSH`IV`Fod?c?KTGWFB_?pk_@oCWQo\KXBO?POIQ_piCc?Y?CrHDWDkicmUbHO`^CZQC?wG?w?aBrCbAGg?C\?qGjGoTmc?RrAHaMPBkaCafCJYsFD_QORwp_Ot?CGO?L?awhIDQZG?Gk@a?AeIFA\q[wi_G`SCJPaBgcYOUI[QAOGw`ELc`TCFPSO_BfDr`VkwdXu@B?U@BaY`XHoKjIAAuHOA_Kxg@Wl?aeBDCH{HX|`TKSHOYJQAB@?`_wGBOHyxOdnJi?v`AzKoPCaOG_JGU_`\WRgkBC?oS?O??t@@HA_@?H[OAYkpp{GDucIGCA?s_hEGjGGBM`?G@CXK@XORrU`@rYhHHP_I??k[`BGEG_Mgpa@GGIaL_cBXP{GCcfCCgMIuSwAvU_Ch`?f_{SqSo@A|mIMTs@CGO?@Fa@?SclFQ[EXI,False,8.8215e-06
~?@c[HAEP?c_CIoEWb@@xII\ySASAPcT?Y\loE?G@]_VAnV]N\?wMRAj?a_`XaI`oO`?PDkRQEFDooSA?BMi?]W@DX~xFG?aFDI[I\@JKur?SOBVLXGBIsH_g?POP?w?C?dK_a|@kDEsxAqcYbX_vCIiHAEAsx_tO`BWCWOEd?W@KcCRQEL_BoGi?S@fFlGQA}_EIAg_C[heYw@??wGkGcBd?t?PWGK[kWaUDGIcWQ[XG@A[g?LUHGT`G?M_S`?daCvHOcPRhe@NA?dOBpcQeQGf?p@A@G_KAw?qcMaI{gSoaEdAQj|O?{AWIYoc??KZKuTG@YCHg@CRdOA@G\WVQC?CiC?O`PbO@Q?hNhGJ`\sROIoX^oo]Wa@WOwgpJ`_R@CCG_fbGS_@qx?uqq?bCHPPacdPa??YH?`CeCiB?S?DE`Crj?T`oWEG@c@A]G?CPoh?I?CBZ\??Ib_???PqJCoGh_UYsD`Gsz?CSED`Y]DEPO?@GSSgOMokswCEOVWsOPeD`cOAZ?yIC?cW_WoPACnU\oq\xSpTiAeKAbIH_]oEUk@AJCGN@ib`AsJAFpwgG`qGKF?QIQJpoC]bdLiGS@GD@VVlkYZ@wCAFURAjoJAgsV?ODH?LwHTGWYQa}EYV@gIEZ`SoiydwVH\@i_uOQOq|Yoiea_?_bIUXICaJ??P??@q?@?`}cGG_JCJYI?WPiUHCIRsOQOPW?`DNG?MG]O_EZeWAQHFA{U?aGF?pPbNEGOWP?Vk?x@oCBbEKI`BYIrAKyODo_?ALqAYCFPvKANA?Js_]AAYAKGpBsSccCHIEqNlCGC?DkO]SkQoJCh,False,8.8215e-06
~?@cIUgHH[F`H@UFk?d@JPOkTKi[]ICcE]NOCACEWiBWAHc??`G`EA?lOKGCg_CRMwYHWBCUKCBaiBg?Iw@JC?PC_oKWFWGdFO?c\EdAA@qS?rSHW|HPIUK`CGaP?K?YmO]`A?qAhBIZFUYb?CK??KOBX[oO[GOlqmstQSBdCHU@OO@ICCx@_@XDEC]_GhOSD?eOs?C}?bPPGIEHcO__b|BCUc_Rc?QmHoB?DiGTAYR?CD?xq?GSaDu@KPSrUCfLXPbhbAy]X_P~ixcd@gD[DQoFKBbQKJWctJrgd?d_EBBpZPLHAlkUo?bLoxC?OG?@yiGgAQOAW[@TCCaSW@g[??dDFG?ILW_TTcKGpCbUGJ_{aDKJrUL@jO_ic@?nK?bg{Rq\`?wXWpSr[jJ?FOG^Q}O??b@dUZ{aa@xlSbkBG{qN[C`R?_[V]UjAOOi?ByA`CGGpG??WeaGKuPG\??CD`YAM@@ZGciHeP?E_D?ioA?\UMYHoSBq?]Joh?_NKGWGT?_??Iq@`KEDoEsHS\oRNWGefACP}gAAJygLg]CEQ@??OAsHQ@jI@QEQ[?BGE@kI^?i?TEAAALD?B_KfKL_]Kpdb?hCHBG?@_uDCkdKgAA?UB?AxGOCHn`o?YTJWIWZde_EDChFLPNFrQ?oZHGBhGPalOjuQ?UoEA@_AAihWBxeqpsG?GKLIs[W[@xOCJ`@@PG?aIOU[NAnQ_Iiji@wx?OhOOgA?QrsEhyBsCGCX`_BQKSD@cp@gQHpCPwJ`_TCoGwRK?sK_RG[nNFQ?hE][KaQK`o_?CGEcCRd_Ao_WoC?uG`H{GnpDu?oSgSAC?B,False,1.00136e-05
~?@cw[EBk??[Qu@DHQ_?LHa?fXrR@@z_Ac`_?elC@Q`|??XWxgmEnCgb}GPH`gCAHXqkKP[`DQ_Ga`sSR?iPeGoU`IwPGFa@oSpgHAAGADgw?@AHEIhqHBIIbRDWx?FAoAEXBO?ZOO`Owh?S[WkuMWMpDsAGuIDocrg??o?DVa?GGSOMEC?CICsIDQDI?oH_FDW`GG\m[kI]xBqV?H]I_Gr?KCGMYjuCiGlFr_AKB?CdKxg?H`ybQcGC_SEO?sX?D?CWa`_@aLoOy`pHOVYWH[?mYQVEjg_S{BhDcAFPa?hA?iF_Gn[GpORiw?ASH[KdSBAG_anKPQOXnk_Y_CvrrCCc?sCHQ??O^WE@Oa?[SCEpYEDPDBptiA@GCgH?O]QQ_WSCDoKHGcRix_GgC?IA??@_Eou?@KogKgcoap|Wqe?|aOOPeSAPHxoWGGoY`xKoFKHcSB?FoA~Wo|]QvAAIdED?D{db?W?ZCCKHSQ`tKmHK?C?E?oJOFBYKcCAe__zjB@fOm?AC~_oB@eIeCo}wCBX?hFAhWKXxZ}EHbog~A@z`ASSXOYKSXDO\`BxGyn_rXZJ`ONWaNOIgEcd_WaJK@@y`aCEu]bBcW?SGC??SsC[mXWi?QGPG@GCCcR\\ICcEIH?tbqgW?QE??CGIsd`bPac_GJA?IG_NUbMfmUOQ|N\W?F?@WHGAUS?TE@gYO?QDS?sAfGhQAJCSdQOGO?SBDjoIIQPoCG@YgShAZHaGao?xAwaZb_SJ_AhagCCO@{eDW?tAFCcrBcO?Vau_SpWjoGs@KCCGAQOA?MHGIGL{mhRKoLh?CEB?ID_Ax`i_B,False,1.00136e-05
~?@cBL[CFsAwoA?B`?HbEOUACOeZW@G??iQ_o?DF{RCbRwKBcG_OKtBvEVPCBQA`E@WEpP@X}GkoX?{JZ@cWBdNaVsGg`ujAdCGloWt{E@@sQG?B?mH`QdG^@@OeKRCHapu?@?qoYV`?W_o^pbcaSP?A?CC?mPTgGTGZ@AA@DB?R{ATEEC@_JYMEaIQeAaa?w\hHcJAfPBL[BDQao?PCwHgWAxj?LWGPShBaF?CHW?oG?GAk_Ki[US`bTDsA?enBFxDGit?mHV_ai}APwCBD[iMOFgQeADRK[_`w?g?looQCbWA[_fylHI~U?LW\@_BL_@BO_CDKOKEKCk?@WWO?aBjKq@@@GPAqBO?CiO?SqKGPLJig[AgSPAPsFa|?a@WTBCcjP?Tzo__i_IP_D_W`L|}{LaSk`OAOgAQo?SPaPEKEfAdp]kK\?TAHHKCdsOK`a?AX@G`iPmWlC@?XB@cqgWdGh?TGLgAiBG?AN?casGCSCoPdCE[jocQ[oK[OEYSDT?MJBi?gkYqH?JD_?oxC@CEIMGsg@hHADYGOO[OSq_OHuKDEcC]xHK@CAWa_lW_dvWGx?MIaYYb_{QAG_KrXlUJdEG?F??Ab_MWayhg@JF`CKySQI_|qPUdKsgYcKbZHKsogGvhGSyWeoAwC_PC`KGGplCe_^BmcE{OMOpcy]MGKaI?_B?D@y_G^O@kgg??IlA?b_??R@a{Go?aCZ?x_SHKo@HODWO^eG?[G@c[GpKUQPgPNBGfWH?HYSC?jMIAOLGgas?JK_BawwkwDP?PwF?{Ywyc_YMazEUp``cBCW??WOGOkKsJk?A`?CZO_A,False,1.00136e-05
~?@cDuAGhbBs_CKpop_?fBk_HGKtPQYD?IU?SX?_sqSs?A}?A@?eG?qK[FwoDbDFcFJiGAafcQDMC?_qiURGqcBZQ_q`OGNQLUOB{G?EdOSfyq`_H`Cr?`Io@APDp?BW`hCBF_Q_^wJ@SO_AjKxc[[QG@RA@_CSqaCpQgCIdodGKP{OI`GH?AKwp_HCcYhoGVW^BY@ZcRaj?@?G@GAXe_hHicc_CK?rkGBeCZPCnPRI[XOo]SO_wGAbcwK`qCC?Ls?xAE?HhGV@FGAHArOuLwX_qGCH?@`GBg?TC\gOAU[IfaSeGHd@ACOSo_F?Bw@p?TCQW?WhPagGQUJgD?UaH?mS?WcG`?AI?c`AAkQSo_Xo?\fOqJsCOkYUC?A?Zcl@A_GGcAT?GMTYKEWnEwhb_DAdyRdk@WADU]TaADP@@GOoS_@NAAkLv?qI`UASEgOXa`wEDYz_`j?`IOgFOV_o__AbCPlbAsEwfMUW\YIBRuAOMKEEQJjU[dHf?_o]cXCmuCeCOPiQikut_yXogo_ID?|`NAKfD_i_KkJkcOPBAT?OWO@R?xJCo@ouGpncc`lWQ`JepGCp?Ai`qTEDCGS__hTCdp?EcOO\H?I??@m?XHOeto_o_{HhB@WLPIOaBAMACiRu`POO?oGRoyg@i_SBOEY_cS?_KGbnkC?]gC{_@C?q[_@qT?Ki[ZKs[ICpjkJIg??OLiAnw{?T`IH?|hbnHaCEoCkCm`ECo@_PoKTDKWOOdEHx]RG?j__DEEEA?hqWXsK|PE\W?dA`?dDQs?zCEP?WYip`_pA@G_iSH_BjPoHYcaCC_yAa_c?GmjjqCg,False,1.00136e-05
~?@cmg`CG`KhgA?PDSg?_?FuHCrKkBAamV_JgASGD@pZGO?aC?bUAC_TY_EBkbgeauHwo]?PAkAd~@QAwGOpOc@BCaSJjMoZiaAvtAwQCaSApG?BhqMGTy@ABCaPGFJ?\IhLEDCOp[_IRo`?Qix?SaeoAD?~^LO?V?`aToyLpGx_]GodETY??`^pWuDFC@|??[?khhhOOOTI~SyXgGbNoCOq`GmCWgC]UjKCoPA?_a?i_aOEC?HCg``b@E?TccIGEeEgBVs??nG?IGc{co@cOwR?CHGA]p?aKCBDG]C?|DgeIcG[TIA}XAWXmBNQbQYFOI}AqCUVpDJo@rlTO_xaaRYhsqGEzAhWSfE_?@?@`giuNFe?qoJ@y?CGjceSVQ{pWOaPCCsar?o`?PCgAPW`EDOGTC?CLD?_gkcqPl^GS@?o?gaHA?f`DagjRIOW\OOO??[oGKqES?XaO?g?_xSEWCgICMT?@uNJSA?Ao?B?DdG?_@U?hc_oltC}bb_EkLQkB_OIXkgRpEORuEC~_UDwGjIWB`B?Y_I@G_QY]?Q[GbaHUyYeX?OC?O_PQ_W_~@yPw_Bo@ppI`wLoPFCGA?`c?sOYAZheZ[`UwdGoGcKBO??CQ^LK[w_P?@EDWYiQApqXfaKAKQIKAsK?LaCQI_As?pCv@Q??rNHYGAo??`oXO?EIAW`?YqcWDOj?dwsBZJW[GA_QMPHGJQXPoa?OCASdGT?TqF_eOcC`I?SA@\p[?MaNaOIH`kyAE_xt?OGHCIc@UjGpSSdO_GHDcUvGSw_iyaEsPe[^`@?EOQG[@dB`AcQODbdCDgkxjQGoXPq]B,False,8.8215e-06
~?@cLor@m?PI[OpkXAG?I@FpcYa?_YrUrZYCqA?p@dpW`D?GHEEOBCMq\dpS\BKAHmWVsF}Y??OCEUBSaqu`DF_StA]cpRGjFDBeemUIe@Bwok?QIO_@~_hBQki?PS?W`Wbg_i?oK_LkhqfCHQCCKi\eQkQ]`W[PDb?ACppGRz?IO@HAaquSk??gIAJ?dnD?qClGDOZ\?Wi?AHDco_q?GWeCCG?AwGeAacA?FTQ[_aKEJfcFoaKOFOO?G_?qIQ}_KBpPJgeH@_iAiIWOSaEXcPEHIH@[tCORmoDAHQ@Oi^sK?BPBAIOGCGcyPm@YhG@G{Eatd_Ca_OVoQoGOJ?P?QI?b`c_GXyD[nHG^p_CQKAsf]GC[ZWD`aqS?OK]AOIE?WOtG@xG@]i{Q?CGRs_GD@WA`_@aQQh`?H?kgAaEDsjY@A?BBA?YWc?RQgLCOAE?dCC_CjPOG__eEKMeauPA{}okStCAdAGC_ddIVTGCFX@GGDAJXHHff?S?aw?AdCpDq?HalG`GPpHoOQgZ_o_EA@lZFtSvOJA?XfCMMlWP?a?oCOOC@C|@oOgI@CZY?lAFW`VX?OG@cC?Vg?S_W_f_@EoDkQaIv?DEyCcOGa_xP_Y?pgU@[GH__tEEDDr@{GIH?aWWN[Ag@FodOgCTYfHDwkHhRAyO\`l@DDMDF?xGuSdOqoADDG_dSxdGA__pbAMOSKhaEQeXR@nGaODFH?t_ChO`e?B`?AjYZ_C?EeP?i`O`W?IjAbGhwB`QQk_\WUCCWdHu|sQmTH_c`oAaR_WPoa~OHU_AJXH_gL_D@DMaQqQaTAaNTIOoSAa[gPMh|@,False,9.0599e-06
~?@cGLB_?yP?Kw?IDI@]WC@Pi_uDMG_D[q@BOQPHGyFDQcIv@]S~NJCfKZXP?AyR@C?QORfh@_W@`QC_g?@vOW_V__A?@S@o_?]?Kg@@_`@F_PAWqXE@]@MMaGW?Uc?AkBSEcG|a_mAcS`tqcRA?uOWYSrK{KgsA`LXGDs_{`ojgxCMGPACOO]l?BYAPtRo?qQBHGCrSbTaicIOGACM]QePkqoTFGGh{H_CAALQ@ZFt`@S[ITb??EH?[K|QiSpBOeIrQJkHAXzGOEi_SdGAOI[TCbX?[EcI_?]AaL?ybUxE??]@SoP?dZF_?UKIfcZF@`_@@^PAG_guGmKWorCSaGG@DGwCT@W?C?AYL@A_Xkd_GED_vK?IwIHWC``_glO_l_S_C]oxPAh`?_Y?nw_d?~wU?OgEoCT\E?AW_@CThaQII}fGAcCM@q@EK?IHj?m?o_B`dZUOOihbLQ[AFi[nPP_bspWzjDEOfCpDSJOC|PMOIKLKcG?XH{afPA_YDAAHSJKCt~@tIVNsoAWCu@`D@_KiOeIq?`{]K`?OS?a|da?EkWAiCpo\OOwOaW`D@kb?`AC?q_?OC?AGOBkCKjOf`f@P@cO_qeRwDF?a?s@XbgV@QmQIESw?HcW?\Acxh_B@OAQgQpOD]sfoM@o}?H@YDGIrBE`?Cjf_yH@w[GeGC\qVw_A`A?EdCO_??JGasA?[HWMkCgHgS?cSQSJH@H?ErM?WEVIBLHQWEaAK]p?u_]@saoWgD?CH@?w~mIwhC[sOQmos?HAGwqUr?AHs@gMKaCOUpPkpaWOcOECiW`?B?@t_@GAE]ry?ea_KOXkaIH,False,9.0599e-06
~?@cCPX@doG|hG{_LOagdUH?kdgb??_WVlExWAOCSgta_fJH]gC@@EMcI]?kEHDw[F@aoKt@tQ_l`cBDDI_`@JFO?yrCjHkK[Apc{dEMOMYWdUAOA_IHw@s{W?CCoIWhHEKFI_AE?fg?SJoSh_LIN[@RVFNpSSMoKgGkpGgWDdK_wTPdcCJ`ACIQKANSD`oTHacgLS[pFoJ@ZG\@?cYB_?B[?@DBMIVphWwQKwLRW?@o@AYW?XepHPG|QKWGD_Bw?@_{DqNA]eq`QTCh@ZHO[YBU`NL^aG@o[jA}XY_Gcq?pe?C^oQsPH?oCA?FP@cAoIAwAVBPCED{DXoG@GUmS_GFocBIGY_?ABsYXCe_KHZIDtC?WfMkOWEV@_gKLSAtFi?c`IAFbNG`GocOg?pOAtMHPF_Oa@PTuO_Ta?gWCAPGo??jKodgXIyhEq_@bDAE@]QCOCiCpTEHCFQiTC_}CWBAO_??_@qoW?heWOd@Ac__oc?iaOul_SGCJC`aoRBOIwD@MIBh_OpdQ_?`CD`B??nGk_XabG__CwO___k`YdKOaAIgmAoIQ?ocjHT?_skd_?KK?EgTaPu?ZAO@?aDcL?B?AEOGmWACbHBSRIOAmWWOOeW@D}nSBWEclTuglTHeOagGOE?`_S@PQ?ODdKSUKEQAacZCA?uNGHKSoNBIC_?HPo?J@z[G[@cE??CVPL]BBsCTOJC?APPCSAC_gaOIpaRe?URLe@@U`cKEjTqLG[PVWo_G?cHeHPpdwDO^b?C?GEEbHQh|{tq[ga_Yakwr?Xh__E`?wBO^LOh`@bIcLG@@BeEDJC?EaXfOGRxuIB,False,1.00136e-05
~?@cCK`IACAf_TLApUGGJKRkI_RDCDOFCMOCP`I@Go@dZRd?aSMHqQUCXT]AGCW`S[aQRw_mSG{AIel@]kgC???_?EDQIEOW`?g?wxTiBCyfT_GcEGCBIxo?@oP?IbJQhLQtXo^KIRH|C@[C?B_m?G?OAPghGOPeU\AVuGKFO}JDQni@HLIPTJBS?D`?G?DmPOr?Cl@FCPtPNHBYIcO@dWGIOFHKaGM?H`POGjoarqOL}?YXDCIOPwg_?EBm?@a?TVacaE[pQLsKeHZH@LWd_Jn@XrKGUGGlIramWDDiBZBV`gDLLZI_awV@gDkHAAbGChyT?HO_naMOyk?WG?mC_WHPeTICh?dJOH__kAGM?JO@O?R[EPID@O?SGK?LO_P\WC_BqBHU_`WI^O_VG`Cd|tKO??KCk@CeC?kjGaDx??kGUQbiIM|??bB?CaEgC\cWEDWdeWO_HGTJQgCuaehsFIhu_JOSF_RGGJtSogJAXCOXGdGZ[_GHRCYSOYAdOZ`KBDKaEjGORGOGo_UlhGG@W{Do?cGSC\QhCGmIoOTiDd`?TO?OOqOcGcgKhgYfS_UWFpDOdEA^QAE[J[J@C?V@da?dq_O^gZgCs?PGGBp@`OSOQkoAAKcpiGXw`OaWAD\`PEqQ[kSC_Dt@kYvrKUEShKACWIABf]gHQFCy??MTD@Y?g@HIAo{GpK@DiSMaOkaK@OMgud@EEG?zE`D@cBBPgXD]JoGCwGK?cJo?KjGFGSqDc{AoMAlOWw__dqKQ]cPCGPAga_KpEgD`@?YHBWMA_Df[CIVqGwDo?A[_?ARhL@`OIaT\`Q?e?o?HaOiaB,False,1.00136e-05
~?@c_rkd_oohxWLAW`T@kQcouO@fk@WIG@[_RxNIfPFe{SPCWsUOWA@nuGB`?FjoD[?XAAiFHF?B|?YiQA?CmwEL@hmSCI?gHZRf@Of]BKHTPJbd?aAZ?`l@KAEDAFAcCWSLW^JBGF@OJ[M`oBE?PPI[cOKAC?D]p@_haCYAbNiQ??G?C_b?_SGWkC`OUwy_DAIaAIWQp?fnd@GsHQy?PzCE]TGl_ZwpwQGKHOYFXSaA@Ac?EO_ocG?OR@_@PAGUHZ[GhdY_O?h@B?Ocf[Otet@osDqHO?nGGBFpHk?]HeHC@Q_EJj@JRgGR?Vni~xhIAAtAkIgCWKBxO?GPQoARGUtH?]gCgcKpm@?cHT_bw_{O?SiQcS@DOP`AOlfOhoGAL^QICHW?]CgIPFgoG}`GoGLCGgqoL_ofEDOoCG?aG?OLGbAH`OKr@UCWMvGp`GGCqS?O?Ka_SC`NcP?OPa?osIOGVUF?cXmSBO~KUo_HAc?GC@???CHgCKrQQDQc[YgBagpGCISKKEtCAXIAG?urxCZqOP|Pe?So@DcBGOh`ck@A?PKCs?HstCC`_HF{GK}@?dLQAWSUPfO?@c?wiGS_UGMaSD@DH@qiSQ`Pk`OSNIxcDOKDWcA?kCABuQvqG^PHWcfCOWm{`G\WAO_?}ivA?le?wQ`U]rCs@PijA@_rC\A?O?_@BQWGWEoGOQqka{??Cr?T???XhOCa?EgQI@g{BLA`V[AHoiAEAFQ{]xQAW}pJc@Kqc?GGGKFG^J`Mhkkgc{AfHIGGM_CEOMAFwX|QUTE?AJe??ELYFKEOo`hVpZCHOg_H`B?x?QpCgF~ck,False,1.00136e-05
~?@cSBCO?ECU_hIK@ABiw__EB[fIOC?IICE{Nst_TB|D_P}CC\wvDZZ?oq?tKb@T?QDaPESQiCDNoUkQ@}H_CGqc??gXW`AW@A{WCq_Ic_Ec@hOAd_ZMiTUidkjNUESeEaX_DAO`CE`aYWO?C`_BMSHAUOgJ`wAAA@@?PJGQA[HBSP@?roHA?bKHKttpi\jaV@Zi?JxEMhDSo@AOWcQA?RG[wes@YPSN\IHQPwKoGG?P@COFHlgJ@ka?e@_OWoGg@AniI_?Ud?tYGHoPjI`?_EOsRiR?PKAOPkL]e@maNgXKGce[OBSdAsy{gas_M@_I?QP?GK?Ctf???O}wQbH@C?Y\Wg_cG?nI?Ea@shBF_GO[iCFHeWioE?G_`ZyPAL`hOU@_Cy?Q_KHYONV~q?QOGY@CvCL_W_CO@GxA?n_iIjTmAp\?jqKK_AeJ@PFz?_HXJGF|KsiYGW@?s?KB?W@zAX`JQJcScD?_JagS`JPbA_h[K\Ro`Q@ISW_Qq?d?G`VLkRDTgoXuDnpQ\U?_M`@`F??cUCtOcH_]@hET?SVOoAC`oJ?chIEDP?PYgszA`LiTyBOSDWCQ??Wc?gDHOc@PVKnpDCqFUEOcPOpKNUEESQOFcZ?@Pg?DCgDIWHBB@T`Yh`@?HIEqoqGX?O@VOBHKwC{e@rI@PhBbL_BEOsVbG?aMaZKRGFHuGTJq?cK_f`iK?hQp@S]_dBoAQNZPDgA?ObEkNoaUPe_gBQ?cUQFCdU?@_Cd_gWO^oadM@bS}_OOADqUS_BSUCIwCT_SWKA?EoOCc]oK@dWIiEUC?AXW?A@ShUAC@@gEL@@{GCu?O@,False,9.7752e-06
~?@c?OQ?OEa?fE?iEDop?ANBOWAKb_H@uwSn_a?JmfS[SC?c_XEBbukqOTvcZSPi}oAsE?AcG?Nc@Pah?_ckeBy@A?T?ep~Ag?[v?PDe?pC@sYGPb@cRhPO__BEXOgnAX]koWu??IJYULUC?HClG?OWqyoE?AE@HOWy?RAhm`B_CI_BI@FihVSDK?JEDaGAGLGATCYtIVIH`?U_EE_CWVDYE?Xls_S\iSV?G`kIdOBCgAGQaAk_A@GRcVWK?JsgCg@CHAU?o?Msif\EgXXT@JSGW_S`DAbC?A?gcJOa_oAGj?AyQsoDOABBq__bSqa?\C_QgGCI_AOL@?OKaOBWOW?AYUGCB{dsW\fA@nDrO?A_`??C_[?YY]HpSC\IaBGeOYwcD?K`ADno@[_CVxgIY_H|NC_SOo`CPcY?BWAoSAmRFsMDXJGA_KgArxB__fJPb\iBH?pyCtOsCqCcMEcKCn`[{PJAAZ?b?Uw??CfW?nIRSGd?KJwiymdOg?sWE_P?EKIsB`EaJDGgSFI}W?iGHL@w^ql?jTIa_PkXLeUDHOsE[kd?HKcGS`_GNgsGgt[a`?e?gPGaY]dALkgG_?mG_?I?WXqEBUQD_iKDcGYcr_VVX`YrcSaoDCSYbSOsIggAGYG?Ico_GxWHVOOhMs@K?`?T{eEAA?AdoZkCaAAMGYC`W_\OpIzEyAuDjGZcbJXTFCmYU?RAMK?EQoy`cfaDg?^O?BQKmxOC?XDHII?YAeHAgCeGR??@@bU?BcCUi_dk\WXbjKSg\KO?OHWq?`CQ@igiKEOoAbb@h?H{OIS@?_KNGL?zEOQ}LT{AdM?YBc,False,1.00136e-05
~?@cO?G??VKbO`GPwEEOQOqQo@O__@_ETcGDJgCECeiNFPVOBeKqiAx@@OaGrv?QCGOEsFdI_EXstAHCY_DDuF?ObAEloJ][CO_MQ[B_ogB?_IWWE?Kbh`XlxGOBASn{C?RdCBYBa@s[Cl_ltCpCcb?SkApKgAiAxCKFACPWwb@i_sGGeP~Aoa_A?a?SAMA@Smp?qacgDgiapQFdFNI?_?_AG?oV?wCCWAOQA?GCZ[h?zcIkiJV?AsWsy_K`hc[P|kWcMEFEOABC{cOAOj__G@qGXgGkG`HC?aG@@FEniJEQIFACo^@]ASagZHIbg_Oa`[KJ@Qk?KAPW@_GA[PgBK??o?vBZOS_?Z_KGOrc\sLCAGOPBg]^PE?hgGSnhaeX@OjcDPsoC?kH@oXaQS?wYjAO|\IIh\SCSi_dIAXbGPXI@lhAgg_K{A?sHzbc?@?CGqd?{Il@O?QTC?SM?ICcGaf\DaeB@RHHYlMVF[a?KwIKMuH?xApLsAA`JocGagkQIII_@@gRmAr`AceiEGdAP_uGKAaA{eAKd?oRjgI?G?@_pIgaQ?naewG\zK?yB?[?Z_GIAhS[W_KHAW_CGFKkhLGpoAecAH_E_eYAkpU`dE{GHaMSoEjHqC_@E{OcQkgCsaSG[@A_@OGO?Y?CpdGIQnLpTmD`Y{cXB@cOW@?tFX`fpIx[CqoLY?[@JoFXLAg~Fw?XBCYMI_?ZGhBAo[k??bORFoCOPpGeGPOb@BFsJ?Hu?c?CiRGOmqSWeEoWG@y_@AqQSHoAAfCGaHI[m`?bSoFSN@\kOhXlHKOG@qAGs?c?XA@?cFNhSOxrIrk_BP,False,1.00136e-05
~?@cKX_RoOhZHPL?_o_e?EQZHRBHgOsIlKdZG|CQOC}E|?AUsM@?SC@vFyXgJ?_a@XPgwB[?[?O?wTi?OB@OgCCGHiSwsWZOBdI?d_J?GeDFu?xG?W_``hEcKI`JvQoo?U_gG?lmC?R`C?PW@BHONAZ~i????AZehTpCW[HausgEecKBBWgWXehSQQA`BXQgy@@qg`D?HwHXSICTo??CXTyg_HHoUP_PBZSTOUDYCG?uFQ?_oblPhHqQH??oQggXeDKIIGCa?Ch?QAUWPOCCqd[gBW?vHJB`Sh@_oE@@TsC?S|`K?UpjdOQG@?Ias\hhEOSQ?@_?RU?@IiQBAAQCCaGI@KUCWGAqcHkWWKO?gAH`YKoDGU_AtBMjyXf?CN@ARkwGGTfnHa?gCLFdOKRLQO@[UUNz[IjsQPRQinbaA{o_[WeCI@y?NO?_OIwp??BheEc_?ihK?}uoB`@{MjxBAh}A@c@H\?FApBGBQIm]VK?IS@_HYMpDAEKkAaASMRSEDEqJT@GApIOGQA_Bb??oAodG@@CuAUx?QU_plyIk?YgB?sbcExaB?mrO?EcMETIT]Ca]chVksJ@DaXgAP?fBSOHG?BUSd?ekaHigr`W@cdIhG@s?DiPG__G?Qm`QUocPOCDi?RAas`??i_jjYkW`[Ur_TAbZ`IJ[tm@quGgH@HCBPsqwhsM@KgGOOEWWm@OB@_?oKgyHH@cgP@JSEA__I]GzPGfh@B?KCT@NPAodGkOwKIHYipz?@?xdgDG?E@_gGROCF?c??[?NBgEIaE?okgHBbHQtF@P_DDctCOPS?Gr{sFNg[ApWKd?rDgOG?,False,1.00136e-05
~?@cLoB_Ogjg?YTc_QI@Ai]?`@StOCC`PpIouCn`FY~Q@QKMRBC@Egcv@CaA_C@g?QH@`bkBBp_OOAHgESbfbgAGC@_?Pe[hoCKN`Y`HQmaoHSyb?o?QQcHA?{V@CJEDoAGPGcK`Wh`AUb@OGAeQHCD[bTRI@UJo}xccwAB?EFov?ddcXQKapg@g_{H_JY?GMDLqEjXqGSGsNPSKTWWPTC?omEDAWR`T{ABBhOODm_?Gw@hoAgAjAHU@JD_At?cOUdrc_wACSctdG[S_@_sT@ID}PMITXUUd{KTB?`OABQOHhGPDcnBx@g[_P@_\KpoGFeWTA[`hodBACCoR?GLaGK@pC_OicDBUb@`OOb[??nKnGcIrhJ?D?BDn?@HK`sICkV@?AsEA?@DOKEQ|bcGrCMtC@OqqMUVW?cPP?sC@Ad[E?`TDO`P`AGY?c@wSAKGE]TF?uGU@XGWFCGwxGUOoc_GifOuECB|@gQ[WCP_c`UcPK@aTEY@ciOUGdH\Nbnm\KbOBO]G{IaIOC~ioOAHCO_HGcIpkSRg`@YGgIBO?MuyO_cabWBocAa{K|QXIck@KD?GIWYcGEWXCBmCOSiGeZBCCKHKr?pUGGtXOUBMaPoP?YJ@TWHhb_AdOCo@jC`@xA?@_M?iaeG?k[N@?]rp??_Q_M?_?GSKWTG@q?FTOLPoxCgr`BVCOq{iEj???TIKWP?]X@QKWw_BpkGC?Ao_EAbQQPq@vFQGMWhmIrXGDlSgyDs_h\?DvGmJ?QK?BFBAoAw_?q?cwrW?e?GpO_HBoxPcGFTG`q?[YDSAh?qROOGE`_Z`yCfg_CzCk??qK?,False,9.0599e-06
~?@cgGBIHPA?_lAhso_Bqudba_`tR`AO@`g?o?Ka??_Jo_LZMp_[@G@FAfGpCliu__QbxNXHBtSK?Abl`EIKA@_???@Uo_xCaOcaHWJGb?w@@vkNaGJcAQ_mGij`[CsiWQCCqO_J_XPdGb?uIWLHAgaWG??K?oIce@UEk?GKcSGOacXrcOyJTF?`GJwkvCwHGdOQ_sPOO@eO@`KuJaC?O\?SO`R@JKEJ@`?`JKS?g`AG?mUP@_?o{sgKxVPDbHAXAESEEBV?GCUII?B?T@TOUy^IW_jdP{?GBcE_CW_M_QPCXRBg@AF?Cxz@?A?EKH?k@OARhhhPF?RA?D^o@P?\DTFgWMQdQD{ySz?aBbbE@HKzXHQM\?@@cc?Tog_`AQ_`AUG@?BfqfO?KASG@?AGx?_??j[bD]|glIXKIAwFP?QQ|pGoFN]Aw?YAo[?g@DuGaJlG@]Nuq?`?EID_?gAgPe]CeCT\MbICborEIX?g`_?_LH_o?_VeH_U[KAg_aDxFib_pIOooKIOhgKSyYMx`wCBBMgHDkGSPE[RDbiKy_uCFdOc[K@DOAJGCmgXhAaSG_hSCwgUP@MGc?PTX?rXG?UT[ADlpGQISLg_?E?Q?iFnEA?_T@_c@@fG\PXMpg`OEOICDOA\H?a?@VaS`DOXPe_@tY_yL[J?SJ_Um?@CihEcP?VE?@Sy{QAYWDZpDMo@ihFJsAWSRkaDwR_sFCBi?hgGEq{oNIA?nOd?rEBAWYGE?HC]RoULGRQCH?X`k]Qc~OPGSyCADYD?CI]cBE]gPW{c[SgXw@qXcXZGHbqfQ_cCc?MMMBxC@WcPOPGg_BS,False,8.8215e-06
~?@cIAiHG`OOA@tPig^pc?bC?XE`dgRBG???k?@C@`g_Bt@E`?`W@AbEEo?BEb_?EWGIcgci[pu@?DTorA??WGROG_iA?jjEAHQgP`xYu?DIG{ACw@]iOPxO|Co|O_GS??OKr`NEhGA__?agHDyRI@]a@CgC?cXs`q~QVCGleMVi?O_gX?PgFFErXSg{OBYTOAGG[KgVOHMgNHZk@Q??EM`AKj[?C`?gSX@QQ??znGAP??oG`QKxHhC?FIajLU_mK\iIdFeGihKu[E~KPFQJPeCu_??ZoFRaBXrX_o{?F?PKGHQC_WdFiVt@|PWW{?UQ@OCRZlX\HFGNCR?RjGo`QAGc??sS_OkIVCEWihWcpQNHH@CSOe_yg`AbGPfDAC?poAgO`@BAewJGGk?_HUAA??bo`?WAwrFKKOO[g?ObkpG?qIAG_QF@E@HCcE?AOlSqLrsuAWFVM{I_GGWoH@VbP?wSF@~EOG@W?yARJGCwRAgPOKLhg?IJGjDUH@H?GBPUXxbWKYlI@mwCTCYGMCWSeIosBqiEcKQ@YECh_TCG?Te[TL@H`QG_w[^?Q_M?FpIGGQF_H~GM?EDPadgS??A[HCA@RgHAVOE?a?HEIBEyDO{GWcbAd\A@XDEFR?w@PBf_HEdQP?bGPCDoqcVMsCIP?iGQSIEKlwcDFWtsrB?JIaC[hXG{AwkccfHA@HIuC_SZUOcx@phYNIoIKEc?gOy?OXTHBoOBGcUK?AEccO~CAPNWKpuzcugC@aj?DDCrAHgIE_AWl@?wZaCKa@sGKTCCECA_MAEtqNPB_s?qIaG?i]|U`[ISc`HOojI@PG__s,False,1.00136e-05
~?@c_I[WHBCVWSGu_xp_aWSe@??QCK@HUHIHQu@eK}aWCeWaqDEuOOKyLO@E_bW@KZIUO@hL?CITGdiQgWOD_OoxXC?Owkp[U_OT{?_t`^_LDhIoJR@BOX?e?|AaKs@{`lOGi@BwOI@?oOHJcUzCEDPRqPpCH?Rs?Dg`Ia??[qjGKW?I@QsUEKPVWEHmbtBhNOki`OA@A_GOYuCOcFQ@bC@eO`sp_@EOWmG`{GGOJP?a_p?YQAoELX@RDirO@?ZMx{?_jO`j_EbEW@\@`AppoXAolQ@HCQOWOcq_@GO?rg}AEq@v}C?kBwDWZH_{XJ??OCtgGmEwOlxTO@Bk?IjjaConEUI`wp?Ou?InBH?w@DaCAOO?Q_Gafl?qDHMd_?p`_GQBcCsZ?[bWCFKD`^PhSPG@C[A@oRG`TeHQcXWVeoOXw`Bc_oTaA?EGrYS`e?h_EaWEvo??kS?aWiH`D@_@GiaOGs?p@bCLlD_BW`E?TGXWBafl@?TzDg?KQDGCOG?I?|MLNQ}W@GbKC?iiDuy_jp_@BF@WEOFY_PQLOPEw?bKIDKC?aKEP@qmaKA@_kHMDb@c_[IFH@_gUyKfsCw?HuVFDmTP@hO~GOs@___dHA?h?_c_OSIWtD??C?pyQODiqHmvQcH?Vo?tO_op|aawGX~GAX`MCAV|aT_AM@azgoKGM?YD_BfgXGhJ@?DZP_o?O_KX`?\?jMGcbB`__p^JLH_GOy?VBT`K??YEKo`HF?QWdcB@@gCQPu?COB?__]SajSN[MP?EQtDWR@{I@ROOD?hLbEKe?YGC_HPBS?_MBmN?CNlP?RO\CFADIlAHi_,False,1.00136e-05
~?@cnCsOoCTBOObUFDlYt{SHl`GAwAAYpEKAOF__Auo\@GaaGh_IaDPpgHhG?o`Cg?dCIey`oBE?_DQlcAQOnT`WKF?m[Q@cRaeEcDlCOUu_eMGUE@_Cqb?OiBYGgIAViFMK]ooiAc@R@TscG`BoFC?ISsSP@TL?CC?s?S@O_QL@_XOZHOOSGQ`LzgF@Hua[]_GS?goIeqGD_xtOh?zH_?\H\aCICT@aHs?QAiMcd@AGjeIdqLDz?b|jaDWKoD@XAT?O?KAUQEA@fZBKCQIT?GAWOAk?bc^CPq@of]Is?O?GaGECbHO?aIOdPXFgGHQ|PqBHHj?MBADRyTdOOCCPYDTALGGHF`gDrISK?EMSGG_E@|aAyJauSxGcGaSJ?YE?H?o@cTiU?FD`uXkIoc`G]IKqLDwpXIjSGEC?EPASwGEgMa?{LdBSECL_HfU_PzEuOBK?K@j`KBKgcvhGHCqyMEd_K\EER@_WEGLiCHCa`C@AwkbX?ueOSOPlMCPeIL?_?@OWSm^G?@SbOo?wxeC?@IZCTOFos?qCYogQEUAjuBAGAEDgcWDB{y`C@Rh?A`?GEThs_QG`IoPOjGBp]WD?cSp`YdCqAP`JTaDi{YicE@POBxNWK@PWc?_oGOQi@KhObeKlmNzQ??xzPpb_dACO|?{fGZaW?OA_AA?boWCWBI?dOI@sD[CAYcCOWA@L?XGJ`QC@C~n@oobID[YKgC?HKoAe?B`NGOOKpo{`OaCG??OOtJKAqDk`PoA_OlkLmqgora?aHbA[EGKDd?SkCSEfUIEgkhcwA?qo?CxGMC?SA{ILC^`Kr_??`EGcKEPBU,False,1.00136e-05
~?@cowC|t{AAqhVHeRQ]CueSsAoGg@?A?ETfaAAEBQIAHr@GOd?GL?HwaAM_QQJ?CCRgGB?IkK_h?dCLRdsCf}[_?dXGKKuoaZ_NSBgQ???sNQSgG`c?_SbcG??_BPkIp`LrGSwW^F?PUSOA{@BeHWCCqM?oi@_OK@cO?IKLCu?OqAQPrphWIB?gP@~AU_BKn@?kcgBgS?NKSSiMIPKWGGFP`Ua_KBJk_G@Aa@hVSGcKBMl}Cl??@?`|[GcGAI?aAfSCi[ReIPGs@__?GGumDAH_PGI@QcA|W?CctAOyHcSXAWABG_GP@{Q?I?ikuiGaW@CbD@EJ?@DMBmSGCR_O?F[PKGtk_eFWR[CV|TEdSIIi??uOInMcs{mGWC@?AR^B?`tOGAB?E@fKCx?CU}?@?@G?SQgOZ`gEO?_?aS@?QbQGaKwBPdZ|C[mE^SuKG`P@GBpORoCCG_PsT?GL@RMvD?eOgcEAo@AojWdJ?G@Ozo?AhpWdPZdLKaSGL?yIIGPb?JCASSCLAsOHLF[aAK`?iXAY??ESqKCwoCDKnUT?TB~v{`yp}p@SN?jOAzATc?aGtAIO@R?A[as_E@?k@?estT?`??A@sCMkOCPGSHrkSSCg?]HOHCb|vC@UoXAw?OJgYPIrQWQkd_b`MAWcNPg?zBpiS`\W`ICBAUBqIcPAAEnQH`hQ_`?O{_CDIE_E@G?h@`{GhODcCSH{UGZQG@DOidaMH@_hN]t?{aJiZMCuGKKG_Dr?AbG[ZSB?S@ndUb}bIIGBccXdhhCoU_KjhSy|@V?C|Lxs?zOLGGfFAGOpRc@GWQ@XfP?Go|FSGAIQK,False,1.00136e-05
~?@cC?A]?^Be@EMT??[wXuauyb@ScBxHBsGCAYCerk?AKI?aRp@r_wWU__DaAD?IG?COECccEZS@BH_?VP@f_|G@dB?HT?_][MnDioSQQPOGs@p`DcG}OrADUwHADb?z@LCJ?JWT?@TbvDME`KUHfWCQ[?bASCJmGCbHw?oYOUDiQw?{ARAH`?@`@GcgJclrHCjK?AOBS{e?z_YqFp?|Pb?_a@YIG_c_PHH?{w?AHg`_akS?LI_Dh@PTaMTdexGMcLW_auYP_su?nV?aEB??__RpPYSBI_x@FiGAMCIAoGKOkKa?S_D@KFY@K?sCPsd]JHfOQk_CHAO?SCA\RBG`XIB_DAWqaAGK@OTCNAcgis`|?dERLid\P_mRVaJXKHWw\WSHADODa?ORRIAgBoOQSJYG?_?}`b_aCOAp{CWDGZcWKtpQX_gHGPaQZ?Taa@o?yNdaakOBG?@A?QeEJrCIK?PHwDBJIqGCC?|xibPTcEAjHrAAI@?KHguOBOWa\__Ls?ZkAc`@rFdw?RJGcGdRW`S`GocE@cGCTbO@|A}__{O_`s_bQXFAuSwIUH??n?E?\?SRd?@CSgYJ?EAcCAu_WH?InP@RqEAxZ?^[aqh_O~Gt`jei@_QcceDAEdHApbILuQ?d?GcaAB_oHc?F__GdMOlB?EsFP??YUwoQQJyWy?YLTyK??DeI?ecYEsHGqV_??RN?Sbbp_@SeKMIma@K@?QYX?z@Sm[h_U`?aQBBUbpd_`ACA_oC`iV?a_SCP?A?@icDHDfuALGIjDdHsoiK@__ol@BCiQO?d?kUvF?qxCaWL@WsQi?oRJ?xII@U_E,False,1.00136e-05
~?@c`OGAO_bHg?Yk{DJdOQ?PWBS?JQsPPaH_hwAHK{JI`^D@Cga`t_GP_O?U\WW?WHsPrjCqCA?Y@o`D?`?qW??n^FkU?QJ@DoYT_?FL|_]mB?|wGOCC@?Sh_ehrwkGDO?eTmikCOA[WnM?oogBHBuaW^Sqwo]gCZx_d?gSEE?AGymkWRQT?HAiwo?W?JaBgT@`IKKDCOW?[?CKg?JncdGCD[UGQ_?Wpo`HbijhDHQyo?S?@mAmVpCCwUiA?AEjt?WtGSI@?EwWoab@cE`_CQ[I?aBIC{OQDesaiBIQCG{GHAO?PaqkJd_PAmf}ViJP[t?U@?eFIOx@`W@a?Gv?hYZDGA@G?t?kPSPOoCcwSgAFo[?v`GPCEDQQQMfPW]pJ[SHbO?H?XOGQXdO_GEo?@c?CC@MehO@FcfSch_FYt`@TI?eo@?_EOhGPV{GFJIi??AMWd@FOCJcS{_GoIC_@}UuqGDc`AAOdI_haYIbDG|FrGGnOScKCQAAEDR__ip`LjxEWCH_aI@DOHGLbN`@_@]GKA@ORm?B?_QiG?AGI@{?GUBJjLCo@IhAKpToaGQAAa`m_@L?HOCXeC`[AI_gv?a_\J??XC^O_WGGES_WIO_`[KOySO_EG@?nDr?bCQQAGYWXMoOK\EgubodBK{_DFK{PqXUA_oAGF?_?AIeel@T_sCkDKR[WdTT?M?BDS_KYcw?tHsD?Q]NKQTBXA@GNWFQqfyB?AJOgK_@J`EUQ@?ASxnsIcaFRII?MAPK@w]XMGo?bPrDLCsC`rse@EQ@qCN]_Y`c?PwuOQQ_JvII@I}KarO\agD@V?K@OPAJsu{W,False,9.0599e-06
~?@cGiUA_QboXdKCNCCHLK{@Ou@E[?CacCcMMiGqG`Sg@bY{aOhAR`BAAEW?_du_GGS_AiWFAwJcQWouUJLxCGd`?J_ycUTaK?Gh_BYPMR{?@\^AWGec{?aD@GQcEAhCAHcYOaMe?_dR?w?C_oS??gxRgdglKJG_?_QOeT?rbC|dsw_j?dG`QIO@UibWwE]la?@OP?A_BG_B|_?_Bqp@BGgaUF_FGACKKCKoCDGiw_o@?g@h@wk@]X]Jv?H@Ky@paLF`SOc@DA?EAIDbCAoGstQIoHObbWTBCbga_OqaXgKggPIQDq@O[OfWh]nSEOokA@o@oQWAcOQOjvRAP_}`GZIDHGHCcLl@Cej@qCAossAF@w@?uIabtAQ_DdHIHRJR_OhKGA_BkqAEDO`?fQGGOQ?n@h[K@S?AA?XIzSO_asC?_ZKA[E`Jfi_PQ?Hq[GsC@IIOcKKA_ICiGAwbrhA@GbCCiXzMWClCOhI?WOAW[SEEOsWOOc}`Xw_oWX_CxTFe^T`lZQ@BQ`EH?C?yOY?Cpcc\?CIuq~insZ?G@_EN^ZsKACL@oOGW?qBInSODOoaC_A{hJ`Ak@MXOCPEgS_]DOgGHQYNC??OVA{XCGXFraAJ@NDKwcH??JOOXcig}J?eQc?I@UJ?AfPcBA?vsxagCBJ_pWPGpCoO__?QbCSxBFqC_ZPNQaG??MO^OBcC[HwOO@W@CgwL_SiojDDoAB@C`sAahjQSIOUkMFMYGd`@WEtTOOU?oES}pIBCB`RCoPlCHtGLA|CPKA{iRqpGG_SoAc?dQ_tJbb`tOGCCoFcMY\@?d]ASEZhCFSGALTbOQQ,False,9.0599e-06
~?@cL_AJ]?FG_q@BsRr`hNaQIaMgo_?SA`OOKKk?b??g`f?@sbcHwDQU\GXAP?g`EGEg?OPE?@@oGdEcApSc{`AQ\wcEhOeLITGcSXPPKQGOz@OUeOH@ZZKbXKC_lVo?_KSu?HBPpIBDnAqJz?ApH?BKPGAQydFI@Co_Xc~@sTvS`BAW`aI`acIKdGAlsAgOAh~gI@`_UXeigPyWl{p?WOhDa_?@jgBoogZTZ`H^WQ@?KgAcGGR?QKcOGeKjwG?]?X?A|ZTU?ZDpXG[@GYSA@]BQ[AS?SUS_ShB?{gP@SH]@OrGc]AXGU@ISaz?XQeQDEHXSI?SapYtD@w_wkWFXUAs_?bGIRRabhQ_~_}BCcacKgc_cSZGiG]G_HST?WD`@w_[DBeXOKWeEgJh{gM`PXJA?hq[Q_YScB?pc_?kajnCEOOLBfOIYGOKC?weWHSq@GHAM@SoqDOOP_HAbGGgBi@OGCB\CiG@LGJIENjoIHLUTqO?Y?gwaGDUGHSAMI@N_k?@BOoDOtOC]eObdAoAP_OACTG@SHEBPJf?IoLIwdgG_C_?tFD@aAOGTrDR?SSF?_qP`AYwccgEtW@AqsP?@A_Df_CC_QZaGGWWt@AB\AGAYSGE?OU_G?lgCE?OPKM^o`mcUGgA@GJGGyi?IQa_@@DMCaX?_mXHEWtpMxo}`UGe@w?`AmHL?C{Yo?CLC?GCxsB[@@Vmcu_?u[_RS@MQG[_@WLD_SLPAS?GIPYEJQcSBSEBCaWaCO_o??yGU@AYTHk_nY?qFewaB[RAia@Q@FpJND?AWWVXAd]AwXGhQdycG?D?N\DWseHQi{kVOL@,False,8.8215e-06
~?@cLWiDoypb`Gg_g@_QwtaC]@GO@[YW`ibA@IYAEXIOHKfAYA?LMa?BDZ?WOmA`F[Ca@yGHbGgVoga?gIwoKAO?cAPCh`s?BNWCC_ucCXgPKC[F?pcCfEGGW`oIvh]_O?Dcgasus{u@{D`Ttb?BO`CrbKYHhD?`mORPEBnPWETR?HpTzaLP?cECHRH[?ho?GQF?ocYoO?Ic_l?__?AaGqUAKP_aeOQOCg?eSjWb?Bd@?_Cbf?VjIqSxSWMo?XK?@d?od@bDoAiPbOAsQRLT[pJSoWpCuDC@DE_MCKwa?MPuaK@_C`PMSSnBXA[EMaFRPcvCPaWXSoQOfE_K?s{fOgIo?A?da`epAlAI?OODWdEjfpJo_XRon\KAlCJOFGD{BSD_YUAIOVkGeS`?Oc?CTYXsNXYC^?Dm\DpRkECGeUHO@?`P`GED?xbCJGAPrcloFG_hb[_CXNLKgSKbBiszW`C?WG{WCO[DA@{?KOCW?uqALAAb_MSc_p?ANBgOopZICcO`AKCOEh@LAgOF_~_I?oSWeSx@_?@kO@Q?EQHVDIIB`mACXIeSoCPCwAGCo?RS[TGdOGbBaEUcSzKc@WCLC`OHGTUGmfh?PG?o@gm?Se{C_?_GApaY|A?b?H_OHNQhGq{_tQB_sG\bJ_HG?_cAq@WoUd|PGQbTbG_CDAXUGCB_BKDM@FjOOMSkE?l@CS?HACGyFTqH_wMYL?S?vw@?oKK\?OCSEpCLII{`GCxKWWSUGi?w`_\SCCeD?@LsFGzXQuLBYJWfkcOKSOFOBC@?pOIC@kHOXHDAfPp@gW]@BAbAzmcrUA@?S?AmXxo?Z,False,8.8215e-06
~?@cWBOsQgG`Ol?UgOKHP|_HvQAp?u_{dgHSxJbAflNgbDaq_AEoY@E?_?oXOGWDYgmGthCsCaQDagP?_WRosAT`m|xOw`_CPG?ci`?_CG@HGAC?Zc?@LpOu@GHqC@_wsjBw@DqCOJpB?`}ObBIdScH}[?BaDP^C@E\A@?BFAJ`J|CmHtphoCG_AcCeGCpbOxfCf{SGUDPbQa`CGbE]L?D@KCRPOOGUh`GOAC_QI@GGA|}GlvGj?HdC_AsI?m?hPhpYHAHjQb?a_@]D@A@_OGgGAG?EJM?m?Wch}nIPQcDj?oKd@NCOD]g|YKBAPK?IDG??HNsDoLtKEcrYP@?wTAOekeeLkBcYePG@a@AW_A?bAYFUAk{NCVX_BCG?xp_?kU@?FJITEsPqP@?CDTQBofDIapIXg_K]doAgHfg]P_B_ETk?Gb{SdRiFPOBOutWpOHXI@{L@\?mg@OOEHyo[t\HH]Q@mD@KSye`OwECRCO?G_[ODAygJSBQAwQC?caQHAQ_?yLcYqTsA?KN?_@GOOScCgI_oBvBOL_qCGAAa_@^StKPR_@RCPH\F[b?}dQC?@oWcK?HsXIPEhSmOKwC[_cTK@B?o?En_BBUgHHMHqPKE^PGKaxV?SiJ_?IQGcsSGSmWB@BRc@SO?XJB?vlBAY_BKl_SHW?FKnO@gQSe_R[@J?\a?OHRs?EcSPPyboCpD?O?Gxp?xQoJGd_@KADoGa_MCECHCSTCWIgfPRDXc@cPKECqrELeo`EAHkCB@PRTHXCGO??@kZn@KaAoHgHJOU?VH@KFMCoP?oECJJSPQAIKgT?sO[COI@Hl_`lk@eR,False,1.00136e-05
~?@cgKscgC?JSWGOWhQa{?iHccHn`bPGPG??FggWtob}uoCAaAiGOlQFopRcG?\oDoCGUWPqo{Fgc_a?NAAYK_P?YgDAL[QbArBHEFTgNF@CIMG?QagM`E?oXGV_BG\V?dKc_GQMR?b?oXOP]gX[XHOpD|QGkOWmoHS@o?QVAyC`h]KwCKhGEWGPH[AShaE?Kwh@?yi?G]~Aa?BP?]tUHQaG?_CO?iDAGwBE?RcD_L}gOEJIglex?gFlKGTEUEN?GRfWQTc??GCGSRKHH?lTS]GVg_BQao^hzOGCGHKOIO__D}cJkI?`cO_`LBB{dUla{`P`??_QnnNeq?DDrYfDa_G?SDCS_@L`@bUPo@UoaA?@cgFoE@\LD?`GCAqOGAxROko?[o?]wCT?O{AcUzl??ojDGIAZGaGWROs{GOwBK?CACFA@BaYP?kb??kbZ_QOSA?GSDdgHDOZzQGoApkLCGP_`e_GPBGH`AI`pXSrG`Pi@CDaY?dwKoD__GSaEpGDHOEL@Be_sEYkMO?[jeOUgg?@cqgSGqapBfHkQKtJhYFLZ@Fg?cFwBgEA`BY\xAy?Mo^Q?QXOCjeG_ccdA?O?HQe@A]Pdp[_QZkUG_D?iCPJG?~OGPQsA@AgCCd?PaEQ?C@`_bcGqEGlRHPtE~E@GhCh@SYa?@_faCbGCAKfA@SQGjDb`G?qPBGnGdUCSPE^kwC?cWIYuoidIgs_PAOcCOWi[{HU?HI?_WhUuBOCh`_D`O_Sqk@@?TPwWgMEmOAhKZ{_oGQyAIc}xpgia@t?HMoKK?BE`OX?GacGfOWTFYYHLlp?AQ@Q@FeOYHcQPMI,False,1.00136e-05
~?@coCoaA_UCEgY@LHhMmI???HYW_HhOLYQqFSca??AB[WCA?`P[w_uBQXbHF?QR?aqaKOdHGC?|GqF?DHCAmIoAaAmKb`q?XdPaG`iDwoia@__@zgxCKygM@E_IOAFA@oc`GGYE?[_MEwypC@QAYoSA?W`S[WPMtH@@jR]S_TJB?@dNPIOPOH?LeDFAog_hoaPKBE_WTGgcTALB?IYGPcIGovgMpE_CoVKONCaIHJOqSC`PJakQoR\GDCry?NQ@B_kCUs_BO_`qO[@kAP?US??lkOCoq_oD?fP_RGVMKco]neS?PLCkGOcGakc?ceYJdDQ_@y?Gf?vQDLabGAtC?Dk?YqBeHs?@S@Q_OF?OGd?PbrpP@s@d?HI_dbtA?oXKW[ihSpkUjAedSPKDGEAKIS^_B@A?bEI?QxJs?N`qSMmx`Fr?sd@pTOsXiGxQ_GPo?SoaA@zUmi_?kC?h_Oo?E?EPGIv@GO@aDhgBSFfxHGOGFA?sMg?A]aVA?@PaCOfKDgkLPCBpruKETOAoyX??OPa?_@?o[cIBoc?AGtk_x`?`C\CgAK?acig[DCAq?D\B?TpOwEj_QIOZlBCDW_xptC@SR@WmghBiP\?`D@UipwGkaIHA|WVCDcEgB@@[ZDwk`Ip?Mo_GjHKM_e?@O?RqQD@IoOjMFCxlKw@oWLC?DRWP_cAmsY_aBIk?]gBsFHcCOacJ?edY_`qXDsuGqk|\CIlOS?PI_A\RDzDK^PuHECc@cQH_?Ebc?K?AE\CS__Z_HgbVC|PCODAhaUGAgqdWJrW?QO@gXWWnGAgfA_ceGPHG~_qQJkihG_F[DKDQa,False,9.0599e-06
~?@cyw?hcOR?WD}r?CiWcH?WCBaeJBGC@TBWW\BCEJq\PBIFWc_GrgA@oVVF?QEp?C?Q`ibORCFgOC^OTNCOMESP[_KgX_[W@`iZTuYDAAOoOYl@CPIOiQIG`HbLcaldktMJCcVcABx@j?cNOKiLogDWI@HLcEw?ar??h_cOoSCSX`?k@eA?XHB?jMGEBOQ?AolPSBmog`h_ZBh?W?NRbCGgCHNESSa{?eHkK?lGDs}ybKWaF?Fy_X?WDgBADCA[J_@D_X@MOUCwJJyvpoBbiOLeT_@KySOSXANJBHBKGd_ox?PawW?AWHCDcaGO{lI|@Z[h}@??@_wyOKVaOoPiCZOCk?OcaPEgo?i_LCOEG__a?@S`KdSGOOO@_?i@_GYrBCCBL??SFGWZDEhC`GHPw?QP?`XXhOhqgPoa?dQuOimOB]_BiHzHxkGGCuP{m?Vw}HHO?p??GGHOypsTgNOk?ShOV?Q?FZc_Aas?TGS___?ADQMSP@WWM^mCA?tK_sA_GgE_??GPxs_]_Tt]_f@XiL_yKX@``?t?WgDKCWJw@dWRE?@Ca@CpcGoS_ID[FCAGDCDeio?gmWT?PSOWW_e@PA?AcSG_{RC?A?POSC?W?ZLWD?c}@H{?YwcGfP[\bAaBaz|[Ouau|T@qAQ_GMf{CAzHUD@NdYHg?`QF}I`_O@DCOSO|aOASMdPKPYwBnmHsCx?Q_[[H?@GI@QWOWx_[c?GB_AQSo`d?JZEOBEbbXB?hMaOIJKWp`BaqwRo?hcFiRBl@aOPPqOWRAQooDHUPt_FSye_obOQDe`BKXBoG?wC@OAMxahIo?EXZgCC?uS,False,1.00136e-05
~?@cGgO}_AdC?_dH[QA_S@dA_SO@awOFop@ctgCQgSKD?PAoPaOBdg|oO??IfeS?k_BgGaKquoTLG^]VEQ?EgH_hPfPOs@GRLUIKCp`Q]k_JPaAK\TDgaL?HG?osOi?Ym@CFkKWPCcQ@?P_gCc`oc\EC`KDyhaQsC][k?PIAKB_Tc?NaockAcAQoraLY@VRByDHALolA?We_KJMR[aTceWWLbFdeq@Sf?cMWr`@@oBGcBIPD|Akb@O@OC]LOYg\oV@QDd]JBKYcMwxU`?}O@ggxCGDAMQCBJ?AbGq[Yd@P_wxWdvWoFE@B__qYVXHQMpjGu?OHJj_C?`Tb@bmgB_GDGhIVCDagEPp|ZQ_?O?HMDCc`[CXqDP`tRWGCCOa`@yPgsCBSNoS@`oSJL_?ARMC|wxHH`MC@AQM\BK?MOOXLG{{ohg_BQ?FNIocKo@w_KMBF?S@SmCbonyGOH@BOJA@Y?Qe_@`_`QFQ@OCWXGQoeGONGJOaJ@?csLYAWQOA[s?Eq?W}eCG}Bw@GPOPaBSAP@gGWCWANsBGl?KbIBz@HcA_aGJc?O?KKlKEIUd@WWEshWBXOS\QCKFFWwdUEzT?SNU@D@ISClcKmOAQeq?Y?m?Em_C?GeF_\b{H@aFOVWH]MY@@aCeX??[gcDSGAWqOQ_GhGEOt@ogak?CM@D??OSOw?`A?A`MMk?obSF?yOJuqDV{[?O?EKN@WCWuHGmTyPPC_SGYbPsFehuU?o?E?@?_oGE?CG?EebEQ?O_H@SCIPVvQ?DtTWkfwJSQ@ODCBOuOiElEOo_hjdAAB@kOdW`OBJAA?WFHS@AGU?DDGVQ,False,9.0599e-06
~?@cCOS?{OOb?T@qCNOCXxjjaWk?DsOyGaGWD`WfHP{ZtOwGg@LI@m?DihG``DODROLZDR_F{?GbuLBOOG`wURbcRgH{WosAFC@uOoCJFCOYISK`OIOe_iXCAzW?_GjjXCWIQAACNS?GgOaAegSEGq?YbXeEZgJ@KGcaC`?TW`bwbOGkKMcBMAA?TPPaQCqoCUJ[Ds?UaekH`iISTa`W?alG@[Pb_B_Y??uSKP?mCC?K_IVBgCWMAJCiaWXgO_VAG@BmBHG@OAOIQYo_TVGI??xdIRAbHqbSQSeOAQ{@P@?A???cCYA?GaJsOuTC`O@tZnqQOACK{oRXP^Ct_xMo{gQOqk?Ok_W_@M@JCskeOwW?e_@_`?CjSGasaiO_DGc_IwGWJ`]COCToELbw`kJAG?DI@PLfoqVe?Q?H@o?OG@Njrg[DOGHB`SAhAdwjBsX{aFKQ@kB?@ck_w?KHXWVL~vIE\Xo_xQIe?gZiO`OGg_OsPgb[?D@BIoWqcX_ag?SGIqiR_DT?Lj?_UhHUi@BZcRFRCjHIAKGtmmQW\bsB@I\G?JQRteIBGCI{L@WK?E?@CkAg@KgTTJi`GyLRExQMcaK?q`a{PB}ocU?A?X@xBQX?FA?GC~wT?@C{SC??Id?cODHucAE`AaC~PJADwBsom[SHcQ`?oKRc?GAj_s`SPGCakk`CA@@_W_[c?xSXTGb@oSR`]\uZ?sC`OgpQi?H@q_?MY|F?q?d?_kkW_@`?FCATP@WaP_s?IdgAOK_?C@GHDHPbcgHxiPaWW?OB^iWjC@oSmH?aiT?cNWEyVFMUiIoa?@?TEKmBO?@sTLkDG,False,9.0599e-06
~?@cCAMCGCfRE[GsqK`sEGIBdBtIdQZBA?GWEO?B@?Gu_KoocRfBbBoC_ZnIEB?JBQ??OR_?C_?r?^G_QIWsdiNAOC_?oXeA?qDAj?o?ac?tSgSoIZbalSOiNh?bepagJQdW@?lgOoo}_EPb`?CU?rkL[QwIaiS@@?[Jj``L??DQHy{?b`D~Q_rGOGWcK`YAhY[?AGEH@cTG_PB`wVQ@?HI^ea@EWqAsgE?BC?S?EWSIq|iO_CpEJsKOObScVc?qHi?CE@oVLB@y?[Ar?_`@OBHCEaCI`__aaIxKoRAO@`clgP_G]w^A\Qlf~pDooddCo?OK`bP`GSeCayMuH?ocO??DW@`ECGF_OCcpV~EWHAO??KA[G\@PAH?r?LKvCPYQMGCAeOLHGBGHrRYq?jN?b?a_cA?OeA{TAOl_^@[dB?H`QOTAB?[WED@cQlrSANwALe}thaePcxmAp\oS?GC?PQCCGh@?_cloMy?TABqa`_cmas?GDS?xuS?h}KPG]UsB_VMGSKgr?aSAGQJ@xWdAeocRZbKAAjgGPEC`MKpsGA@hGiHcBLGOa@vyX]JEXl?F[H`KksiNOk}Hbc_@GDUOGAG?Rl[`JKuOcMOBA_Ap??BW\aIhUeDP[?CAyIPGFGb[c`Ag]g_z_bkEELaWa\dQWa_QJOo`JOBNQPOW`c`HC?CqY?JKCuK{UA`P@HP??wKCY?_MOnABOSkQmBTCo@Xp_lIQCU_swP|S_DqdPa_egGS?GLwGbbWhiCBcIeMzk_EQIV@GHBBO?BTOOQt@?@?_DS[C@aoG_gACAy|HZlAH?_KSWAWXKGCj@VPOLWFKG,False,8.8215e-06
~?@cbCK_S`BDkpc?hC`FMOcqAjJO?`CRFpHa@AH@acxPPpC???rIpdC@rJaGEK]_Hd`wT?_QW?CRSoIHcgRJ]KTcCrMoWSIRgYWO@r?D?s{`R?Eo_CCa_PqxII_K`XPLkR?f`L@AoPtgeZ?RCOQ_JF?L?KRAQhAwT[@QBdcgYk[PqqSXRT@??@POQ?I_`FJ|BgS_pOb[GQKTQUeC~?ZH@_]AC@Kz_GiAaAQ`Cg??zqnE@BSN?]L[YDgKDMC\ej_f@`NsP@IoQu_A@@pdGcZK?BPUbI?CeOPDnIPiOqw`Kcg_aEgp?BckCY??_?KAAXEOTCdlHKqG?ueHCBQOGJz?y`JGcYW?EIgDLUSwJB?cH@iIcg?@AdDXHWEGSoGR@oVYBlf@@ZQG`gAcR@pSW_klHTD?cWEWcTCYb?SaoGTWXwAm@?DbfCCaaT?OcMFaAgSW`NeBrw?B?t@l{qASEx}A[?|voAQc_AX?U@lOCCJZG[_NJGWb|IoLKc`I`AK__g@pPAsL?f_SCAIC_cPSLUGIJb@G@@KxAMOBxm?pgk@x{vE?QBEOlOC_?baC_?_i_E?cbO_GkEKBHlbHhK`a@?qpWkaO`bA@kLDiOUDiSQLHajVpLCKOTWqCPgEw?@Xh_NdTQGiIB?CWGHEAcCJU@TpDC@_eYISMkHDQcI?`SKMx@sKEg@@CWlw?Y[Y`g`ybEAZ\?Jg@GAA?HUQAP@l`wx_@pQh@??I?Fa_A??GqBLcJdOSC@bG}hIWD@GcorCIicOaPGj_@oufGWS_b??C_@Y??kLoUHjPgM@p?DTHhQM?aog}?_\KIP}\AO@C`FogaQ,False,1.00136e-05
~?@cj`aGA^D`OW@bHhNKx@BGo`?Q_OQGGbSMEW??oBAEf?wVBDGkJeYC\OdrM|JK@CGE`sl__`ez[c?xCD_OfISo@uoLhCAPF?A{OABE`?lQMC?_`@m?_?OkBe[maDeHDKk?OoWAA?K_go`Ppo@@?oD?kk?SPxCB?t?QP?PikWc`tK_|GheCw|?SCOd?GPoGE?CuaGdD?_GMI}dcahqhL?SHL_O}e?G`PNEE[CJBA[aJgSFPRZ`HUBgxLyGq`ajA@AGQcaOA?qOBgAFGqH_dXzBIMiQaZUHAbrekAYGS`@`B}`FCCFaO?pCug_A_Aq`lJ?SJ_SgPcV@[EdaSO@HIAQsGaWgOJYa\z?EgIw_GvCw_?PD`[xWAlOPBK_GzIDC@Gd?HP?]?MKGdG|E@|R_Y_S\XYeC`ad?x@?|DA`sIOuAoDhi?SG[QL@CSukH@eAfvMCMPGASRT_mrDBsO_YHBEy?sF@hJ]ODi@QGCITBdIScni[Xc?@C?T[S?S@MVOiDCpE?LLSDC`?oaO_gT?_A_e]?kCH?_i@WEw?TOqhbCEOSbK?`?]CvY_G?ISh_VCSO_?AQQO@KAO?OEC@_GA^GaXKAWcSqbM[L?@cPL@p`EOYbRuGH?pvg`ACce]D?sU?DscGtPCddGs`?KbOI_DCbDhsCZ|apOOfqgcP?LRhhAU`Q?AA?Ab|?Ac?cWEFkSmP?LXXcKWa??HBhHtAgOAPHaaKiXwF__c}_GIuZBKPehCQN`CFGSBJsx?{RsUrOx?eWgGdLO?FwSpHCA?ADWOC]BkJq_Md?FC?_Bq`EDGohfkb?d[K[G~AoUIaGD[QL_E,False,8.8215e-06
~?@ciKqHCJoka?FuTcKRwkgA_\@zNzVCyOADCh_E_S?eKXgTLc_oI?OBDbOO`IHGBC?H?eu__{Dr?JoWEHiA?\?ca_J?w_`SQHaKz_CK?CCEOGEOgROCEw[oXAAn`qO?eH\TG??dGdOYjQ\@_a@udQRTGk|bKPE?iCab^f_GHgGQXrO?RGga@BPPWG?}IW?h\P_FbacGzOcVAXCDSKgC?EHQuTS_a@?V`P?lc_P@@e?_ROm?^lOAqksM@Gg?RYAAeAUAGaPG?ZA?gqS_SAExsW@C_wWPcjCAXWuOc\_DbIu@BQNohQLBLXaUeJLA?bmPOB?VYpSbI?e?`sQW_y_@I?GznPbS_A`\@{CP`pNgdA_PsXDU?YADLe`Pgg?ME?GBuEqChUCXz_AWM]G[VACKCNO[dWD`DS_AcJ?UNac|OyEEPU?T[DOYGvGMOM{vR]WI@@MYEdpHNiIIC_m`G?pajKa?SHqtdIIAyQCEA?CbkFP}?AEFD?J{HeCS??UaP`S\HGEsjSdF?LQO??@?_CKC_eC`o@aWaWGEhPqPIOXGSHO?Pc_?G_poI{?OVSCYpgSQXgy@TBPqJa{h?X[KWa{F`Uco?U@F_u??\KCCoO`IoBK?AWycTa?qApG_[ao_SEAZ]?Q`bifSGDqY?WLc_IKPSec@SAGcSQOB?hD?g`OI?`CiIIae?}ggOMuLCZMXTMT]J_oR~QEPCXAU[Wn??B?KPIDgOd_qIA?CSCSO_BRXeXC_AGwG??AtPPwOIkc?_OHFsqLci`Qg?nDXSXAdXK]UGDOx@ItGHCB\?CK`cm?`hgSYD?]BEicoD?_?b?S@w,False,1.00136e-05
~?@cwMQ`[?D`WPwSl_\s`oPY\Egpf?lH`Q_CokG@GwHvFgO?f?omYsYPBAJCHAclGSE_MS_i}SjQ`ggsxkaqcJqc?WYAnTbk?A??SF?kCDSXP?O?P?AA_?`WqrdiFeY@PPQ@_QA@{CG``THqA{GA_OGNGv?gRi_@SCr@q`gp@@oCQOX@a?Fp?qVb?R?@dG^?IjPHG?GLtq@A?EKHA_SRH?Y_GPHLcUCnDaJZ?Uel?_GW@aIqLCAIHK@RGLCO_gO`?_ac^_SUVoOBGi?OPFOuFsSYHZq?\UQ`OG@SSaC?bCSD_oJWCIQOkZPGECoqgB`RBsAkOX?ESWYMWiaRJYCBQ`A@OXjKF[?K[tHYB{G@QKI@]P@HAwG^CTaVih@C?YpTPCpDdqGOCB__AXoI?cePAPKdgCZQzH_aH@nwGT@Ob{LP?kx?bKSGcbWqBefAaODQgGDeXGJ?SB?eZG?tDGiOKGfLgoTc@ePAO?o?n@OII@mUwSxkNAS?IkL`ArLCgp^MfodiOCdIoE@XJe?hgG?K@X`Y@gaGJLIAG@qEfI_kAE?uO[E?``iEoA?_xYAwQL?Uz_?CYQ_w?@?@WCpKGAi_]?@KZKfBSE`^x^?LmSseGa@giZXiRh?DAYQofoH?JPqcO@?ASowBR]d\LQ{s`KoIC[XWe@EmO?oecKY[QTwe_CPg_SAKc_ocQ_@O|RGK`?cIOAdey?GCCCKZM_C`QOCokc?gCD_aR__C_[sGVPT\Aw_?[VpnTDaCLPOh_ZOHIo{C_{s@`G`CXAA[QsJA@S@{SOaD`aF??P?O[OaMHqAbO?@Gq\C^do[@?RoAHDDnx,False,1.00136e-05
