g6,attribute,time,total - 0.019078
g6,isEdgeTransitive
~?@c_@?G??Oc?????????@?????_?_@????o_A@???????_????O??_??O_?A?A???D?????O????????????@O??????A??@?O?C??AG?@???G?@?????????O???@__??????_?A??????CD?@C?G???C????????@?????G???G@??_G_O?_?O??GC????O@O?????_????????????P???_?E??D?_?????QW?W`O?????A?_G?UA?G?G????AO????@A@_????E??????AO??????C????C????????_?O????O_G????c?????_???_G?@?????@?A?C@???G??????G?O??K?G?C@?C?OA??@????G??????A?A?OA@???@O@O??G????????C??G?????__???@??g???@?_???A??????O??CO?????_?????G??A??A?@???_?????O??????G_?P?_?????G????A???????????Q?D??@@A???O??G???????C??C??@??G?_OG?O???_??_A@?_????e???_????????C??G??????O?_?O?_@?CG?O???D???G??A??_??AC?O?@C?O?K?@??@_D??????O??CGG?@?CO?????O@???K??OB??????A_?????AGC?A??C??@????@@??_??A?????????@?????G?g?????_SIAO???O?????O@O?@??O?@?S??g?????K?C???????@???????_??[?_??D????????GA?HGD????????C??_OP?O??OA@?????B???C??,False
~?@c?C???a??G??@?????A?????H????????A???C????CC????p??G?O?A????CC?A?????????I?????O@C@????????_????OO@??A??O`???O????????C????G?????b?_OI?O?O?S??_??R????CC???P??_E?????_C????????@OG????_??FGO?AC???????G??o?????Q????O??????c??ACA??O??G?A???C???G?@_C???????_?A?g???O?OOA??G??????G????@???A?O????????????_????_??_???A??????g???????@???G@????_A????G???P????C?????????K?O?_A@??_?@??Aa?G??C?A????S???C????????????E????`??????GA?????????????G?@@?G?C???G?_?????????A??@???AO@???G@???aA?A@??G??_?????????????G?A????????H?_?IG?A??O@??A????_????????C?O?B???????@??WG?_?A?G????????Q??C_O???O_?@??C?G??A??A???Kc???@?AC????@?????O?A????G????C??O?@???G??@?_??????G?_@???_????Bg@@C???@?????`O?A?A?O??????@_???I????C_???_????????YA_??_b??D???_B`???@????????A?_A@??B?L????????_O?EA??AC???????_??GCGP??a?????????H???C???????@???O??????_?HIQCC??Q??_,False
~?@c_??@????????GE??@????K?@AOAC????_O??????G???????????_????g?????O??_???@?????D???A?@S??G????C??O?@A??C????H??????????AG??O?C??O@??GO??O????????_O_?B???_???_??O?O???_?GG???C????OG???_?_??@????G????k??G?O?C???CG??O?G?????@?????G?@?O??B??K_?A_?G?G??O?????O@???O??A?@AO????G??AAC???????A?ASC????a????GA?????????C????I?C?????????O?@????O????C??????????OG????_???????????g??@?_C?_AOO?G???????????O?????O?_A?????????O?o@P??@?????????C??_???????@@??@??s??????@?????`__????????O?O????G_?@?`???_??G?@CC_???O?_?@?CG`?G????A?C??????G????@??CA@?????QC?@O??GA???G????O??G????_?AG?G??P_C???_????@_???@_??@?????GA@???A__?GC???_??Q??O??Q??O?H?_????AcO?_O???????_OG?G?I?AOO??I_??OG??__????O?[?????_??G???????_?O?????`??????_????C_??A???@C?????E???o??A_?????G_OO_?CO@@?@C??_??Q??C????O????G????@???C??K??????A?G??A?????????@???_CA???G??A??????oG,False
~?@c?D??C?GO?????C?B?A??????A?_??@G?A??G?CG_O??????_?G?_???C??O_?A??C?????W??????S?OC?????A????H?????O?AG???O?C????@?C??C@?A??OA???????A????CC?????AO???A?G????@??OAC?Pa?C???AG?????C??_??G??C???EG??O????@????O??????????C????OA????_A???o?_?@?????????@??AO?_??C??O?@?@AC?@??AA???GC?oG????_?@A????????G?A??`@O_??O??????A?C@?C?G?@?@C???A??P?O???S???A_??@a?????O???I?_????O?OAOO??E???????????@@???????O?????_??????????@?AO??????P??C????_CA?A???_???G??????A@?S?_?O?_??????????_?a???CG?C_G??O??D????oG????a???Q???????_@???A?J@??GA_???_COA??G?C@???????A????C??G@C??????A???_O_C@??A_??C????????C?OWC???Ao?????????c??O????C??O????O??C?_??A??KA?S?_@???????GCC???A???P?_??????O????????S_??`?_??????????IO????????????????CA??A_`G@??????S??O?@????_C???????G?????????AC?UQ??AO???G??A???@???CO?O????????@B???????@???????C??????A?B???O_????`???@??,False
~?@c?G??????????@????o??O??B??G?????????G??O_??O?H??G?@O???G?????????IG??_???W????O?O??Q?????O[AC?___A?????G????G????OAO?_C???G???_??OO???????CG?????C????G??CG??@A??_?CCO?A???@_?_??_@?C??@??????Og??????_C?AA??G??C?@????_?OG??_???a?AA??G??G?????????@_G?@?C?O?OC????G???????_???_??????C__?C?CP??_??G@??__OG?????@????????C??_?C??@A??O@???@??AK?C?????A???Q??A_??????G?G??OCO??????D?????@G?oGO????@CO??A?_?G@??O????????_A?_???_???C????A_?????A???_??Go?????G??O?c_?_?G_CE??GiA?A??AGC?GI???_??C??????_??@?GO????C??OA?A??????C??c_??`???C??A???@?_APC?C@@???@??????_??B???_???K???@????C?O_G?C???_????????G?O????A?A??O?O?AC??O?@G?????K??O???A??G?A???ACO????@????O_????????A????_???????G?????A???????C@@A_@?C_???@?????????@???GC???????????????_???????_?A????C??_OO??G@A??????_???AOH??A???????@?O?????G?A_???O?????????@??GOAG??_C??????????aO?,False
~?@c@_??C????CC??Q?G????????C@?C????C?????A?Aa????????????????G??????@???OO?_???G??????????????_C????????A????????A?????@??@???`?????????G?O`???G??_?C_?_???G????C?__???????K???C?A???O?@C??????A?O_??????G?C?`?`??@?????C??????A@_?A???????C?a??J???@??_??H????GAC_??????A??????CC?_??CC@@????A???C???????_???????A?@A_???G?O????_Q?Q??GOG????O??L???A???A??????_@a?C???U??????O???????@??????G????@?G?C??O???C???cO?@O?@??O?????@C???@O???BA?@_???_O???????A??@GG@?G?_??O????g???A`????a???P?c??@A???????????GG@O??G?GC??AG?????AC@??@?@@?GC@??o??S??????GC????????E?_C?O???????????????O?C??@?G?G@?G???????@?O??GA?OOWO?S??O?????G??O?@?????G???????OG????_??o???C?CG?G?CO???C????_?O?O?@??????G???O????????O_???????CG?G?????A???E????GG??G?AGD@?@H?C???_@?_?A??GH_C?????GaC??@??O?@??@A??O??????OA??????_?CO?GI??AC@A????????AA[_OC?????????_o???C_???C?,False
~?@cAE?A?CG??????A????O?????W@????C???WB??L???GC???????????C???????A??_C????a????OO_?C??????G??O???????@?@????@A????_??@O??OAO?@???????gA??A?????????@_?????I??Ao_???????A???_??@?OC????????????????????GC?ps?????C?O???AO???A??G?Ag_?a?????_??@?O_?G??G??G_??O@????????O??C??AG????A???G???A?@??QO?_?G?o???AG_???C?@O??hG?????????C@_????G_???`GAC?_??????????O?????@????????@????????AG?ICC????????C??????@?????@??IG???ACA??????A????????????@??OG???OG??C?O?@_???O???????????@O?S?K??Q?C???H`?@_A@?????Q??A???DO?O?C??????C?GGC??????????????ac????OC??????E??o?E?_????????C????CC???K?????pG??H?@????C??__???@?C??C?W@_O?AAA?__??g@??A???_GA???C_A????_?????`??c?????O??@??@??C???_????G?????????????a@???????C??_?_?_??O?Aa?GH??OA?g????E?????????????C@???C????_?????G?????_C??????A??H?A??__B???@??AO???GCS??????C??@??G????OC????_O????Cg??G????????,False
~?@cA???A????C??P???O??AA?????C_S???WGG????H?GAC?????COOEC??_G??G?????C?????D?O?C?S?CAIOD??_??G?_??GG??Cg????@?_P????@?_?@??O`????G???A@?K@?AA?????GC??O??????C??H??A??A?C????C?_?O??_?A?GC?????GG???O????????C??????O@@??@?_GG?????O?O???C@??????@C?????????A??A?__????C_?AA?CG????I????A???_?A???A?_??G????O?aCC????????AC???_??o????QPA?CA???@??CCG?????O???_?G?????CK??O?H???O?I?A??@`???????OG?KG_?_???@?_??C????_???A?@?O???????@???__???@??IDC??????C?S???????CG?????A???C?????B?G??????@@?O_???C???I_?_?HOG?????????A????????C?@??O??????sG???D??O?O??P?E_?G?????????AA?A?????O??GC?_?C????@??C???H??????????G????????O?OG?G???K???C?????O?C@A????C?C??????????_????@G?C?G??_?A?G_?????_??O??????C????????C_?O???A?????@?????????@????A?A??_GCA????G_G??O?G??O??_GG????E????????????????@???A?????A?A?A?????A??A??@@??????????????PE??C???@???C?C????,False
~?@c_????A?a?@?_????????O`??@??_?C?O??????@???A??G???????OP_@?O?C???????????????????A?G????G??c?O???@??D_????aC????B@A_??@?????@A_?Ag??G??OGK????????????????C_??????O???@I?@?????@??_?@???A???@O?P??????_?????A?@????GG_DPPA?O?EG????@?G????????C??????AX@G?????KCGO?@O????????EC??A@CGO?A??G?@???C?D????????C??C???C?????????C??????????@??@?G???@?O?????_Q?a?ODg?????a?O?@??D??????O??G?B?@??C??cQ???A??C?_??_??A?_??C?A???A?I??_?AO?Oc??A_K????G?????G?G@???_????A??G??_?c?EG????????G?_??C?CC?????????AG???????@?O???_?g????_?@???????O@_CO@??_???????A???????c_???a@????O??C?CC_??G?????A?oCC?`?_O???????D?????C?????C??G????????????G????????AA????@??AG????@?_???????@???_?????????_???@A??WA?G??SC??E?C@????Q?????C??G?????@?C?A??A????G??A???????GGO?`??AG??????A?O???C???AC?o???????????@????????????`??_O@???@?A??G?M????_@????O?A????O????QC????,False
~?@c???_?A?????A??_?G?AO????A?????@A??@??????C?????????_@???@????O??O?E??????OO??E?????@????????X?@?a?G?GO?_A?_A????G??C???_?????E?@?C?B?C?oO?A??G?????????A????????OG@???o???????O???H_?????????@?????????OAA??G?@?O?_G??F???A??????g????O??A????G???G?_@??????????????O@?@???????C??@?O???C?C???`A???@??OC?A?I??G???CG?????OY?O?A?????????C_O?????_A??A?h????????O?AOcCA@??Gc???????????????_G????????O?aE???????O???O??_?GP??????B`C@?????P??G??@?????A??O?C???CCAO?@??CC??@A?@???G??g??O?????????OB?A??C?????B???O???A????A?O?G???C??_????G_?@we???C??AA?GC?G?????????OOEC???OC???C?@?????KO??C??????????@??G??_AcO_???_???@?Q???A???@@__?A?G??hO???Ca?????@@?OK?O?C_?????_G_??O??GOGOC?????O@?????@???C????G????????C???A???????K?????CA?C?_??????@????????????@HA???_?G??O??GCG@A???G??C??????@???A????????????@?@g??????_??H?O?A???_??A??@?_B???????A?,False
~?@c_G?_?C@????????????A?A?aA??????????????g_?CA???c_g???G????_OWC?????C_OO???G????P??C?@AA?????A???@??C??O?_O???_?????C???C@?????_????A??G?_OG?G????A?????C_OC???GO????????????_AA??????@????_???_@??@????????????????Go?A@???d?K??????C??_?D?????AHG??A@????????@??O?CG?C?G???????O??????_???GOGA??GA@?????C?O?CO@?????@???p??qHO_?C??G?D?OA??O??_G?g????A??@@???G?????Q?O?????????CC?????OoO????G?GC?????_?????@?H?_??????O?????C???O_?_???GG?@???A?O??C???????i?o???_??G?_?????O?GG?@??????aG?????C?G?_I???_????CG????B??@???_?Co@??S??????C??_??G???A???????_??_??AG?_?@?????A??A?????????O??G??@GG???????????_?@A??C??W?COGG???OH??????D?_???AG????C@_C???????_??O?@???@?G@??GOA?????@O???AC?G??????__?OC?OA?O?CO?_????G?_????????@?G????G@A????????????????CO?????????A??@??_?B???A???O?P?_?CC???@A??C?????_?w????_??I???????????C???????_G_I??A?A_??C,False
~?@c???G@???G?O????O???CG?C@IG???A?O?_?c?AS?_?????@?CG@??CQ_??G???O??c???G?A?o??C????`??A??O???_?????C?A?C???_o`????A???K??C?_?_???S?D???????Q????_C??Q??A???AGA??O???O?S????OO?CC????C_C??????G??????P?__??A???A??????_????????A@?G???AgC@AG?@?O??_GA????????????S?????b???GA??????G?????????????_?C@A????????O???AGa???????A??O?????D???AA??????C??A??G??????????G???O???????CCG_??????_K?_A?G_G?G????AG?@??A??QO????????@?????????CG????????GaGA???G?G?G?OO???????????@?_???G??SC_??BA?????_?G?_@?A?@?G?GG???O???A?C?????A??C@??C???_@??O?A@?_A????O@??????????????_????W???CA`????A????Q?C?X????????????C???????C?C?????O??a???A??COG??G????????_?????CG@?gC???_???CCG??G???_A??GC_?CG?????????_?G????O?O?????O??ao?C?E@??Ho????????G???????????C??CA?O???O???_???O?????ggG??@??????????O???@?A????_O??AC?G??Co??A?A?G?_C?_@?????????A???GA??_?C????????G,False
~?@c????@????????????O??_??????A_?A?????????????C@????@D??A?H?G??O?????G?G?@?CA????O???O???_?C???C?????@G?_?G?CA?G?????GC?G????O?C??O?GX????A?C???C?????A?O?@_??????GA????O??????CQ?__?C??O?HG?A_???@?????????@???O?__??????????A???A??@G_?@?@?????@?C?GC???????O_@??GO??A??@Gc?@??g??@O?????????@???K??????G?OP?c???????????AA?G?K?@OG?????CG?O?@???_????O?DG?@?GS?BA???G???????A?GH????A@?????@?????C???_?AA@???????c??@?C??C??P?IA??????O?????????_@??O?????C??C??O??OG??A???A????C?C????_???????P?@_a??H??G??C???Q??O??O??OC?????GCGO??C???O??HO??OC???A??G?G??A?E???AC?ACCO?O???????W??????O???K????_?????G??H?A?C?O?O?C?????@???C????O??_?C?G???_?_??????AA?????a??AC__??_??_???E?DCDA??C?A?????H????_??G???@GC?@O????????G@???_????????_?@???A?G????O?C????a???_???????????c?C_?????__?C?GCA?G????C_????????????O?Q?G??_B????@???_?OS????@C?A???G?@?@?,False
~?@c??A@??????_?A_???@????OC_?G?????_?????_O??OO?????_??C@?A??CG??@??O_?@GG???G?G????????????@??????????????C@???X????_??A????GO???G_?O??GO????A?_????????C??H?_?GG?@??S?F?WK?G?@G????G?C??GCA???A??????G?????@@?????@??_??A?@??O???B?_C???@_??G?????A????????_??????GO??DA???AO????C??O?GG?@O?Y?O???GGA_???O?_O?y?A?A?????A????@_?GG???g@C?K?????O?@????????????_?_??????_????G?????G?gCA??@???_?????O?@??C?????G???G?@K?CC?G?C@??????C????????@??A????O???????@G@?@??????_?_O????o???GO_A??K??????G????_?A???C?__HA???????_???????S???_?a??K?A?@?G`??C????G????????????AOA?@??????_BA????????D?????CO?G???_???C????_??C???@?C_??Ig??????gO?????AG??_?GO???hO???@_??????C_S???O?C?C?_@?????????????K?_@A????O?ROO??A???????O??O??A?_I????A??????a_??G????C?FE???O?@O?A?A?G???????????O???????_?????????C?????@@@_B?????_???CA????Q???@???C??????@??A???????D,False
~?@c????G?G?__??o?O@?@???????C?C????O?G??????@?@????CG?g?G_??AA?????G??A_?B??@???@O?????O?OAOAW?C@?O???A???_??OI_???AO_?OA???@??A?O????G@??@??G_??o_?_???_@????@?A???G????_????iA??A?????OG??????C??A?@??????_????H_A?O???_O?A?G??OC?_??_???c?O?G?????G??OOC?????O??@?S?_?@?G?????G??A?_?K?????@????GGa???????hC?????CO_A??A??C?G??????@@?GC?O?@?????@??G?@_@H????A???GA?A???_??????????????O??????????A?G???OG_@OGA?????OO??G?????????????OB?W@???G?_????????????????G??@??@???OC???cC??_????????????????O??A_?????A????????A_CG?????@?AC??O?A??K?A??_A?_O?G???G?C?O?????????O_??O?O????????Og?P?????E?O?_A?C?_??o???????G@_G??B??CC???????g????_AO??@C@?@??O????_G????A???????G????KGAQ???????G??W??G_????_??O???????O?COG??????????GO?????AG??@??????__@??A@C???@??????????@?????CO?G?gG??_?O???GG?O_OA??????A????A?A?????@???OG????????????O?c?@???A?oC??,False
~?@c?O@C???@?_O???_???C????????_???@A_@??????@????G??_??G???oC@???E_????__@????KC?_???C????AG?_???AO?O?C?O??????@???G???GQC@@Cc?O@C??O???_???@?????K?C????G?A?@??CG??O?@?????CC`????????@????H???C?????AC??G???????@?????O?@OA?G?????O?@?_?OO??????O??G??O?????????C?A?A??A?O?????@??G?C?@?A???AO?O???????G?A?????GA@@C??????C???G??OS???O????G???GC????????????G????????GE??O??a???G????C????C???@@????O??O??A?_???C??C??O??_???g???_C?G?????AO????C@G???AA_????????_?G??C?_?K??C??_???@F@??O_???????OO??O???_???G????@?????C?C?K?_?????_???@G_?_??K??P__????G????G??OGA?A?_?????????@??O???C?g@?O??@G??cA@??GP?C?AE_?A??`????????@??C???_GO_?A?W?G???C?C????CAa?O??O??_??_P?G??@??????OA???o_???E??????@????????@?????????C?????@???Co??@_?????O?????GG?A???A???????????_????O?`????A_????????G??K@?@H??A????G?Oa??C?AA?????????@??A?AC?OCAG???????A@??GG??,False
~?@c??S???_???O@????A????_G?@??????_???C?C?@??DG??O??H????????H????C??G????????OA???G?C_?????C?EG?O???O?B?@????E??@???A@?_A?_????O??GCC??G?_???@????CGH?C@????????????????@P???C??O??D??OA_@@G??C????C?O?????G@?@?_?AO?G????S????G??????o???G?I?G?_@????@?K@???@@_??????o???@??????????????A???????AA??B??????????_wA??O?O?@Oc??????????I??G@?O?A?@?@??????????G@???????B???G?DG_????C???_??C???Q????@???@????????A????????O??C??_???O?G?_?A?_?????A?A??S????A?A?GC????C?????_?C?_D???_??@???O??????O??A?_??A????O_@???????????Cp???O?C@?????@G????IC?O?C?@??AA?????OBC?_???G???CCC`_CC?__??A???OO???GO?@A@??????@_???????@?_OO?????????@O_????GS?A???A????_?_OA????_G?@Oo?IO_????@???@???G????GC?@C?O????C@??_A????@???cGA??A??_O??C??O????????G??_????A?????????????????????????AB????_??????G?_GG@_A@????????G???x??O?K???@??A????G@_?GO???O???@??A??????O,False
~?@c??????????@????G?AC?????C_????@?_??AO??@??????O?AG???A_?@O?A?_?G???C?OG_??D?????C?@??A???g?__O??????OA@?GB@c_??G?C???@C_?@?????G??@?C??@_?????@?????G???AB???CC?_??`???????C??a?????_???A?O??_?G????_????@B?A?GO???_AO????@_?_?G?A??_?@????@???C??????WG????O???????????GG????A@?_?O???_??C?D?E???????@@C???A???@?A_?????G???O??_@G??????????@C??_?g???????O???G@????_??O???????`????????@G????I?CAO@????@?_?@???A????A?@??_???A???????a???@aCB???????@??A??E???AA??A????G????P??@??C?O@C??A?G_O@???A??????g_?G?C???????O????I????Q?AGA???P?K???_??o??@?_?G??EGOO????????C?G?A?????A?a?O???????CC???@_???O??C????O??C?????OC????????_?????CGC????I???CG???????GO___G?CO????CG??????C???????O??G??_G?GO????GS_C???A?@?GG?@?????????????@??_??A?????AO???_?G?????K??O__@?????A????C??_G?_???C??COOC?GA?A??G?@@??O??@@???A??G???O??????H???????G@???????GAO?,False
~?@c???????P?A?AOG?A?G????????@?????????C?????A?_?_?SG_?????O???O???E?_???A???``?G?????????A_@G?Ob????`?????_@C?????A???Q????gAO??A?????O????C????aO????A??????_??O????S_?G@?A??A?oO?O?_?_o_??C???A_??GG??OO??A?G_???_AA???A@???G_?H????G?@???@?O?D????G?C_C?C?C??G?????G_???C?????A?????C@??A???_??????C@C?????OGAE?_G?B??C??G__?????????GA?PC????@@?B??????O@_??C@??AD??Og?@?A????G???D?AP?@?A????O??????G?@??_???????g??_C??O?????O????GC?A???A?@?????O??@O?@??@?OO???@??C_????????G????G??????????_?C?O?@@?`__?????C?@?AO????A??O??G??C??AG??AA??????@????????I?@???G?A????????GO?C???h?????O????HCOO?_O?_O?CI_?C??????@@?P???A??@GGA_GO_??@?????G???????????????C_????O????????O???G?@???G?B????????????????G?C???A??E??????????@???_??o????@????O???G?C?????eC???`C@??@C_??@????@_G??????O?????????@?_???A?@????c????@???????G?????????_@????O????GO???,False
~?@c?_T??O??????????????AGC??????G@A????C?C?GSA???????????O?@A???????A?????O?????@G??G????BO_G?a????G_??O?A??K??A??@??????O????A?????G?????????@??OO????G_??O__????_???G?O????_?_O??????@?G??@???G??@???@???A?g??????G?G?A?QC??D@_???P?I?????G@?G_?G????O?????????G?AOGA???O_A_???????O_?A_?O?G_??G?C?C?@???C?C?@??????CA???O?A??????GG????O???????G?AG?A?IO??O???CC@Gg?????????????@??G??_K????I?O?G??????????G?@?A?O?????????????_?OP?_A?A@??O?CO?GO??CG?BO???????C??A???A?c??????_??O???H??GCC?A?@G????@?G?C_??OA???G???O??G@??????AA??@???@AOC?G???C??C?A?A??????O?A?A????????AOC?@G????C??SP@_??CA?????@@???C????O?C????@??G???????G???CQ???????_?_S?A_????????A????GO?CO???O????????O????GG??DOOG????@????@O?_???A_@???I?????C?????D_E????_????AA?G{???O??????????@??????oG@C?O????G?????CA?S@G_C_??O??_?@?????O????C?G????C?CC??A?_????A?????????????A,False
~?@c?GG????????A??????????G??O_?D???@O??O@????????????C??Ag??C?_P??S??@G???_AO??@?@I??C_??A?GC?G?_?O???????G??BC?_????KGCC?H_J????????G_A??A?????_?A??G?A??O_@C????????_??????????A??????C??C?oC??@?????G?o?_G?O?T?G???`?A?@??????A???AG???K???K?OA?_B???O????C??c???CO????C?????CQG??O??O_????A?G_??A?_C?G???_AO?C????_???_??G?@?@????COC?G????????A?GG????A@?O?GGGOD?????Go??`????C__?S???@A????????A?A????_G???EA_??????????????CO????@???Q??C???A@????_??O???_???????WC????C?_@?????O?????_?O_QB??A??_?CA????O?C??C?O??G??????A??C?????A@???O?_??A????AA????????_?????A?_H_???@?OA?G???????@?O??_???A?????A???????O?????????A??U????B???AG?C?????????????????C?O?ICG??_?_I????G???O?K???A????G???A????????G?O?G?A@G????@??E?????C?GC????O??????????G???G?????O????CE?@O@O?_?GA?????????????C`????A???@GaA???????????@C?????A@???????????@__G??I_?C???_???,False
~?@c????A??C???_o????OO???_????O?C??????????????@G?????A?C??_?_?gO?A?G??_AaC?@????O?O?_?A??????????CCA????_CA?AA???Ap???G???G???_?O@??????@???@??A__???O??GgC??O????A?????g?`A??????_??????QCAA?????_?????????G????????@G??????P@????O??K??_??K?A???@????@??[AO??_??C?????AG?G??C??A????@????O??W?_??G?EOgC?@@??DC?@???g???I?A?GE??AG@????D_?????_C??????G????SC???O?_???C??AA???O????O??CO???C???_???????????B?????????????BG?G????O??A?GsGC?????????????@???`A?G?C???_?_????C?@????????????A???@???G?G???G?@???C???O?A??O?????OG???@??_???????O????A??????????C?G_?CC_??O?_?????@?G?C?EC?????G???C@?g??O???@?_C?O????O?????aC??__CO??@???C????????D@O??gS_OA?????GCBC?_DC????????A_?A?A??@?@?O???o???@???????W@????E????E??`????DA?G?A????@G?????AO?C?????G??@??C???COC?????G?????????????????????????A?OXE?@??O_?A????C?O_??????A?C???`???????G????O?A??@?,False
~?@c_@A?O?K?CGG?O??@?c?????????@??A?@C??A?AO??C???C????OCA@@?????????@C???AOd?__???KC??K??K_????OO?????????????A_???S?BG@c??????O??C??A_C?????????????OAC_c???W???@????????A??C?A???_?????????????C??@@????C????_OC_?????O????D???????G??C??????C????G?E?O?_????@@????O??G?C?C?o????O??`D`?G??G?AG??G?@?G???O??A???C?G?????C??B???????O??????B????@A@???_?????????A?@?C?``???????_?O???_E???A???@O@?????????@????@?C?O@???A?A?_?????????G`A???????????C__A???O???@@??????@??c??CG??????g??A???@?C??@??COG????_???HAC?A??G????g??cAA?????C?O????A?A??G??_@????????????A??_?_A?@D???`_????????CA?????@????SG?O???H?????????GI???O?????????@??A????Ac???GC???A???C@_???????G?_?@_?GK?O???_OG????CO???????????C?A?CQ_??O??@????????@O???c?D?????C?@????O_?E???G?H??C???@W?@??@??????@??@C??_???_??A??C?A?A??C??__???C?????????g??????GO????O??????C?C??C?@?G??_OO,False
~?@c????C???@__?O?AOG??_?G????A?@?C_?_?????????_?????????o??O??O????C???G???A???o??????????A@C??CA?O?????_??_???GA??@KO????A?C???GAC????O?O?O???C?????????G??@???@?????@???C?H????GO????C@_@??_??@????J?????C???K?@?oGg@??C?????_G????G?????O???_?B????O?A????_A?O???A?@D?O????_G???????g???O??C???C?BA?C_?????????????C????@_@?OG?????C??A???A@?O?OAQ????????A@?A?P??????C??o??G@??@?@??c??A???G???A?_?G??OK?A?????I?????_?O_?A??_??A?_?_C??????C??O@??O???P?_@?????GC??@O@?G????A?O??Aa???G??C?@??????????_a?OP????????C??I?Og?GG?G?@@?G??@????????O???A??????@_?OC?O????_???_????????A????AOAO???A???_??????Q?C?C??Sg?????@??????@?E??K?????_?????????????O???_???????A??_C????????C?AH???_C_O@?_?????????G???G??????A????A?@G???Q@?C???AQ?C?C?@O?QCQ??`?A???G?????G??G?G??GO?@???G??C_??A??G??????????????C???@_??@G?GG@A?D??@???????ECC???CBO??O????????,False
~?@c????@????@?????a?_C??__?CG?@??@?G???@?G?A?O?????????@????????????G??????C??@???_?@A?????C?G???O?_?G?O`O?????O?????C?_???O???Gc????_???G???????O@??????????????A???@A?C?P??_?O?O?????_K_???G?_??????O??@G?HAC@_?A??????@?C?_?CG??@??????@????O????C??????@?@???@???A??????@?G????G?_?????????A?_?G@O?_O??CO???BgE??G?O??O???_?????????O??O?GC_O?????A??R??GS?_AC??O?_???K???O???A???GP??????????C??@?A????@O@???C??B?A???@_???A???O??Ca???G?_????C?????S????_????c???C??A?`???????O?_???A?_???@Q_?a?G?C????A??A??O????A???G????O@?????_?`@??OOG??O??@???c?A??g?A??GO??O??C???g@???Ac?????EO??O???@?Q?????G??Oa??O?O?O???G???`O???S?OO????@AC?C??@???K????????O??A??_?????????G_O?C@??@a????@?G????B????oOCQ?C?CG?A??C???A?????O_?????OA???A??AK?AIG???C???G?@??@????_??_???G?AG@????AD?A?????O??GG_????????_???O?????G???_G???????????????_????A?@??P??@??,False
~?@c???@?A?G@??GO?G?????a????????GO_????m?S__????O?@?_?A?GC?@????C??A?CO????????H???????A??????O??@?@??O???G??@????????_?????G?@???CD????A?O@??O????GA_?_??d???A_???A?_CC??G??_G?_???????A?????CGO?A?A?@`???????@?????AWg?????o???GG????AO??????C?oA???A????_?GGBG?G???M??@A??O??G?G??????O?_?@???????c???????????A??GC?????O???????O??H??@???A?????G?????EC????????????[?@O?_???_???c?A?@_????G??????G?c?@C???????????_?AG_???OA?????GG????_??O?C__?????_@K_A??O?S??O????O??A@??__@???D??_???E???GO@???????OC???????_?I?_??????G?????????A?_??A_??_???G?O?A?GO?g????A?C??_??_???COP??_@???AO?`@?@???OC????A??G????G?`G?AC?????_A??G_?CO??C_????P@G?AD??????AC?????????G??????@_@?AG?O_G?A???G?????G??A??@??????EO????I@B?????O?????????_OO?????O?????_G???@??????w????_?????_?C?A?G??????_?P?????????_?O?O?????O?@?C???A@???WC?????O???@???????G????_???O???,False
~?@c??W?_?????????G??????G??????O?C??O??G?A?C?CA?AO??????G?A??C?A??????@??????C@??A??C???@????a???_??GP_@?c?????@C??SAO???W????????_?O?????@C?A??I?????C?AC?????CC?????g??@??O????@O?????O???CP?????OC?_??AAG??@?_ACCG???@??_??KC??_G????@_??COC?U????OD@C???G??@?C?A???@?_c?O????C???C???GA?????AG?G?????HE?O?A?D_??????A?@?CCG???a???W??O????AAG?A??@??@?C??????__??????AC??????@CO?????@??C???_?????O???C???????O??_???C??_G?G??_O?_A????????????@?_???@?????O??OG????@??AC???????S??H?????@?_????C???_A??@?A_AC???C?C??????AG???_???G?O?????????????GGG??????A???C_Q??A?GCO_c????__?A_?O?A_??@?OC??O??O???CA?O??H??O?@??O?OCC@??O??A???A?@_?_??????GG?O?G_?_?_??C???AAC????H???O???C?????W?A????@OC???@??OC???CC?????_????????G?A_???AC??????????A????{???O?C?O??????A??G?E?O???C??????????S???S???a??????_??????????OC?@???????D????O????@???G?????__?A?,False
~?@c?C????????A????????GG?OO?????@?????C???L?OG?G?O???O??????A?S????????OCGH??C?@?_AG@????????C?_??_?????G??A?@C?B@??D?C??????__?G?O???????C??_C??C??_?P??????????????C???G?g?C?C????G_??_?i???C??_?????G?`?A??@_?C??G??C???C?A_???G_?@????@????O?O??G?????????C??CO?o?a?O???C??????B???????OC???????????OC@h?__??_????A?????O????W@C?g??O???O?_??@?G??????C?????G?????E??o??AC???A?OO???G???A?K??????C????_@@??????D???A?G?????@_?AA?????c??O?@???C???O?W??????A?GC?O??@G_?`??C???@??G??AA??A???E?????@??O??OC@O?_C@_???C??G?QAAG????O?_????G????I?C??O??_G?A?????A???????????C????????`?O???CO??_?????G_???_???_???O_?G???O@A?G?????_?GC???G?W@C?O?????P?O??A??A??a????????_qA???????C@??Q??Q???G????A@?`??@??_???A?A??????????K_??K??O?G???AA??_G???S??_??????O??A????????????O?C??B@????G????GO?AI???????_?C?@?o@?????C???C?????@C?_?A?S???S??????????G??,False
~?@c??`?c?G??_?__OB???H??????A`?_G?C???C??_??_?OAO???OC?????G???A??_???C?????_??_OC@?C_A??????A????_???CA_OC??????c??@G?G??????Q??????_????G?O??_O?@??A???@A?????????C?????@??c?G??@????A??????C?????`?GW????@???C??O??????@??K??_?A?????OG??@C???Ao__??A????????CC?????C?Cg???_C??O?OO??I???@????O???AS??????@A??KA?????AGA?C???OC???GOAG???????????@A??GC???I?O???G??G?C_O?????CC?A??@??C_@????????O?????????A?@A???O?K???????A?C_GAA??@????G?????????????_?DO?????OW_A??A?O??_C?G??W?O?????????_???Q?A???@???G??A_CG??_?GQ???Q?A?????@G?@C?????????@AG?????O??A?????I???a_??????O???????I?@???@AWOA?????@?????CKA_?????????????O???????AC?_?????C????C????MA????????G@???????AGOO??G?B??C?????_C??GG?@?@???OS???O?????@??C????A???O????????_????a????AE??????S?????GG?_???_??G????????O??WO???_C???A?_???Q?O?@OG?`?A`O????G??????_????????_???G?_AGA???A??,False
~?@c??Oc?????????CW@a??OG???A?????????OOSC??A??OG????G?A?????????AA?O??O??S??????ODA_?????R?G????????_???C?A?O?@???????O?????G??`?@?K???OG??A??@?C????O????CGB???????????????C?@?AG??????OA??C_?@A?__??????A??????G????A????????_?G???@????P?????A?_??????C_?cE??G?A?????A@D??C??C????G??A??@?@?????O??W???E??????Y?_???????O????@g?@C??????????G????A????G@??A_?A@????G?GA_??_???C???G?@G???`?@__??D??????_?????O?O??????HC???????OG?_??S??A?_?C???G?????O???G????O?A????C???????????GO??G???_?????????C?CG??__O@???D_??????????@????????G???AA?GA???@?I????@???_???????GPO_?c??@?`EG????_?????@?????C????G???A_I?A??OG????C???????????_CO??@O?`??_???_??_?????_O_??????AW??????A??G?_???????????C@??_???@??_O????OA???????Ao?_?B?A??_G???@?Ho?E??O???A??c?O???E????OO?oO___@@G?C??A??KCO???G?DO?????@C???????A??C???OO????OOC???OG?????g_C?C??o?_O????????A,False
~?@cA????A??????__???SAC?????_?AO?_?A??G@C??D?C_???G???A?_???A??GK??????A_?O?G?????K?A??@????__C??_@??GH?????_?????@????OOCC??_??A?A?A??@@?????????????@????????O???G?_?G?_O??_??AOCC???O?_KA?@?????OOC_O?A????????????c?O?O?GOc??@?O@?AO???A????_??_???????A???@O??_???_?c??O?@?oP??_???????GA??G??_??A??A??????CX__?????@?????AA??????????_?A??ca??????G???????G???COC???G@G??_??A??G????H????O@?_??????G??G??_??_?????_?WA???A@@???????C???@E??W???????O??A??O?AC?G_????O????G???????????O?_G??C?CC?O?????GCCh_?CGC@?????????????????@?A?O???GA?????_C?A?AA@?????c??O?????C?@_??_??????O?C??@???@???O?B??WA??OG?A?O?_??????OEa???@G????G?????????????@????_AC????@?D?D????C??@C????@????????A@??OG_?C??????A????G_?A?C?AA???GD????G?B@?@?A_E?_???A????A??????????O?????GA??????_???C?G???AO?????@????IG?E???????@?_?B?G?A????G????C?S??@?O????????????G??O,False
~?@cGA?GO???G?KYO????A_C??????@?@?@??@???????C??CG__??????C?_G??W????O???C????????_q?@??I@DoOO?G??O????O??????G@??GE????CO_A??????@????C_???????C?A??C?@C???????AO__???????C???????O_?G_????GCAC??g?G??????????A??O??@AG?O???_?G?@???G?????_G??O?_OCC?@?C???cO??????GPO?C_?O????OGOO?GO??????_?OO?O???G?C_WC???@??????@??????A@???CO????O?_????????@?SO?W??O?A?@O??????a??????C????AAC??????KCKAAA?CO??@G@CAA?c???????G???????@??????G?G???????????@?GO??????????O??????????O????C?P??G????????C????????G?O????_?????@?????????C?G??_?A?_??G???????P??_G???Q??A????E??H???@??CG?????@?G?A?_C??????D???PH?@C??OG?AO?????__??O?@?AAC???@?_?C??G??_??@??OC??????????????O???SA_????A???G?????????O?_G??????G??G??????_????O???_???????C??????????????O`?@_???A?O@?????GE?????????C???@oGHC?C???@@G?O?@?G????_??C????_C?A?GGO?O?G?O?????c?_?????OO?_A??@?????_??O,False
~?@c?@???EA???@?D?????AA?G???P??A??O?G?C?????A?????_B?????BE????????G?AO????@A???C??G??@???_@?C??????OG???G????OA@?C??_?????????Cg???@C?????AOO?????A???A??_??_??O?S???C??????_??????_??A?C?GC?S??G????G??_?W????@@????????G????K?C?@??_????E???????@????E@??_??@@?O?_??????????A??@A??_??@_C@A_GA?@??????OGO_???O???C??????????E?CG@???????@???????@?????_@?@_??G??O???_O????_?PP???@GGC?????A??AB????C?_???AO?Og??_?O??D_??`??A??OO???O?????OA??C??@?c?????????G?_??@?CQ?G@?????@???????`G????__??A??????E???C??@??O??AG?C?????A??G_?????G?????_???CO?c???????`A???G_?C??@??A???CA??????c?????_?@?_O?A?G@??????????????C??G???O?????OG?C?O??@_?_g`??C_????Q@????????S????_???G?O???????`?A??OO??@??CAG???@??AOA???A??A???_??????????@??S?A@??????_?????G?G?I_?????O_???@@A????`??CA@?????C??????GO???????_???CoAG?A_A?????C???_????_G?????AC?_G??????A_??FO,False
~?@c?O???????O??CGC?O@?COO@??O?????????A???????@????A??_??@@?G_O?_G???A???????????@?G????????CA?E??C??O?????????O??A??c??@??c???_?CO???H?O??????????GA?GC_?A@_?BA@??G?G????P????O??A?G_?G????MA@??c?G?_??????P?A??A?G???AC?C_?????_?B???_H??__?B??G????o???COQHC?????????????A?g???@??A???@?G?__????????_@???O???A?c???_?O????C?g????O?????c??A??_?G???@??A????O_?C??A@???A?@O?????_???A??G@???A??C???????_C?A?CA???C??H?????Q?@??_O@???????gC@?CA???????????G_G???A???????????C?PC??A?CC?_@?????G??????????C?B?????_?q?`C@G`?A????_G???G???@???????????????????__????G??A???@??@?A?????OG??AC???????O????????????D?PA???@O?????_?Q??????????????G????H???CO?@?????_?OC?C?????@?????A@????????????????I??C??H?????O?Q??OG???????????@AC@???AA???_?@???A?A????O?CG??????O??C???A??COA??_?C?_???gC????CC?OCO??????C????`CI@GA??@?A??PG?OIQ????_??CAOA????_??C??,False
~?@cA?????_cA???_?????A?????????_??O?O@??O??O???_GAO?@?????????@??O?_g???G????A?_???CS??O??E?????A?@?O????G???@????????@???????????C?Go???_????????????????????O????A???????A???O?????G???@?@E????A??OOb?????G??@O?????????????GG??CC??_G?oO?c?_???C???C????A???C??Aa???A??C??GG_?????G?CA???A?A@?A?A??P??_aH????C??@?????????O?O@?C????`????G???P????????OG?_A??a??gA?_G?_??@?O??O?????G??_??@?ACO_??GG?@K_??G??_??????A?C?O???@A?????Co??A?O?G???C?????C?`???G??GG_?????_?cC????????????????C???IA?????AGC?A??O?H?OAA?A???????S_?C???A_???_?A?????G?O?_???O??OO???G?C?????H?@??a????????@??A???A???????G??A@OT??_O?????C??CAAG????@???_?O?????????@G???????G?_a??ACC??OA?C?P?G??c_a????OC@G@AG?????c???As???????????@?K???????@G?????C????????G?W??CO??OCC??@??G?G??????O?????G??BGA??????????@?????@@`OWA@??G????CC?CO????C?_?????G?A???A???_???@???A???C?,False
~?@cCC??O??????C?W???OG?????????_Oo????GG????????????G???????G?C?_??O???A??@??@?@?????O?_@???A???P??_C?O_?_????C?G??C?A@??????a?_???c????@??@???C????C????CG??G?AG??AC??A?????????O?????_?@S??????G??AA??????_??C???_???????@?G?_????????????_?B??G???AA???O?A?????CCA@?_C???C?AY???G@?G??_?A???D??_?????o????AE@??_G???????G????O?__?Sg???C????CO@_?I?@???_????????????BC?_?_?_OC?_???G?G???@???@??????????[S?c???E?A?@G?C_?A????G??????@??????C???gc?O??_P?A??C@?A?????G??@?????????????Cg????C??O??@??????@?O@?O???G?C?O`@C????????S?C??OA??????????OCOO?A?C?@?C???????????@???_G?`?G??A?@Q??A??C_g????????G??O??????@?G?G???C?c??_A?????AA?o??????????A????????@??G@@???@???C??O????_?????????G@????G??OG??_E?@@@??C??@??C?GH??S?_O????_??C????C?C?????_??C??????O????OAG??GA@?AC???__???_???C???c?????AGO??O?_???A????H????_?A_???S?C?ACo?????A?O??@?O_?,False
~?@cCA?G`G???????c?????G?CC_?????????O???????@@@A????K?????????????_?C???????A?p?A??@????A??????AGA?????C?O?@@??C@???????AJ??_?A??O@aGA????H???@?????O???????C???_??@?C????_?C???????O??????O???GA?_oC??A????G?@?@_?C@???????_????????????O?SO?a???A???C?G@???????_?C??G?????G?@@?Kh_A?_???O??A??_C???GAO???_?G?????A???O????????O???@C???O@????A?O@????????????A_A??A??_G?C????@G??_?AA?G?G???O???????G????@??A?KO?_A???_a??A????GOk?G?_???????QW??A?_C?CE??OO?_??_??_??????@??@?????A????_???G??A????iI???C???S??A???????????????@?@??C?G??C?G@????CA?????_?C??A?O??OBC??????????????G?_??@??@?D????O???_??_????C?????c????_??AQ??G??A?@???AO?AW@????????_????DA?@????_?O??G???@???A???GG??_??G??A?g?????C????I??_??CC??O_???@???W???W@?????KG???C???O??A???W?S??O_?O?????`????A?OO?G??CA_?GO?CA??O????????o@?A??C@O???COH??_?????@P???????????A?A?G???????,False
~?@c_G@?c?O?C__????@?@_?G??C???????A???G?????????S????????H???G_???@?O????_????G???????????A???A???C?G?@??G?@???_??@????OCGO????g??????O?C?@?????G?W???_G_?H???G_??g?H????C????_??_B?GC??A?????C??@?C?OP????????_?????????G??_???C???P??@C_@o???E??GC?@??O_??@???iO???@?G?A?????????G??@??O??????_???GG??_LO?CC????G?W?????????_?O?????C???G????@??C?@@???_?E????g????G??Q???????GGQGQ?A????C???????CC???W??__????A????G????????_?????_?_@C?????????S???G????C????E?@?A??_@??_??????O?@G???@???A??A?????OO?E??????????G???????GD?GGC?????X_??????C??G???????ACg??_??CA?C??@CG?S???GG@?COA@?_C????C???AG?A_???_?O_???C??A?????C?@?_?[????_???????C???_?O?G???d?@????????W????O?A????A??G????@CO??c??????????G?A?P??G?Q??A????????O????E??????O???C_????_?O????O???c????O_?@?a??g_??GG???@??@?O??C??????@??A?G??O????B??G???CQ?O??OC?????a?O???????A???B_??C??G,False
~?@c??@??`?????C????A??@???AA??@??A????C?_????A??W????C??????_C??O?OO???O@A?A??@O????A??AC?????G???G?C??S??C?GC????_???G?`?G????_?????G_O??????W???O_???????????P?ACGG_?G???O??_?E???@???????????o???@O?????????B?????C?????A?A??AOO???_???CAOCG?OG??A??_??A???@??????D????????O?O?????????_?@C???_???????_?????_@C???A?A???OG???O???O?AaA???G??@G?A??C_?c???_??????A?OA??A??@??????????????G??E?C?_???????????C??CC???G???@CAA???G??C?@OO????_C????CG?????OA???A?A??A?G?@?A?????C????AO???????G???ACC?_????_????A??G??@?????B?_?__C?GO??OC?@???@????POO?C?C???????o?A?@???C_??C??G???????CO@????????gH?CA??OI?C??????O_CG???O@???A???I????W??A_???AC???C`???????OCC?@?C?@C??P?C?????C?O?????@_G??CC??????????O???_O??????@H?A???CA????A??????p?A?A????QG?O??????_??@G??????__C???_GA?Oc@??_?A???????G?GoG?G?C?O?????_G??ACC?@???A???????OAO?O?A?_?S??A?G??G?,False
~?@c???????CA????G_A???C????_CA??????C?G???????GOcA????G?_????G@?????GO_?_?????????@?????C_???@??????G??C?O_???????_????D?G?_@_???A??????O???GO???C?`???OA??????G??O???????@O????O?C?D?@???S?`??S?A?AC@?O?c??????KO?@??G??g??????????C?C?????OGO???????_?????C??O??@?GC?A??@????cc??CAA?C?G?O???????AH??_????????????@????@??????_A?C?_?????????@?_?G????ED@G?K?E@?O@???D??_????_?????@????A?????ACA?A??????A???A??????????@?@???G???p?G?C????Q?A?????????A?????GA_AC??@?C[?????????G??C???A@@HOa???C???O?_?GC????C??_O?E_??????????????@?GOW??AB?G????I??@?o???C?@E??G?A????C?O?_???O?O????O_A??????@???????????@A?@O??P?B????????O??OW????@?OAA?????a???C?G?O?C???@????H?_???@??O???C?OA????????@?CG???C?????O??A??A???A_?_?@????????G?OO?g?O??G????K?C?_??AA?OC@????_?g??????G??A????CA?_?H?C???????GO?????@??P_?_????????K@C????????GG??`??D?????????CPC?,False
~?@cOI????????C?@C??????OaGGGoG??WA?@???????G???@???C???_????_??X?????`???????????A??????G???????_G?_G??A?O?_GS??_?H?????C???????????@??OG???IA?????_?????_?????????KA???OO????C@?????BO?_C?_G??C?G??????@@???O?G??W??@@??@???OO@??O?_I?GG???????????????Q??????F@O??????GA????G?A??????_?A_@??G?_???????????__??P?????A???A???????????_????@?????OG?_A???G?????OK?@????COO???A??__??G?CIA?_?@A????_?@???????????????@?_???????_G??_AP??o@???????????A??G?????????A??????@???O@????G??_C???@?????G????????Q???O??@??O?????????_@??g??D?O??@?CO?????????@O???C?@?K??C???E?RO??O????C?@G?COC???W_G?GW?C????G?????__??????W????A?O???A???????O?_CSG?A???O???C???????OQ???????C??A??COA????k_C?@A?MA`??C??G??G???????_A????@?O??????????GW?AO??EO@CO????O??GG??A?O??_ACc??C?A??????@?c?A???I?_?G_??????C???oG?????????A????A?????_??@?G??????g??_C?_?_?_?A??gA??_,False
~?@cA??A??OCA??@?????@?GC????????A?GO????????a?H???????GC??????????G??G???????A????_A??CO??O????????O?AJC_G?G_??C????A?????AO??O???CO???D??a?CCA????????????_???@?A???_@????ACS????@??CC?OA?@_???????????B?????????_OCO???A???_?C?W?A???A@@?G@????@??C??_P??A???A???F?C_???AO?_?K??OC??O?O??_??G??@@C??C????G@OO?_g????AC??A?AC?C???????C??@@?G??O????????????oG?????J??_??AC?G?????G@_?`{?_?@GGA??COA??o??ACG@G???g??????AA?C?AC??C???G?G???????I???????G?C?G@GP_???_???O????????IG?O?????A???G????CA???A???O???????C?????G???E????a????????????????a?AA??T???????@????A?A?_A????_???G???o?K???G???oO@???@??????_?Y????O__??d????@?????????????????_??A????????A?C??????GG?A_?OC?C???????G?CC??G???@???O??????O?????_A???C??C??C?@?G?C????_??????????`??????G????GC?C?c?????????A????CG@AG?C???????C?BC?A?????@c?????G???A?AA_?@O?GG??????_????KO?C???????O?,False
~?@cG?AG?A???@?OG??@??G_??G????_???@????????O???????OPW???????_?G??@???O@_??@???_@??A?G???????_?@AAE`?G????@?G???????????????C???G???????@?????O?????????G???????I??GO????O?O???G?AE???GA????G??????g??P??A?????C????A??c???C?G??G??@??S???GA?O??G??D???_???O???????@??A?KK????_??_?@G???@???C?AF?@???@O?C??c???G??A?????G??AEG?O???@????O?Go??O??O?OO??@???_??O????????A???A?C????@_?_COOo???o??@??????????G?O??@@CA??o????A????@???C?OI_A??A??CG?GQB??C??OC??K??@_?A_?A???G?_?A????@????O?Og???????K?O????GC???@?_????????@k????_????G??????@C??????????_???W?@???????S?????????????U??O?????G_O??_ECA_?P????_?Q?C????O??@?G??O@??E??????@?A?????IA?C?@?c?????o????KAA??K??O??A?A????????ACG??@??@????_?????_A?????G??@@@?G????@@??G??_?CG????@???@O?_?@??_???????O@O??A??_A?K@?OG???G????????O??????@?G???_????W??G?@????????A????O??C???C_?_??O?????????A,False
~?@c??AH??G_?CA?G??C?@P?C???g?O???OO?G?A??I_????O????_?@G??????G??o@???????G???GA?????????????G?C?A????C?????O????CG???????????????????G?O??B_O??HOAA??G???K???I????h??A???????GW?A??????_@?????oQ???G_????AGO????A?_???C????????_???O????A_H?@CCDGIC@??AT??G?@?@O????`@??C??????`@C??_?@??????D????O?????AO_@????O?????O?????CCC???Ca????Pa@???????C?_CC??O_?AA?A??GAG?Q????O?????@????@??_?G???????????___????????@_???????????O?a?????A?@??H?_?C?B?????O??C?????A?????????BC?@@??????@?????O??G??g??W@_?@????O???B?SH??@?_???_???_O_?????C???????GG???????????@???@C_????_?????O?G??G??@?????CA??????P_?AI??HCC?O??_G????A?G?@?O?G??C??G?GC??C???O??A_A??????g?OO?????A???????W???G??C?OC?HB?O????a?S???C?A?a????????`?C???A???????????A??????_?@?????A??`??AAe?C__????????????C???????C????????G?????CA?O?_O???C????O?CA??G??????@_??????G?????@???@?????,False
~?@c??O?A?G@AO?@A?@?_??G???_A?OG???S???C???G??@O??GO???????????AG?a?G?????????_CO?O???????@????A??G_?O??@G??@_?A??????@??O?G?G??CA?????DC??OG????_???`AA?_??G?HAC??K????O??G?????O??GG@CO?????c???R??O?o?????C??Cg????????A?OA?O?????@???????????G??I?O?@?IG????????A?A`O?O??????O??????@???????@_Agc???OI???_A????@C??CG????@????O????????_??AAGG?????C??????_C_???C@??????@C@???????@?A???C?a@??????_??E_?E??O?CC??C?_???OC???????C??C?@C?????O@??O?@??????G??CGI?????o?????G???????C@?_O?????o??_?G?B??A???????C???O???_w??a?????CS?CG??G?I??O@????G?C???A??A????A?a???_????????O??C@??_???????????g?O@???S@??????????A?_A?_?GC???@O???@???????????????_??O??A??O?G?A??????????_G??O???AOG???????S???o????C?????@?K?O???C?C???????O??O??_O?G??C????OB?O???????@????C????E?_O???G????????A?E?_C??CO??I?????O????PQ@?_????O??????G???S?C????????A_?Q???`_@??,False
~?@cB?O??CG???????????@??????_@??__@O???@C??A?????G?????????????????GA??????@??A?Oo?A?g???@?O?A????_?GC_???G_?O?OG?G??@????????A@?????OG_D?A??__?@??B?GcAO??_?G?_?????A?o??G????????G?@A__?C?????_?????O???????F?????????@?A_????o??????O_??__??@OP?@????????A???????A?????????_??????O????C???A?_????BA??c?A??D????@G????@?????????C??@???OCG??????????C??_???????A@C?A?AC??O_O??A??_??????CC???A?AC??@@?@?_??AO??O??C??C???_?????KA???K@????O?????????O?????G@?????????@???C?????O??O???????A????O?I?_?H@?@?????A??V?C????W??_???????_?_??aG??AI?i???A??O????A_G??_?I?C??O??oC???OOAG??O@???E?C????_?O?O?G???C@@????????I?hOS?H?G????G?kG???????G?@O???@??C?OE???????????????A?H?????_???OOA?????C?AGA??_@???AO????@???GO?????@A???G?@C?GOC????A??OO??C?@?AA??O???DOO??@??AO???@?_????????????????????O??????G??????OC?O?????????@G????c`??W?EG???B@?O?????,False
~?@cD_G?????????C?????O?G?Go_C?????@?@?HPc??@???@???_???oC?O?O?A?????????G???B????W_?AAC?C?@??O?g????????CCA?E??A??@@?@?@O?OgPA@?I?????????O????????????@?O????@????????G_?SO??@???????a????_O??G?O??@???_??_????GGKA??_?C?O???????????C?????????G??O??c?????A????_??O???_??C?G??O??O?O?A?C???Oc?????A?????????????????_C@??????D?A???@????H?????C?A??????A??c??@?O?????C?A??????????C??????_??C?@??G??h??_??O??Aa?A???????_???????????`????????OA????GG???G?F?K??C??C??_g?????C??_??_??_CG@??G??A???W?O?@G__?GK??????????P???????GO??AO???_?????t?@_?O?OG??????@O?????A?GH?gC??O?????O?G??C???G???A?????CA???????O@oAg??A??????????A?????O?A?@?O??@?_????G?C??@@??G?????????@????_?_GOG?c??Ao???O????????_????c???A???c??ACO???A????g?I????????I??_????????oO??A??O_K???????h???O???????G??A???_?????O?????_?A?W_??_?????AO??__???IE????????_????_a???GOBA??,False
~?@c?????_GG?_?O?@??O????G??O??????@???C_??_????W??@????_??_??C?@????????????O?????CG_???_@????????OI???OW?????@A?@_?G?AG????OC@C?AA???GQ?i??G@_P??O_O??g@W?Og????????C_?????PG??POCO?G?G?@????????OG????O???????????GP_??????G?O?P?????O????G??G????????@O@?_Q?@???G?????E??@?O??_????C?GOAG?????@??A????S???????A@q???????A_g??????????A?G?_?D?@???@????OA?????????OC?o????O?????AG?_????AC?oG?P????????@A???G_??????O???C???BAO????????A??????B??BAG???@B?W?__?@?????A?GG????A??GQ?A??A?A?@G???????A??????????G??G????G?B??????_G?????C???A??@_C???G??_??@????A?G???O??A?@???G?OO??????C?_?@???G?@?@?@???OO????????C?????A?C_??????CA?_C???@???????????G_??AA???A?????O??????B????G??????AG?C????A??C?_?????A???_?A?@????O???G????C??_A???????@AB?????O?O?SW???????A?O???C?_??A????_???AB??????A???A?O??QA?@?????[?O???_@??????A??a?C?O?ODp????QA_????O???,False
~?@c???AO@???@?G???A??AOA??????O???a?D??????_?_G???_?@A??@???????OA?G??G?@_??C??O??O?????G?????E??_?G?????????SO???A@?@?_????_@??????C?A??`??G????A???OAA???C?O?A?`@CoG?????C?@O??A????@??????ec?O?@C?G??OA@?????A??X????A???_?@??aA?g???SGA??_??C????J??_??????A????_?O?????_?@???????A????O?A?A_A?F??????W???????G?A?????CC??O?@???A????G??C??C??????_@?G??C??AC??C?`?_@???????????OA???_???_????OA????@??a?C?????KCG????????G?????A??OOG??A?P?`A?O??????O?C???A?GA?WD??O??G_?A??CG???????????GG?????OO???O?????????_????_??@?????C_?????_C?A?GG_?@?G?O?O???A[????????????A_????C???_??@????C??_?G???@??CA?@?C?B??O???_?AGGO????O???_?GgC?????G??????O?AG?W?O?????cG??????@?A?@????C???????@P?POA?@???_@??_????_K???OCA?__?C?????q_C???C???@??????????O??C????OB?????A??G?GA??????CG?@?C???_?c?@???????????????A?O???????????_??????C_?@?A?????G????????_o?,False
~?@c??O??A????_??K??O?????c?AOG?@????@G@aG????????_@???G??COQ??O??A???C????I??@???A??_?_????c????????A??????_??C??@A????GG????????c?A?_?O????@A??O???????????_C???????[??C???OG?_????@?_?G????O??????O??G??c?R@O?C??????C?????????B?????@GG_????@?GC???GCO????_??G????__A?@C?CS?CCC???G????a???A????G_????O?GAGC?????Oc@??@??B@?????_?????????_???O?B??_@?A????OGA??C??C@G??????O????_?@Og?@_?@??????A_???@??@O??G_?????g?C????O???G?_?????G?@C?CO?????OO??@@?C???A??????G??????????????????_G?????@?O@@?GBO????O?`G????G???W_?????????G???????????@O??@???GA?G???Q?G?O???A?????CO@?H@?OOG??C????@GA_??C?G???_O??@Q??????????A????C?AWC?C??_?O@??_@???@?????_OG?G?O?????????????????????????@????????_OC??CA?AAO??O??????????o?_?C?A_?I@??CG??@??????_??@?O?k??C???C?_?@A????_???????C?HO???A?????_?????O???A??G?????Q?`_???@??A??????O?O_??_???B_A??????COHO,False
~?@c?Ac??????????`S?????P??_???I?S??A?????C????????a??CA]oo?????A_?@???C?????A?G????????@?????c????????AA???O?AAO_?????_?????@?C???A????????dCA????AG?????_?C?A???????G?@?B??@?C??D?C?G???@??????A?A?????hC`C?C??C??A??A???A?O??????GA?@???@??C?OG?_??G????O??g?????????C??A??C?O?O?O???_???A??????C_??C_????A???GO??A??A????O?CD?_C??P_C???K@CAW??C??O????A???O??G?G???@AC??@?O?????????a???AK?_C????_??????AGO??GG???@??C?@?D??_?????OA?????????_??????O??????O?????@A@??_????@L????A????_?OOO?G????@???@OO????????CC_????IA??A??????G??????_????????G__???_??@A?_G????@_?G???A?C??????O?B?????_??????G?C??????O?_@?????C????A?G_?CCAO??C????C?CA?A?G`G???????????GC????ACKEC??G??C??@?G?@???@??_??@?O??A??C?GC????C??O??CC??????@?A???`@?????OG@?_OA???_??????_???????`_??C?_??A????G?C?????AE?@???A?_??@G@????_CAO????_G?AGG????????A???O???????A??A?????,False
~?@ca??G??????C???C?g?_???@?gg??A_?A??A@???QO???C??K??G?O?@CB?O`_?????????C@???p?I??????OG@??_??HAC????C??A?@??_??O????CAO??????C??A???GG_?????A_?C?????????????_?K?G???C?__?_G@???_A????????O??W????O@C????@?_O??_???C??????????C???A????O??@?_G?????????????@???G??????????_P_?????@??G_??O?W???C???O????CG?C@@??H?????C????C?G?G???W?@??GG???GC??G?_?@??g??C???C????GHO?????OG@????_????O@?????????G????G??????o???OO@???????H??G?C??_?????OGKC????Q????G??_?C??@????????O????GC??G??S?@`????_A??GK???????@??C?????C??A???I??G?@AS?????O??????????_G???G??G?@????????O???Q?G??@?C__??A?D????????O?_?O??????A@?@P??O??C?????????@????@?DG_AI?_?g????????????E???????????AGA????C?k????A?G???????A??GG??C??A?@?????????K_??A?O??C???_@???O?C?G?????CC???G??A????O????@????D?@????L??@C?C?C?OO????A????G??G???_G???C??OO???AA??E?@?_G??AO????OC??Q????A??OC??,False
~?@c?????_?@?A????O???_?A?C?A???A_???O??????????@?OA@???C????????????O?@??O??_?????C???O????_???G???DX?C_?g?????_??A?GC????????G??C??__E???G?O???A??c??@?????????Q?As??????@???A??????@???C???????????????@C?O?A?OC?@C??G?O??_QGA?A?????????????????CG?_C@????AA@?c????????????O???O???AA??@?H?????c???G??G????O??????@_?OC?A???????@?aG?@G??O??OG????K???????????C??O_?C??????G?_???A??_@OE@?O?????_?cO???@??_??A???_???O?AC?O??_?????G?CO??O??@?????@O_a?C???AC?G???C?AD@???????OA?A???A???@??o???_?????????A???C?_?@????O?C????_?HO?@A??_??GO@O?CA??G?g_B????@?_I?G????O??????A_????F?E?A?????E??????@C_??A????G???AOA???O??C?@AO?@??[?O???C@A????O_?SO??O??OO@??????_I?O??@????B@????????A?A?????cC???????GK??AO?G??????????__??OG?????_?G??G?SOC??????W??C?O???C?A???????@?G?????G??`????__?G??A????_????G???G?_@???S??????_`?Q??C??????G_@?????C???????,False
~?@c??A???_GC????@?????O??G????O??O?_?_?????????@??M??CC??O_????@????a????O_????????O??_?????????????CG__??G??????@?@A??????O??A???????????A?GO??@C_@G?@??g???A??_?A?????@O??C???_?????????@????????????????????G??????@??_?Q_c?_????A?@???????C@???C@@????G????@?GGo??@@@??A@????????C??@???O????????C?A??@A???_??@????OO???AG@????_?????Co??W????OC???__G??????CA@?O???a???A?G??Aa??C?????CO?O????G?IOG?G@?O?_?P?E?G?@?????I??????G??O?Ac????_??????????A???G?a??O?C??gAC?A????@?W?A??G??????a?__?@???O?cOA__@?C?a???AgG???????C??AG??O?O???_G?C??@__??OAC?O??????@@?OGaA???????????G?G??????_o???@???A?_OC????Q??G?A??????A?AG?_?B???????O?a??????????O?G_???A?_???AOIa???CG??_???C?O?????G??@???????@???OC_???????G_?C???@??????????AG?????@?_C?????C???A????_??O?KA__????_???_??@_?A?@A??OC_?A???@GG?????G???@??OGP??A??OSO?O?G??@????GC?`????O??????C??,False
~?@c_GQ????GC????A???A??????G??O@_?@B?????A??A??G????GC_?A?A?????a???????AA???C??A_GOa?_G????C??G_??A@?????_??????GAC?G??O_????C@???O???_???????????????G?C???QA@??G?_??GD?I@?@????O?Q???a??GA???AG????__????C????CG??????C??????C?D?G????O??G@?C???O??G?C?K?@?G@?O?????GO?O?????A?????fC?OC??????G?CO????????C?O????O??Sp????WOO_??????????CC??CO?????O?????P???A_CC???A????_O??G??`@???H?O??A???????A?@????????_???__???C??`????CGO?AOA?????GA?????O???G?????B??_????G????????C?????_AH_????c?G?Ca????OCB????????A????????C@????C?_????AG??A????C???_?G?????????A??Sc???AH??G?@C?G??????????G?_A?@??_hO???eI?_??_?D??@???????A@?C?@?P???????AG?????_?G?C?A???????G??@OC??C???FA???AGCG????????????CG???C?_????A???O???@??__G?CC???@@????_G_GG??@??????????????????_?_?????????@??A??A?E?????????G?C?G????A??O????S??????@_A@?o???????A??_???O__??????CA????,False
~?@cG?@???C?A?@??G????_?????_?G??????_AH?_?????C??@???P@?????????I??O?H_??@?@??????O??????S???CA???????G????????@?????????????_?C????????????A??@??????CG???A??C??O???A??_???E@CE????OG??@GA?@??A????oC@?GG??????A????O?_??G@?@???????????K???G??????DO?_OA????????@????_?A??????_?G?C????@??E?_??O????M?O_???A?C?A?????????C????C????C?OG_A@GC@??????A?GG?A???A????????_????@??CG????O?O???????O?_?c?O?P???C?C?????????G??S???????????B??_??_A??O????WA????K??????????C???_?C??CC?OG_@??G?E??@??a?C??K?A?????????a?C???????O_A?Ac?G?@?????G????OGwC???????Q????????AO?h??CC?????????A??CA?@?BQGA????O????AA?OA????????AA@??????????OO???@????A??????C?GA??A?_??`??U???????@??????C?O?QQ?G?@_AA?@?@?@???S?G?OC?O??A@A?_??????????????@??B????A?COAC??????_???_???A?O?s?O?@E?B?C??????????????@C_???OA?O???CC??@??A??C???C??C_????G??AAY?????_C@?g?????U@a??A?,False
~?@c?O?A?_??_??@?_??????C????G???_OA?OO??_?C?G?O?A?C??O?@?_?????@??OC???????A??S????`?G????oC?CAC?C????O???EAc????AaO??@???Kh???O?G???SO????_??A?G????_?_??_????G?@A_???CO??KC??_?_?a??CO??????????????????????O??OA???C??C_???O???G??@??????OO??????_@_??@?CC?C??_a????????????C????@CG?O??GAA???O????_?@_??C???Co?G????A??AGG?C????B?_??@?C?OSC????O_??C????@?_??g?A????????c???@Z??__??O??AG??_SCA???O?C??????_O?????@?????FAA??????_???????OA?O?????_????G?????CG@A??????A???C?O????@??O????????GO?O??????O?????O???????A?????C???_????K???????D???Ag??@BOG?C_@????G?@??????O?GO????C??O???????@????GA??????G?@O_C?_G_???????A?OCo?C@??@???G????G??????B?????G@????G???@?A???c??A??????II???GG?A??C????g???@???????????@?@??C????C??AO?OA?@???C?????`OC`G???@?????????C??????A?OG?_?O???A?@??A@?????AG???O???E????S?__???_????????????G??????D??_??OO@_??,False
~?@cG???P?A?@????????????G??CG@?@??G@@A??O???G?`A???O?????GO??????A???g?????????@??????Q????C?????O?_?O?E???????_?A?QO?C?G?C??C?????????????????@??a?_G??`??????O????O??A???__C???OD???G?OO?@???????????????a?O???_A??G????A???G??????@?O??G_@?GW?@@???AEA?k???????G?A????G?_?_??G???__??A?????????????H??????????O??????????C@??B?????O?????C??_????D@@A?_????@?c??A????OO??????????_???G???@??GC??OG??_AI?@?????????K?W@??AOH@???AG_????_?P???????IGo?????O_?E?CPG@?A?????????A?????A_C?O?GCO??g????G???C??_??????_?O?C?G_?GO?gG??_?_????C?O?GC@AA?A?????A??E????G????G????s???A??_C????AG???O?Ak??AO?@?CC???O@?C?C?@?_?????????@?C?????A?O??????G????E????G??BGHA???????_C?AOH??O??OO????__??C????@??G?????????CC??__???G?B?????????O@W?A?E??O???C?????A?G?_??O_????H_??_C?G???????_?????_?????CC??????????????@A@?_???C??OB?????I???A_??????o??C?G?O?????,False
~?@c???G??G?_OO????G?W?GI?@???A??G?????@???????_?G??_???AC???????C??S??_?????_?_????????G_c????????????A??C????O??@H?_??`??CACG?@G???????C??C????GBA??_???O??@G??O?d?WaA???????@_??CGS?????G??A????_C?AE?_?????????G???CCAA????@??_C_?_?GG??????????G?C??????G???G??C@????@???_????O@??@A?????_????_?c????C?????C????????C?I???@?????????????@@?@?@?????C?G?_??@??????H?E???OG?@????W??O???????gCO???OC@????A?@?_@??A?OK??????G???a???A?C?A?????@?_OP?H???___?G?@??????O?????A?_@?????AO?A???O????@???A??_?@??O?????????@A???????????O???A????G??@??_???G????????G_??_?B?O??_??A????Q?AO?OA?A???G?O_CO?O???????A????O?@?A?C??G???OA????G??GOW@O?__GO@?C???_???O??T??C????????O??A?O?A??????G_?_?B???_????@G?DO?CO????@?????????????I?@_?@????????_O??@A??G?????@?????????A???????OB??H???O_?@??????Ca??C?_?G????_??C?@??A?_A???AS?G??_???I@??C?OC__ACAO????A?,False
~?@c???????????????????A????B?@?O???_A??????C??O?__?OA?_?OC?_??????????c????????????C?G@?G?@??_??_??GO???A????C_???Hc???????????__O??C@??D?AO??????G?II??????_G?GAK??A????A?_??_???AC??A??????????????O?HIG?O?C??OC?GAO??????????OG???O@@@@????C??_Q???g??@AG?@??c_O???@?@?O???@?????_??????_O????O@??OS???O????O?????A??C??gA??G?????A??????G??QG@O????_?????_?@G?GO@??O?????CGO???A_??????????@????G?@????GO@?O???CH???@_g??????@O_???AG????OO??@????????_??_??O?????C?????@????????????_?G?????_?@?C????_GG?????????@?I?GO?????????gW_????A?GA?Q?O???????G?AGCOK??G???_?O?_gG?Q???@??????O????@?`???O?G?O?G?O?@???G?_???????G@?G????C???????C????????G_???@??__???O?_@?G??G?O@A??C????C????A??@???A??????_???g???a@A@?O????GA???E_??GP???G??C?@C????D@?????????@OY?????O????@??@G?G??_???C???_????_?B_?_??Q?_??S??_A??@?E?A???????A??C_???G_@??????K??????,False
~?@c???AOA???A?????OO?A?G???@???COA?U@@A?????O??@C??????O????_??I?C???A@?QO???????c??O????OA??_??_???TG?K?G?@???_CC?G?Q??a_?@????O????O?G?OO?A_??Q????A@_???_???@??S?C??Q???????A???COWa?@???O@?G?????K???G@A?????????_??@???@?A?_B?CXG?@????O?CG??????@???????g??S????C??_??@???????SC@__?????B??G?CO??cA???????_??G?G????_?GA?D??CC??A????G??C?????????_?????_??g?@???_??G??????C???@?G???A_CK@????O??WE?_?G_????_?G?????_???O?_?????QG?b?@??A_CCCG??A????@??O???O??C????@???A???GO???O_GA??G?A??O???CA??????????O???????????C??_??A??????????CC?????CO?A?????W?_???@??GOAcA??_G???C???OC?_??????@????G???@?????@_???O?a??_?_??????A?c??????_????????G??G????????OO??A?K??????B?????G???????O?????????_?O??????@?_??_??G??G????????????@??CG???_?A???????????H??g?A???A???_??????_@??_G_???_??O????@?_?A??GD???C??D????K?@@A??????@G???A?A??A????A??????E??,False
~?@c?Q????OA?A?O?????????????????G??GC???????O?_?C?G??A?O??G?GG??????_??G?@Q??????????????G?O?GC??A???A@W???__BAD??@O???A??C??C???_?C?C????????@?_?????????????GO???o?O??_????????I?C?O??_??????WC?C???@?@????C???_???_???__?????????_??_C?O?x??C????????C?OA?S??_???C?oG@?_?@G?OA_?O??_??I???E?????QAG??GG????_?_???O??COG????????@?@?G???A?_??@?_??????@C????_C?_?@????_???????????G????????_??_??O???_???gC?_???O???@G??C????@???????__???C??@?C??@????`?_?_@AC???P??????KW@??_?_?_?A?@HCAYC????OO?_A?????A????G????@?AAOE?A???@??G???g???G?G???????_?D????AC????@????????GO?????????O?????@G???_?G?o????@?G?GG??@?WO_?C????????????O??E?????o??O???__????????????G??O????g??O?AGY?g?_?_??_??_C??G????A??@???????????@_???@???A_?@??OC__???C?ACA???K@_CA?????H????OG????????@?O????@?????Q?C??__@????C?@?A?A??OA????C??_C??O??O??@???O??G??C??CG???K??????,False
~?@c????@?G?_COO??OO?????GG?AG?????G@@??@_????G???????C?_??AA??A???ATA?????KC?G?O??K????O?@????O????????S?G?????AAG_?_A@????G??CC???G???_AA????O????_?????O?GC???G????C???AO@?O??????_????A_???GG_OGC??A_????????O????@??@?G?????????G?S?A?_?C??@?GOAO?????????O@?_??PA???_C???????O?????W?G??????O??????G?A?A???CO??__???G???A??C??C?EAA?G??A?A??@?C?IWaDH???G?G??O??????????ab???G???A@H???C????Q?C_??o????????C??????????@??G??G??@?@@O??A????A?????A?GG??@??????????????_?C????_???????o??A?C?E???_?_???@e??????????A????@?A??????????AO?Gc?@?_??_?@???A??G??`?????_????@_???A??E??CC??C??@??_??C?@????a???@???C?????@@??@?@O?BU?B?k???A?????_???_????????@?????@_???????@@?????O?A?????@O?I?????H?????????EP_??@????A?@C???_????C?@??@??_A??????_???@_???C?????G???g??@???@???O?L???K_?????GG?_O?AO???O@???????@_????O????????????????A??A??_O??G??C?oD?,False
~?@c???????O???@?????GW??????OA???G?_@?A?????????G??OG?C?C???G?@?G??a????????_C?G??S??????????????_CO?CG???CD?W??????GG???????@_???O_?AA????_?G?C?@??A??????_C??O??O??????A???@_O??OO????O???O@?????O?_?@????S????@`?????????????????C@OE?????G????@??G???@@???E??C???????CH???D?C????_??????GoA?A??@?oGO@????@???O????O?__???_A?G?_?D?@?G?A_???OC?K?C????????????CC??C??o????Q??????__????????GCG??O?C??@??G?O?@_????A__?O????????@??C??C??_@???OS??O?P?@????@??B????A?C??OO?_?????C_?B??BKCCO??G???????G??c?K???AG__C?OA????W?G@C???O?????@G?@??@?GC???C?CCOO?O?????????AC??OA??CC?OCO??????????C?O??g?OG?O???G????G??O?Q?@?G??o???@?????@?C??????_??OA?_O??????OO?@???????@???OOG???@S????G??????????????AA_????G????????G??@O???????_????A?Da?????C??????????C?CO???????O?K@?O????????C???GG`o?????AaGA_?????O?G?????A??C?_QC?????A??????A???A????G?@A?C?,False
~?@c??P?@???@?C?????????_Ac?????????S????__@???_??A?C?????????G???C????A@a?CA?A?????_H?_????_??_????_?????O???C??????O???????????O?G??G?P??A??????@?@i@C?C?_??oO???????@_@???@D???G???CC??A??G??C??????c????A?A??@?????CC@????????B?O@A_CA???_????@?O???C??A?????GA?C_?o?OC?O?@_?_O?A?????@??AS?G?_?_C??`???A?????G_??O_C?O???_????@GO??G??G?O?G???A?A??@?????O??_A?C?@_?G???????A???????G?G?????@A?@??W?Q??O?G?????AA?G??????_??G?C?G?G???????????C?O??????O??O??C?@????OB???G??????D??@??C?A???CAWAO_GK?@?@?????g?C?A@?_?@??W?????ACA`A???????A?C?????Ac_@G????????????????????????`??S???C??O?_?O@????A_???CA???????C??AA?E???W@?_???C???G?_A?CO???????@??????GCA????????GO??CG??C??CwA????????????G?????O?C??_???????????@?G?????A???AC??????A?????_AA????_???G??A??P??????@?G?@?A?????K???????@?@???S_k?O??A??A_GGAA????????_??O_??????_??c@??CG??@?GA??,False
~?@cID?C_????@?G???K_@??@?KA_ACO??G????????G?l????????O?O?_????A??G???C????C???@G?Cg??_GQd????@?H?A???O??@?????GA_????C??????ACCOOO@o@??a??_???????G@?????????o?@a??O?G?????@???A????C?????C?_??O????????@B??@??O?C?A??G??????H??AgAA?@???????GO?????O???@????KO@?????G???@?OG?O?_?G????a??C???????GG???_?@?g?????O????????????X???_?????????_OA?G?G?C?_??????????C??_@??????_C??O@?A??c??@GC@?O??????@OAO??G?A????P??@?????O?IG???????O????CO?@??Q?????@O?O?_?????G???G????E????O?O????O?OO???A??OC???????W?????????@???G????????O????O??C????@?????G@?C?C?OO??@???????A???D?G???????_??????O@????G?_?AD??????C????????A?_?C????oCO???@??????A???????QGC_?????@?@?@?OWA?C?AC?????_??????????OW????G?????_??????A@O@??CC@???@?O??O_?????O?????G??BOG??oOPA??O????_?????O?OC??A??G_??A??A?@?@????A?cG??????????@???@?Wo_????cG?A???A???_??_???????????@C??@?C?,False
~?@c????????K??@??G????G??G?????????????@G?@?O?_??C???g?O???J????O?@??G@????????_??a???????GD_?@O?????W???????????@_???????A?@???O?@@??????@@?????G?????????O????H?_?G???OO????O????_?????COA??`???????K??GCOOC???A_???`???????????????A??OA_??????????O?G_o??CA??????????O????B?G????@??_P?@????@?P????A?????????GC??????S?A??A?????C???G??????????W_?O????O?A??A_Q??_??O??Q???????????@??@??????????OO????@????@?K?????A??o?AI?????KOC?o??A?????A?_?g@???????A??????__g??????C?????C?H_????_?GE???????C????A?Gc?????_???G?G_?AI?@???G??A?OK????????AA??G??_????AG?@??@??????I?????_?O???@???_??@??C?G?c??????CG???????????`???A?????_????C_???@C??A?@?O?H???`?C???d?????????H??GG?_S?OtA????I?@CDC??GO?????H??KEC????????I????G??G?C?G_G?A??O???C??A????@???G?_??OG??O?_C??i???O?????E?K?????G????GCG???Pg?_????A@?@G_@???__C_A??@?A??DA??A???_?@????oA????,False
~?@cGG?_?G?AOc??????C??A????@?Ca??GG?????????G?@?@OK?CGO??????O@@??gE???C??????_??????@@?a?OI???@??????Ao??_????????@G??_???@??A??@TA@?C????????????O???G????Q????_?ACc?_g@_?C???`??C@????????C???@?_?g???????????@?@O????O???C???????@?G??????O????Gg?@@@G?OQQ??????C????A???????G????C??A??GGG?C?????O?????C???A?????_P???O???O?I????C????????GG???O??@????@????O??C???????__???_?????????????_??C??_?`??@??C???O?Sd?C?@G?A?@??????C_?C?_?????C?????_?G?????QO?A??????C???C?O?????@[???_G???K???@CA????CC?`????????????O?_A?O@A_????????EOA?GQ?C?@?A`OO?_?????????????Ge????O?????O?_??G?_?_???EO?_C??A?????O??`?????O`?OA?AS??_O??O????o?_O?O??O????A??????G?????@?_?C???O?A????????@OA??????CP??_?@?????_T@??????@@???O??OCCC????C??????CG?C?AG?????O?A??????A??O????_???????GA??OA???????_??@????@??AA@????????C???????O??C???????@B?G????_?OA??Cg??CA??,False
~?@cA?O?@_CAGA?A??@C?O??a??_?@???_O??????G@???G??S????A?C@?_?_?????B?g?????a?A??????_?gG????_????G???`??G???a???@???@X?OG??_O????????AK?_???g??C_G@??@GG??GA?e?A?A?????O??A??@???O@?O?????A?a?O?C?????????@??G??A??_??A@?G??????A@A??A?????A??G@???????O???g???o??????O???????@G?????O?????A@?????G?_C????OC?????????A?G??C??OG?????A????G?C????A?A?KO@???EC????C????C????GC?A?OA??@?`?C@GC??G?????G?????A????????????@@???A?B@?G?_??GA???O??????????cG????OC????GC?@???K????A_??????@??OG@??@??_JG????A?CA??@?O???????C??OIG?@?????????@H?????C???????_?????S?@?????????????AO??A???G???A?@G@O?@???O?????C?C?A?OCGA?Ga?O?_?????G?GAG??_G???????????ACO?????????H???A_G???????_???C_?_`_?G?GA?_??_?E?????????A?????A?@C?O?_?_C??????O?A???????A????@???????CCQ?????C?????GO@G?O??????@???@?C@??H?OO??_????????@G?GGM??????????AO?A????????????A???O_??????_B?,False
~?@c?OC?C?_@???O??C?O???CO??????g?@@????_?o???C???Go_?HAA??S?GG??????__@?_?GO???C__???A??C????????@?A?A???????_A?????a?A???C?@A??A????????????A???C?????E????O????????CO???_O?_H???????????AAO?O_??OAO?O?????@?G?????Aa?_??O?Q?????????g?A??_??????g@H???I??A??????C???A??????????C???CC?WCGC??@S?@???????@??O??????G?d_??G???@A_?_E???????O????_?aG@???_C??????????CG?@?O?????????@?????GG???????G?W???????_??H??K@G?I??@@????????O??@??@A?@????@@??O???@_???A??_?CG???@??GC_??A?_??@??a????W????A???????O??CG??????????@????O???C?C?@?????C???A????O???@GG??AC??????????P????_???c_@GC_C?????C???O???G@O??@???A????@???_@G?K??O?G?IA???E???GPOC???S?C???????O????????@??a?G?GA?G@?????C???@?@???????D_?AO??A???O??G??D@C??_?????@B??????D@???@?????????qO????????????@???A@?????C????CE?W?O?O???P?G???A??CG??g???????C??_?A?G????C_???@????????I?A?_??A????,False
~?@c??????G?@?C??@?????O?GO?O@?O??C????@??C?`?G_?G??_?O??CGC?_????????C????_G????????[_?????O????CAC??????O?C?g????O?C?c??G??A????a?????@????C??@o?A?????????????C???????IOA????CIC?G?O?B??P??AO?G?@?G???A???????O??gC???C???????_???PO?_C????????????A????O?`??_???K???_H_????????@???@@?@?A????C?????AO?C??CO????G?_???????O_@???C?OC???GG????A?@?O??????G??????G???A?O?Q?G?OGA_???????_???O?O?A?AA@?A??@Ko_???_??D????_?????????@C??O?C???O??C?_???????_???C???A?C?G?_??O???@??G@OO???????O?@??????__????C?A??A@?G??@??G?C??@??_????C????A?_?_C_??O??A????I?@?????O??????_??O???OO?AC?AG???C?C?OOX????OO???@??@?A?C???P?`?c?_?CD_?GOO???C??_C?G?O???????E???A@???G???O????O_?OGC?G???G??@@G?_??D???????_G?????A????C?A?oC?_??A??@???O@??????_????O??G??C??????O?????DA?AO????C??C????_??_A?????A_??OG_????@?????G??A?@??????????`C???g????????`?_??_???A??,False
~?@cA???_OO@?????@??G??_?@???AG?C??@@??_???O?CO??@?A??@?@?@W?_?????C?_?H???A?O????G??????A???????p??B?????????C?@?O?OC?_????????@?_???PA????????_????G????_?@?e?????C?G@?O??????????????_A??????@?IGG_?C?????G????????G?????????G???????K????????C?_???GGG_??@?@?C???C????@?G???O_????@?DA???O??g??_CC?????????Q???F@K?O?o??G??Og?C?????????_B???Q???GAG?????k_A@_????C??CQ??_??O??C?C??@?_?O??O??????@??????B???O?_G???@??_?@G@?G?????a????C?O?C?O?COO???CC@C_???@?AC?C????C???????C?S???????C??B??????@?I?CG???????CCP????CO?G??AAC@?W??DB???C__O?@??????H_???A_????GAG???????????a????A?@?@OC?????C?????E_?GA?@??C_?????G????B???_??AGAG?c?????????E?O?_????O?????G?H??????????O????O??O@?_?O???????aA??O??I???O?A???_??G?????OO???????????@??C????A@_????@????A?????A?_????G@?G?C??_??A???@__?C??????O?AG?O?_????G??????_????aA??w??????????????__???????,False
~?@c@?G?_@c_??G???G?__????E??????_??????A?AOC???_??A????OG_?_????C????_P?AC???C?@??A?????_??C?C?O?????????Go???G_G?????????????a??_???????A_?????C_CA@?G????AD?????_@??????C?C????AO?????_@??????_??o??????@???O????_??????????????A????????O?????GC???C??_??_CAO???????A_c?_??????@??KC?????_??????@G?OO??_?WC?G???C?AA?@??C???????AD?A???A??AB??A@?_??SO????O?_?????`G??C????G????O@???A@??S__??_????Ca?????O?G?G???@@G?h??@?G???GA????C?H?a?@???GO?@?G?C????????A??????????OG_AG?G???????O?_?C???G_?C???????C?C?@?GOO@O?_?_?AGo?G??O????Q???o@C?C??@??c???_?C????C???_????_?K????O?C?O????_O??_????_@_?E????????P?????A???????O????AGG??A?C????C???O@`O???????G?@A????????C??????G?????????@?C?G?G??@DC?CA?@?@???@??????O???AAC???@??C??O?A??A?A??OCAAB??A???O???O?CG????@C?_?G????@???????G???C??????@????_A?G??C???c?????C_?@S????@_??IO_???_?O?????????,False
~?@c????O?GG?E??GA??I???AC??A?__???@O_??A?O?????G????O??A_????@_????C???_????OG????H?CS?_????????C?@AAG@O??O?O???????XOOO_???a??????????????G??????O?????G????????????GA@OC@???@?????O???????????A???????_??????@?K????@?????b???????C????????????g?AGA?_???@O???CC?_???[?PC????A???@????A?????C??@???_??DOB??`O`?????@O?_C?QC@????_???A??A?@A????B????????O????C???_?????????_?S????????????AC??@?G???@?G????H???@?@?A?OAW????G??????__CACA?D??G?????_O?_??_???@_??C??????AO????C?@???G??Gc_?C????CCGG??????_?o?E?A??????O?????????_?_?G??G?O???_O????@??_@H??OO@???????`B????GH?G?????O?@???A???A@????????@????????A?@C?????AO???????@?????????????C@DK???????@?????_@__????_??????????GA???G?A????????????O_??G??????????????G_G??C?S??G@G_W??gP?P?A?Og??@G@?CO@C?CC?A?@?P?_?A?_?OG??g?c?????OE????????@G_????A?_??GO?I???C?@?????G??????@????????W?A???@@,False
~?@c?W??C?G?O?C?G?@?????_?CG?E?_??????AH_?A??o???@A??_??@?P?????GG???????_?O?G_C@??B???C???A???AO??_?_?_?_??@A?_C?????????G??_?WC?C@??C??S??A_???OA?O??I?????C?????@???A_???OGSA?@???????????????@?????D????_???P?_?C??G??@????_?E??G?@?_?@Q???S??O???@?????????A????g?g??????@?@??C????????AG??O?OAOC?A??_?G???@?W????A?@O???O???g?C?????_G????H??????CO??O????_????_?GG??????A?C??G??C?p???????O?O_??C??????C@?_@??@C????????g@?@???O????@C??___O???_?Ao??????_G??G?O??@??????OA??@g???@?@?A?F?__?@?O???O???G???B????@???COc???????O??G????CO?QA???????O???G??_?C????G????@??G????G??C?_????A?GA????_??????G@?S??AA?__?A??G???G@?@?P?_@??????????????i?????H?G?C?G????O?G??E???G???????G???a`??G??@????????OO???????@??G??C????A???????????_????A?o???C?CC??????????ODO???@??????_O??A`??_???????????A?_C????_????C?G?????????g??@???????O??Q?C???a?@AAG???,False
~?@cA???????_??AAS?_O?GGHG??_??????@?@_????_??OCa??CO?C@????_??C????A??K??C?A??@???????????G?G?A?A?C???????C??????O?????Ca???C???O?_A?_??J?????????A??_?HA?O???_?O???A??K??????_?_??????C???AG_O????O??A@G?GA?A_?D????????CA???O?O?@????GG???_??????g?`???_?_O_C?????????????O???????@?_????c?@??_G???@???O?@???????_???O@???_?@????`?C????@????_?C?????OHHI@??AQO_E???A???B?A???Go??A?GGO???@??????A?_???GG??????????????????C?G??G?@????AA@?????_?C????????O??A???Q?_O?B?B??A??A??????A?A????_?@A??OO??A?@??????c_??@O??_?????????????????DA??K?GC????_?C?_??_??G?????A??_??GC????????????@?C?????gO??????AG?G?@?C???A???????????SGg??????GG?A??O??C????@??A????????AO?C????_Gg?IA?o?C_?????C?O?OCA?????@???????@O?@????C?CGO???G????_?O???????A?O@Ba???C??A?G???????@A??O???O????_?O_?O_????@A???G?_??C?AAG????_A???A?G???A???OP_??????C?A???_???CO?AA??_A,False
~?@c???O???AD???OGO????AO??????G?@?????O??@??????@GO?C?A?@???_???@@????G?????????E??????A?A???????_GCC???O???A???@?@??OA??`??@??A??CA_??????????A?????????????G?O????O?C????_??????????????????G??@W????????G?aO_g?@??OE?C?????a@??????WB?????C?????_?O?AA??C??A?????_SO?GC@_?????C???@???@??G?C?@?PS??_A??GO??@G??????O?A??G???@Q??A????S?O_GAG?a?W????@??CA??@A?C????@@?A_?C?CO?G?@@C__????_??_G??_BC_a@???????????__????@???????_O??O???_???_???G???????_??G????C???_?G?@G_O????GGO?@A???w??@?O?????G??????C???????A???_???BA?CC???_???????CCC??????C_??_?C?O?????AA???G@?????@?G_????????@?C???__G@@????W_A?HOA?????????M_?OO??????????A???OC???DO??CCG??????B??????G???@?@?G?g???P@????@??????@???????????C???@@O?G?????O?CB?????G?????????G?A???@?`????@?@_????@??CG??????O??__????g?@@?g?E?????????O?GO??C_?a??O?????????@???@??G@??????@g?AG?????OG?G,False
~?@c?????A???????????_????G?@OA?C_?C??????BAA??QB?C???AA??_????G??O???C???O@????G?@?B???G??O?I?OI??@G????G??A_O?O?G?@@??CA?C??????_?S?_C@????@?????C????G@?C?????@O????COc?????@???_O?C?G????????@A???O?A??A_COG?G@??O?????C??A`?I@????K????`?G??_?????@G????CG`???GCB?OC?@??AG?????O???C?????O?G?A???G???????GC???????@?O??????_??A????GA?cC????_?CAA?O????????CO????@???_??????G??@G??GO?B???????????_DOO???IE???P?O??????O?G??A?G?A??????????G?_?QO????E????????A??O????_G?A??????A?_?O?O?????A??OO_?@???G????????C??????_?G???G?BC????????@???????BO????Y??B????G??????????????GGCGC?????????A?O???O_?_?P???CC????CC?????G???G?s????@?C???Q??G?O????????????_??G???I????a???I??_?????C???Q?_?@??C?A???O????????A?S??????O??OCG????O????O?????_???q??_?`?Q?_C?_???????CO???QOCG?_?????O?GA?_@A??C??B???_?C???_???_???S?@????O??O??????A?????A_???A@????P@?,False
~?@ccA?@?A??O???_?A??G_`??C_C?@?G???G????_o???W????@??A@Q@???_????G_?????A???????AA?C???_????@????CC????@?O?O????@_????A?O?????????A_O???A?AA??OIC?A??A?CCC??????G???O?O???@?????O?_???C_?P?????????G???C??OG???GC??@_O???O????????????K?O????G???????OP??C?@C??GG????C???_?C???O??Oa???@??G??HA??????@_?AO???????_?G?@_????@AG???C??_?C?O???????_G??????????????????A????C??C???C????_GOW??????P????d??S?C??G????_?O?A_c?@?AOA?CO??????_A??C?????P?????CQ???G??O????C???@?????I?__?_?????W@GC?@??O????????A?@G_????@C@@?C?????G?O?????GC_??????@_??A????_?a_?C?CG?????@?WAG_?WO??G??O????????_???A??PA_?G????C????GO??G??????G?G??A???A??????gA?G?@??g?G??GA??@??????_??@c?????A@??O???????????_??@?C?D@???????????A??O???????????@@?C?@??W????GCG??@?????A?????C??GO@??????A?_O??_AS?GAG??C_???O????O_?????A_GC????O???????o???G??A????A?Q????@G???AO??G???,False
~?@c??_?@GOo????G???AC???G???W?O???G?@??o?????????OGG_?_O?`????????@C???A??????S@???@????O???????@C?AO???????@?G????`??_???A???????????O@CA??G?A?GCG???????C@???_O??????G??@??????C?TG???_a_?A??@??C??????_G?_a?_@O????VGA?A???A??A????E????A?????I?A?OG????O?C?O?????G@_?@A????G??????_???C?A????????AA???O????C?_?C??_I????@O_GO?O????@?????O?A??????`G??OO?G???A?O_??G?O?O??G?A????????A???G?_????O?I?_???????G???????@_???G??O??O???????????@?O?????_?@G????@CT??D?A?_??????C?????????????_????K?C??@?W???K??G__??C_??g?_????@?C???????_??????G??@?????A?O????W??@??O??A??_??_H_????`???G?AG_?PG???O?@?O??@@?@O?????????G?_O???GO?Ag???_?OO_O?O??C?????????C?C?????O???????????_@_?@????_Q????_?C_@C????@OO?gGPO???O???O???C@C_???C?????_????_?????@??_?_??????O???_O???@?O??O???K?_GT?????G?A?G???????@???????@???O??G??????????????_??@@c?SH????????B?G,False
~?@c??G???C???OC??A????????_?S??O????????O?@????G??C?GC??O??C?O?_?Y???o??AcAC?GC??????G?????G?G?CX??A?@????@_?????????AA??A???????A????????G_?G????@????O?_?@?????D?_?????_O?c??????G?_O?GG???????_??G??W?B??????G@????@?O??G???@??G_??????E????????@?????G???@_??????Q?????g??Q?@@??????@?A@A??G???????G@P???OK??WA?_???@???@A?????????CC?C????C?????__???O????_CC???@??G?_?@??C?_??????O?_??C???????????@G??O??O??A_O????G??_???????????O?AOA?????@???_?G_?@AA??_U??Q????A??G??????AA?????_???G??_????????O????????????E??aO`???@??@?C????S?@?O???G??GGDA?AO????g????_DC???O?A??A???_??_GOO???@???GCW?????????@??A???G?_?AAC?PG???_G??????_A??O?????cA?GO???????_@??????DC?CA?Q_C??G?O_?????G?BA???_??_?????@???K?`??@??G?_??????AO???????_??@????MA??@@??????GO?@__????????G???G???GG??WAGE@?W?_?????????O?@??O????C?O?@?G??O_????CG???????C_????C???@G@??,False
~?@c?A???????G??_???A?A?O??ACOG??_??????_????G?A?W??C?????C??G??AAAC????A?a??A??C??G?_?K????C?_????????OI???????AA?G??B@?????_?bG????C@@?GA????_?G??????C?A???@?C?????@???????????????A????????@????????@????C??@H?@?O?A??P@??T?????????O@_?G?????A??_?O???@????Oc?_G???D???C????_??@?????c??ACC@BA???O???????????C????O@?????__?????_?A???O?O?GO??C?O??????O?C?C??????????C?B????@???????????@??COO?`??A?C??@???CO????C??_??????O???A?OO?C????A???SG?a_DO?G????O??CG?G?@@??G?????_O??????????Ca_D???OO??g??C??@@?????_??WGO???_???H???O??_@_?G????Q?G???O??B????O?A?????????_??O?C??A?????_A?OG@A?O???O??????B?????@???O??_?A?WOS?A????K??????G??G?@_????@??OC???????WP?GGCG???O??AAO??@?@???c?????G?G??_??????@???AGA???????_C?_??????AG??GA?A????G?A????O??????G??_oCG???????AS??????@???W?e@?O?????A?@GG??@???C????OC??@?@?O?A????@O??G_???a??????CO?????,False
~?@c????H??????A@G?O???c??????_G???C?EA????_????O??G?C_G??_?????AG@????????????_???G??A????A??_??O????D??@??A????A??AOc???OA?O??O?????_???_??_A??????@?G@??_?G?_??O??G??????C@?C?AW???G???B??GC????G??????GO???_??C?G?AGE??@??GC?????????IO??A@A???A?A?g_??`?C?_G?OCC??G?A?G@???O????C?S??G??_??@??O??K??A??????OC_@@????O_????????O??_????_Q???@C?A?_?AS?C?O??@?????????K?C??AC??@A?OG???OG???@_?O??O?A?@@?OO??_??????_?C??A????A??A?O??G?C??????W??O????????g??_???OSGKC??G@`_???????G?@??_KAA_A@?_???O???????_?@???A????O_O?????C???????GCO?????C_????_??????????????_??C??C???_??E_OA??C????O???aA?_A????A?A?AG?g????????@??@w???_??C???Q_????AI?C??????G?@??@?GA????OC?C?A??O??????G?A??A????_?G??A?????W???A?G??????_?G?G??@?C??A?_??_??C????G?G????G???????G????S_???C??????C?A???A_G?????C?C??G??_?????G??A?O?????COAAC????O?????????G????G??????????,False
~?@c@??G????O???G????A????O???G???????_??CC?????AO??C???A?C?_????????@??C??C?O????G?????G@????I_??O????????A??????_C_??A?O??_?_??@?C??@OC?QC?_??O?E??@?D?OA???_O??AP???G?????????Q?O??OO?????H`????A????????_G??_?????_??A??????????H????A????A??C?C???G???OA??C??????G??@??_??@?C?????G?c?CC????AB?C?@?C???C_@O??????W?????I_????????SC??AA???????????__@@?g???A??_??????AG?G??O??C????O??_H???????C?OO?JA??????A????A????@??C????_@?C?G???????O????????O?@?@O????G????????MG???@?O??????????????G?_D????_?A?PG?????c?WCO_??W??????_???G??????????_?AA@Og?g??_?????@?G_P??c??????????AB?????@CO???S???????G??????GA?O?@?__??`????GO?G???O@?@??C????`???G?o???Y??????O???C?G????????OG??ADG??CC?G???dGG??????@??CC?__??C?@@A???C??GG????G_?SA?AL?AA??G???????AA_?????????_?_??????@?A_@?????@O??GCO??????A??`A??C????????G???@CC??E????`?????????_?OC?A??@?G?,False
~?@c?_?_AK??o???????@?_??????_??OS?A`?h?a?OCOO???o??OO??_???A????????????L?G?O?O?HA????CO??AAG_??GCA?????G?????_?G?????G????AA????W??G??@_???A???R?O?O_??GO?AO@????????????OO_?O_???C?O??????G??_?G_P?E?G?????????C????????????_O??_C??_O???I???????G?@????A???A?????C???c???????????????????G?????@????????@????@CA?_???O??A???__???????AA?@_???G_????O?O??Q???@E??KQ`??_?BC????C????O????AG???GAC??@?Q`??R????AO??O?????GC?????????A??@???????A????C?KO????????G???_O?????A????O_GC??@??K????C???C?????_??I????O?c?????@????C??_??C?AC_?OG?C?C?????C?A??_???_???a?????_C??C?C?@?????_??????@????_?????@???G?C???????_?AC_?????????@C?AA?H?G??@??????????O?????W??HA??O@C??@O?????GCC??????@O?O?a?????_?GO??@???OA?C?????_@C?C??????A_????oA?_???????????OG????_???????@@??G???????GO?????????G_OA????_OG????O?G??_?C?GOC??CO??CCA_C_@???O?G??Q??????_?KQ???,False
~?@cG@@???G????AC?@???O???OA@???G????C?H?A_???@?????_?@?O@?????W??G???@???@_?????@??A???O?A`???C?A??B???@O???O_D???@??G@??@???????G???G?_@?@?A?_?????_???A?C?E?aA????G?????_??G?C?????_??_@???CA???@??_??__?C?CO_CO??G@??A???W???_W_O??@??A@C???WG???P??@??AA?GA??E???@????G???_????c?AC??????_?@?????@??A?_?K??????G?C?????????????@C??A?????????G_O?P????????????????????@_C???O???CO?C??GK??@????@?????CG?O??GGO????????_??????O???G??Q??@???AA???O??OG???????????O??????OC_??Q???_???_???????????????????@GaCCC@?WO???O??????????????G??G???GO?????_Q??@?_AA?????_??G@C?O_?@???_?@@_?_???@?????A?AC???@???????_???????_????@???_?_A???_??BGO??@?G?WP@@_??@?????a???????C@OSGaA?@?????OA?????PAYOC_G??????O??????_???O??O?@????eA??CG????G?A???@CO???????G_?C??O??_???AC?G?????????@@C???@C???@C?C???OC???????A??_G??CG?????????G@??????A??????E????G?A???,False
~?@c?_?GAoOO@?CQ??O???@?A??@C?A?????A???A??@???????@????G??????OG??G@O????QO??G???C??G?_?@?@G@?O???????AG??__?????C?C????C?O??@????G?O???_A?A?_S?????A????A???@??_???G@?@??C????????????????_???c?OO??@_@O@?G????????_??g??????????Q?O??AGC?OAC@@?c?????_????AC?G?????G??AGa?A@@????C@??_?C??A?G?????????OA?C??G??_?_?_@_o??H@??A????????C???G?E?K?I????O????I????G????????CO???A??A????O??@_?G?G??gA???_??@??????????G??C????c??O?_?OO??C??????????K????????@???_C??????G?C?????????C??????????Q?O??o?????C?@@G[?O??G??O??@?A????oO?_???????G??????@?a?_?_????A????A??????_??o?????????@?A???GC?A?AG?C?c??????_?OA_????O??_?????C??O?OO?_??GO??A????G?G?G??E?wA?C?C?A?o?AP??_???????????O?_?G?G@???_?A???????G?OA@@a_?????????@???????W?Q???A?????C?@????@??C@?A?A_???a??GCA????????????CA?A?????????_????C????A??Oa????@?@?CGGg?CO??AO??G???????_OO???O????,False
~?@c@????A???C????C???????W????G_??AA??????????CPO??????AA????W_g@????A?????O????Ko???G??GC?????_?????_???@O_?????G???_???@??CG??G?CC???AIO?????G???x__?@??A@?OEG?A???@????C???????????GG@??C???A_?????@?C??@?KA??A????@?@O??A?????GC_@_G?????O_?WO?_????GCO????@?B@?@G??D???????A??????A_@?????G??@???AG??@????????o_C?????????G@??O?????_O???????O?CO??O???A?????A?C?G_CA???SBG_?@?G???A???A_????_????O???????bA??@@OG???C?O??_?A???_W????G???G?????@GG?A????????C???o??????????@A???@_????Go??O?????C?GA???C?CC_?????????@?????@???C?__OC?GA@???G_G??A???g???C??KO?????G?A????G??G??_S?A??????@????????????@@??O???_?@B?C@???OA?????A????@???_??_@??C?_?????A????AAC????????A??C?_CC?_??GG??AGG??????o??@?@???_????Q?G??G?U????@???A?AI?G?@????C?????????????????????_??????A?A???G_??P_A???D?CG???A???????G@OOA??@??A?CG???O??????_????AO??????C???@OG_??,False
~?@c?_??C@@??C??G??C???A?????_??A?C?@A??O????????_GA????_?PC@????G???????A????????O??????????G???_??G???????O???O???C???O???C????C??@??@?A?G@?A_?K???AE_?G??G???_G?o????_???P?????_?OAAG?@A????_?????@??@?????G???g?????????????o????????????C?o??C?@?I??????C??????C???A?AW?G?@?`??@??????CX_O???@????????_?O@AG???O???????@?O_??E?A?????O@A?????WA?O?_OA????????G??EA?????__????G????C?gC?`????@??????@?????O??????_?_????CGG_??C??????O???A???T?CC??C?????A???????G???@C???CAG??_????_????????C?G??G???_??_@?O??????????A???_?_???`???????@?@CG???????????????O@?C?C?__???C?c????_@?????C_?C???_??C?????@??@???OC??_c????C?WC?A?@C??AA?U?C?????????A?HA??????C?A?C?COCAA@C?A???@Q????????????G???K??@?_?G??C??GCCCAC_?D@???@CG?@???CA?_?KA???c??????G?P__G????????A?AA?O??C?????@_??AA???G??A?HO@??O???@?????????A??OO`AA?H@????WA???@??????????G??a???Og?,False
~?@c?@@?@?A???EW??__G?A?????C?????????@?I???????G???CAC?I?????E??O?G???A??@????_???@????GA_??????@_?C@?????AA????OG??O???C?G?`?O?????????_@@??CH??GC??_C???A?????_?G???A_?@??G???_?D?G@??C??????????????OG????C?????@????????g?????@??@_???G???_C?@?????O?O???G??_?O???O?????c??_??I??O?????G????A?O????O??????????????X?A`??O?@@?OQECA?GCCa?OA???????G???@EC?G??C?AA??A_?@O????@?????E????C???G???A_QCA?G???CSO????@???@?????????O????@????_??E??CA???S@?OiOG?@???C??_I???E????????@_?A??G?A????A@???G?G???GGA???????????_????G?G???G?A??G??A@?A?G???A@?@???_??E?@A??????_???@A?????@d_????OGC?A???????O??AcG??C?OG????G????GA?GC??@?????A??OB???@??A???Q??g??A???????A???C????????@??HCO???????????I?_??????o?CI???AG???@????????????A??A????A??E???C@????_K?@???????GO???O????????G?????_??G??G?O???G?Y????AG?G?????O?_AA??????????CAG????_C????G???G?C??O,False
~?@c?_???@??_?????????????W?@?C?????@?_??A?????????O?@??CB@?????G?????????_O???????_??G???D????G???Q????_A?G??G?_?@??WG????OA?A???????O???W??????@??B???????G?G?A????D?????????????????G@C???H?@?P?_??????@?????????????O???C???@?K???C?A??@O????????A?G_@??OA?A?????S??O?????@???O??OI?????W?A????A@???W???G??A?????_CAO???C?@?G?????G??????D@Gg@???A?CA??????GOAC??????G???OCA?K?O@?W??????GO_GO@G??????C????G??CAG?GA?????o????C??_??????@???C?_????A_???O??@IC???O??Q??????@_?C_?D??@?c??P?_????O?A??OC?@C???O_???????????_?CS???_?G?A?_??a???@@A??G??A@????_???????K?C??????OG?_?@??????????O@H??B??A?@??_G?????O?@?O??_?C?C?????????G?O??G?I?????A????_C?????@????_??????O?@?C?CC????A??C?I_??FA?AO?@?GAG???C??????GO??O??Pc?????AO?@@??????_???@??C????H?CEC?????_O??CDpCA???O??????????C?@?_CA??@?C??????C??G??I??A??C?C?Ag?C?????????A??G??C????@?C?,False
~?@c_?A?G?W?????C?G??C?A@?@????????AA?@O?C@A?_OGA?????????_???G??@??O??????@????qA????????C??_O???????????Q???_o????@???O??G??o?_?G????_???C???A?QGG_?AC????A?_???_???IC??O???O??????@????????G??@S??????AG@C?A??@@??A@????OA@??????????@A??G???A?AA??G?C?????G??@?_g?O???O????GOGG??C?_??_???@?K??????_C??A?O?_??A??@??_??????_G????A?G?????????????C?@??_?G?????_AA?I?P??G??GA@???A?@O???A???D???_??D?C??A????_C??@??????_?????????A??A??C?????A???O?????G@?@_@?@@?G??__Q?A??@C????????????????_C?G????H??C????????G???@A??????E???G???_???????@??G?@?O?P?G?_?????@O_???_O??_???????????X?c??KK?????????GB?_AG?????????_OG?@???H??????O?????OOOAA?G????o?????_??????G??A?I?O?C??O??OQ?????oO?G??@_???__?@?????oAg?a?_CA??CC?A??????????CG?????C??@????C??AOGC????????????????G?O???_???G??A??OO??_?C@A?A??A?C???A??G???oO???????AOG???W????CB??A???WC?G???G,False
~?@cO?__????????G?A?????@_?O??????K??_??????g_????_II?O?A?O??G?@??G?O??B?C??@???__??A??@?O@c??@CA@?????I??????WCC???????O???O???@?@??A???OA???G?g???@??_?@@A?OO`C?C@?A_G??AA???????G?aO????G@???@????????_C???A???G?????????OA????__A?????O?????O??E?????AC??????A????G???????GAPG_C????G????????G????????O?_C??AaC?C??A?????G?CO??K??????_????????Cg?????P??O?G????O?@??H??_????@??H?????????????@?GAC??LGW?_??C???O?????????W????A??_???O??????@??OG?G??@????OG???O?_O????O???Og???c_??A???????C?????????@OCO????C@A????GCG@A?_GA???????@O?KC?@??AC_??@?G??????P????????GA_O???G@C???_O?????C?????@???O?@?O???????_????@???O??A??_A?EC??_???????????????????`C??Q??O?O??G??O_?@?gOG_?????????_???????_?O???????@?c?C?CO????w??O?`??_???H???O???@C?gC??E????O??C???@CC???????G??gA?GO?O?????O????O??@????????Q?o?G??@c?????????????GS??C??O???????C?????G?@?,False
~?@c??_???????I????G??a@A?OO?????C?G??????A?O????_??G?GKO??????W?OA???????????@?C??I???????CAO__@??????E??_?@?@?G????GI?H????????AC??OA??GC???G????_???????????O@GO???A???C????????A????????????????????????CG??????_CG??@A???AC??OCKA?????????????????????AG???_?`????????O?_?@??????AA?O?????C@????_?Oc?CC????C??????W??????O?????@??@?C???G?O?O?@??@C???_??W?P????@????????I?????_??@????@OAGA????????OGA???@?G??`????A@???g@??_A??A??????????AC??GAG???DP??G?OM????C????@??O????_?C?C?_??K????????_??CGA?????q?Ag_??C?`B????_???@?@???C????@??@?O?_?O?W@???A?O_????CC????_???O????_???cO?????O???????@O??O????g??Q?@?_?O??Q_???D?G??A???_??????O??G??O?_???CC???????G??@?G???C?O@?a??EGG??O?@????__?@B???@??????C?C?CC?A??O?????C???O@??C???G???O?Q???C??????o????gI?????????Q_???A??HC?O????_GG@?@_??bG??OA?????@???????O???a??@C?A?_G????G??_?O@C@??A??,False
~?@cC???????A???O?_??C?????????G???_C@??G?@?_?????A??????????A?I?_?OOGC?@??????_????????????a????AO?????O??G???AO???????o@??W??A@_????@????????O?????@@?GG?O????C?g????????????o???C?DE??????O?@?A?????????O??C????Ag????GO??@??????@@???A??G??G??_??C??K???@?C???_?C????C??????G_W?_??????A@o_??@_??_C?_@??????@????C???O??_?????o?@CCAA??@?@?__?GG??K?`???C??A???P_HO???C@?gC???????????aoG??@C_??_a_?G????C?@?S????C_?????@????_?D?@?COK??A????@??__O?????O????C??_????_???????_?????_?O????????_????G??????G?????????@D??G?G_?????bG????`????O????G?O????@?O@???O??????????A?G??????A??_@?????@??????G???_?G_A?O????G??G????@S?C?????KGS?W???A??????_G??????@???@E???@?o???D?C??K??`G????G?O?@@??????O???_?DG???????@?????@??QC???G?????O?@A???G?????????GO?@G?_??G????G?????O?a??w?@???Q@A??@?????AAG???A?S@_HB?_A?????_???GG@?OG?????@C????????G?C?A?C?,False
~?@c??????_GA?????????A?O??@??????G`????GC?_??????C???H??CBo???`?????P????_?????@@????BC?G??@b_?@???????O??g????@????G??QA????I@A?C?_????A?H???O?G@????C??????G??????????@??G?G@???@AS???GG?G??????C??C@???O???A_D?K?@O???G???OS??G??????O????KB????????G??A??OAo????C?CgA_C??????K????O_A???C?@C?_?O??????A?O??OO?????_????_??G??????O?O????O????C??_?KG?@??o_???cA_?A??_?O__?C?O_O?_???C????E?G???_??@??Ad???C?S_??_??????OAG??????CP@??@O??A????@???????C?@@??A??_?@??????G?_G?????@???O?????G??A???a????O@??????G?AG?????_K???_???_@??C@B????_?O??@_@?G?????C?@AQ??????_???DG?A?????A?W?????G_???c?????_?????G??G??@?????@?__??G?_@??A?e??????C?GGG????_?G?@???_o???@?A??O??????_?A?KGA???@??@?A????G??o?_?????O?CO?_?????_?_?O????????A??????_?????_???G???G?????_??????P????????A????D????_C??G???CC??????@?????@????????????O???_@??C????_????_?K?????,False
~?@c??G?C??@?_A?????G????AA?O?OCQ?C?C??M???C??????A????C?_?I?_??O???????G???GAC?O???@_C??????I?@????_??????_?@@????_??????????????G@???_G??P????_?????????@_A??@?C??I?GE??H??????????A????A?@????m??????G?O?AG?C_c?a??O????@????????_?_?????????s??C???I????_????_?_??????W???_C????A????GB??OaC@??OC??S?@?G???M???G?????C?_??CA???????C???_Oa?`????????G???A?????o??G?_???@@_?O????_?????_??@_??_?K????GO???_@C??O??@?????A??@??O???A@CA??G????@?GOD??A@???????@G??A????CGC??????A????_??@?O?????????????C_????GC?_O??CEO???????O???OI@???A???C@G???????_G?????A??A?cDO?_????_?G???O??????A???????@C@??????O???A@?GEI?O???@????????C????????O???_C?CGC??_?G@?CS??G???HO?O??C@???O??????????U?A???@???????@O???@??C?@????C??O??@???A???IG?A?AA?CC????????????C??O?C?AO?????????G??_??G_c??C???????_C?????G?S???@??E?OO???OGG@?C???P???_??G?@??H_??????????C?G,False
~?@c????O?@_????[??G????`_?aGG??@@?????A???A??C????@??????????@???A??_C??????o?k?O??C??A@?IG??_????K????O???A?@O_????@a?Cg@_A?????Ag??S??C_??AC@?_?C??A?I??O?????@??A??C?_A???C???G??O??????CB?????CC????A?????O?_?o??????_AO??_????g?????@???????????C?GAO?GG@??@??@???C????G??GG????????????C??A?????????@?????Q??_????G?AA??G???C?@_Aa?O??aC??@O??G??G?O?P???G??????@???????????G????A@?????C??_???????????????O??????G??C??cG????A?????G?????????????_????@C????@G?????A?AK???O????_O?@??????o?@O?AA?_????@C?@?G???O??_?@dOG_D@?????????@?O?_???_C@O?????A?GOC@????G?_OG?g???C???A?_???A?G???A?G???????O?@????????G?_??G???_????_???????@????_G?@???????WKC???@?@?G??????@?A????A??H@?@?????@G??A`?@?????@?_??C??Q?????????G???G??????_??C?E??S?A__?A?@?OG??????Q?@?G_?A?A?O?O@??OC??__???????C???GO???C?????M`???G???_oc??????@??K???c??@??????GC?????G?,False
~?@cG@?_?`??C?_???@B????????C?????????Ga??O????????c@????a???CG??G?@???C???@I_???A??_??@??A?@???????????a??????C??OM_OB??_O??C?@O?_AO?A???OO????CG??A???C_???_?O??_???@??O???G_??gC?GS??sC`??OO?A?__?C????A?__a??@C????C?O??O?CO??GG??????KA?C????G??@gGA?A????_?_G?????????????`@?????????CO???_??A???H??D_@?G??@??C???????_??????O_?aAO??@O?_@???GO????P??C????_C????????C@??A@M?_?O?????G?????@G?@????@?????G???_?SA?????_???O???A???_?A????????gG??????C_???_????????_?O?O???`@??O??????????G?O??_???O?@A??E??_?_????O??GG?A???_@?????g?_????I_?????QA???A????UA??_?G???A@EGAO???????@?O?@??O????O???AC??@??_??G?????C????@???_??????OA?@?C???????_O?????G_??GG?@??????????__??????_?C?C???G?s????C_PA?????G??????_??C?@??C??O???[A??C@???????_???C_???O?????????@@?????C??????G??AA??A?????G?????_????????GC???A?P??@??????O???G@???C????????@????A?A???,False
~?@c????????????_??D????G?????G_A??__?@??????_?????G??A???A?@???A?_W?A?C??????GC?G???A?A??_????????????C@??A?????B_?@??_?O_???A?G@_?????@?A_??????????????_??G???G??@??_?????_???C?O??????@O??C???GA???_????????I`????AC?G???@???????_A???????G?????@_???C?????_??O?AOA??@A??????P??????CC??????????GD?C?CO?A?C??A?O?g?C??O??`??C??@C??@?C@??C????O?_CO?????@O????AA?_?@G????@????G??_??@??_??A_????GO???C?IA@COOO_?OA???C?_A????CA?????A?CP?A??O??GEOA????@?AA?????????@CG@?B?G?G?????????@??G?WA?G?@??O?????OA??K??O?@??O??`_?_????G??@?????????I?gO????G@_?o???????????A????@?CAA???????W??????G?C??__?????????a?AO?W?C?Pg?C??????@GaP???_????o??D???????S?@????A?OoC?g???@?@G???G_???????COC???G@??A????c????@????????@?@??????_?C??@?C_?_????B@???????SG???@??C???C?CO???@??????????A???C?A????????@_?O??@G???O@??W?AA??G??A??GO?I????????I?A_O???C?????,False
