g6,attribute,time,total - 1.11961
g6,isEdgeTransitive
~?@c~~~~~N}}lLv|vjov~|~^~z\~\~hy}{zV~vx~ly{Zn~n||}|jvZuZ^~nxt^uji||zr~~~~Zd^smz}}|~uF|bMjf~n~~z~n~y]~~z|~tnf~a~~rZf~~~vN~Zv~z~y~zmy^~V}Kl|~}zZ~l~z~xn~trv~|^R^y~^z~~v~\z^vn~~~vr||~n~z~tj~|yy}yFi~~~J~vN~~~~k~~~}fzmjuvz~vFz~~xzmvz^nnnz|mvv~~~~~|~V}vzz^\^~e~~|x~~}^]mmj|Q~]z~~zp~~{v~n~n~mxn~^v~m~|y^~~~~N}|Rn\NMz}V~}h^Jv~wf~]Z~{fl~nvqzz^~}~^v~z~^~~z~~~~~Thz^}~~nzUzy^\N~~bmtz\v|fvv~~^~z~us~vOz||r]~}^H~~yz^y~|nTmN}~~\Mn~j|yzVzb|r~|VN{NL[z~y~^z^v^^nnz|T~~V~Z~r~f}~E^}~xv`e~lrx{Nvf~Z]~~v[xlep]lR~^nvmvfr|{~~xXXz~vf~v~}n^Xrn^r~~v}wu~|~|zN}~r~yvdft{~}~|vlj|Q|\zZ|~u~j~x\]Jv}~~x{f~|V~v~xNzn^|}\nvnDuB~naz^^~}Tz]zn}t~|t}~vl]v^ltf|Z~}~~fT|n\blWn~n~V^|br^~J~xZ}~~~wnvz|z|t~}~~Tunl~LV~~|dvl~M|yknzzbtuvt~vfz~^\~~x`n~fn~~yvz\~~~fuzny^vjj~z~V}k~~^~{N}xyFn}z~~vX~vvV~~Ly~{~^j~zz\m~}vt|nv~~jz}~v~sx~vv~vv{v}~j~y~{~~u|x~~|v|~Z|~p}xrVv^}|v~s~Zzf{^v,False,0.1883268356
~?@c~z}~N\~k~v~z}x]~n~\~{uZvJZ}n~N~ir{vtUlVv}~}~\V^zqV}zll~~~~Mf|vz]}dVu~Fv~^rNnnv|~~v~zzr^nzm~~u~{}h~~yz}r}~tj}nzv~}~Nt]~z~Zls~E~rBZv||}~f~~\~qm~\rv~^u~|^nvv|zM\~V~U\~}^r~N\}nK~F}^zy{p}~R~n|^uh~vj~~~~|nnrv{~c~\n^~|~v}nnz~|pjwz~{^nivN~rz~Zn~~]~vn~yz~~]~nvwal^mtNv~Vvf~~nZ~]~}zzmej~~Uz~lvmn|}~|\~|^~vb~Vkz~r]\^V|~|z~~|vn~~\}~{}i~^ujn|}fj}vZ~kN~ZKjXm^zl}~u~~^~nF~^h~nm]nr^~jzfdq^zn~~K~vyl~~Z~~v~z^~hq^|{N^vr~l~|\y|~u~mxpz~}~z^{nv~~~^~hj{~~jvZ~||~v^VY~]Z|n~d{~n\l~z~|~|wvz~Nz|z|x~~N~{zq}zuvRrn~^nubn\RvZvv|~vvn|y^^z~v~k~}ZZNd]^~Tf]z^~}lz}~znyx~^x~~~l~~z~yV~N~uv~~\~~yN~nz~~vvvk}~~~dx}n^lzzvz~\n~[fn|~ut~~v}lnn^n~m~viv~}yzV]u}t~z^}}J~|~}z^nNmuv~v~~^nnnJ^y~|Jm~~^~~~~|nv|VmnQnvJ~Bn|Xv||jju~tV~exZn~vu~Nz~JV~~X{z~^jy~~~nN~||~~Rv]|\~}ny~Znfx~~~n}~lz^~Z~vev|^}vNvlfN^nZ|z|~{|r~zul^vfn~nY~x~zInX~}}~]t|ZJ~v}yj}~^nz^|~|~lZ~~n]vZnUv~{ur~[~],False,0.0117599964
~?@cvz~~~~m~~}fm^jz^vuv]z\^~jiZ]~}~|Y}^~v~x^|rN}kL]~N~~~x~~Nzvtr~T~~n^za^nV~}vn~UnN^]n~~v~~~|mzfrfjN~{~~fl^~\~dvznfrN~~z~~~|nt~^~]~v[~nvvz^||~z~uZ|^r||Nv}~\{nmn~Vet}~vn~~Vij|Vm|y~~zV^d~^unV|^|}z~Vl~~nzv~Jzr|nvzjFn~y}tf|||k~~h~^nb~~~x~~~uJf|v~v~~n~}q~s|~^u^~nm]~~S~|\l||Z}ynT{~|Wv~]\|F}tvz~~v~f~^~]v|~~}zzv~q^~~zu~Yt}\~}w~~z^v~{Xnu|^~~Z}NUzy^^v~j~|}Tv}~Zn|^y~vv~jby}}Jn~nv~|rrn}^s~bxV|{m^z^}~~xa|vzv^~y~U~|^mt}v~~N|TZjzvn^~wUZzgnyzv~n\z^^~~~~nwv~}~V~r|Ru|~nZunyz^~Q|N~n~~]~v~Z|}Lsm{^~nv|n}~}dnZ~|nnvx}\]~~^V}}~~|X^{~X\v|V~~fv~Y~nlV||}|QzR~N~^}uLB{y}v~|T~||~|~~~~~n^zew~~~t~]tv^z\~u~N~~mF]]N^~v|~d|~rx~ZZ~{nrz^}~Zn~m~vnx~l~l[j}~Vnfn~~hj\~{}|z~t~k}~~n|r~v}uXZ|^k|}zmu}~n~L^N^~m}n{uvs~lvv~^vy~{Zz~^rnn~|^zQ\zrmj~zr~z^}}f~p~^~y^~z~wf}}wx}Vn^^|^n~~~}~zvv~n}~ty|nn~q}}^~xn~i|zfXtnNXinxz~v~L~nf}\b{vvun}~N^vNv]yl{~}[n~n|~uK~fznz}dzn{^^~z,False,0.0094931126
~?@c|dUt|}{~z{^\}{~jn^|urp~~\vv^vf~vm~neq|g|~y~^~^zNy|~fvz^]~nnn}}|~~^tnjqz~|v~ztV~jLuYrvN~xrv~}~~}YR}}j}z}Z^r^y~pzz^~ulNvzl|nU|Ppnnyxv~~\|^ulzz|~V^~y~|~^~}~~r^}~uv~~~Sp~Ju~}}|Vv~}v~}n}b}nn^v|~V}[z|r}}\y~~n|f|~vVs]{z^l~~}x~M~Nz^vzhq^fdz~h~rxv~}b~v~~~~~~~}~vBm^v|v~~}nR~|zv]t~~~~~^B}|r~v~l||~{~rdv^}~zov~~~nnr~]~~nZ}ji~~~T~xup}nLt~^siPvz~n^L~Vvni^rmn~|j~yN}|}|{T~~ujfV~s~Myyn~~|~~||r^~b]~~~}~Z}v~^znz~}wv~~~|Jpn}~||~vmf^~~~~y[fkrrMXzz}{{u~z~~[~vt~V~|\~~}Xrv^^zs~{v^{z~^vuz~~~u^~zXsFLvmxn~vL~~z~jn}}b~Znzn~}q~}~u~~~x^|~|^t~~{VM~nz~~nLv~Z|v~}~|~vn^f~tvVoy~vVn^~|nz~~\n~^~z|}v~}~~n~~^n]n~j~L~~n~~~^{~a~}fe{s~~~i~^Z~v^n\~ym{||}]v~J}NH[m~z~]z{yW~rznz{z~yt~~ZH~~}^~NN^}p~~Xk~~t|n}|~vny~Z^~~~~}N~|~fT~~qNr~fvzurnz\}N~n^~nnn]l|l~fvv~z{~zvv~m~|^}|r}]~Rrn}~~~~~by\^}y{~^N~hzm~~z^^n]V~Nvbr~vj}~}Z|v\]m|skvz\D~nT~u}nX|e^q~nkWr^}w||~n~\~}xmj~^,False,0.0094439983
~?@c~vryuN~r~~j~z~~vn|z~UJyllv^Nu^|NZ}fhFnJ|~Vb^}qnjV^]s^T^vQ~nV~ly\|}~x}^~~|L^}\|zXavrv~i^Vjm~~mz]~V}~|^|{}bnnVuzz~k~~]~~v|lz~^~|^|~tnmpl^n[|z[v~n~fk^}~m|z~}nnu{}~Jv~viN~~~tNNvej~{}z|~nv}mwvv{|zz~nhzfv~j~z~^~^~q~Lu|~~p^z~Nv~nUz~^n\zvFiv~}V~r~i~}zNny~Uz]zxX~z{^~|v~|vf~|Nvm~}~]~n~~n~^\V}~^~~~~~~J||~b~|Pp~wni}vrz~yvr~~~~{yy^}\~FXz~N~n~~zdvVjfn}vZ~~v}z~NNv|nz~nZV]^n|t~\lx}JJn~}t~w{{Z}|}z~|~}~}~rj|vw]~^~z{~}nz|~~~J~~eb\z~^~~|~vth~}vn{~}l|xv|z~^~~~~bl}^~}~}B~~~nz~~z~^}~}mv^~~|~^|v~~zm~nf|~~V^^yjD~x|n]uj~~M~tf~Vpz~~cz~Vn^~}un~]~~~~nuznnuje~hz~}]h~v|r}~|~uzt~v~vrrm]z~~r[~V~~NV{lZnsyng~|}v|s~~u|\~{~nVZ}|F~v|r||L~~~]~}\FI]~N}\iuT~m~x|jTxv}NN{|~z|n}{zn~N^~|~z|~z~~n^^~~|}~u~u^^~~n{}vv~ue~rn~^jnuVzdw~JZ}z^v~~^}}]~~yyZ~yn^Z~~~X|~VnTvpxnu~MiZ|u~^u~~l}Vv|j~\rv~|~V^^m~|~~~j~~z~M~Nv|~w]nnz^n~]~\}|^Z^~^n^T~~sAp~vuJ~nf^~Nx|}f~N^]~^]\~rr,False,0.0094621181
~?@c|jnv~vv~}~~nXdytNl~r~v}\v^zz~jn~~lz~|^z}m~{]}~lu^tn~q~R^~y^~u}\~nnu}{n~yTuyn~~f~\^~^r~~}hjxx~vl|nRn^nVV~~jv~~uz~x~r~n~z|N|nr~m~X}~~]z}yVn~~^t~Z~^z}~}|~}ux~|lyk}N}~^T~bVvz^nt}cVht~nz~vnu~Xu^~}z~}n~z~~uv}}~^z}~~dZv{~vzq}~~Vzr~z}L~Vv^i}|{nV~f~vfl|~~~klT~Jzi]ez~zTn{V~~ry|nvtv\~lh~P~{z~\Nz~}v[~^}~\tCvj~^n}NZv~~^}zv{v|^Nxq~r|}}m}~^tf~vz^|r]}rzzn~nf^P\z~~~z~em|v\]njn|yj^n]~~ZX~{~nvmY|j~}^ury~~y~~~n^|~~z~vl~v~^|{xz^^}}f^Vfq~f~t~~p~fx}~~V~}~x[ml~~~^~wf~dz^|~|v~|~n}{zz~nl~j~~wz^zj|~h^x~^zy|m^~v~W~rr^~~y~vN~~}|~y|}o^v~v~^^nve}}wvv~VJgz~knNL}vj~^|r~v^q~~\~z}wuvtn~^l^v{vlXx{v^F]n]y~nu~LW~j|r]Z^Jlvl~||nRj^~zPdv|z~~n~zjlu^Z~~|}v~~t~zvzz~G^}ut}ZL}~ut~Znn\Z~}Zz~^Nz|ll~x|rf~N~~^~~yjX|}l^~jnm^j}n|rz}~Tj~p^~~n}nzk~|^~ynnDv~^~n~]~d}~~^^~j~|~e~~vtcvf~v~~^^~^^~b|r~zjt{~}X^~\F~^]^~~|n~^vmvvn~}zvz^~~zr}v~~v~Q^h~^~mkm~~Vd~~|^z^^z}ezuo^~jVn,False,0.0094959736
~?@cyvHrLnM~l~YZnr~~y~~~ze~V~f}}~vn\fvvYZr^N^J}}]^~|\~vt^]v~fvv~hl~}~~v~{~qz~~zn~zl~|]I}n~~~~~}x~nv}`_~{}n|}|L^^\zV~Nxbt~~|m{nnz~\~^\vxtvu~~~z^~}wn~^gVyz~vV~~~vn~n~Vv{~v^~~sz|U~~xvzz~}jn~~{~XvR~Q{wmn^|v|jTZ[}^sbl|m^zn~^v}z~^t~m]y~NbYUzz~nn{~c~^^Y~tv^|N{Zdzv~v]~~Y|}~d]e~n~Ru~wvvU{~v~vx^}~yvz^^z~x|^~[i~~^}]}~~zsr~y~fjZ^u^|~~nzzl~z~~|n^~s[ZvZ~^~Z~zlnjznvzu~k^^t|z\z\i~nvvlB|~rn~~|j~nEb~Npl~~nv~}^y~\\~fv~|mvY~~~~~a\}n}n~n|~N~]l~~y~nV|^|^Zx|~v~|elt~n~z~~nzyr}|^F^~fNjA}}ukv|}|~xzb~wj|^~[~zvx\|xy}VX|Y}nn~v}\~q^~vu}\}rd~~fnt||~JRv[V\^~vl[nnzT\e]zz~~|n~^]~ntnZv|nn|}~~~^mz\{~}y^~z^~}v~^~~~ju}~l}}~um\bl~e~j|z~tt~~v}~t|x^|}~v~tz~vM~v[{~lr~\|~x~^z}yv}vlvv}|~~~vv~}|~~n^~~FX~\^~n^\m|~n|yz}r|Vl~V~zzNv~~}^N~v}}{v~^{~}~Nu[V}^V|~~~}V~y~}|~~\~~~zvj~z~~f~h]~^~h~~{nj~|^}~nv}nvIS^v|~Lnn~|}\^|N~yxz^xnnrz^n~~~z^nv~}\NnL]zl~~^yZ~}{~}myzV}{yk{jn,False,0.0094919205
~?@cny]|}]~j}tS~~my~f~~n~n~vJ~^~Gv}~vMZ}z|}n^jnzv||~~~V|{lnJ~~t|}zCx}vj{pvzyv~~jZj~^~yn|Z^vvvM~t}~~w^nyt}wv~~|^~^}l|^^x~|~e]u^|~mD}~}~Vvyv|E^~^~fnf}~nbnvfrNn|j~~z^n}~~nxxz}wl~n|}vaRy~n~~~xv~]zu~^~z}ReZlv}~^~rv~~~~rz~vYVN^]x[|y~Kr^|kN~}nns~Zty~mv]z~~~z~v~{n^N~Txnpner[i~^}v}X~}|]~n~Mt|zvL|~~^|~u~r~~y~^tv]~~re~^Nz~~Vn~vk}c~\zw~|~qux}vv~Hy~N^z{{n|~z}fz^~|R|~n^z^nunzz~|~vf~~~\Zay{~~]~v|v~~~m^p}f~n}\vjtP~xo~~nz~~~~d~}~]yz{v~zjLv|~~~^z~^nZ~|y]|~i~|yzLn]o|nZnnf~n~~~zvnz~F}ZvNmj~~|^~r~t~~\zv~\\~~~~X~}un~v|emfft{~~U~f~n^n~|mz\]}}}r\v^Xz{~~nu~zv~Lvz^Em~Z~x~tv~^}r~qnz|ujz~^~Nvv~cj}|^Nan^k~v~^jx~y~{~z}~uv~v}^uF^zV~Nrvvb~~|}Mf~zh}~~~}~~n~~sx\vt~|\~s~nz~^uv~^~~vZvm~|n~Uv}r^~n|~F~~izn\|^|~zR~||^~i^xv~xm~z{nk~MfNr~x|~vv~l~~}N|^dv^~]ilz~}v|~Zne~]fz~}xu~~n}z^r~~|~N~vjvt}N~Vnzv}~^f~~~o^vnv~\~zvPn~J]v^n~g~m|f~~Znz~~Nv^~NNP{Q|xtnz~i^^l~mlJ,False,0.009428978
~?@cuvz|vzu\~\^~|vuzzln]tX~~~^~m~~v}~j~v|}Rm\Nzm~~d}lv~N~~l^z~~i|Vur~~|wY^~n~Tz^v~~h~|]~ru~~~}t{n~}uk~|~y~[^y~|~^Nvz}zf^~jn~~nYzvJ~N^uz]Fzv|~z^TZyz~|}~~]t|m~}~um^nV|~T~TPp~Z]~v|r}Z~~YqZ{g|~yn~~m}|nU}~~|Vv}v~xHv{~|X~}v^uw~}v^~^z}~^yv|n~v|~Yvl~e\~~Nmzfj~}|y~~]|vttTmz|~w[nz}nyn~v~z~^Yr~zz}}n^~nFv~t}Z~V~z|~}~n|unJ|~~~anr~^|m~~^m|e}^]fP}~}nxYv~}~^Zk~vnI^Vm~|~z~~|~|vln}DNfz~~~vrz~~~}f^t^nx|z~jz~~|V}~^[n~|}^|zx~Zn~VnnvTJz~^^\^}Fh]Wnz~j~n]^vwr~nb^}zZx~n{uzz}|zxEuv|}zn|\]zzZz~vYN^zNjU~~~~~|}t}~~f~~~~Z}N\}fvlxr}~~g~~N~|^~z~~vDv~V|~Y~v\N]~Z~kNU~x~~u~rnm~w^~brb~zN~u^~^~f^~uhz~Jjx~z~j}n|B|unx~Z^^}JN~Njj~\m]{mt~}}uv}ezqt~jnp^|ffn~z~rn~~~~~z\}t{|^~y~~Ld|vzrnr\^^zV~m}vz~tu]Vmz}~pj~l|}vZk^~jz^kvn~}|v~wtx~}Vh}^iT~vz^~~~\^v~v~~]|~l~n~~n]j~^~~|ZNz~v|~vf~\V~^~}tyta~~~~zV~v~z^}||^~~fJ^~~Y~~x|~|l~~vzvm~vu~||^V\va~zE|r{~~t]m]n~]n~}~~~~]P~m~r,False,0.0094020367
~?@c~N~^}j~~eNvvzn^z^}nMmvn{~~~pefe^rfnf^\w^j~|~nzn~~^n~~~bj~~~O~zI^~u|^~}\v}~jly~y|l~j]nlvu~Vn|~~x~~x~tTve^XV~}~~|~z^^rz~bvV~LZ^~L}ny{~vbZt|v}~~~~IF}}t|~~]q^\~n~{zvv~|p}|[~v}nb^nNzz}}~|~~~]~jj~v~W^^zvz|B}m^R~ZnnJ}]~r~Jd]b^~~~^~t~z~T}l}TV{~tN~nzm~~vvRxvnnN~z}|~~~ZV~~~f~vnxZ|v~~~~\~z~~~x~|}Fdj^~u~|~}|~~||V^qrv~~~n}Ujz^}~zzv^~|~~~~v~^\U|~l~~m~rv}f{xx~~|n|}|^~mnzzV|~x}}}\U~{v~~z~~Q}|Fv}nlDv~|~^~z~q\Zv~|^Vf~zy}v~^n~nJ~^v~~}~]nzm|~~|z{}^~~Xv~vMz~~^y^~wpv~yzV|~zn~FNn~v~zvZ~Vvq~~~}tuj~~~x~vn\~v}x^m^~Vtn}\|~N~~V~M}}vi~v\}t^j{u|kU~nzL~n}VN~v^jetnU~^~vz~^nN~]w]z~nN|~x||jnvNzp~v~qr~^Vfz[{dV}}p}~~}~u~z~|w~lljM||V{~vn|gv}||t}}~~j|{y}~]l~}v|~Xxn~u^uVV~n~r^^xyY}V^Nin~z~h~fv~|{jzjSU~vVus~|~}e^~x~~vv~r~^~~}yy}N|~d^zf~XN^Y~yze^T^f^^^Vn}rv|zl~]WeyvrWzx||}\nrr~M]n|}{`Z~||^}}|z~~me~~~~~v^^^lvxN~wz~~^n]p^nx~]VnZ}zvX|zzl~~x~kvl~~z|~|v~^~ux|,False,0.0094530582
~?@c~~~zn{^~n^|NZzzV^^^x~~Z]~nQfn~w^lx~nt|}Ybl\vm~}nxvnn^y~}}}}~~E~vzk~lT}~b}Z|n}zsYzx~^|v~m}L~zf|f^~~NxZN~NtR~~z~~\}~^FZ~\l~}~vj~~^~yfzzv~]qy^}|n^Z~Zvm\N~N^}n{}~j~z{n^~v~nN^z}vZt~lnj~n~~k|r~zV~\~~n~^~~q~}~~y~rz~}^Vvvp}rNyz~~rrnNn~{fT~~~hy~zZYi|^n\~}i~R~^~~^{~z~zLF~nnRfv~nz~v~~~vM~vu]}v^\Nk~~}K]U|nv|vRn{VZ\|}u~~\}vh~n|hn~{^^~~Lj~}^n}m~gz~]vn~~v~|~N|||~|~|~}^u}~~z~~vL|fj~m}}^V}}|ufNH~mz~^~Nrz^}v~~u~z\~r}VVxn}~r}}~~Rvn~^~|ny}zj~|~~mu~uz~~}gv~~\zH}\ln{{nNln~U^t[nx|~n^qnn~n|d~~~w~mnN|jF~yZz\t^]bF|~{u~krrUn~t}pvuzv~|\vf}}~nJvx\~U|~|r~}^ll~~^|nfN~~^}~nx~m^}^}k~z~~~y~nvtYmuV^p~{j{Xz~]U~x}^vN}r|~m}}~R~vVUun^yvmvJ~|Vf~zn^~]nv^~~v~vi~f~m~z~|}z~~|znTNr~~}XszdNv~vm\~V~V|~~~L|~zN^v~~|~~^xfUjv~zrz\~iny~ys}m|n~ny~E~cjV~|}|}}~jnz||lnvl}~~v|~^{Z\~^v|~~Vt~~zxnu~Lr~]vM~l~m~~}r^|f~v~}Dvz~~{zz~~}}n~c]z~~w||~rznlnA~~um~x~}}g}rz~]n~v~zzy~{z,False,0.0094180107
~?@ck|}N~~z~~^m}V|xj{~^~^|x{~n~h^~}y}|yu\uf~qv~Fx^v~ne\vztV^~n{}~b~e~~~x~~xfzjnzZjv|z~nz~zn^z~Zl|~x~^nsv}v~ni~\|~f^nn~njtp~v|v}iz]rVv||f~\|~v~T}zj~^^|vvp\|unXnvMNZJZ~~^|^zvu~~~zh~~zvxt~~j}z^|~{\~~q~Fzzzrvjv}~{n~~t}]vx~~@~|x^r~^|r^Z~eN~xNqun~\Mi~|~~~~~~wvy~}v~||^z~l~ZzOl~Zd~|~zj~~|t^fv^~xfb~r~~~~svz~v~fz[o~t|v~nyMf^mN\jN|x~M}j{b\r~~u^rr~}^^|ZN~UnU~lu]^~m~~~wT^~tz}x{m~~}m~~^fux~xu~^{}|~f~~vv~}}N{z~X^n[~^m}^nzzjMz~mnj|r~lU~z~N~~O^~n~znxfx~~}}nv~zx^~tz~~~z~|}f~~R~|t}f^o~vE~~~~vnzz|n}~v^vmv~itXnrj~^b~xnm~~~NjZml~^~^~ZTzN|n~n~~^~N}a^vztZz}^~q~u|p~~]t|~Zf|~nf|~N}}^j}|~~vv~nvu~nv~nz{|}wy~u}~}lB{^xx}{yvv}~}z~}fl~Snev\y~n\rv~v~~~nznL}y}n~y||z~r~v}y^~|v~mn~~n]J~v~zzt~|dznxxy{l~^f~jnZjxk_~vz~z~j||mv|~~y}xn~r}|N^vu\V~~nvz]f~|nvRy~|bulj[uv~y~\njnn~~Fy|fn|lm^}nn~n~^U}|tzz}yvn~|n[tx~j^~||~z~|n~x~~~v^ZN~|vz}V^nz[~~~lE~vnv~v\VJ~Z~Zz^~~,False,0.0094089508
~?@c~u}~z|l}Wrhnnxz\v}^~Fnv~~~[^~~]z}^~Vb^r~|}~Vux]{\~^~}zy~~nvZNi|ykZnn~~}z}Nv~z}~zqzN|^~~zz]~~{~u|r|~}n}rg~x]ruz~Z~n\y]~vr|~zjzpn^vw~pw~zp^^vz~r~~}\t^mJdn~~x|~~}gwN|]rL~v~N~zZ~nt^nJ|||}~nv}zV~n}~||zzpzR~Fn~vy~n~}r}z[~~z~znn\~~u~n|ynM{{iu~}Nv~x~z|n~^~v^v}~vzvy~~~~vLmX~~~zr~z^Zlv~~jvjN~M~x~v~zvvzZnmx~ju~}~~Jxxx~~}z}|m~}kvz~|rv~^\t}kv|tnyv}zmynvtf\~yn^z}^{n}z~vzty~~t~n~Vx}}zznn^~rf~}Nrz~s~v{yuV~f`m^zz~d~x~z~vF~izzyj^^vV~~~f~vn^|l]nqV~nv~v~}~rZ}nytzdn||~z~V|~n~~~~|]qd~v~X^}~r~^z~^~\}~^^|h}zyn}Nv~~~^n|m~r~z~vn\vV~z~y}l~zmV~sx~f~~|^vv~fL~~{s|i~~U|Ujvsr~|tNk|~Nf~n]juNnTuj~x}PnVi~~z{^vzJ{~~~}z|vu~\R]~~~N~uw~nz|{z~z~\~}\^Vn}~ml}j|j~}}~~~nn^n]~~zwv~~~h^\~r}{n~~~|^~v~~sMt^f^~zl~~v~tz^~[~yzmn}v~\j}z^fl^z^|pn~tj^|n~Ny~kr~iz~zlj~~vpzrd}~|nj~qVn|l~^}~zxs[vb~n^ifJv~v^bm~q]~Trk{tvn~~d]u|f|N~~f~[~|~~v\~^q\|u~v~hv~m^q|~}z^c~^vN^z^|V^|,False,0.0093979836
~?@c~xZl}|}uv|}^}y~~Zy}Pv|]^}|i~zu|^vr~V~~~^~R}~~^|u||{~~u|~~~Vmfr~U~}^zns^h|{n~|~~~]Z~rj~~~~}~|v[|Nfvyn]}w~||jFnmU|~}iz\~^f~zzs^d{~]}~n^~~wby^|n~b~|xz~|~~Vn\nv}~~{}bzvfr~~Lx^~~}n]|~|Uw~zf~mfzYz~yj~Z~Zkv~t~b|v~|~xn~e]~j|nk~[\{~qw\nlnN}}mfz[~~~u~~~^~m}^~~~~v||t|~~rVnt|~uV~Yna~~~z^JvI~}N~p\{~j~X|^nn~qnn}n}~ff^s}^z|ln^~~~~v~|f~z|^vm|~ny~^^~|z|^{zYnn~^|^MlE\~}~rN~i}v~ny^^Zn~~nu~\m^x~{|~N~m~f~V|~~~d~VJf~M~}~~}fDZv~y[N~Z~ylnv~nmzvU~}Sv}~n^er~T~~~n^\~Nz~|y~|ZpnpN~vN^~~lvz~n|{}~Z~T~z~~\^it||w~y~jnvnN}~|x~~z}hnv~~~~^~Lnh~bN~klYt~l~vt^n}~}m~{~~z~u~dnv^M~c~~}ue~vyp~i~Zv~t~|~{^j~[~vVlvQ|zz}~j{jd}nn~~y|}\~fzu~~{Nnp]~j~ddnj~[~nFne~v~LxsM|V~{Z^v|zf}^n]~vz|ZtZb}~|}u}mV^~~^rt^|z|||f}^V|N~{fu~|~Z\V^vrt|u}~~vnZNp}~}}~}xvr~^jRv^||}v^rmr~V~^^Fu~vv~Z~~{~v~l}]z|~~~~~^|xy}~|{^VnN}}^n~S~^mn}^Nu}\yfv^|~n~n~vn~Wrrz^^nn]~n~~^|zzV~]z~~~|gz~u~~v~{,False,0.0094499588
~?@c~|~}~z}v~~~~N]mZzt~~~}ryz{pI~nt{~~}vev~Na|]n~zxz~Lx~uj~^^~~jzvv^pwg|~|z~^~mthL{~~f|{~|}z~}^~|~~{|~~z}|z~N~|^}~~ofmvb~~Jf~~}zn~|~~^n~|nb~~~vk\\nux~]^M~^~~t{^yZv{N~n~rw~vRz^VVz}nxt^{~~uv[n~tm~k~m`V~}vljvl~^}n[r~ty}|}~LzNn{hn}^^}z~r`vru~{UrNk}~v~]^~~y|g~\zfmz~WFvz~nvvZ~U~{|~~|~~~{z\~z^vu|~x]n}tvV~^~~~~t~^M^}~nM}~l}l\}~^ZrzNs}n~}~a|~~\fZj|N~~x~}~qn|rur{~n}~n~\MVz~~{X~v~^tt\~z~n~~jt~|v~Nm}ynV^xmnz~Nn~xnvnp~~unmvft}^~{z^^{nnV~xm^~T~v|~zr@yd~~\}zhZxn{|^kj^rz~kt~|~Ur^|n{~Vikn~z}n}zmxz^TjZ~nvm~~z~e~|z}~|~^vj~jfn~v^^vx}~}~Uy{z~~]jr}^Rjju~Z]~FZ\|w}~N^dn^}vv~^Ztz~{e~vxrtv~|{n}mn]Zn~z~V~z{fU~^|~v]u@~}z~~~vqlt]~kyx|v~|Vv{^~z|vn~zz^{~~}~n~h^xz^~~~~~vzfzn~Nn|n~~~|r}~}|~~^z~j~}~p~~z|~n^}~|\|~~^^nr]T~r}^~u}}~~~~|~M~e~z~~~^}Vtnr|^~H|uv~}\ZZWznb|vv~~vz]~N}|~^xll~e^uz~||l~z~fi~T~f~Zz}^lr~|Vn^vvxUNpL~T~]~~^~}^~r~}n^[rvDj~^~V~~V]h|~n]^v,False,0.0094130039
~?@c}v~f~n{]{|t}]^^]}V~~~}v~flz}nr|~zxNd~~\~u]mzqlfFnvnvn^n~v\|^ynzH}[~Zyn~Zn^~Z~^~|r~tn{^zn[|V~zvmzlzv~zzvv~}z}}|pu~zV^t~Fn~N^~|~~|z~}]nv~x~~JvMu~mn|@l]~~~v~vyvF~~~~v~~\^Mt^Liv~\~~x~||vzt~UV~Lr^n~v~~nn{yx||y}~v[~vY^~vz~mm~n\}tnZ~zX~~|~y~}~~}^zz|]No~xl^Z~v~~v|Zv^n~Vz~~mnv~dX|^||nNnbznvxn~}n~|v|~vz~~}z^~~flz~^X~uy}z|vjn~Y~~vzz~ivumYFy~u|rs{yv{uf}{ZVvv]~|}nvz~~yf~vmnlN}x~j~l|^vvfn~wt~}~j|nnrp~z\~vvZ}fvv~~wmq~~]z~}v~n\~~]z{nzzvv|^j~~mv~t^lY~{R~~g}Jvl}~~umt^Vntm~Nzl~~Va}z^~~R~|y~VwV~|j}~mnzL|l~fm|vrzU{~tu~vr|~Z~l|jvi|~n|}~~V~|^~^Vzv~rn}}Z~Nn~z~~tr\zE^^~~r~zlZ~zr~~vf{}~~ts{^z~n^U~I}zi}~|zruyn{zc{ZN~J~~na~|~zxnm|}u|~~~~V~~|~Ju|~|lvftLl]jvq^~nj~n^~vm^\z~~^r|~xx~r~yz~x~~\~nv}{|e~}~~t~y|n}^v~~n[~|g~~l|~m}V~f{j\V~Zvnmy{~}~|~}^~^aj~jxYNvn]~n}~~nZ~|lN||^~}r}j~~~}}Un}x~~fVZ~uvlX~~`~rln}^^~lzXzeT~^lz|~}~nz\x|}~~}|~n}jvy~|}JvuI]|\}n,False,0.0094099045
~?@cn^ZJz}~n~|~~kV~Juzz}{|uT~|l|vR~y^~ncuv~ZY~j~X~bzQ~y~u~v}nk^m~~]hm~Z}r~\~mu}\~}fr~tL^v~|^tznzfyj}x~q~um~}m~zx~l{}}v|~zL^~v^Vm~b~t~{~~}r^nz^|z~r|~|N\|N}nl~z^~~~z]z~~|~~~^||nyvM^|n~jF}~l{N}|~nf~Z||Mv|}~}~\~^vL{N~fnnFu}~v~vj{}~~n|zz~|q~z~neM~~v~}pnm~zN{}{{^\fv}v~~Z}~y^vv~nzzIR|j~~{Quv~|v|N}Qn}n^v|mz^~~~V\~x~z~t~mzr~z~~lr~|n~uj|^Y}~y}xN~~Zrv~pP~z]l{hz}ezzX}Nv~~NJ}|nz~mnnv]nt]^Ym~~~|c|zRz~N}j~n~~~~~}t~^rjR]x~|^b^~}mrZ}yZmVjvvz~v^~~}Wnvf~^t\vEvzz~UM~~~vn~~vV]j~]v~~|~\ynj~~^nj^ZfDu}^i^uNz~yz~~^Z~vt}~v^~~^^~vynf~vv]Xtz^~vn}u~^bf~|~jZ]~pznz]num}nnvzNv~zX\~~~^~tzvn^vx~~|{}~~m|a~rv~~n~~nh~^~~vvb~z|^j^~~Ztu}MR~~|\}vj\nm{~VzN}||}vV|}}~TfV~Rfz~N{|~~^~z~|}x~nluZ|}v}n^\m\n^nzv~~|~]p^~zz~rv~~i^nbznzn~z^i~N~f^ZL~^vntjdvnpv~}]{~^Z~l]~v^T|~}q}|mz~~~u~~xn~^^}Z|zZtt}m~{~tn~^tnM~~v~~^qUy~Zv~}~^^~tn\~~^~h~|Uf}{~t^s~nKzn~[~l}^vkl~~{|vr~~dn,False,0.009458065
~?@c~~{tp^~z~rmv~~nz~}}~j}~~Z]~zZN~zZ~~~~~p|}~n|`~w~~~|^iv~~vv~]vNNr]t^~ImZVumvnffZnl~v~mf~N~xr}|~xu~~]~f~v}~|~~wN^~~JZ~~z}uxsN^z~x~~~nzz|z~|vz|^gzn\Tzv}|~CU]]~}Q~|q~n~^|~~u~zUv~yyv}nvVu~zj~~vzzzi[~~h~X~{~ot~Zy`gm~y~ssh~z^r~|]v~x^z~~}Un|~z|V|}q^~nl~^^Yz~iNv^^v|}l}t^~|j~]y|~n~~^T~^|mw~\vv~~~nnlx^~v~v|~~Nv~^~~DzN~~bn^T~~T~ni~xZ^]|~{v}v|vjuv}]}~~~~^RzZW~|~|~Vm^zm^~zSR~b~\|VzvVznV~fnzmgTN~nTht^zzn|uzn|ylv~Ln||n^~~znmt~rzjv~hVn~^~~ln^}~vl^\vktpv}~~~{Mz~v~~~]ju~nz^|~]nv]|]^}~u~y|z~|~u~lz~v~^~r]gjb^zxz~|fv\x}dvzZ~~~~f~|~z]z^r~^v~j~~yZ}j~~yn|z^|}g^~|~kv^F^m^mvn|t~~jtZ~u|~m}f~nve~~vn^ZJ~}tt~j~\~rnvf~~nLvnmF|L~s~^~zvzZrJvzTx~~Y~ntt[^{jzm~u|~t^|j^^}z~|mk}~lp|z}mTSk]Z^hnZvnx|~z^vv|~vn~n~z~~~\~^t^|uvvz~|~vz]x}~N}y|~~vt}iznHz|zzt~~]u|~z{vjy}F~~J~}}Z~|ux~f~jf~^u~yfz|~]~\^~|~~q}Ty{jn}~|nv~~~ln~R|nqjg}~}~~\}~v~zuq~~|~}~{~]^vr~~Nx}|e|~,False,0.0094270706
~?@ctn|v~k|m\lm]vz~M~~~z~tv~~vnznvz~wz~v~}^~~}~\{N}zvP}~|~FfvN}~LYr[ZeL{~jn[Zfz~~rn}vz^}~f~~~]~|~b|n^~Vz|vj|uxnynum~}f{v~r^MvuE|u~~Rh~n~znz~~Y~^uz~vx|L]~~{~~z}tnt|zsfuvv}~lVu~~^~^RNn~xrvv{\zn\^~v~z~Vt~yz~~~~z~y|v^~}Fnn~v\^~~v}~F~|rX|z]~~ZI\y~nvf|yzZ~^]z~VnmzY\|~~vv}uv}~}|jn~bn~|~zn{p{^~i||~z|V}\~~ik~zNS}dy~nvV]^~T~v~~^tunn~~~r}z~f}|]\~^~yL|V~JVdzm^}~jnxvz~]yl~t~~}Lu~N~}|l|jp|\X~~yyNvt|zz|vnvzk~Yzn^|Etz~p}^{}Z~}mvn~Mm~\nK~Jyv~p|}~~^Uni~fvvrz}|||fn^~v~z~y~nz|T~}n}|~lnl~Nn~Vzm~x~v~u~vV|n|zjN~N~m~v\TvypUqnlvtrI|~|n\]n~x}Mn|Z|jT||^xzn}n}OL}znN~~}~}{Nf~~|fcn~v}Zz~}n~~|v~|vz|~|^nnVNn}~~{z|~yz~{b~~~al~}u}~~x}vx~ZdZmz~vl^~~y~|ynz~~jn~vvR~vl~~n~]^]vyl~Uqu~^~~|zz}|zy~V~^}dNemU~vn}||^r~~}~~t~r~^~~~|]n~m~o~}t~~n~n~~~\~P|~zNx~Znl^}~z|~X~vn}jzn~Q[}~~~u]Ym|~~}|\Uzy~yz~{~^n~~a|j^l~m~|^~vmn~F~~r~{y~~|rvLjn|nlvx}~V~~^^vrn|~nTp\zfznvv|~n,False,0.0094180107
~?@c|zzzt|~^}^p~~v~Z~n~~~|q|l~n~nXvBn}]pn~wz~{~^Vz~rtmV}|]v}}]~u~zpV~vxznvX~~}n|ur~~i~~~vzfj|zvb~wz~|Zmzv~~~nW{B~~^n~m|}^}^|y~zntt~~ze}xj|j~\~P|Zq~n|p]~~~^~nv}y~iU~zndYN|^|~~v~}]^y}~~nzn~}v~ek~^yzj~\}~rGe~v^vnvm~fu~n^V~^nXfm~L}V|~~v}|n~vwhv~rn~~}~nj~|~N~~^ri}~evm~^]}vZ~ya|g~}^~~f||u}yn}\N~v^]}~^n^crnn~h|}|~yn\~^vsz]N~~m~|}n]Nvnf^Zl~~~vu^~nzzvxz{N}z~nW~|v~nt~\~\v~I}z~z]x~]hzzsvnu{}|~r~~~^{nfnfjj|~~^ni~}vn^Ld~Trvvcj~}E|Lnn~zz|R}}NN~~z}ci}vn{|~|~k~lx~nZh~~~Tv|L\v|uyyln^}M~|nz}~vU}Vx|K~bnzme|nj~~~~^^~^]X^nmjn~fdFY|tNV~J~}|x]z~z~n~|z~kn~X~nv~F~~|~r|~~~}t~n}NMf|Y^V}v|~TX~nnn~~]\n}Nu~fZV^v^~^|~f]~Yv~|nv|~~f^Vl~~lHzj~|n~~|Z|~}r~}\z^kz]v^l~}}tx~\~||~j~~~~vv[Vy~{~vnuv[~|li~^~u]qyxr^}~~zZI~}}^ivz^tgzrn~^n~~~rnRN~~|Nx}vn~m^]}~~n~z^~n~u]~Z~ny^|e~\~~z^nr~n~\|~jz~~v~N}}}~~~|~|~^zvmvR^F^vvf{nv^~^U~~}~|}F^V|uL~~l~~v~~|~N^nmjnn|vzvU\~r,False,0.0094761848
~?@cRr~~V\~Z}|~vzS|vy}N^z~~|}|i~~l~E~rp}lm^~|~|Z^fl^F~mvn^^v{J~}}N|~~u}~z~kLz^]uuxdJ}~n}{~l^~|v}~U^V|~~Z~~|gQr~i\nw}rz~~j~Vzz^|n^~tx]z]VBfnnjy~sn~~vTr}yk^~|nL~Ndn~}jz~~}~]~wz~~zW~~~^llznlt~Yr~J~nxy~||~^{vtw~|xZ^~MnXv~}n^nFt~l~{~Zv~~~nZ~~}~~|nz}~TJ~T^m~F~x~~Vfv~~m~~~{z~z^zzl~~}v~^nT~~vvfh}~}Lju}lYznv~zLn~l[~|~evjmy|}nz~^~~~~v^~Fm~t^q~^~}vv~~F\GNbu~zz|Nz~{^n{lzj|Uv~\df~|M~v^|}~{~^~}m~v]~N\~~N~~zzu|~|\\]|x[~r}~~~uY}^~Nn~U~f}}v^zv{~Xznv~v~Nr\~q~v~z}tRnzvvq~J}~~bnxz~v~^^I~N~V~}~rz^uNj|~NV}|z~~}~uY~]~}]~\Ym^v}n~jv|~~~yK~~|v~[|~{tvnNv~||mu~~\~n}}~^uN^}~~~|F||~~Nvj}sn}~nzJ~Lv}zv]~F~XtV~{}~|]~~^~Tn~~\]{nx~]~z~n~~|~R|~z~ny~Fv~}N|f~[nnnfq~~nj~nzj}F~N~}~^{vyzLv~Z~^nB|~~~]m^|n~|~~v~~~~}^jyMZv~sl~t~yz|~n{t\^~JU~H}m}~}{~~VV|}mm|xzTTWV~Nnv{|}^vt\|Gnl}ng~n~~}}}lZ~~~v^~uMa~~u~jZn}vn[u~vxnt|n~^Uz^t~~u~nl|~|\~\z}nx~un}lyM^{v|}~|}~~~U~v~^,False,0.0094110966
~?@cm|ux^nXv[^tn||~qLy^~{lf~~|~~zv^Nn^hr^~}|~[NR~||l}X}i}}ultv~mZr}TV^uv}y}~~\^|fv~N^}rtz}z^n~~n~zv~z}|~}~Zt~^z^E}u~jzz|~{u|nyl|~v{^u|v|NJvt~xh~ym{Rn~~uzN~v^Vzmxzzz}~yv|}m|Nzuz^z}~^v\^^z~kd}`}~~w~tnp|l}|]vc]lnn~~[zz~~~}~v|~~z~nnyvt\nl~^zjj~u{^tzvj~v}~{m|}n}uvvxzl~^~vzjimr~}~~Z~~~~}m~}n|lj}Z~}zv{lzT~^xUbVz}n~}~}}zv|rv~IN~{}v~|zvj~v}}tV|znrzln~}~N~^^~{~g~~~~n|~m~^Fnup}bmXi}~~~vzdNm~vn}m~~^x~~yr~z~]|fN~|}~~|||^{jnz~~~r|nzjyzz~lV{Zreezv}m~~~Tpu~~Yru~n~Vv^^j{py~|v~m^~nZ}f}~n~~~Z~M~i~]}kz~~v~}}{e|vvP~~|F~~z{}v~|~{^t~~{F^vlz}q~\||^v~}oy|\t^~ud~~z~~Z^dn~vly~}t|{r}zz~L}~v~znnvn~|~znn~n~~rvfz~}zo^}~|x^^~}V^}~ul~}nzzcl}vNnn^vmV]~~|n|}n~x~z~~vjMezzz|}}SvY~v~~||x~~m~\~z~z~~mz~~}}|p|z}]~^}{m|Xkv~x~~FnZu^slfn^sLlN~[]^}zzdmt}^|U|~zT~z|x~~~^|^{pntU~zVz\z~nZ{~fNv^~z{n|~nn^rz~}nz|}~VR|y}v~~|^~v~z~~~~z~}V||]|kv~vVz~nUv}z\~V|fx~hU|~vlzf~z,False,0.0093209743
~?@c~~~^n~|~xu|n~xv|~z~~X|~~Nzn~~tny|\GQZ|^~}~~|xk^|vnV~~x|U~jf{~dNvtyt^jM~}v\[~zvN}nH~~j~T]\w~vVXtx|~Y~v}yuvwzv~fy~~~\~~vnZ}mn~zv~m~yvl~ry~]~}~~ks~z~mj~E]uv~^Xcl^}{nlr~|}nF~}r~nZ{~v~~vrZ~~rmknn|~e~~n^k~nv]\y~~zX~^^nv~uZ~y^e}nv^xy|pvvzz~nrv~~~lj~~n}~}~y~v|f||}zx~^~@~~~~Vh[h~v~zI^~~}|~~]~^Nz|f~^t~n}n~~~tzz|z~|Iz~~}v|~qv~~v~~^~}soznNvmZ~{~iz}^~||~~~~|Vv^N~~rNB~fz~~}~V|vwv~nFtnV^n}~}z{^~~~PR|~vuNnz~~~uRm~~qM~~|Xmv~v~\~[y~|l~nfh~NZF}~l^}~Y~~^~v\}|z~^~vzzf}~~||fVx~~~t~~n}uvn~v~t~~^fr~mN~YY^~n{FnN~~|]|V}z~z~n~^~vv|^\z}NouVm~zI}v~~~[nnz~n}Z}~~rY^vRnh~zv~~Zzz|nvt~~Iz~^j~|LvTN~e\~T~tz~dui~nnjq~~^^vr}z~fz|^x}zZVv|zNU^\~|Ani^z~~r~|p}nJZrnZ~}z~l~c~tzev~uv~nvh~~yivrn|z~}s\o~v|lmu~{lz~~~~|~tTenv{~rj|u}^|^|nNz~~~bm^lu~~n~}z~~xz~w~x~Nmzxz]^~|}vV~sn|z|^v~nn~z^]~v\N~~Qzn~|}~~y~}v~R~t^j^nbY}}vF^ym~}fn]nbyrkz~luNnz~uvFLu^~~t|Nv^{~rz}u}xl,False,0.0097010136
~?@c~}zmn|^N~F|u~v~Uvb^~e~Q~|~~^nrz~~NY~~~fz|S}~~x\~s~{zv}~~vr^Ryn~^m^n~y\r|~}}t^nv^~un~uNq~n|}|~~t~}~~[J{~b^f{~t^}\^~}~~~^~~~vt}n}~vyj]~nr\xz~~yz~xr^~uz{}^fn~v}ztvnVtV}N~~|}~\|~y{z~NnN\V~}^fi]n~{rm}uziV~Nz~n~n~n~zn}m~}~|n^|}[jZn~t^a~v~~]z~{{~|~r|vnVp|~~\~|~N|~|jrj~~~|m^rr^}{n~}}~x}b~~}]Q~nnx~vfj~~}\|Zz|^~vt~~|uV^}~lxp~Mv|v~}^~nvnrVyr^^~x~|Tm~mz}vv~~v~Fz~]m}Mv~\|~Nz}r}h|L}|~ZN}t|}^wz{Y}]NV|}t~y~m~~|x~~n^z||~^~\v~|TZz|\^U~l}|~^^~N~nns}mw~vE\~zzV}Z~Rz]UyZn}nu~VnmZz~z~~~Nzy~~~ZfZ||~z}~~VC]~z~~|hz}znZ}^n]}slv]z]yyj}m}znn~~~~n}zv]R{~]|~~V}ufsz]}[~t~~R~\vn~[^~x~Vk}|x|[MV~j~n}}~~nnv~zzvV~n^~~{vzz~~~u^vzzqb~z~nl~yM]X^jjLnzvq|~n^n|uv|~n~nZ}~\Wxjn|}nnlz|nv^|vN\\V~~zf|zn{~vemv~mR~~|~~my~ZzV~~~||ZNu^V|dy|u~~^~|{y~z|vv}z]|Z~~|^~z~r~z~}Zz~mumf~vjon}~Nm~v~`vzuM|m~yFVd~jvU}~F~N]~~n~}v~x~|vz~Q|vv~|^uzZ{|nz^~vsZ|RZL~}Q}~V~bz~R~^~b^zL~v,False,0.0102510452
~?@c||~v~^cnN|l}~n^Yn~j~NTfzj~P}n|}~|fxZutvln^~f~zlkN^~\~}}~~nM~m^|}]}ln~}||v~v|~zUminzx~h~~|~~~zzn~~fr{|~|Lz^~~~uz~^n~^~nv}^K}nv}`~~nu~~~Zwn|tXrf^^|~}~nZtx|^u~|nT[j^^]Ny~d~}evn|~}~}z~~N~rW|vnz\vx}~{nhy~|]mTnn~nf|J|}l^Zv|zn~~|r}~e}~hzgun~^x~v|X~~~~~yy|n~}v~}hubrn|~v~\nZ~~Nl~yn~Yu~V}mx{|wv~vu}^V^}lrnny~v~m|~z|tu~~|E~~^e~j~~z~}N~f^~^z}~}t\{VUC~}zz~nnv~}NNtz~uz\vn~~^v~~vt~~B}d~v~N^~~^e[md}~n}}b^v~~l~qNv^F~mFv~~||~v}nmNl~~m~~|f}v~zr^yzY~N~bj~{]b|n{n}~nUn~}^VkuJ}|i~m~~~\zN~|z}~M]vohZ~jNyN~~~o}~~z~~n}^rd~{~v]vi|F~v|}Kye~~~rkyyn~x|~\z~unzZzv}^l{}z^~~~b~nnD~T|t~~zz|z~vWe}^~]~~~F~v}z}|~Z]~~V~~~zn}~t~z~zpk~z|~~zv~~|^nz~]~T^v^nr}|^z~`vyx~z}]~~]}vnzk^n{~~curfv~~nz~naZz^~|v}znt||n|]|N{nfvnzZu~VunZ^^}f~~|~fZ}^|v~Zyjn[{~z|V}~vx~vtZz~Kn~|uN~z~l~n|\nnn}~^~}\^N~^N|l~|yr|xVv~mzjy\\~}z~ev|}~nZ~~wn]p~ft}}~~^\zx~Nvz}b\ZZ^~~x|zt^~xvzz~mn~rZ,False,0.009114027
~?@c^tx|}~~Y}{^~|~j|~^z|fmvvVw~~~k}\}uz|tz~~}}}z~Y~z~uv~r^l~~zD~nn}]~{}~xx^zn^|~}|~no~^^Z~~jm|nnv}j~n}{~}||v}|ryypzd~}~^}\J^~i}~}}xVMl~zjrZ~^N~~~}|~^^zv~~n~|~~o^n~bjY|uz\znv}}|~lmv~NNrK~v|\y~uv~~v~vn|xl]hf}^zuvzlv~dz~{^Tnv~}~z~nz~m\~Z\r~ex~VY~Nz~J~V}nv~v~zv|Zm~}~~~~^r|~X\n^nV~~yt^~x^T~}}un~zZ}z^}^np~zxVt~JY|{~~~{tnzWN~j~~x|zN~~~nzls~|x{~~t^z~v~z~llf~|vn~~~~z~~r^~hznn|Yy]vz~|{v~~~|~~~ztz|z|}^~`zfzy~jk~|Y}vVvb|{}zU~~~|zn~~vztZz~vvVuT~j|V~}z`^~]^t}^{s^~~v^jVS~|nT~Z{N\|^l[c^zr~~}\^|t~lN~Vm}Z|mFuV}c|}|~~^^}~~^~~z|~}n~|NvVzn~v~^[~Y~uvs^vv\~uv~}x}}}xuvv}Z~{vv^Vi~Z~v~vEg}~~{~J~u}v}|]~v|~ZnnLlrlfln^~yNrnyhvU^~~v{tZr~~|~^V}~|{d}Vw~\|~~]~~zUl~V}~~nnq~vnnn]~nzl~}n~~e^z~zyp}^~}~Rn^zZz|zvv~~~\~~~jm{zaN}fY]~~n^fufYkrnUv~zvj}VN\f|~~vv~|~~^q~~v{~l|vvs~zVm~~^^~v~]f|l~~z_V|}~|~~V]nx~zRlv~ro}|njnwx~z~zZ]d|T~lz~uzzNz}y|~]~~]f{]n~Nfl~~hd~y,False,0.0094599724
~?@c~z~}Mx~j}n}{|~\~rx~y|z}~n^~am~n]|x{~~^yvu|}Yn|~r]~~{d^~LlL~{~^}u\~v~nV^Zk~^~}w^rz~d||~~}kz^~|~V~~~|sR~{d~~~zx~s~ep~Nvj}j^y~vq|~VZn^z~~r}~}h~{z~v~^nzn|umHdz|n~~j}|{T~z~}[~~~~Zn~zq~^^~}B~~vvf~U~~}zr}|zn|^x~~^v{{z[~v^~^^v~VN~T|}^~Z~LN~^^Zrn~^nah~v}vMnU|u}n^~~vv{\\Vr~]u~Z~tt^z~f~v}n~z}vzv~^rM}bi^~}[}~~~J~~}z~|ry|~zva}vw~~vn~~zvnj~^|}^^Vz|~T~xn|]n^~~z~vYezx}ze~~D~r}}~v~~zuu~vnv^Vrvrv~z~J~~~~~|~nv^V^~X~~p~~^v{x~^u^tn~}t|{vz^{~~zUn~v^{|~\~}}vny~~x|z~~^[^Vv~vz|}z|L~v|tzZ|}rvqZn~~vv~k~x~jlnufZv]]|~xnfn}~mnz~|]~~evx~~n|yk|~DvV}]~yd{~z~^znh|v\~^x~Jtd|rvZ}~tntt~h}~~g~|uPX~~fnjv^i~~j~]l^~|z~ex^m~xmw~f}lv~\\v}zvnjvmrK~^Fy~~n~krhn~|~j^{y~l~~V~^{~xN~l~|nU~r\|}lx~}v^[nn}~n~z~wfl~H~jVxm~rjt~Qj|||nu~~m}rnzz~z~yN}~~~z|}n~}NZv|jX{~|zvHuHF~~Vztjlj~zy|n~^nNZv]E~n^d~~hxr|~Ykn~r~m~~~~Z~~{u^^~l{|fv~z~t~V^~ns~tJVp~~z^~zxr~~~|Yxn}~nl|~~r{^~\,False,0.009321928
~?@cn{~f~Z~zEn~]q~~v}vzvNm~~}vlmiz}fN^n~x~z\^jv|n~v}z~zn~L~ln~qdN~^Z~L~zlknX^n\|t~E\n^~|^~|~~n~}~z~nNtnI^~~z\m~}~|}}nzzVzV|~Nvn|^U^~mbNvl~l}}|~~~v~v}|i}~Lnjr}fv~z^vFj~rlu~v\^zn~}|fv~fSr^K~vnJ}z}]\~}v~~^~~ntNv~~NN~q~|x~n~~~}~~iY{h~n~{vnvux~^~cz~v~z|~~p^mez~nz~~hv\zr~v~]~r|^V^M^uvu~x~m^nj|~dnzz~kYlz}~n{}|~\~~~}~~|M|n~n|h~f}~E|}rz~~h~|d~^^~R|xjz~k~ny]~|Nfn|T~}~|nn~mvlVml~~~~~\q]\|~^LFstv}zv^^~lv~^vnrv}Z|Vj]~J^f~Zzx}s}n]|~~ezkTv~t~~~sn~z^[zZvnyh|~jmyyv~]~\N~~|n^x}nrt|F~Yx|~[~n^{iv~Nv|~v~~nvvzNz~~ln]\z}zn^^yN~~xVl^~}}~Z~kzn\nm|}}~y~L^~^~\]^u^}}^z~v~~~v~{^N^Z\v~W~~FvnZ~T~]y~zmNp}lm~h}\\~z~~j~|Z~~yvz^Yxznx~~zxZtz|~Y~jxz}|vzx~~~rzn]~yXnvF}ivn}MZ|z^v}Vhx^~~inzV|~~~~~dzr~n~~~~v~V~|~~|\}~~{~NymQfygv}\^~|yv~~~~{~~^tnf|xxn|{nn^~~y~^^tvle~~~n}~~}l~^zzj~vvJxlx}n}Y|n{j~Y}uz~}~^~~vn^~R^~^\~dvwNZn{~~~T~~v|X{]~Nl|YxV\\yn^nTs^n~n~\lzX|~^,False,0.0092768669
~?@c~nNxl|~~~w~|^^}~}~~~~~y~v~~z|v}u~~m~vzf}|d^\}zn~~~~v~{rZ~\zqn~zndsl}xvrn~v]~~~~^~N~~npm\Z}~~r^}n]oYp|~t{y^}djnV|mMz~~M|~~Zzzznm~|zQg|~~N~x~^CN|\V^N~~T^vzZzvnY~{}~LvtNn~jz~zLvp~|}f~ft||~~qxltvn~x|}}Frvvq^|~tv|~~~FjNt~|~v}PuZ{|z{|~~y~^~z~^]~}yunlif|I|v~]|~z~\~nnn\tu`l|vmjxZ^|t~~~nU|f~n~~r~vn}Vh}u~^~~e|Z||F|~LDd^}}n^v~zynz~Zr}~T~v^~}z~nxzzL~xlnn}^~|zvzwv~zzv~j}z~e~nxNunnlwzvzZ~|~}~~jz~}|nu^\~~V~n~^n~~|vR~V~v~~Zn~ni~}j^~}|nt~`xn]j|qz||Uvn|n^f~rv~]~lmt~~N~n}d~~^~|}~l~v~l~~~n~}lz~~^{D^n~|}znVz~|i}nrz]Nj~^vn~~~znr^~~~z|~|}lvnnZy}}jwZp~L|x|~vz^~nVz}nX|~}~}{~~p~T{l|^|r^n^{iz~~~qnrnxj}Lzz]~y|z~]xv|zk}~@zv\|{~}~jqfj~}~w~~m\[m^v~sv~~x||~}nvnZ~~~~v~M}~~^v~mirtUjTw~~zMy~^xv~~~~}vz~n~h~yznzhE~v~]}lf^vv^~zn}Urn~L~~~}vl~w~pZm^~j[~]yry^Zndxn|x~jn^e~fN~N~v^Nu~{~x~r~niv~}~\S~^~^~v~mr^~}vz\\l^~}z}l~]J^L~zV~hnfn}v}tv}n|zs~vmNzl~v^n}qZ~,False,0.0098338127
~?@c~mv^~^xlx~~~n]~~Ky~~Rzrvn~~N~}nv^zn^~n^|oqq}{z^j~|p^}~vvv\~p[j]|Z~^b}v~~rx}N~vnn}~|vp~unnf~~z]vluz^|z~}^~~bvzrnzjzU~~}h~vzjsz{~~z{s\~vv~~~znzv~}z~]~}tx}mM~|}U|~}z~}|]^|bzp~w|~~z~v{}{}^Z|~~~|z~f~Vtv^DM~}Zx~z|~~}~~]{vv|~zm~z|~Vz~Zz~Vj~zy~}Z~n~g~^n|X~y}~}ntmMn~jvnnr]}Vncv|u~~zT^lzjf~nvX^~Xn~Zv}|my}~~f|nNn|L}Ez~ej|}{rwz~|xntt^d`vn~^~~~Lnvun}~X~n|v~^{~~~|nl~x~nsl~Zz~}~~~{{x^Bvnq~a^Fyk~l~h}|n]~~~{z||t{mz|{Z|Lzvn}}zyx~~m^~~u|~l}T~in~~~zz^~^V~n~~z]nLr~}yn~w~~f^~~~|l~z|^^~~RZylzt~~n]~i~^p~R~~~~zJkN^tqj|`nnt||z~\d]pm}N^m~p~jTV~e|}~~~yvt|nn[nRzl~n~v~[y}nZWz~~f}u^~U~~s]~gVx^z|~Z~^~~n^v^~|vz~n~\Nfuf|lVevzV}t~zj~Rx~~~h~}}U~un|z}V]^vpZv|xvhwu~V~v~}{~z{~U^Z~~^VdzN}N~pvxdv~~~rLx~v}|~|}~~\jv~~j~~kf~T~Z{Y~lf~Z~~~^~~t~z~N~~unv~~]|n~jV}yR||n~uzd|q~\vzn}~{~fvv~Zfd~^|j}z~\v~^^Vv}v}~~~lvf~u}Nv]\~Z^Z^~~~{~v||e}nn~tvnj}^zZ~~^v}zu^|zq|^^^n~,False,0.0099258423
~?@cnn^~Z~zzXxveb\^}vx|Zn|z|~}||~y~~jz]z\|z||n}nV~~~~~|n{~~~t^zN^~~vyu|n~vL~}|{P~n~\ixvh~^~n{]~xvlv|j[n~Pn~~v^}~n~^n^~ZdZ^~ezv\~brtxV}m^T|~IX|vy~~Lrvxe|j~]x~~~fnmZ\wnx}^~^^}~^v~L~~~}zz~}znz[u|~kf~~}zn]e~\~~n||n|G~~|v}vusf|q^rj~u~~X]~^Xvn~Z\xt]~^e~j~~~r~mu|u~]^~w~n~|||~v~zvdV}FRzjjrz]xTn~vKlxz}\}v{]r~~u^zz^V~}~nx~~nlj~~q}fh}~|U^\k~vNyB~xvr~vv^pv}}~j|n}u^~rUu}L}zvt~~s~z~j|r~{j]~z}~~~N~rlXn~t}^Y~z~r]|^~|~^|~f~}|}~v||vN~}h|nzw}M~~nxv~~~~ni~}Nn]\~~Z~Lrnw}z~|z|}|~}x}~~|zm\x~e}~Mj}~~V~|}N~~cvz}~U~~u}yln}^~}t~~am]v~}~vvvn~srzEzr}}~|~]n}^~ULzu|~zv~|~~}~^vx~|^Nl~~]wvxvnw~xv~u~flzn~N|lx^N~n~{v~^~Z~~yl~\nzzvv}]}}~~~nv^ut|~vvS{Z\n~jf^znv{~~~n}~hs~~^}\}vvx^~~~^~~~~z|~~\z~Znxpz~~|v~\n~v^umu~Z^v\~v^~~n|~\yj|z~ljFvI]]dxzx|zq~m]n~mzzv}zqml~~xt\zj\|~}~Us}~bR}\v~|^}~vmnwVp~ln~tz~~x~~tbN}{lL~~~v|u~~n~ln~Nv~~}vvz}t~|~l~~Ni~^u~NZ|\Mfz~^Rdz|,False,0.0092470646
~?@cvfn|y~x~ndu{Y~Z~N{~t}vzlz^nl^E~~}~^|~~T~fY~p~u~v\z^~vX~s]^|~x^xv~U}^^~~~X]^~dl}z}u~lrJnm~^|ZuVnfp~}}}Rjj|v|xv|mnzzv}~~|x|RrN^}Z~~~|~~~~N~{|~Ww~~v~^v~~{z{~~r}}\nq~^v}z~^~vzj~FNlF~[~]{|yxvd~~DlM~]Nze~r~~~mmmn}~}~u~vx^~vv~~zZ\}^l~zv~mf~v|~\}m[yz~Jxvnn~}vn~~n~\|v\~Vn~~t^z|^{~|lvT~y|~v^u}~Nn}q~N~|~}~vvb|Vn}~~XNvT|z~~\}r~]m~bZ|~]}M~n}NNIn]N~Y~L~zuntz~l~y[V^K~}n~n~v~|py^t~v~||nvvz~zm~n}~tZtf~nL]f~^}^~~dN^z~{Zn~~~}}}]xvz~m}~~^vn~xv~}\vz]~~~^~~~~fty^}f~}mV\xVn~~kzbz}vj|v~u~|~~zLz~zz\~~Hjv~n{~|~~}|uz}zmlfplnKr]~~~|}v~zvn~N~~|~\}^}Zy~~tXYVn}zsX|~}^~}||x~}{}|~~|v^}nm~~V~tnju{^r@fyv~~|^t|rnvlV{}~l~nxz]cl}nVxlk~~~~vi^^^~~}^q}v~D^~}|x|l~{~}tz|~^rnz~|~n\[}v^Z}w~tt^~}^~|~~w\un|~ny~i~z}~mvm|~~~]z^v~~~z~~n}~j~~|{nvvr~~f}pvk~t~|r{MVnzfFVz{~\Zu~~~Z~~nmt^~M~~J}^j~~lvll}nUjN~{~~^^}n~|Vj]~^~~nZ|zRtpuzn^\vZ]n~~F[Lt}d~fzvXv[zMzV~~nLI~t|^y|,False,0.009185791
~?@c~~~~xnuztn~~{FnmrT~u~|~~~{|n~~^^|~L^~\}n~|z~v~Z~}^~~zYEyS}b~}m~~v^}~z~]~zV~}lF|mvti{WjNn]a~qvnz~vnyvxtWr~Zv\lv~{]d|}]~}}xx^~v~ZZvJ|N~V~T\~}zr~ybrvdl^~~~z~hnr^vvUm}n~M~j|l}||~tv~l~l~lJx^mZ{~}tz|r~|zD~l{}|~f~^NZvv\d~}{~~\y~l~~~xYZ~^~~~{}z~n~f~tJ~nNz~~z~nv~|j~z|x}vxVfml~yv[~~Zv|r~{zz~n~v}}~}~\~~r~fvZ^^}rm\v^|~~^vn|uz~~h^WvZ~Xfj||~|~^nzd~n~^y~n~v~nZnmvzhxYN|^~~}r~k{v~X~Vz~Zx~^t||~~~p^z|m~ny|~^|~|}Z~va~lf~v|~yMh~wf~]n^vzz~~ztj^x~rz~|~^z]~|^z~^]~hrzz~{~~z]~|y~M~v{~~m\^~{~z~N~^|}}vzv}~vRnznnr|~~~~Fupz|{~|z|tvBv|}~^R~^~}|vNz^n~N~^~~~~~}]{~i}kv]~|~zF~f{N~nv~~|~~u}\zvvz~}~Zf{j~zjFz~~n|~nzejn~jxxK\Tv^vH}~~|r~k~}~~|~}ivr}zjTMx}j~}Yy~vnyI~nnJu~^}\yx^~TF]t|^}tun|V|vu}|~~^v~t\\xn^|zx\nz_zlVzZ|~v~~iz~Z||~~zN~Vn||Ny~N\~rjFz^~|y}nv~~}}~~mn~uZ~~W^}^~t^v^m~QXm^|}Y~z|hvm^}~^~]yuZ|~vsfT^[~^fZ^M~Nim~zm~~~t\~}~z|~n~xznn|~xV~ufu|~^}v~nfV},False,0.0092570782
~?@cUjG^|~~^~|~nzNf~|uvv~~vl}~|Z~~Jp~r^z{|zrv]l~~^nvN}^Z~~~~u~uN^jn~zf]mwz}^~\kVf]v}~f~|_}Z~^Meul]Z~^~]~z~~~Rz~mn~ZR}u\|\v|~|nx}~Zv}~}ifnmzl~~~}}|zjz~G\}vnzZ~vv}N^K^rLn~~^k^~n~~Lzv~~}L^^|}tnv^tn|{~~vYN~~|]~~|}|V]|l~z~lV~ZtZ~vU|V|X~vn~vFn~}Uvz}qfvz~{tx~|~Z]~~vuzlQ^|t~q~~~x~naw~h}~\~~|~ui]~Vz~^|v~n~u^n~]~^vv~}~Lz~at~~r~f\{zr~VwNMr~~nvx}~~z~~~N|v}|j~~^~|nv\^v~n~v}~^^Z~q}jnZ~vvv~|e~|~nrn~s~TLn]~|~zJ}nz~~vnn|n~}pv^nt~F~^~\r|~~}rl~yz^R~~zn~|rQ~^^j^~]fNn~~]]~vn|~^n^~~x}Z~I\{~}vo~N|~f|~~^~V~|Zu~\nj^~n~~~nzvb^}Yz~dvnV^~Z|~|~|}mnFz^t}}}y^u~~{]zu~vZ^{z~~^zr~^uz{rf]z{nTU~]}\ukyrxvz~XZz~u~v^]N~v}y~}stndz}lm]~w|~tv~|~VA}x~Un~]jnryz~~v~}zz|vv}|~~Vnznn~^}}^tlvjxtrysnx^rvz{Rivv~yV{}~}~v~||~j}|Mj|~|ln~z~nn~ZnvvZnz~y}^ylmn}|Mvjv~z}y}{}~z~~~~]~{~~z|nu~~~uvR|z||r|nN^}~}n}t~ul~~~^Vqv~xw]e\zz~~xMEs|z~}~\}n]s||n~Nz~~~ZK[}~l|n}{~in~Z|xhz|n~v^,False,0.0092849731
~?@cz^i^}}n~RvJy~z~fz[}\t~^v~z~~m^n^f~^E~zn{^Z~^|~N~]~z~~~~fVzjy{~z|^z|y~vT\q]q~rm}f}T|~~~UMv~^fV^~}V~\~^z~uMz}}]~n~~~}Z{}}t|~nx~VrlFvn]}v~^^n~nuhzrjv{{]~X~jm~~~^z~|}lnv^yZN^XznvV~vv^nmN}|~Uz|~~Zne^]~YtZ{~p~n~^~Z|~v~}zl}ng}~}nuttR|N{[~l|zxTv^{~z~zlvU~~~|y~^}^u^}|JR~bn}~J~~xnc}z{~v~]Ltnn^~z~|ssfX~Rz~~S~b|Nv]zzN]l^n^x~zv~]}|^{vfy~n~n~vD~t}nzv~pj~]~|~~~zM^nyy~n~m||v~~|]~v\~Z]~R^Dv~^~^~n~xnZ~~lfj~y~vrr|bv~^|v|z~z~~|z~x~~|nn|}|m|~kW~rjtz|~X^zmfnj~YL~z~~l{}fQ~\fz~^~~~}n}~]}^|rU^^Z^l||}L~~]|y}~M}~U|~j^~n~vrf}v{NSn|F|vm^a~~Zzfk{Vv|znFvz^\zv\vuR^z~f~V{~vuz~]vZtN{nD~f~|^Nv~|vzx~~~^^zv|t~|~]v^~mfz~\}F~n~~~zv~v~~z~~vj\~}r~~wqn~z~~y}w~}~\{}~Jbr^b~z}lU~~|vzv~~zz~|v~~{~~tzz~v{}vz|z~]~z~Jh|zXk}\^~}nvY|Uln~zLzxvlZlnL~vz~N~~v^}~~V|vv~}~~yg^~vvd~z~j^Z|}~^m^~ndn^zxW~zsz~~zn~^^~}|~u\}~|tn~^n~p^bEd~z~j^~yz^v~~~|zln~}u^|zvVznvuT}n}]l~vnf~~w,False,0.0092709064
~?@ctzzz~j~~~k^}~k|vn{z~r~~vn}^\~vm}^~^rZ|~vr^v~jzn~~jvy}Fnmn|z~]ln}rW}}^^~v~v~~}|v~}}~yn~z~~xYv{|pf~yhM^^~b~~~~z~uh\~rztz~knZ~f~{\~}n\~^nrz}~|~~^]~t~b~X~T~n~zz~nR~^vZ~ZptL^y|D|~x~}~Nf~vz~~\z}kzz]^zMV}c~m@ur^V}Z~|v~Yl~\v~v}}|Jv~nj^|n}~~v^}^}y^z~~^uz~~~z~~Y^tn~vt]e|~h~^|pnyzz~|U`}zV~fz^ii]~Z~rd^Q~nf}z~||^n~zxt}xjNv~^Lk^z~z^nzx~~vNN~ejvv|~]Vn]zzf^~}~x|~}d}vyun^]m~y||mvz~v~]~~~vz|v~}~lnn~~zs}]f^n^y{n}m}Z\lj~^^nnj}Fd[v^}^~~^~~bn{\z|r~~}RZj^bzvN}qzhvnvnv?u~|~nV~zjb}zZ~~Nd~J{ztvrv~~}}V~yf^~vr^}\m~lz}xZ~~mY~~~]||Z}||wnXU~]~~^~~^e~l^u^|^vxzvn}}]j}R~|^|~|uZ~x~~~|Vf}n~jgv~~U{~z~p|h~~i~|~n^njz|nffvv^]n~r~D^}nh~j^}vzYZ~z}~~~WxN~{~|~~I~~~}n~z~zNt|unxu~|lF{v~~qz~~L~v~|vx~~}|V\]Mv~S~s]}^z|^tv^v}~t|Vnzzt~ln~~z~n~~~Vl~~v~V^z|^z}~~V~z~tn^|n^f~~}n~v^\|~zR~V~z~}bP}{NrI~m^{L~~~nNv|Nn~~|r^~Ltfl~blZ^~n}rz~}~y~|~nn~}~zV^xv~~zyUXmsn^|~~~d|]yw,False,0.0093951225
~?@c^~V~X]nvvF}V~zzvj^[q}|b|{~~vu~^~\znxz~l~~{]||n{~F^}V~^z^n~}~n^}nf||~|f|t~vn~nFt|V~~~Fjm||\^vU^m~nN~Z~X~\|~}~z~~||~^}~Tl^~~^~W^n~zVJ]NzjvU|b~tnmu\n~}t~}~n{~]^~|~nzn~j~\uNpRn~|^~vXy\j~n~}{^i`^~}~Rzr~z~y{~{srz]~N^|n~}~v}Nn|kfnz~zx~{}}]NxVvzu}~~WuyJJ[v}~}{~nmv|~~f^Fm^~Vj~zP~\]uny|~n{||~~~^}~mjmnV~~|\}~nn^vx~}~|~vZmu~x~m}m~nNnJ~ZX~ryV~~z~y~~vmz}|vb}l}vm~VvnY~~^nvnrJvT}zj^ru~]{^}l|zMZ~}~~^~r||~jyniu^~v]~~~vU\^}v~t{f|}jvxz~~{]~m]v|~n~z}~j~~~}^svT~^]~|nVNSQL~mF~xjvvV~vevq}}z^~|~~V||t~n~X|~|z|~qx|k~vzv~n^~^j\~~j|Myv~^]^uw~~ZZ{~~|yh^nV^~Z~nnjzX^f~~ZZ~|~\}rmNi~~rZ~n~~n~~|~~t~v~~N}zXtZ~tvZ~^PNn^|m~~~~^~~}~^|nn|V~|tmVm~~~}}Z^sE\Z~nz~rN^pqvz~hnNxjZZ^n\vztx~^~n~}~YQVf~~Z\}vdy~~|oZLzn~nn~}Nu~~y}}z}pvnU~~{~~n^~V}\~z^vu`xzN~~x]v~t`z~Z~nel^Lj~~~~]|~|hz^~yujwf~~~^v^~vlv||~~|^~~}^p~~\~nz~~}^{~n~^rU^^^~vpx~zd}~n~ZnVYtzj~~^^nvzm~nn~^~|v,False,0.009308815
~?@c~v]^~vi~~~{ff~MUzy^zd~uvv~}~|~\k~}|}o}n~NN}^v~~~N}~~~z^U~~vt^~\zvFu|~}^ij^~K~~~k~~k|v|~zx\rixZ~~tvmZZU}n^|z|c^z~~LhFYn|Nb~z~~~v~vnrWVv{zmn~~|\^v~ut^xN|v~e~V~~yzv|f}~vv^{mv|zVvi|}v|\{~~u^F~z~xzr^~m~z}zNjmxXe~z~m|~~q~M^P~v^z|~vjd\nn~sm~^~}~~~~v{\}~znN~~n~~^^zr^F~|~n^z~|^v~nr|y]xwN~znn~~eq}|f~v~{E|vynnJn~^^~zv|Bnz~~|zz}~Evz~}^\^zv~n~^}|q~jy}n~dvn|}lNv~u~|m~kvnflf\|e}f~~~jt^z^~~nz{~fm~~rqy|t}zNv}}}xn^}v~F~V~v^b|tzl}^zv~~~r~~~xl\n|v~sN~}||yn~|nd~\}q^LzvNN|vv~NZlz^~zv~^}f~zvuTN^ynnLzxi~hznz}|v~^]t\]s~j~~~zz^~}\}~~n[|}}z\^St~~nL}v[l^}^m~~^^Z~nx||~Ymvmb~~n~~zv}vj~}vv~}VNs~tf]~~nv~t|~}~~l~vs|v^^~v}j~zu~~nDgen}~Ffz~n~Mbvzt~r~zm~~]xua~z~jjv~]vyy~~|G\eV^z~ufBzn~~~~V^|~|N^j{xr|~~]~~~^n~V~}r~~uz|\mn\f{~~j|~~u~zZ{n}|vu]zXvV|z}mm^||q~n~||~z~zA~~jEz~~~Lxz]~}s~~}wZ}}|n|~|]fV}zjVzN~mvvk~y~n~rnuzZzz~n{~v~}X~~}]J~~nfb~N|v~|~|m|~z}N~~},False,0.0092720985
~?@c^~|zvpv~~~~Kdf~az~~un^|~uc}~~Rynv^~e|]F~n|Z|~VvyzvNdx~}~~zl~nlv]]~x\y~zI~}zv|~Vzlr|~J|n}^|vHd}~}n}Zy~|~~Zlj~uK~~zN~~\qtn}]^r}}n}~zn}n}vz|~jnz}t|zrvy^~n|ZzY|]^~~v{~X|V^}|~z}z~}^v^NR~~|}^zz~z~~vv^}n~Tn^n~||e^^m^[^}~n~m|~jnV~~nvV\~zm~znt]nu~~~v}G~~}n~~{~|~~~n|Zjxf~z]}Uh\jmuz||Nv~zvvnZj~~^m~~M~~v~}u~V~~~]VZyn|^vlz{~z^gvr|{}{lH~n~^~fv\|Izv^~v~~n|jV[z}}T{|nz~}mvr|~h}|T~vl|~p~x~\vv~V~[^~T{~nyl~~^nrt~nv}jt~{vNUd~n}~z~|v~]z~^y[|W~~}y~~z\yzj~E{~~]|~~]~z~r^~v~^~~}v~~~xvjL~^Nh~n|XyM}~{mZv~^~^~~~~x~~vVuB~nN~~u~~~]Ljv]zxn~VvjZ^~uu~^|N~vxvZ~^ZVvw~F^vwzz^|sxvv~|vj\}~~dv~~hv~~~~^^v~Z~~~]~ju~n|j~ns~~{xVn^nXuX]~{Uv~mzj]~v\j}zV}R~]]njz^~}n~]^~f~|t~~j]vm~~n}^fZ~~zv~J~nn}\NjnmVXL~\x~l~}^uu^M~|vo~N~~xy~~yb~yy|~xmvE~Yg{klrlnzu^|~~~^m~x~n]vl|~N~^n~~gZ^]v~~n~n~nt~jnZun~v@{v~nfzvv^v}u|~^t~l~~~}p~~zz~M^nsy~f~z^~~Ofmta|d~zDftz~~~F~vR~|zj^^~nN,False,0.009319067
~?@cv~z]~v~^}VP}^uNx~~vu|u~nv|~zf~]\Nx|~X||ftzvUtv~~Bl~}nV~~z~z~Y~}~fUrvRojn^}~vz||nv~{}u^v~}}nnZ|^n~^r~ilynvlh^~|vfmr|ZJv~~jvn~uZr}yN~u~n~~}|}vvk|zn^}z}zj~~~~N|~\u}Vxf~tppvpj^z~vX~r|~n~~~vyr~~zpv{k^^ytmnXd~~~~~~z~ym~Zzmv~~|vNm~un~zz}~^]}~mlzvvVj~|z|^nz~v|tN{X~vZyY~~tr~~~n|}{ujZt^~|xU^nnYr\~}{V~|rZ^v~~}j]~n~^Nnn|l|nXNv~i~|o[oYJ~~|z}~T|zr|Nn{~z~~~o^t~}m~~uynf~jz]~zuznvtZ~z|zd~ltvz~q}~~]~z[V~ivjxuJV^mr~vn}\v~z~~|}p|~Nn~s|~n{z~~Pumnzn~~~n}r~]}~d~~^~~z^v~u|~||zy~^n}Nz~|~N~z~x~}J~tZynn]~}zZfrfZ~|jzL~~vR~|{N~ts|~y~^~t~~v|~nnq~~z^~^u~~j||}~n^~y|x|}~js}}}z~P~~~x^y]]~~b|~ud~Z~}r~~RT~^v~]}bmVvZ~zn~Z~Tt~~n}~z]}n}^dvn~u^uvV~]t|Xyn~wnvjvX~^~~^z}ff~~pz|Vhb~n~}hvnuv~v^}x^~~m\~x}N~~j}~~f~~^pR}N~nz~~vr|~V^^vnlrjmf~^u}z~mv~ZDy}}~rvvR^vyd\\\}w~u~r~nz|~z~~z~uz~TNy}~|^}h~z^vv~vz~x^j|z\nz~||t\}vsYjf~pz|u~j}~}~Fn}npy^~tvV~f~}~^znx~N}N~~~qN|,False,0.0093090534
~?@c~nU~E|^~Qu}y|zz~n|{~u^uw]|z~~~mnkzl~mnu]|nv~^~L}^f~|^|ljuz|^v}\jVlz|~~_}V^z~R^}|r~^{rmt^~mivfxu^]r~^n^||Vf^R{nzm|Fy~R~{{|z~zvz{~~z~|~^~~~nzvZ~jx}Z}z]}~}~~vnp}nv~nnu}~]j~nN|v~u~~n~v^fyz~{|tzy^T~~^jt~~^Jz~mM_^\|Nyvu|mL|~Vmzv~~~sv^z~~z~~vrens~~]f~~\~VW~{V~wJxz^v|~~v~Z~|uznven~~lxt~}v|lh~n~~~}rnV^z~nz~wvmvl~^vQnv}~~n|~j~}Mznj|{^v~Y~~n~|yu~~ze^~{{|~]vNklFTv^^~^|~~}}ylv}zv}Md|{~}}sv~n~n^~Hn|~~y|\vt|||nvp~vkNn|}~v~~mW~}~tvt~]n|}~~Vlznx}~~~v~x}zF}|~l}~vf~s~~n}jfvut^m|vdnv^{|uZml~tvfVnm~~}~~vz~u^y\~{~^~~^We~hy~Nzvxmk~evinzzyz~~|~}z{|f~~VznrQ~nf~~R^~^vhT~nrN~rulnzNZ~~~~v^}|v~~~u~~^|{irz~~VyLFZvxv~~\nbvNvbyV~n}~~|}Zy}v{~}~zvvi~q~^m}~svjz}oZrvrYz~r~~v~|}LV~Z~k~zZm~vl~lnn^myz|^|^J^t~p{|~^~}~yn|z~~}~~\Nz{V^~z}|z}~ny}Xtz~u}[}~~vmnx|~~}n~U~~}L}r{V~~}M{n|}r~~~{iJ^|l~^~~}zy~Tdn~n~]zS~n~^~nnstv~\z~~|~}~~n~~^n^~vls~ZV~drV^~~zz|vv}^}u,False,0.0092661381
~?@c|x~VT}}vunZ[~z}}|n}vr|~^~nn]^nvmV~T\v~tt|^{}n~^ln~j~}~~z~zZ}~}}kQ~ltqncz~XlYl]}]^l~f^~l~v]^pvghN~~zT~~~~xzI^~~~ZnHz~~r|f~nnd|t~z~~\]lL~}V|y~~z^n}~~nl~~}~\nwvnP}~Vn~zl\~~|{U~~~n~v~}vav~~vmz^{x~^^~v~^|~~f}nnv~zt~Zvz~v|vvznN\vN~zT~J|~~n^x}~M~~y~ln}nNpYUlvtm^^~b^~z~Nw^vS^\n~vz}~|un|}|Vf^mv\jvx\xjv~~}f~r~\~w~Zv~~~~~n^^|znny~t~~]zm|NN~^u}V~~e\z~x{z~~uv~|~y~nx~~~}]v^~v}~j~~z~kY~~~~|f^^~jnvj~N}|}zTnytZ^Zn~lvnV~yz^~vlvl|h~~|~h}^nz~n\{~n~}~b|^t|~ZnKV}x~~|~~l@jbnj}NpV|^Rvl^n^zz]s~|mVv~S}vynZ^~~rj~~n}NuvtR|Fv~||^zy~~}n~~x~vvz~u]~em~~~`zV|~lbz~|~|ufn}v}n}l~}pjCYl^~|~Vm~~~~||[nfz}iW~}z|~mxnf}{nVn^[~e^Nr|v~|~}~xyx^{m{]^~|qkzlkX~~y]i~z~^{VY^n~t}~ZmvnvVnvv~~|~~~~vx{f~}~}~~|{~~}]vIu~^]}~Vj~z~v~n~j|~l~}r~z~~~vZ~nG~]~~~RxZtyYuf~vv~|lm~}^y{|pj~~z~y^x~|fj|~|m~nmR^MF^v~nsv{l{Yyz}~~zzltnznv^]|Nu~}n}r{Z|~n\{^Nz~|~t~v~q~~NNv~l~|~j~\Z|~{~n~,False,0.0092351437
~?@cw~|}z~~~~Z~~~^nvyN|~~}}zrm~}j~]~vnzf~r^m|s|v~Xl^}vm~|~v~Z||~~MRnT~~~}|rjvvxxr~nldu}j]dl\~xzVnn}^j~rz~^z\~^~^^NvN~}v[}ik~zvv|~n~|t^~~~fv^i|^zvz|lw}j~dNv~~n~s~E{]X}vJmn^N~^N~|}f~xv~^]myfvj~U|jZ~TpL~^nv~~~~|~v}^~u\~~VJzz|mmxn^lv~|]N~~~~^b~[zVzz^v|~zbt}~jv~~zlZ|^~|~H~lvj^vm~uv~mN|u~~~^XmzZuz}Fg~\zv~|~\|t~^}nN~~||nonnus~~]zzzN~rz^ytvn~Z~}~u~~Mnz}~Mz~K|v~}enf~^zxv\~T~}}x~~}~^mv~p^eps}}nY~vf~~z{x~xN|ln|^]~~}~~a|}mni~~^~|~i~~|^Nv^NU^~~|^||~~v~^l~~}YVvZ]bdy{]zVfd~~z^~~uj}vl|^^x}^{zs~~u~{Ink}~v^^ts~}~Vruvnl}rn~j^}~~~y}ls|~~m\rzJjr|tu~~~[~}||rn}~z}zlt|~~fm^my|vlz|]j|~~yv~~^x}VzlZt}H^~}~|~rt~nzv~vu]^yn^z~n}~~~~y~yr~~~|z[|~^|v~~}~nv|}~|Z~~z}V~x~z~n^^nzv}N\~uJ~^y~nz|m\~tmz{^g}vL}|v~~z{^{lZ{^~v}~jv~}~\{^|u~j^~N~}t~~zyjzz~YtJT}zz]~~^zf|}~~nvlVrz{~{l~m~~]wx\~xjvy^Uv^{nnr~YV}f}N{vmn|vfen~~n^~|]\~~]}xZ|xl[|~v~~Zl|r~Xt~]nv~~n|zr|MNz~,False,0.0093297958
~?@cz{n~{|w~}pl~~~|Z^~v}l~^Ewd~~n]nN\~N~~v\~mVE}^z[|Rznlt\~x~}]^TzvyznYB}n~}qt~x^n}~~N}~x~v~~~p|vVnnlnVxv~f|zm~n|LznzI|~~^z}~~|l~~xyS~}uXrdbj~z|}f|Vf~\uXjv~ztv~~~~~nyUZ|nzl}~n~}Zn}~Vv}~^~|Z~y|i~J}z}ZxbSj~~^~^n}~~^x~}mzNz~nNnR~~|xw~ez^zjy}~f|~~tvvZsN|~^^^z~k^v~jzyY~\nv~zx{~{}u~|x\ps~[v~nVz\kV|~vnm{^|~~}nRzmzz~v~IZV||~f~~nnh|suzM^~~}xN\r^~X~^|}V~~~|~|u}xzVz~]f~e~~{v^~Yz{d~m~z~vn~z~~~nu~||h~p|~~~jJ~k^R^]^~|^r~~~z|~Xztvz~i~~zYnVz~wz]r}F}Dnzlv|}|~}nvQ|~~~~~~|n{~~^Vvmmtn~~}Tyv~t~ZV~]~|v|~nxnMnr~lt\nnvnv^xtx^|z~v]~fzznu~hbl~~h~~Vvznzr^^nycy~v|[J~~{N~t~|vy~zMvErmz~m~~~z~}nzlzwF||n|z~~~uzv~nf|^{n|~l~vu~z}]^z^~lztM~~~~~|~nv~~Z~~vvZ}|v~zt~~}V{~]|}~|~y~rt~~~nF~qejz~^^[y{Hxxs]z[]nV}{uz~~}r|{zyn~v~|t~vt{~|U~~zv{~~vt~f}}wnxyj~n~~|nnn~z~~Tr~~~~~}~^~WZz~nU|r~~jn\~\{|~}~v~r|n~xnV|~~~n~~nhkFvvvU^q~u~[ylvNz~lymi~nJ^~~~y|}~l~r~~tN~{v}np~t,False,0.0093212128
~?@c|vzV}j~l}}u~~zz~~]~|~nnWv~v~unz~Z^vVt}~~zeu}Vn~z~vz~t}~~{vvvv~zt}~x{~~~Dz^~~Z}~zz|~|Vmv~|^z}~Z^u~mWq~~ZvVn~}z~ve^z~R}z~~~^{}^}}re~e~~~Jnyn^nj^X~k|v|tj~twj_~n~~vum~ozv^~~~vptV~Z~Q^v~v~lnzrT~~|}n\|}z}~~~NzY\Nv~m~Nk~~nVj~~|pZ~Vnj~~^v~v}~M{^{xn|~~n~v~|Hx~jxbUF~~~y~~V~nfnNvlm^\x~|r}n^nyz|dfm]q~N~vv~~nu||Z~zm~\^f]|Vv{~~~~UqVL~vLN~sZsnzr~vF^~q~Z~zU~e~~tNx~^~l~^^^~~~vz}zZNzvlyO~Z~\[\n~^f]~~v]~~rv~\n}v\~|~VpN|{}~~~~~}V|zvtryhzL~}|}~]|BL~~n~njn~}~fn}zznvyt~~jznz~{^}~~v^NmtxkLz]}|d}~z}v~^zlzlf}}}v~vZzn}Tv}~~\t~vzT^ivn^~~N~uz}|nnV|qf}|~w^|Rr~~Z|lf^~~j^|z^p}vz|lf~~~~w~~l}\V^~nj}v~Vz^~~n~~~h||~z~}~~ylw^~~\ZGRus~}^~~~\~nnvq~~Y~fyV~Y~wVn~~~~~n~z~~x~~^R~z^zilz}~]}sS\zv|~j~~mD~d^~nkMnunNr~Zz~|~vl|v~~}~~NTxn~|z~~~~~y~q~n~xUzzVUm~uK]nBnzrvv|f~znvZyv~rNlj]~~|~}v~}~|\L]zZp^i|v~Nkvvzzvd^|]n`}~}^}^z]NzYzFn^b}yn]V~~nUn~n^f^^vb~~^}~n}njq~{,False,0.0093271732
~?@c~zRL|{|{xn|zRv^~MvkZ~tl^X|}]zf^^~h~x~uV|VZ^~~||z^~n~|^J~j~Z\}Nr~~}rl~zivzV}~j~t^~p^~^fv~u^vi]v~~sq|~NR^~}~yZZ}Lu^~~^~tt~^^~^[]\rnE}nzzu~|x}pnl~{~Vmzzzny^~~n~v~~~{zn~~cv~^vnZn^~~vk~m^^vz[uM}vnu}^vz|~y~v~~}nu|z}~]lf~k~z~~X~}\vsuxjNym|v}mxva}~n|{}~nn~~I~~}Lv]~ZvUztv]^zrz^~^~Znzf~^^zhfpnvn~f~~~f|}~}z~U~|X{z~^}wZU\^~~~]z~M}lt[[yw{Zq^zv~~nxz}^^~v}^tllju~nz~mn~~^~^|^Z~kH}Mz~]\}sun~vn}wz]znT~Un}~}E}vz~JYn]t|f|R\]vn}~v~~}\tLz||p~~|tv^~~Y~nnn~~|n}}|~Z~}~nn~|~~~nn~fnR}vt~~~|k~r}^}~]zq~}z^j}}~}z~nvUvnj~{~~un~}~}zZvvV^Z|~^ZfL~uV~wm}lv~v~iIt~pf~]HY|~Zk~s|Zd{mYZ\~v~iN^]}zz}n~vF~z~~N}y}n~t^~~z~|n~~vuz~^~}p~~~v||Jnx{nnnr|}~]~u~n~^]~{v}|zEz~|~f\}zv^t~zr|~Nef~i~^~\jn~nR^~~~jz~~^^|z}zzvzrNzvZ|n~z{zU~~{LB~}~z~frezvll|w~v~^~^^v~~|~Dmz~~}}zVz~|^|~\n~zs~Nz}\~~v~ndn|zzz~~^~^z^v[|~~n~~NlzvBF|f}nV^n]\r~v~^~^|n~t~Z~~^~~l\jvzmw~zmVvz}~vvvf}z~,False,0.009346962
~?@c~tl`z|^^~jV~t}~~~~x~vtk~~^~~n{~z~Lnlu^}|z~~~Mz}n~|n~nVN}~^[en{|~~~\v~^^t\}]vivmt~v{}~uumnvN}||n~z]|~v~nZrj~~d~evjR~~tn|r~vZn~z|M~~~~{v|{V~n~snb~~vt~~~~^}~jzjmzF\n~}]^~RMTvvvdZ^jv[M^|NX~~u|vz~r~}h~y{xn~Zjlm~~v^r~^~~rjZ~~mvzrlW|{}~nufzvzz^}~~n}~~f~}~\nr~z}N{v~~ZLl~}l~mv~}zQ~zp^~~z|t|Zxz~V|}t}~~r~~}yztZ~|^\ynj~z~e~yv~~zx}v~f[}svtn|~nv~}~|~~^^z~~~q|vvz|^f~v}n~I~~^~~\nn{}vMF~^~}{V~~~nm~P|~~zBvm|~z^~~~]^vR^~^^v~~^}n\}~}{z}vv^vV|yv~Rn\~~yN~}~|^|~nztk~vnv~N~|ZzYyYk~~~~}}fv^}~y}~r~|jN|nl~m|Zu~~^~~|FuXFvu|u|~aj~n~}mYkrmrx~r}~}}t|uz|l~}|yvn[|m~t~z~}~l|{y|ln}Vz~}[uVnnf[u{~~X|z~}^nMzz}{fz^~~^nZnz{l~^~^}^}\t^n^n~VV\~vfv~~z~vqf~ZDhzn|evs^r}~~}z~}~mU]~~v~ZV^Lvy~|~|~`^|F~~^|n|vZx}Viz}i~]~h~~m}w}hn{Hj~~vnVvg}N~yh]~t|N~r~nh@|[nu~]ZJ~~jvez}}Fv~n~f~]nn^nv|~|~~n~~~nD^m~}}|~t^\^~h~^fmf~n}~v~zYbV]~~l|vd^mnnZnnzzxl]~f~Mm~]}}[v~fZNn}|yy~|~,False,0.0092828274
~?@c^~^~v~vv~]~z|~~|^^Vx~{}]}z~mUizN}n}u~|||s}T]x^]{x^t~\xf~n|}f^~nn\n~^LzZ|V^|^~nyF~Xvnz|U||]~|~Tz~v~t~n~}pMZvf~~~~~^~}~z}vV~^vt}^t^~^~\|^~fz[z^~jmzh~N~mN{~nzvn^~~^pMzT~i|}^~vvz}~jznlnz~lhm~x|\~j~^~q]xu}z\nlvy\Zn~^~zt|~~^JJvV~nt|rzn}vu@nur^R|x|~~nznvn~~fRzc}~\znZS~Jv~B~{z^^czndn|F~t~}^|~Zu~~~Yrv~lvf\{]t~ztn~}R~x~^rtuN~~Nv|bm~n~~fr~^~vvNVzv{ny~nz~m~]v~xnvznjg~mz}~t~}xt~~vx~||\uzFv~~~|~unt~v~zV}z~v~nvm}^V~~~}}z}~]z|||~]y~z~~]Z^vr]~~}|xdnv\~|yvvx]~z~nN]^}~ZV|v]~J~L}mq}z^~~}rw`}j{VfuT^~x~j|nvD|rfzvr~~nj]~yZ~|f|v}~^jM~~V~Ft|nz}x~^ns}qURj^v^~uZN^~f~~}J~sr\N~ezNvnZvknf~^{v^^|~[|z^~{vl~|F}v~~[~}~}u{Vz~~^d~zZzt~}~Wn^~~`f|^v~NnnvZy~~}~p~}n}}^v|tmf~~~vJj~f^~zn~Fm|u~kyt|~~r|}|rzfn~m~^~~fzVr|~fk~nu|z~~vYzN~~N^~~|~~~V~~~~^Znvm~]\}Bn~{r~z|ZP~~nl}~~z|Z~~~~|u~z}^}l~nt^j~~~bn~~nlp}t|~nzNn|~Z^}j~fz~mxNyuVNn~v~~~nc|vvv}~}nZ~z~vuR^s~~}~Y,False,0.0092930794
~?@cVZEznrf}~}t\vJ||wFe~f~~j~~v~^mvn|}n~vvln\~s}N|\{L~~\~~vw~vfV}{uV~}nd~~~l~|}s^rVi}l^||^z|~Z^}zul|}\n~r~wyrv~nnnx]zrn|n}mm~Fg~R^^uv~|~j~~nN~~^~~^^~v~^n~}ur~}^z^yn~~n~zvI|^|ni~~k^~]n^}}z~||v~|^d~~yb~~\~~~~nxv~vv~|\~w|w~~v~~~~dx|lzR~qltn|~]~\~vZz~|tnfg|^~|~||{Ln~tn}^~jzzv^|~~~~~[~N||m}^vnv~v~||z}z|~zvvvj~{|^|zz~vvzj\v\q~z}|{^~nv~L||]f~z~r~~~{Nm~~~|n]z^t^z~V~~uCp^nV\}Tz~~^[~rVvv~F~Un~yvk~nz~|~X{}{~yr|~|n}Z~^Y~vj[~z^~}|^vL}UZ^Z|{uezf}^v~y~u~v~~^]y~}nzU~~~v~V~|jj~|n}xr||rn~l|yvw^V^oru^fZ~|}~vd~Nc|tvd~nnv]^p{~b{zVV{n~y~z}~~{{Viuf}]|mY[y}^}z}}n^^Vzvj^^~~Jz{|^~vz^N~n~vvDl~~v~^~fn~jV~^v~v~]xmVln}yx~t~^^~^Nn~~]~^`|u~fv|~|}^l~Z~Mfl|^r~|e~RztXvbuj^|X~~rT^f~s\v~}~~lz~~}}le~~u^~~ytnT~{~~v^a^k~~|~Jvt{~bvd~e~^|zf{vwMyxj~X~x}~~~}~}~x~~~n^^]^~m^e}[dRvj~~v}|^N|vmRZ~v~~l~~~NzvN~n}^v|~~~zv^u}ikvzj|z~ddv^v\~]}\znv}^zF}h~}|z~~vR~~x~zi|~~^,False,0.0093529224
~?@cu^|~}ns~t{V~^v}xV\L}~nM~nV|j^Y\z~\~bn}~z~uuzUnOzVj~v~Vv~v}^~Y|ru}vv\||uz~~~^Jy~~|`Qn~~y~^fV~~t^}n~lv^~nr^~y^Z~Nu~~j~z~~z~N~u}}~~^|v~r~^\v{~|n}]f|s~|^~|fu~~~Zyz~~x~^vn~vry~~z~{]t^}~r`~~~vzkU^xt~n}v]~~~~fnN~Zn|z~||h}\~|~~~V~|V~vnN^^^q~n}lnvRx]nNvV||^t|]n~lo|wvlI|~\~~vn~~n}~~~Ypvkr|vnh^~n~\~vz~nBv~~|^zntsn~t~|~]|}ztfz~~~j|~zNz}M\z|V^z~~XzVzuYU~z~{qf~||~n}wf}nRnv~n\}}~U{^~}L~aZ^~^}y~[uI}~p^~tx~z}JF~}zy~{~n}~~|l~vtv~^~v~~^|TJI~~~zz~vs~vuZn]]n]~zLjzNN^jn~~z^n~~~reuqzjvs~~v~dl\v~|ny|~~^~l|~]~~|nmn~z~~^M~j^^o~vf~^}~~^v}~]|z~~ejxo}~{r{z~}VRt^E~~~~v~m~z|B|nt|^}L~~q~d~vzLlEv}v~xz^p}~z|U~~^Vzx[{~~Nr}g^v~}^aj~~~v}z~~|v~Vqn~^}lzu~~vun^~^~|fv~zv|~NVo^~~~}Nl}f~{~^pzVjrnSr}^~^vv|n^j|B^^~v^~}f]~~~|sz~^uVy_~^nGx~~\~X~~~p}|zjQ~~{}j~\~zzLyx^~p~}u~n}^p~zxY}~~~~~~~jzj~{z}~n~l]mzrn~nFTm~~vvC~m~t|}~t|~zV~T^vn}~^NZed^~v~}|^W]n~nZJ~r^}tv~h~,False,0.0125460625
~?@cfn{^~ny~{fzn~vlnz^jnV}~~~nSv^}|X~}d~~~|~^yZ~|]v~^z~^zl~|~zvn}~~wxunvnv|~}~{~Nz~}}n~C|[~f~Z~z~rlvz^vjz~^^|v|n|nN{u~}nRvr|~~mt|z{z~~}~zZ~~~Mvl~h~nnz^k~t^}~f~nvTn[yz~{~~r}^v~}N~ff|bY~|nL^Unnnu~~T~r~~^p}xF}vz~}xv~}Fjvjuxv~~~|j^~~~~u~tNzjhznf~n]|^}~k}}tfu~^~m~NfV~Y~jv~~M~|W~uvz~}{zvf^~nM~~~z}~}vjt~r~qnil~~mz~q{Ztzizz{L~`|n{{rJ}^~~~jjL~nf~vv~jNv}]~~f~z\v^r~zm|unn~~hZtlt~~~j~}}n~~v|~qm~~~B~N~A{~~^}~|zn~xyr~\nJziv}|^ux~D|~z~~u~r~~~jnz~z~~bNz^]vyNnyvz|nv^~l^~|zfv^z^t]u~}N|zVn~~[}|v|~d~Z~LnfU^j{}n~t}~^zNjtz|p}zy^^~l~zy|xc|~iu~~~^lfv~L~~zZnLfgy}v^F|f|n~~t~|]nvwv}\uvlaz^~uf~~u~z|z~zjd^v~|l~^nnxJom~h[f~|nlZvLz}~NE~jzvnu~}|uv~nxt|v~lyv|e}yz{~F~~zfvnazv~{nz}zn^~~~Nzn~v^}Un~~nN^v~\p~r~{|^n^~~pvmvn~zvn{^~|II~}Z|~Fc]~{~nw~~|v~xzj}nzv|^]}~~^|X~n~~}~qjJR{v~}~~~N~m|~~~~xv|snv]^~\mxyNz~l~ln}~|~~~Hv{s~{l|~nzv~vv|||nz|~~}^Imf\|^^^|tf~v~i,False,0.0090489388
~?@c~~~x~vMmnb~~vY]|x~{^Z}F~jVn^^ZT{{~~vVedz~w\|{~n~V~~~r|~~vv^~|~zfZ^}jl}uv~}v}~|vlTv~zx~f~|~v^Yn|^}~~~~mmZ~~~v^~L~vSzVsNvn~nr^||~~zy|~~Xfz~zn}v~^z`}nnvfx~~^mnv}~nzv~|Zv~~qn~^~v\~^uv^^~mOEmgx~}nq~m}lz~}~v~Z~xx}fcmF^~z~}di|zn}~^|v~~Un~y~N|~^\~fzY~~~~R~nz~|~Nhzv^~~]~tn~Y~NF|n`]u|{xvz}~^|^]Unh]m^~~n~nzv^{~~~}mxjuvmnf~vzz~un|nm~~uzvzzd|~dv~uz~nnzlF}n~VN~z~~~~~zx]~~J\}~~~j}||FE~~vn~f~t~LmzntN}t~~nr]y~]ynf~kf~Vz~^~vF^~~~~z~QXz~|v~vv~|~z~~z~sLlZs~vZ~z~~Tv{|zf~e~j|~}vv~r~z~M~[}y~N~zl^~^VyrN~Z~|^x~|tv~^fu~vnm\~zlu|`y`Kz|~zv}T~^}~}}vt~l|uLz~~~Z}r~{zyuV|~~nw^}z^\^vM|^t|nu~Z|mnn~~Yln~vr}Yv}~z~^~~vxv~~vn^d~~Ud~v^|Zxz}~^Zzv~^lZn~~}f~t~lyv[{~~^ymlqn~vz}t~bk^~vx^y{yZ\yzNbrv\f\^{vz~|~VxFtvz^fx~~}r|~~w\~y^~~~~~nMr~Tznnm^~~rz~jT]n}uZMv[nyv~m}}l}~~t||R~n~~{~~z^fM^ll}T}\^|v~u~N~t~N}~yzme~~~i~jnzd~y~hvY{~~~~^p~~|~|]^uz{vnynvVq^vY~vxvzKzv{,False,0.0088260174
~?@cmn~n~rtNly~`||n~l~~zFvvd~v}n^~nj}nykm^~~m{W~}^v|xvnvzz}}jnfz~^vv|}vz~FZ~^~N~^~\]l~z{n|n~y|~}x{}zNI~}unv|}t^Z^N~zz~m{~Uv~vzZ|~Xv~u~|{~T~~x~~~~vMf~r}Vy~vkozY~zzrv~ry{}fu^|vv~~szgz~]~{~~{m~~N~Zn^|u~f^rfz~|~~nn~~n~~}lzYnnlzzz~lz~~^~unvt~~M~~tiv^~z~j^ut}~ZM}~~||LZxZ|~~lz~~T~n\~~rlr|N~z}~rMtN\ju}J|Jzz~vmz^vf}|yz}LRsv~m~|~~~f^z|zv~~}~f|z}~~{~~x~un~~Z}be~|~j^~nT}|p[un}}V~j|xynnvvx}nZ^{~q{K~jn^W^~pxNu~|~v~TZz}vv~z^n~~~~m|}~n^|}Ht|\nJ|}vn~gw^y}~v}j~rzyvh^zf~^ffz~~k~|w~|~vr}n}~|n}~~~z^v~vXnV~~}^zzz~~~nz^zv~mv~v~zn~t}ym~z}~~~|wv{N{~[nFnnz^|~j~~j^~~tp^~r}~~Y}J}]z]}TVuzz}mF~F|kn^|~~jxr~}m~zK|~v~}vr\~|}}nq|x{~^^vnz|}Z~Zd}TN~vmvnv}pnUZn}|~~^j\v~j~lky^~}KnV}}~z^V}}w~vvvZ}^~SN~|nupr^{~Ldvy^v~~^~X~r}z~]w^~\^Txn}|^^nd~zzPrR^yx~^~]vv]n}z~hw||y~v~nYjns|~|~XvV}}S^n~^f~~b~wl~n~n}z~~^~Z~~~^}~~~Q~}uzvv~Nf{N|~~vz||^~^Jv\fN~^~}Y~~}vm~z|Nm~~x,False,0.0087461472
~?@c{}n]~m~|~~~r~}n}ki~N^|Qm~~pnNmzLmv}~|nj~~~L{~m~r}zDlmv~^a~|nfznztV~|}y~~z|~~}~Z{ex~L~l~^~^~}|~~x~~~b~~|b}t}~xVu{|y^~HX~n\^lz~Z^ZT~vn^mZ~nzm|v~^|nZ}~~~}Lt}}|j^^fnq}~tvj~v}b~yZtnyvon{|}~~lZ|X^xLvn~v[v}~zz~^l]tz~|~u^nx~^~v^^}z]V~}}}~zvR~{zez]N~z}^~|N]^zv}}~nh^vnn~~yn^}~hu|~T]}^jm~z~|j}~mf~m\^nTn~\^~E~|n^[su~\vv~b~{t~n~ny~nVzZsz^\~z~u\n^~z|]}~~|nl{Nni^n~~in~|Jx^\zz~]F~uLmn}jv~zw]~~~jm^n|zz}}^Inz^^~n~jz~xf{~vz~^n]tm}~z^d~]niv~nz~zc~~|}zNlJ~Z}L~{~~^r~\~i{~}VkZ}|~^^^~}n~}u^^~^fvjt~|ni}}r|~zntz]n~~^~\nrvZyj~|||\|~~]~f{~\}\~v~N~u^xr^n~mv~}~snf~{~z~]Z~yz~~}~|f}zvn~n~u~~j}lwv{~^Z^}}nv~n~zvVT|^|sz~|}~v}{rYz^jt}~r~}nvQ~n^j~z~vZ^L]zf~tsF^\^~vN~~|vNrz~~v|Za|^N~~]~^^~^n~~^zzl~vnp~v}|v~~r|{]n}|~Z\~n}fm~H}|~vZ~^ny|~~~|l~~}j}~~nN^o^~~q~}n~yv^N}~}zJk}~~gufv~z}hv~fXvyrz~uz^~~|bZva}z~xofn~Nx|et|}zVVnjd~f~k]~~~f~~zyv|nN~z~~nvrGexN^z~n~N,False,0.0087330341
~?@cfF~z|}lz[]~n~~xv[^~[nrvf~}~~^n}~~|ve~v`nt^~v}\v^~Zv~~z~vuh~f}}~~v^m~}~~^FfZ~~^~^~|~|vz^||^~~~|~n}jv|~~Vz^v~~nlD~v~|m~|z_f||~mnb~n~q~j~rvvtn^|}yzzzhzfN~rjN^fy~{]rS{~n~l~Mv|v~~|xv}nn|zz~~~vi]zxfhW~^~~v]~nt|}l~~~n~~~t~yJ~L~|}~k{znzx~~z}~|y~n~^Fvvuv~nvj~~k|~u|]}^mnz~vb~V|vy^v\jlv|r}fz{V~n}v~in~\N~~v}~xhz|}TN~y|z}nZ^z~MFFvn~ur|~~^f|~~~~^~y~v~~}}~y\uz}^svR~^~f^~~n^zdv~[~nNn{Hy~|t~~}vp~mntnn~~n}n|vv~j~rz~|Zv^~~pt\um|Zk{|z\|z~|}m~f|[z]~v~~u~z|Rl|^vn~t~WYn]MVmZ~v|dv~Y|]~~p}y}z|~\~ZN~|z~VzzY~v~j~~|~e^~~~t~~Xvv^nvXxV~J^~ann}vvv~V~~~^~Yjj|j^]~l}~|~r~m\~Y|yy~r~NVhf~zzVu{~Fv|nV^~|KT~u}m~~{|~}^~]^zc]vf~lLj^|~t~\v^xv^|~n|~ynj~mj~~|v~x~}~vMxvxs}{ru|zJ}yYv~]vma{v~~VprvN~qvzxtf~]mz^}yV~}v~~qLT~\~N|Xy~T~r|z~~^Vvmy~vtNF~nkz~ixvJ^~~M|}vt~~rfz~^m~ziUnN~Yv`\q}en~rzvv\^~vzj~|sv]~~|z~~~~u}}^z~^}K{~~zn|t~~{m]uw~V|n~nvv|f^|z~~l~|nT^~v^~zn~mn,False,0.0087859631
~?@c~vZ~p~V~z^F~}zZ{a~~~~~ly~~z~z]sv^|~i|z|m}~u}}j}~vzeF~~tlzjz~~FNzTxn}u~~l}~j}j{~~uf~v~z~^eXvvZ{~J~~x~}r~~|nr~~~~uzt~^}|F[m~X~~~l~^|r|~~NvmXvln^j~vvt~~}l~^nuN{~}nNE~[Z|rF^~n~zv}~~~vl^nvTZ~~}Vk~~~~^Vd~y~nlxu|^i|~yzv^~nf~ZNn~{xqm}Mnvd~zrvVz~~v}\nnn~~dzV\N|~zz~uu~t~{vLn}xrnti^v~~z~zV}nz||j~^zx{~|f~zU~v~t~^|t~vynr~]~een~L^~\tN~v~}]~n~x}^f~~~}~~v~^|iF~v~}z]}~^~^LzN~e{^}~~n~~v^tzn^z^t^m|]|~v^x^j}z|umz]v~_Tv}{~~^N}~zsznX|^n_x~z~~~~~Nhm}zr~~}^^rn~}tNN}u^|z]znn\^}m}~]~j~xt~~|~}~}vvVnyyF}|~n~Vf~jvvkf~}~xnr[yymk^^rXZ^}~~v~~r|||^~lnt]ntx~~z~n~~]sV~~~f~RNzvzIV^Zk~~{~^Nv}v}jx||~~njf}~pI~|NVf~~y~|}^~z~}vrknN~~~~z{~z}}tl~j^^njp{^}}vt~yZnn~^F|~^|~zv}lv~\Z~]VV~~v|{|\Y\y}QJv~i\~u^^v\z|~~^~^v||}~|~^fndtiNx~X~}}~rZv|yq~~\]mn~|{rz~Nz~~~~Vn}~~jzvNJri\b}M]~VJu|jv~~~~{~nVpnu~m~~^~{jqvu~]zrf^~uL~Zzunx~^~y~~nu~pzlVz}Nv\rj|v}zytZ|~~z^^~^~zm~Un,False,0.0087249279
~?@cz^m^~~r~n~~UzvM^T||v|v}^n~x~]v||zqi~~B~~N^z~j}|t\|n~z^~zu}zy]~t}V^~y^|~i~tt}~a~~z~v~}Vv^~nlm~~n~pz|z|vn~^zn^s}^Fn~vv^J`ju~~vv~zFw{^\f~}\|~~l~nvyvz}yv}x^z|~uvu{VNV|ln}uz^rn{^~^Vj^zv}nz|~knXv\zn~rl~{f\~z~~ynnnfnt~~{N}~~]zZ~Q}nn}~ds|^~~nx~n~~~ij~^GzEz~y|~n^V~~^VZ~~^zmvZ~~n~~~~rD|n^Zv}|zM~~|^wVz~w~~D}mvUuvznrZ|~~|Z[~^~^v}~~~|[x~~~{b\~|~ng]^|\nd|lf|dxVx]mFvx~~~}~Z}f{~~zz^^~]xAv~~^vz~MNx}~~r]i|uzbvTr^yr~~xx~~n||~~zn^}nl{zzf}nv[^v~^[~~tybdmx}\~nz|]nn~~ZnV~u~~ny}v~rt^^r~~^f~~}|vv~czzvvt~~p}n~~Z}~~^m|~ht~J~ef~~~~}~p~m~~~^vxm|zvrbl~n@rzZ{|z^tn}~~^u~^}l~VNNt~}^l~Ly|uvt^~~^}|}~vv~TJ|~y^bv~z~N]N~V~n|j}vxyjyxZZ~ny~||l^x}R~|s~|vYZnZ^~f~~z~~~J][~m|{h^lt^z|z^\z||~[N|nv~~Z|~~rz~]|]^y~Slftx]E~~{v~M~\~~Vv^~^~{jzUNj}z{ntf~y~l{~~}~d~~N~|{|~\}\n}]~~l~~~vmv|d^}^t~~|n]Ux~\u|~~nv~v^~zn~^^~^|}~V~y~zN^rVZ~|~{|l~z~|z|NV~~|ntn^z~}vtN~||zqz~Xlp,False,0.0088071823
~?@c}F~}z}eTr^~Fv~|~z~vvVfn||Mvvv~~y~nkuv|~~}ync~tzvdm^Rn~c~vu~rdv~vr~~z~zv~jT~~{~~vn~n\~~V^~i~|~~V}Ny\mt~^fh}r~m|r}\Fny^v~~nfI^m~~~~~^yzv\gzal^z~cf|yi]nzz~v]|~~~~}n\y^^~Tb|~}lzu|z^|~~~}]p~y~^~]||Z}~zv}~~l~~v^~^~z{n~v~v|\~~n}l~nx~m~V^J}uv~}tu~^~~zn~^~~z~j~~r|~]y}n~bZ~~zx}{~~\Z~~n~n]z}}nzl~vk^j^r}vk~~Vv^~~nx^~^v\u}zn^~}r~sn|~rBjZzz]Vyv~v|{~~U]]~nw{f~i]f\~r~m^frnYVyulny~~h~P~~}kzz~}vt}^t~~~VVq|~n^yt^z\k~Zvvn^~n~^x^f~vnje~u~s~Ynj~~~t|~~|]lMz||~zml~z^ql~\~~}zn~jlx{n~j|k~}fZ]~|f~n|gX~uzv~nvUz~u^~~v|vn~i~x~n}]^nXrjm~~Tlk|lfxLv|n^l}~]x~]||~~N|Vulj\\F~qf|}z^~Z^~~~f~~{vz^v~v~N{\}zk]|~b^^Zd~~tyvt}R~[~|lxf~Z~Yh~XN^z}~v|~~^y}lfvz~Nzn^^}^}z|^~~n~]d~jxlJf}zNvlh~Sl}~v~uv^nz}~~~y|nn{~N}lnV^q~|~^z|\~^^~~fZ^z|\|ku~}~}}~^}n^}V|^ztn|@~^M|z}n}}pu~]~}y^|zux~N~}N}zke~zr^^~~n~~N~zzz~x{}nj~\|~Zv~{~nm~~nNv~~^vu|^~Znb~~Jj|v}~ze~z|swjzi|~^~z~~xk,False,0.0091741085
~?@c}~nfM{z~}plyv~^v|]^~ft^nn^~]~vzt||nvv~x]}~~nM~n~~^nz~^f^yzz~~V~}~v~~|V\xl^~\~^{lV}{J~^~`nzn~v~v~^~m}nv~~^znnvn~r~]rN~z~m}{w{jiz^N^|q~^vNsfzNv{p^N~~j~Uw~F}~u~}~zuZ~]N~}vedmjz^~zv~l~}^~~Zzvt~~ysl^~~hn|z~LRjy}vy~||~^n|vX]nmz~t|vvlv|~|}~||vzA}n|z}pvzZnzv|~zr~}~~xKxr~n~||^u~\}z~}nZju~~nzz~^n~~v~]^}~{z~nn~^x}nnzu|N}m^n~~wZ\~xv]oh~{T~}Vnv^iy~~z}\\Iq~vfv~~R}~}]^}U~r~[~}}rnnnvt^Ir{yurn~~n}V^~nnsv~jt}~~~~|vx~~v|~zNv~{em~~V|fv~mEx|F~l|V|Z^n~}~nMvn{x~nmn~~^rx|z~^m~f}}Fk^nMi~|~Nyxzt|P}D~~F}|tz{~~~yv~lq|~n|B}~wVK~Tn~~~f~M~~xL^zJ~|}sYlM{^}nylluv|~|v^t\Y|^z~e|v~m~^N||]{|u|zZi~Xnj}~n~~k|n~t~~u}}^nzVb~|~Zq^~u~]}}sjzna~z~]^}~m}~dm~lnn~^~^~Y}|j||uz]jv~~}zzL~~vM~z~^lt~~r{|}}q~~~zM~lVv^ry~~|~^~{Rw~~]V~r~y~fv~~~X~~]^n]~|f|}y~nxDvnN~{~}{f~j~^x~|^^uz~~zl^i~r~v}~|}IZr~|~yjMnn~~l~|n|~zvni||N~\xl~^fnv^^~}~||l|n~~}~rj~~nr~^~|vnvXy~^~^vpn~]~~|,False,0.0091979504
~?@cz~nuf|tx^i~~^}V]~zz~zm~zwv~v}~j^v\|n]~~m~nn^~d~j||vzN~vl}z\w|~~^f~^~U}~z~~}~~~\|zU~~v^j~d|~~}n~v~~v~~|~hn|ut~~W~n}vs}d~~|jt~|~znVN~~~}~}V~dzzjr~nr@~v^njB^v^~m}~}j}n~]{~H~notu~v~|~~||L~NrvT~m}n{~~|||Nn}w~lnz^r]Mnv~M}rrq~YXv~Xnv~~x^^tz^zj~~^v^V~z}^t~dn|n}~^~{|~|{TZ~Nrv{Z}dn~vlf~~~X|jk~Vt~m~t~t~zN~r^n~l|n}}z}|~n]v~~^v}~~Zzz~m}f}~~r~~nv~z~^z~v~Ny~j}Vy^s~~}~V{vvt~~~vs}~e~~Ve~vvu^zl~x~u^n^yv~}|zz~vv}Wzl~^Xvj~nzz\bnz\n~Zbjvn~vlh~~[~}{L|ft~n~^yyxzu|~jn~dFf~~nzzU`~|}~~~}j^\}y~z~Nn|vyz~z]y~~N~XzFvtw^^X^~^y~}~r}}Z~z}v|r~~|u~~l|urr~]~vLf~}^mmvlN{nm|u^{~{R}YT~}VrV|~~n}}vlzp~~}~|vvmuXNV~yn{^~~~vY}Zz~Zz|tzte~~\fpn^~Ur~fFi~~~~~~Nju}x~xujinvs}elm|~v\zu|mnlLkn^^V~~d~r^Z~M|z~^z{~z~|~^|~GV}{}vnR~^^}}}~]vnpn}]~~V]V~~\^mv~^Vf~|~~^vN{t^xt}~~x|~\~j|vQY{nS^N~~\x|^vv~yz~v~~nmj}}Mfe}tN~|~~~v|n{^^j~{mdimz}z}||}]n~~~rzj|f^n~}|~nfv}V~~j~|{nVrw,False,0.0092129707
~?@cyV~{WVn^^~~|{ln]n~v~xn~tzx~\}ln~U~|~|bz^^~rz~m~vz\}}|~^~|v~z~~Z|yv}h^~^\~~z}^~u~nvmft~~v}Zy~rnn~y|V~lv^^^nt~v~~~~}R~z~N|~~Zz~]v]^jv{~j|vz~v}~~^~Nzr~nsj}~zvzn|z{||}zx}nZnh~{~~}~v~hxuv}~}fz^^^k^]nv~~}~N\NnTrzz|Vs~}}~|^v~Hqvjv~kV^n||XZb}rJnV~f}u~lvm~}~}~^n^vv\{~~~x\t|~n~~^|j|~H^a~^r|zzz|v|ztZ{~fZ}]n~nnn~n~trx^y~x}Z~~~|]z|zl}~|l~F}U~~|N~|nzj}jMn~nz~zm~{uv~~}~~x|r}F|~~|^~~vV{~hfy||~m~z}n~~^~zjwnnv~TJ^}~~|vv|v^~^v^|~}n\|~O~v~iv{zv~~nn]z{z||i~]l^~]|}~Z|F{^m]I}|}JJlmv~}V}|yv~^vNu|i~vz~}dzjxc~j~mvN~tZz_}N~}~|~~{~~Nr|N~n~m\~T~foNfv{]v||jvn^z]}Nl~}~V{^n~v|~~|F}~xznv|~n~z~~~DR~~^|Tvz}T~~~z~Q~^zFpnJ}^~krO^Xu~]jtV~~}|z|{r~]\l^}rN~bjJb}e}~~~^~~u\~bw~[]F]VX~t~z~J|{~tnz~||z~~~~Hy^~p~Tv}m~}^v}Zm}~~l^~x|{~N{~~l^MxR}~}nB~uz~t|}~vcnn~]||wz|~}~|^e||V~nUf}}zz^nz{vz~x\Nn[~y~z~Hnvlz}vVmn~n|~~T~||~n~r~~v~|n~~~NTnl~mvv}b~nk~wf^^}x~^vvN~VRnj,False,0.0092689991
~?@c~vMt^Xz}v~zn^~xxxz~V~X||zr^zx^j|~j|~nmN~Nbu~~F~Vznj~|vVun|^sjvnVL~vvs]ZB}Gs~qn~z}\JvnH|~ZV^r|v~^U~lz[b}n||~~^@L~~~~~vnm~rm~s{P~|[z~n~Zv~~umZ^~Yy~~nro~^vZjnn~~^^|Nm^z{~|~hnfn}z|~vV~k}~nn~~znhzpn|F~vnv|}~^t}jv~]^nvnz|nNz~|~^vd|szz~l~~v|\~rYz|v~|{]Rvz~z~~~zvz||nnlz}z~vu|~vn~^v}x^|~nfn^}}f~~~}^nv~~v||}~vY~\zvZdvz~~z~|~j~}Mjfz~~~n}z]zNn|{j~J}YVzVnx~~z^n}}l~fD~ftNn\N]~|^~ty}~e}}^YYB~ia^^yy^|^|r|m^n|~~]\^hm~m]Tx~^}zv~kl~b~Z~m~l||M^~v~~nzvvR~~~tfj}|~~rzx|~umn~Xz~r~~zt~hn~k}vz^lzwznj~fZ~}\N||z~~uz}|NeX~n}~S~vUL|~Vz[~~tZrz~~v~ne~n~~R~u{~xmrwn}u~y~ol~~uZrntyt^v~^z~~^u~^|v~}|~|~l^\rez|~j|}~|x~\psmvlj~|~|^l|Ly~v~~z|v~~~a~zB}^f~vV^~\z^||~v~L^sx^~^Znnzz~z~l}}rt~f~Z~~^n~zt~|~f~~v~^N^]zM~~uvz~~nz^lT|~~~Tzifv^y|k}v~|\mk]~h~x^z~~\}v{~{xO~in}}v|}zxzn~|~j~}n^^p|~~^v^`u~nurm|Z|~~r~f}^n^~nv~rz^nzv~^nV~~r~xN~~~n~f~^~y~|]Fv}^^~~zN]lJv~~~~,False,0.0091929436
~?@czV~u\~^^j~~v^]~U\}x~l~nN|ftrZ^~n~xnj~v~n~Mf|w}Nr[Ny~^~~dfznz~ty{~z~~Z~m~f{~~|}\vzm~Tns~|zj}}n~x}~~~|x}N^~vnvn^n}~|~~N~~~~vtz~~Nndlu~vnz|{~vzw~|m~~]bKj{z~nf~~^jtujr~J}~~~yn|l\~f}~M|Z~}~~j~~\~~fItZ}~|~|n{n}dv^}ni^~gu{rtf}~|zvvv|nF~~^~~}z}q\}|NRh}{^yr^nz{]|Zl~ni{rj~~}|~n\N^TZhn~N~~|~Jv}`l~qV~|v~^znqVz^~~nq~N}f~^nzFz}~jRz~~~[~}~vnuZjM~~uW~y~~vyzvz~|z^~zn~t~m~}\b^~fv~jzz~\p~]~znvN||nn|t~||~}^v~^zf|X~^~}\~~~~y~~~|x^z^}vX~^~zzM}~~^~~u}n~~}tl]~~Vv\x~nx~m~||y\|\^vn~z}}~|n}^~|zn~~~}m~v~~v}vq~v|~|~|~l~~|\|nj|~vv~~Y^l~{t}zvn~}}Nzw}r|}vz|b~z~ly~cr}i]vx~tfy|z~R~r~{vzn~vp~~|~SVJ~nV^Y~ZjkvsN}~^~~jzfz^^nlyz|~u}Zt~~|V~y~Nx~uizzpz}DvV\~Z~~fnnmpV|v~wn||~ujv|t^N{er~~Kf^~~vl\~~WT|v~v\z~yvR~~\Vvzzw^~~~rmz}fn}CVz~~z~`uz~~{~}NVfz~^z~}XwYtM^p[~v~|g|nV|vn}nz}z|^~t||^^i~[xnvV|\~v~~v~tn}~y~~\uNtZ~M\}L~|n~^jzlLnf~Nev~|~~~n|nf}XfV|}L\|~vzr}]}V|,False,0.0092749596
~?@cuf~tz{V~\}}L~l~~xqnzn}|~Le^|^~|~z~fnMzrZrz~^^~~~vamnNjnL~t~~nn~^znZ~zn^n~~|~ZA|}n~n~^nZznMzn~~v}R~~Vl~}z^|~V~|~jm^V^}RXy]eZ~]m~}mv|~n|y|[zjcj|~|~~~^|\~nphr^^V~~}^^{n}f|NzNjn~Z~}]Zn]tzNmVN~~v~~jZ}\~}E_{Wv|T}}n}~~vv~jze|v^|}^^z}s^ys~}~dZ~~}xaNzVv}|~um|^~v~~ZvT\v~^|~n|}n~~Tu~\]u}j}rz|~~~z||~zX~^}|~~vN^j~}^V~~n\~^V~~~~~ft}~v~k\BU}{~\xu~}xRnzn~zj|}n~J^z^n^nnzNH~~}~~~~nV~~n^~^~v~n~t~}|n~~}{f]^rdntV^}~~~v]~xt{z~[~|^n~nvn~zZ}}T^v\~N~V~~~XJt~sn^^vvv|pv|r~u^~v~Jj~Tn|u~~mtv~zj~j~IN|nvy^y~kut}f~~^~z}NFe|~~~Y~w{\R|qxn~yz~^ztzdu{v}^\~~~njv}fz^\~n~mN\~[~nvRX|}^~}}Vn\{dnM|}~|^~~vnmv~{z}~rsy}t|zvf\^~~y\^v~~^xn~nzJ||m~{vv~~nRZ~lnz}}~n|Ynm}}U]|~~}Z~znz~N~{n^tz~{|}^|\Nzz~|~yz}}~j~Z{Ozftm~]~~^~~z|^~}vNn\f~vl~~x~^rFvp}~~H}j~~~}~~^~xfvLv~n}]^\~~nv^||m~nYwvN\~u~}^V~^~}~zzv\nn~s~f^~^bt^^~~~uTjvjrnxfquv^tnZ~l~gvn~lh~^R~|[m|v~^zrfn|~nd~~uj~,False,0.0092499256
~?@c~z^z|yfv|]yz~z~dy~u~lK]~~~td~D~zjNz~nnvb|R^z{j|}nyvvRvrS|^ym~nn~Zn~~z}nvp^|z~v}i}y}y}xT]~~~Nt|~~~^}Yn~lzZ\znf{nN|^|^n|~~|tnvn~~~^~^}}{r~V~Rj~uftkx^~~~Zlxv}y~~i~}^^n~|~^}^~fz~~V]^ux~mz~n~ztlzzv|~}}|~\~z}^n||~{|^Xl~~}zNmzZ}^nttv]f~}nn|~^Nx]~Zn|jvt~l\~zA}|Nn~~~~e~~^]}~zr|~nn~~~zLZelZm^{M~h|Nn}{|{q\VkJu|nz~xm~|wln^~ezt~J~nz}~~z~~qye~u}~nznnn|}~fnv}v~~~f~|]un]z|zzjuh}x~]^]]~}}|}Zl~n~^rth~~~}~~YN~q~fu~jNunv~]}~~~~zy~n~z~nv~{t}|z~}lv~zZZy}Rz^}N~^v|~~V~~j}~~jmZ~~~evnnj]|vt~|z}m^Z~x~m{~v~]}e{yU|}\R^~|~nM~{{vfhMu~z]~~sv^zVVn~~~}V~N^|nu~nv]x~v}m}N}zynnNz~yqm{a~z|z~v~z^jv{~v~~|}^mx|~q|~~j~^~v\\tu|}vm]vz^u~nvvyz~~}n}^N}~^r~xjF~~~~z~}]j{Vu~~^|k|~vn~~z^~r^Qz~~\~~a}|SJV|uvR~v~^nz^~]}uty}|^Vr|~vvv~~ejz}~^^vv^n[]k~~~t~vn~j]^fCvd}~}~uxf|\~~|~v~z~m^^}wmnvpm~z|v}j~|~}~{u}jU~~m{~}||}~~vujjz\kz~~f|~F{\znSZzz^Mn~\uNt~t}n~~msj~~}\t^}ZzJ~|,False,0.0092990398
~?@cvR~|\zn}|M~^r|^Zz^V~n~^n~~}~H~~~^N~kpH\~\j~|v}^~~nLl^lz|~|i]l~mZp}~\~~n~]~z~~}~v\|v~~}vn~znLtV^}z|z|~^^z~vnn~\|nR~v~nvvz~|x}w^x~~q~|x^Nz~^~~Zs~}{|~v~~~~^~VZPznm|~\~xY}}|~|^~~Vz|}}|^|~~|Zvj^}zMdFy~~z^j|}~[nmVv^Ty~lvdMrmm~v~~^~]v^}^~}}~~d^~~nR}~V~x~v~rNVwiv~x^r~~~~n~^~y|v|v^x\^~~Mn^zNntZbF^~xm}ym~}}Z}y~~~^~vnnu|~~T^^{Z~^nlN~~K|v^^^zvvzjfly}~l~zr^~|~yj{udz~~u~m]|wt^tv}~~XnXvz|n]|lxf~{xv~~^zz~|zs~~|~~^vztkzue}|p|[@jN{v~jzv]vmZr]~yf~~rzn}dt^^zmnn~~]w}nknx~~v~^~f~vMZv|~~\f~n}nZ^[yzz~~v^v~n~^~z]~~~{x^~r~j}Zvv~|vz~^|ur^|~Z^^tC~~}b|zv~bz]~zbf^T~n~n~|t\~v^~Nvt]zwtn^v|vr~~~uZ}}{\v~~hv|}~M|~x{ZqVnl}svZv^nl~^~F~r~L^||Q~~j]fVlMn}^}}vv{~a|~Ln~hV~|~|Nkz~Jm~rz~vF|y]z~^n~|jz}v^Nt|}y~f}Vzz}^uv\}~s~b~~||jvn|~~v|iT|Z~xhzR~~~zN~v}^RnV|~n^f^~^ts\~}rvm~j~~u}}x|}}{^~v}~rv|~}~~}\zrr}~~v~v~~y~L}vy~xC~}n|~tm^~u^\xtw|~m~yyuv~}|qz~f]^y}|J^~yv~,False,0.0093688965
~?@c^y~vb^`{V~nmr}T}zG~nnzYrv}ztv{}~{N]^z}|~tm~z}vZnV~mz~~L~|^~jujbv^nz}Vmf~v~^k~~~~f~||~|~y~|L~nZQZ[GzuV~}juj~^f~^}~nv}{tnj~^n~|}jz~vRV|}nnV}^{jvnU|l~V~evv|ynv|~}\mrp}~~|~~~j|~}Ubq{bWi^^xvv~|~wn~z|z^~b~z~z~~z~q^|~~~nn^~MZZu~|i~~~~^tt~N~~w^nZc\nnzzvz}h~^~^z|}U~vmzz~|~n~~Tnf^|v]n^|n~~y~MY~n||]pz}r~~^~~~~~^~\~~|VuvZ}~|^~|^^tn|}|r}~|xnuxnxzzw]|^AXv~^~}{}~~}^t^Nv~~}nyv~~|~u^^nj~\v^yf~~^^vj~k}~^~|i~N|E~}Y~NZzX^~vx}vneM]n~^zz~}^dzz{n~^|j\v~^|Mv~}ulo~p^jV~z~y~]Vj~|Fr|~{vYnQ|Lr~~^f^mVnzk~Vv~j^~zv~zr^~H~yJ~n~n|^~^lmzn[~|uunevN{~~}u}]f]f~t~rvv^~f]lmitm^\~~j||}}l}vn|zx]n|n~~ntz^]r[nfzt|~tNt~~~n~|n~y~~|dvLmznjn|~e|^M~}}|~d^~u~~~n}nmv~X^zzxV~^^^~r{v~}N}n~z~_~~|}t~~u^^t|zzz|~^~r}@\{un~~v{Vz|~~v\~^~|vt~^~~~~zz|~^NU~~~|}}^{|]Vr^u~n~~~v}|~^}uxv~zNrzzzWv^~|~^~~~J}Z|~~zV~C|j~zunLt~|}D~zjVl~|nmz{~|~vvz~~~VjA~^ZrmvnT~ln~^~u~nvnj~n~fzd~~fL,False,0.0100769997
~?@cff]Mvtk~r}vfV~~~nnznt]nS~]^^zvrV^|k^xnzxVn~~~v~t|n}]}njLY|j}Vz~r~u~~~k~U~j~~zzF^ZLn|y|~Rl^]}~^~nv\^P^z~]km~v~}n^^~||~^|iPnsvr~v|||n^n~~^|Y}x~zv^n^^~~nF~PNtqtzq~Ev^^~^m~~jV|nv~^x~n{}~Zmznrruv|z^f^b~c~~rzdmn~ne^]^~^Zvppv}B}v~nu|}~~zR{~Z~vz^]v~nVv~y^n\qn~vx^}jT~~vt~^^~nf^Z~x{v~t~~~UfVF~~^}Z~{|ffn^j~nn}y~~\r}}lxq~\~~~}]AZ]~~zj~}hv|^fJky~f}~~~^n~~vn^~zvnNzx|~z~|^N~ut~~~zx~~~|nz^n~}~xyz~||^~vz~~~tzfNzn~~n^F|j~uxn~^tj~v]~~nj~}f~u^Zzv~Q|pn}[nq}]~~rvznffz~V~~w|~~hayv~n~z{|^v]y~~~|~|uZ~x}\z~~v||yv^~{~rul\~~^|~z}u}j{~~~~Z|~~Nzn~|~~^|]zXu}rnvl~Yu{~~~}n~~r~^f}}zzzzuzvsv~nm|~mJ~~df}^nv|~|uz~~n^Z~Rn~~~~x^^SMn|~~Trn}}wz}y^|~Tm^~XN|vx~|Zn}zMz}~zrN~Z|s~zZynjr~~~Bq~}Znn^~yz~N~vn^v^@\oezU~~^~L~}~mux~}n^l^~~vzv}~}zvK||^V~nO}~zzm~^t|]zvBv~n]^^~Jzz}l~|~~X~~~i\^y~^`]~z|znnv^}vrj~xjv^^v{nJ~~lm~rjj|r~}~Zv~d~~~Vvrv{}^^i~vz~~^nxZu~~z}~ZrNb~{,False,0.0100319386
~?@cyU~~z~~^~xe~}|~nj~n|vzzI}|^~zm}vzf~{|vlu|NY}^~]ly^n^~j~v~\v^|Ezv~m\~~~~~~hvnvrNn|~~~~~n~~nzv|vun]}~y^~{~r^Zz]uz~~r~zzf|]zvi\~~]~z~r}]t|ujl~Zxnur}v|}h~k~j~~N~^~NeMJ~}}nvzvVNr|vA~~v~Q^^Tnmz^~~^zVv~hrt|~h{~~}^sxkrY~~~~l|}}zu~nx~^}nmvqm~~~n~sv|}~|zl^fi~~]|~}~nv{m~b^Y}n~~nMY}~~Vynvn^N^~~n~L}m}e|~~nzs~\~~N}u~|}n^nvz[~x~}zvV~tnN|~~pv}v~stztr}zzJl^}~xen~~vv~~T]v~~~~Y~v~v}Z|l~mn^j^|~jm\jvvj~vv{^v~vun|yyNvl}vJn~n|z~n|{^j~~}nzz~t~Mz~|dj}|u}~^XpZ~n~|z~w~TXzV~^~}nMlvN\z~V~~^^~V~n|rfQ^^zZ~^yt~}\vz}~~~uf^UY~z~z\z|x~viMV~jt~V|~~}z~FX~|~nn||~L|kdq^|~vn~z{zv~~~Z~v^nN~f\vymnsy^T~Dn||}^v^`}~vwtxx]Le^}g~|}V~`~~}zmzrv}^vz^usd~fzn^}r}xmn}|^~}j\nn~u]~^zz}}lz~|~z|t]|~~|zv}~~luzuv~n~~}~Zv~v~~Ntl||vmMi~~~|~{x~~ox~}V|}}}|^~~nzfsztnz|Nxhr{urN|y\~~|}~n\n~Z~lJ~~^~m~Nnnz~|F{~|l~nvvz|~rb|xvvxm]j|~~~|~}dzyzv^~v}knvvyuzD~x|n|~|{vv~~~[]~frj|}R||Lz~~,False,0.0101208687
~?@c^Z~lr~z}~n^|R~vxz~nv~fVem~u^Z~v~~v}kv\~^nm~]k~f~~VV^~nv~V~}}f}}^~dd^v~~}h~|tZ^vnZUt}nz^Ur~l~v}nVv^c~}ezn[[L^~mw~kf~~^mZ~|~y~knt~}uy~ny~v^~twxNvv~v}s\~fnw[~z^^r{zr~e|^^~\~}\z|~LpzzZ^[|^|~Yl~^b~^^~~nv~fmZynl~x~lz|~~~vvnN^Vu~u~}vfz~z|}~~||~~v[z~}vlXzmu~Q~t|~m^f^V^~~bx~|~S~^~z|dvvy|z~~~~~~l~t^~|JVzxn\~m^P]~Mtnn~~bn}~n~}|hy]znvf^~f~Vnrz~~|V}t}E~~|v~x}~Zvz~~nZ}~Zzy~}nVm]mN~~YyVz^~y~~iz~~v^U~z^}~Fn}}r}{^{^bVz~|~u~^t|~vvl~^~nlv~vjg~}n~^~zV}Z~~k|~~~z~v~v^\~^JXE~f\nm~z~|I~{Zz^~|Fk\~|^Z{~xNp}z]Zx}nY~rmf^}f|XfVn~d~vqj}~~llxjr^[}^~}|~l~n~\~fM}t~vYz~V~fLr~~nWj~~x|mnFmtZ|~~u|z}~~}n}jzl|{z^u[hp~u~X}~E~~z~zw}|~X^a}}N\Z^zzvNd{n~]}|~~y{zy^~vJnynt^}~|}x}~~]t~{~n~lm~w~~|Lp^}u{rvZz]n\~~~}mWzyF}rf~r~~~j~^|~^\vyJ~\~}~rz]~|p~v~z~~^}nfzzm}~~v~~X~l~~M|}~R~~~~~|nV}}n~}j^{}N\Ul~~~j{v~N^~~~~n~V|~r~j~zjn{xn~~t~v\^b}}\~~m~NV~~|\~Z~|~~un~y^~~~rnv,False,0.0101959705
~?@cc~}~z|N~q^Z~l~^rvX~~~~~^zYz^~r~~}o~\vRz~zn~~^}~nzy~~~rvX^nuf|Zz~z~x^~~n|}nvz[n~~|\Wr}|^zb~w^}z{r~|n\^rtuxw~l\y|~e|Nn~z|]~}~^|^~wn|^\Nu~m~^}n]z~z}zw~Mnv}~~~|~bl]f~ut]|y~n~]f}~^sTvn~~~~~Xv^v}^~~]~~^~~^~u~^]~j~^nZZv~|kv~zln^}~}~~~ztav^t~ml~zzbf~T^[^Vn~v~~zvzn~^V}v\X\N|\vyzV}uk~Lz~mlw|v~]zR^~|z{~}z}{mzvmJnn~kBv~z~V~V@~fz^}v~~n{~vi~}^n}nzvnY|m~~~~t~s\]Y~mypjZ~^~neyz~z~vvVm~~nf~^}~z~n|r}n~~r|t|~|^U||jtn~n~}|~}|~duvvl~v~r^^~V~]{un^}z}~mx~N~^}~n|~zNnn^lj~ZT}~vvwX~]fe^~]v~||z~v}Vlz~\u~~~~}~j`~z}^^zf}~nn~uV~t~|B]u~vnqv}~~|z|~lY}[n}}r~n^n}~V~v|V~~m~j^^ynvznsvV^f~~|^yu}Lv~~tv~~v^z|{}un|}}~~jVQf^Vd|vzn~zvyy~}tpz{~z||n^nV}]tfz~mY|Vx~~c~|ipz~~~x~~~kt^|w^Q|}~zn~|^wxzvnfzn^~jb~}zvk}|m~]Zxjn~f~b~l}x~~x~~vv~yv}y}vTmv~mn^}}~yv|ztrU~vzy~m}vjgVzk~~quy~z^pz}^~rmm^^z~^xzvzmvk~wZ\j{x~b~y\nu}mFq~^Nyt~~~n~u~vv~v]nN~v^~~^~}zjvznmn~D~rn~Vzr}J,False,0.0102128983
~?@c[|f~Z|~nv^z~zv^vuunz}~~|vM}{~z|s{wz~l{^YV~vLr{n~^|ep~n|zX]D~p}}|~Ft~Z~~s~~~f~|y~xaVv^pbz{ut[Z||zz}~~^~f{ut^ri~mR~n~Z~~V^r}^z~n]~}|~~n~^q~}v^~~~~}~zwn|v}p^zm|fVv~~~|u}~~~~mfnt~~}^~iu~r~f|~eml}^v~}}vv^t^~~m~tQ~l~j~~~}\^z~|^~^|vtvRmznpF^n|}nl|}ni~Y~~gQQ}~fXn|z}fxrm~}~n|^vv]~zn~ytw|^^~^~u~~~}|nul~V]Ysn~N^~vzzv}^~~[ZY~~v~xy`Z|v]m]|^~nJ~~X|}z^\~~q^^njzxb|Zy{lnJvVz|~~~~Z~~^~n~nlzJ}n~~z}tv~|n~mzzVN^^hxurvv~~|\~n~|Z|dJ^Tzzvq^z~n~tv}u~ytz\}{z^|n~}y~z~|~~V|zvvz~~~|~^znf^jr|~Z~~uu|qzu~~m~zN}~|~dJ|~~tl~Z[~m~|~|tfmTjld~v~^~unrV}mpnz~ts~XX^Vzd~rTP~~n|~|xy~t\|V~vz~~x^n~vv~}~^r~r|~n~~ef]|o|}\j~}rw~}m~V\z~~V~yz~~n~{^ZVuZl~y~p~~~nTb|nnv}xv\zV^~}vn^|}}~Xcy~~~\Ntl~~^{~t|n~}zm|}Y|~~~~y~~~xveU~^~fn|z~rx~v~|~^|z~zz^l]f{~~~b~~m|Tn\h~rgnw~z~f^~x]\~}o~uF}{~~~^~p~zz~v|}}]Q~z~tr~~J|r|~}F^Z~~~yzknvr~^i~mnj~||k~^u~~~xk~n}}~f~YVLz~^vv|~f}|~vn}m~,False,0.0103700161
~?@cYv}n~[~s|~y^~|e{Nam~~fv~~~zxv~vnzNyM|j\vt~X~~n{y}|Vnv|r|j~mY}^|j|vZ~nj~Kzbm~}~pr{t~^l\x|~~~lrb~]V~qz~~nTuf~z~~zf|~v~^~~~^qH~|~v|]~}|^u|Vy~~~m~z~VV|vpm|UytJ~}m}nnz~m^z\~vp~~y~|V~}{~~Mw~f|~}Xy|d~z|\|zf{]V^v}hzl~z||jn}|d~zV}p}}v~~~^z~~v}~im~p|x~m}n\z}}lv^|nv~~~}rxvn|^~~}^~hf~}z|^z^~~}~zP}v^|N~xn}uvX~fnz|^^t~fjni^~z{}~~~|q~~~Z~N^]~r\~}~Y]L]Ny~|Y~\t^~^|nvvz~mTz~uj\}~}z~n~vv}nj}~~~djN|Z|vxj~xzM}}|~^n~~|zf~ur~q{Fn|^~~n^|~iz~Eg~v}^~nzz^v~v|Z~x}~jvFh~m|}zNv~~}k}z]^n~U|U^yvu~|~~k~~N^Zv~~}~~n}~^nUV~yrT|~lvM|xfrm~Knzz~n~~~~vl|n}|v~~fgA~nhf~~vv~Rzu|y{nq\}z~v^~}~~vn^lm^rt|~^}~^v\~\~nvj^v~~nf~vn~z~jn^z~^~}Y~~v~~j~^N^~in~}~mzn~n}rz~sjnyrNmx{x~xz~~W~Tffm~zVn~]nz~~l{~^v]nLz}hL~{|}bJ`~~r~~j[^]nn|zF]nv~nz~|Uzzz\^~zf|^z~~^^Xn~~~~z]]~qvlvzr~rvZzl~yvRZz}Zj~^~~~~x~fvltY~rz~~z~n~yfS~|vx~bv]bYz^|Tyn~z~qnj^f~r~ln\tT~~nx|uvn}hxz{~|v^~t~~|}nz,False,0.0108361244
~?@czAVrU~}H^~~|~u~zv^U~}~~}Vj~|ttkn}ff|{}}~v~f{~~x^~vd]|zlV~t~n|~VOl|tM}rv~Qz~^~vzZ~^~Zv~}^|}F~|{^~rv^~Fnq^~]|r}fAnlZ~~nn~|Xv~z|hv}o|~~}zZv^f|^Vtm}v~mNn~^|lN{zx^qnp~z~Z~ie\]~rnf}~~~x|vn~t~{V~rvj~^~Lf}xj~v~n~^\zn~nn^e]j~V|~j^|v~^~~|r|^zn|]~~^nvnuvzjv~@ZVf]z\R~~z}zmr~}z~xzk~}~VxnRtdv^u^}ozjn|Zvz\z~~rXz~}Fz^~p~z^~|}~[r|zni~\LBf}~~\vjq~n~vd~}|~|x~~dzvmv~~Fhv}v~|vzV~nwvbVzz~nzd~}~~~vF^~z~^|x^{~~~}~~}n~|^D~E~geN~v~V[^z|Zj^~z}\Zf]jk~~vv|~|Vx~bvz|~~njv~v~~]xR~^}~f~v~|R~~z|Vv~z[v|s~~~}S}]^~~x~~~}{v}|~^{i|X|m~v|~j~~Zz^^~V~}zt~~zn~xmx~~~fz~fzvU^ywH~jN{|\|x~~~~v|z}t|}}}{V~XZk||~z]~zZrvzVtvruz~{z^v}`|~nYz^|~Xu~}~~R~n|z|~Lgyvplv}v~m}~}dV}~~~n|~|z~]tn}n[v}~^~\nx~~~x}~~^|~}NknN~~vv~l~~u~xv^z~vz~f~l\j~~u~r~y|Pv}z~~~NN}|nnvnf{~l|fz^~}~tS~nn\r]{fxv^NZv^~f|nm~Mj~fL~~~~zx}l~^~\}~]nmF~~|n\^~|}n~~}^|\|}~U|V~z~v~vnnzt{\|~\~rvln~lwK~^v~znznf,False,0.0094602108
~?@c~^~~Nn~~}rZ^~r~zv~S~^~yn~Q|vvn~[}r~tl~~tvlv~^~~ovV^r~svuMv~{tvzZvxm~uf~r|z^Yv|nfoz~V{nr~p~~Z{z^\~zvrNZ|~~z~nnf^~|yf}~l~~n}|~xv{~v|Z~u|xZrzn~^~~U~~~~zz|d|j~vynL^^^\|~r|zv~Mv~zhNx}~mln^z~q~v^j~^|n~~~~yzFvzl~nnz^LRmzn^z~~~v~yz|^~~v|~z~u}F~z]n{~m^zOvV~~jD|vl}R|~~~|}t}v~~~F~mzz~|~nV|e[v~~zx|}^v~~Uh~~}~~~n|~zdv|t^bZufHi{~n]f~Tfjv^|v|]nN{~v~~fwvT|O^ru||~j~}^r|}sy}~|}~Mnz\|{^~v}^V^~~u}vyTznqVx}~~Z|x~ztv{n~^~yeY^}~}z^~~|~|~zu|}ztikNuznf}~~~||}~}yn~{~b^^Tf^~~~f~vnNz]^~|~v|]~U}~~|N}~\l[~pnn~Vvt~]^zMs~znpp^n[mbw~n^~v~en^~o~~f[B~z|~vJv~^|~]^|u~vve^d~~U~~nF|~\K~}m~zc~~}zt~zv|nk~vzvz~|}V|vi||Zl|~vZZr~|n|~i|ps~}\~wnz~|||n~~e~~Ufvt|{j~rnnDJ~{Zz~v~~n^~F~~v~\]~~z~}~~Z}~~FV~mrSV^tnb^\n{~~|{k~n}Z~nSzdyZr`m^]V~nNnt^~~VxZnzVlvN}{m|~Onef~|Tb|yvvc~|~n~~~~{l~n}t^}zn~}^q~v~^M~v|~}]~~~~|~v~~}~J~~~z~~~v|k}dvz^uvx~~fn~~\^~~|]|~^~v}~fn||pmttl~v,False,0.009401083
~?@c~nF~~n}~~|v~~^~~mz^v~|y~vz}{\^~~y}}L|^f{\~p}n}zgh~]T}~~h|}~vnvV~~m|n~~vx^N~l~~|e|f~w{mz^|v~z~~|~|x^~~yz|m|~zn~mh~~~}z]nr|~}~p~xfJzbUyT}~~v~}z|v~f~nNR^}}j~vxrf}mnnv^^~Lnx~Vw~~d~|Z~~vvM~~zY^l\zr}~v}n~u~f|f~v~rz~NElnzrX^^hvVMxv~P~~~nhn^lf]lfzt~{~d^N^u~uv^}vbDtudvzmzvfYp~z}f~n]j~z^lrz}njj^~e^~~R^vZ}}v~|nFiux~Z\~~y~}yly~VZvE|x~y}~~~~}~y]n~xuf~n~|~zi|WNZ^^~nv|~^~M}^m~Tszz}~v~Z]n|^n}~~~v~lx}n|v]~~v~u|\||z|z~|~nn}rj\nfnfy\~\k{~z\vZjvxvz~|yj^vf~y[^n~~^~|~{~~n}vuzm{Z~|u}ZNznHZFl~w^z}T^ftv^~nv~^~|}^jY{}~|x~^l^V~xy~jlvpzU^nj~n}\{~~N~lz|~~\vz~zrfnzZY~~}f}|}~~v~Lj~~zt{~ntm}n~uz~v\^|~lP~nN~~~~~~~v~~~yf}a~~}x~vd~~b~|v}T~|w~^hm~zV||t~zvZ~~z|~|U|^ffn~}^~}^n~~lz\zZzt|^~ia{~}^v]~~{~|~v]r|}ZrZ|~~f|^y~fr}vzzz~}}ulv~^~^~~}^v~~Lm|^t~V|~vcn~~ujltm~v~^XzRn~^V~}mlnr~zlu~}xn|sU^v~~|Ez~|^|My~~~V|ZN]xznp~]|^}}zv|~mNS^}~}q~Yy~s~l|~n}hl}zz~~ln~~,False,0.0093410015
~?@ct~~rP^n^mzn{V^~N|^^Z~~]~n~N~Z~q~v~nYV^dpzzN]x~~~~vu||^|~fnV~~u~}lh~|n~jvken~z}~vNzknj~~y~~u~lX|s}]x}zf|uv~nnzu~v~zn{~unZPurn~~~n}~~|yjzNvn|~W~}|~~f^rf~~|mr~dVr|T~t^v~|v|TV}{~~Zf|~~~~v]~~Fvmy^XfnpSnyxv^nl^~~|h|n~~zz|^^Z~~~v}~~fVx|~~{~}v|u~t]~}~vV~v^{|nvm^V{T~Z}Vvc^~ry~g~^j|]uzg~^~r~N~^pvzYt~mv|v|~nzsu~l~xnDn~unv~~|zv^zu~n}Vzuz|jvz~uxz}~nZZm~m~Vi{}Nn~}}~sx\~f^^v~m]nf~z~~}R^nt~m}l\~||^|~zmz~rvr~{v|^n}^[v\Y~~~~zm~]^t~||u|~v^~mvv~~|~~|Zt|nI}~~ltpl~|fVn}~mfeN~y^~vv~|~v}z\~}zz~~rzu|n~}~zu~~}Yf}\|jf~~{|K~~}K~\|^|m~~]l|zvmy~~n^y}yy}^~~ym~vt~vj}~vz{~pi|Zn|[|v|{~|mVv|u~c}}^zv^~\u|z^k}|~v~^~~~^|z|mknv{]V~zzn~Vv|`~}~vZzv~lrrv~fNz|^~\nl~a~z~rJ~~|fxV\~]m~^~~}zN|~^ZVx~~]q|z~v~r{i|M~N~kf~l|~}`vt~~|ZNMvK\~~{|eK}~|p^~~vz~vlv~ms~[|Np|^J~}}~~^n||oy~~yZ}\mwrwn|{~~|z~m~||^~nJV}~vtj~^~m|~z~~vmnfv~~fz~|~^~|||m~du~fuj~~~vU~f|}^np~dznvns~nV,False,0.0094070435
~?@cVz^z~|z^^p~nZ~zNvv~~zj~}vzkZ~iv^~~sv}~~nJzvx\~|yZ~n|n~N^^]zvv~Jvu}nu~{z^DZr~~z~~^}~nzKxVvn\PzJx|k~^~~{w^{~~~~~^~~~}~l~~ZTnv~}wnvUZ~}v~~|~R~f~zvT^^~~^^|~Zu|z~^}{D~~lN}~~u}~}pQ~~}mvy|~vNt~^~R]v}v|~~|~|}nu\^~~t~~~zzv~~~~sv}n~T~~z~~setZn~|Z~mv~Ln^~}^~|Vxv`~t}~f~~zNM}zl}{r^rz}~t~~^v~v}}|v|ne^~vuU~]^Rn~N~yVXV}vK^~V^}yf|~r~l}[z\jLt|V~^y|v~kNnRu~^R|^\~~s~nn~Ul{m~flF|~~~zNn}ht~Zn~f~{}~r]~~^zt}z^v~~~z~m\]nUL~~j]~Linxf]^j~ZnX~~n{Zv}~zz~~zz~x^v~~|}|^~vnn||x|Yzy}~|}n^jV~^v}B~}ZvvivvJht~x~j^Z~zn}~^}s~tl~\xn^nkxv~y|Vz]zc~~\|~~n~mzF~z]}V}r}z]~^~~~Zv^N}vju~]j|n~~z|^zrzh^~~~~~utZt~}^llzi~]vcry~]zm}^v~fx~Vn~|~^fnffl~~trl^~~zl~~v^~^~~~~~k~t|~r~|^|~\~~z|z~~Vavfn}LNMn}tTBuU^{T?Lm~~~^~{~lavvl~}V~~{^~J{z}Y]rrT~}JV}v]n~svzNf]jj^~~\~sIl}~|~^vzvmvP~~f~~VzzV~v\~~zz}zzvv~||Zz]l[v^~~f~n}]~ckVnN}Zd^t}~}]}z~~]~w^u|vvv~~\z~x}z^~^^z|~~^}~|~mv\k~~d,False,0.0094320774
~?@c\v}l~^~~WzMqh{~~Z~iJ^vz~qd^u}nz~^N~l~vuet~N~n~~zv|vv^~gmlf}xwrML~^~\NWRz|{~rVjz|^zf^uyyn~WjvsTvRw}|~~~~t~{^z]|}IN~~~n~{{q}|~in~~zr~~^~}yn~R}~~V|^~f~]^~^~z}l|zNFY~l~tn}nz|~t~~xv\~|~z~~|]P~~~vnnx|~|nm^znZh~z~lfV|]~zUxrN]|n~^W|~~|r]|vTvn~~nrfz}Xn\~zzvvzlnl^}x~~^l~~z~v^~^~v{v\]N^Ninv}^t~~z^~~Z}~H]u~tzvn~~Lq~^~z}\J^}}~v]n~~|zV~\~~^~wtN|~}nNj~}~n~~Nh~~vx^f~~\~~^~N}V~vV~~^z~|NJz{v\z|~z~f~g\~~~~J}~~]~zvlnn~jrn~lv{~nn^|R^~|^v~~|v~vu^v}}~lvnn~zq~enz~luf~ydrmxwz~V^~~ln|n~|y^|~|~}^~}k^~n~~~~^v}F}|n^K~v^|~S~~~~rz^|~r|~T~~l}n~n~v~h{{}x\nqVf~e{v~~U~|^fTn\utV|qz^vNz~~|sj~f}~di}Zvzj~uzvz~~\~Vn~^lnn~~}n~vn|^~zv^|vu~v~|}sj^u^Z~V~~l~jz~~~~nvVz|~V~~~|zua~|~}^nrz^guv~Zmh^pVlM|~~^}um^|Z~l^m}f}]tnn~^~vV|~~Tm^|}e~V~~WVY~}^bMn|jzO~v~~h^Vv~BX~|fs~\f~v~~nq~{vjvrs\r~l\m^j~~~|~v}~z^~~{}xn~lVm{z^~r~^mNd~~~zn[vl|v^^\^vLn~n[x~z^lZ~~z~hv~i]v^JRiU~,False,0.0091609955
~?@cL^|~vn~V}RY~}~v~|rLz_~x}xz\~x^~lO}n~~en]|nK|zn]~^}n^~~~s^~j|v|~}\|~rND~\X~~{euz]vn~^Fujy~|m}l~zz~R]|Z}}fnvU}~Kl}^\v^j}~~~|}~z~z~NXTf~\|v~vt~~Ty~z~~~vN}lzJ[r\\^~Wn~vz]~||~]mvn\nu}z^m{}eunnz}{~h}}nl~~vZr}v}v\~^}|un~N}tR|~w~~v~~|vn]~iv~z|~v]~|~}V|uy\}t~}X{vl~~}V^v|Zvjv}~~z}ntu|~kl|~w^tV}m~^D~^rv}~x~v~~~}r^V|~ql~v|~~zz~n{n~\\z~|y~m~~~~~~Xz\Xz~v}\|mz^^|n}nlJz~rz}|~t~]|zv~ntz~~J|i~r~}~~}v|vrl~~~{nvt[|v~y~frNt~^|B^|~V~~{|v^~~nnm~V{~vdRtY~~|~~}Zm^k}V~mYly~m|}xzl~~z|}^n|R}zn|}d~vv~]~~|^Itz^~~j|R|~~~nn~j~}Ln~zv^|^X|}vzdv}tv~Yu^^z^n~otn}~}DLZ~\Vn}~Zz~vz\v~~~Lkv}x^tn~s~}~Zn~x~|~]~j~Z~}mx^n[~b~u~}]mv~|tm~rrntv~}zx^jw~~|^~~}tzz^~\}}~rA^v~~^u~|zluDx}`~jt~v}z~n}^Tz|n}~[m||pq~n]~n~sJ^n^~tzxnb{~^min\nz~~v^~zvl|n|t^Z\z^^~~z~~~L~}v~^|rv}m~~v~nv~r|~}if}Zvw~~|~zz~~nzV~|}|s}z~M~z{v|~v~~t^}}ms]z{JZ}^~~FXNL~~nluf}Unf~nsNn^~}~~~zn}~lT~v~t[,False,0.0094220638
~?@cTm~k~~Z}~^~zn}v|muf~vv}jfq{~zz}j~u{w}|~~~~z|}~}~z\}|{ynr}v}~~~J~^~~vv~^||~Z~nmnn~~~}jNz|~^Rvz~^lVT~~\~mrnlinZt~~~^}nv{^[}~t~~~~x~~z}x~zJg~nmT}~~~~~T}|m~\~~^}z~t}~X|}vJ}~ezTn~t~^tj~Nnn~~x}^~~^~\~zw}~~|}F^fzal~zr\~Uz~ynnN{^]l~N~}Yj|wr~}z}}szljv^u~]m~vZnynxjN~t~uv~z^Cfmhz~V}T^m}u^z|y{~lv|}}\^Xnv}V^vsy~~~Z}n~l~~vn~z~~~~mzf}u~Z|~vz^}|iz}{~HMz~j^{ez~r{uv~~^}~Vzfn~~v}]w]p|~fya\}n~v~}~v}t||Y}~}yy~^z~ult~^Jn~lF~{T~zy}}Qv^nv}z~~v}F~~zv^z^}c~}tnvy]~fZl~^~zn~V~Z~}mJL{jfz~jzrn}vzN~~[v{zh\nzm}R~i}rvL~~~fnd~v^z|~z~Ztrz\|}~}~jz\Tyvz~n~n|w^I~~rZNz}jz^tue~nz|~c~~Y^d^hsmU|^^~}}{~~Z^~^\yj{V~zN^vz~~~y~v~\xv^|mztxnjN~~~rl~~^~jz]zm~^~|zv~^n{nv[|~n~^n|bnlu~zz~}ztd|v~nmfrnwvnyZ~~zy~~|~Y}~nyfvnpnm~z~j}ntn~~^{~|lN~n|zns~}~}p}~nZ~~|~~k\R|~n~v~rrf~~xv~~~p}}~~V~{Y}{v~}tn~zn}~z~vJ|b~nh~|Wu~j~~nv~vvfb}{~~v\]|U~^}^z~}L~xkV}{^zm]~~~|~X~tk~v~AZvzj^,False,0.0094349384
~?@c~zjv|z~~|qfzzv~n~Nyz^n\~z~~^I\~^M~}zx~t~~~~}d^^nr~z^}lTwj^}^~|^Vnn^M~z~^N{l^|fm~v~Ln~~v~~z~|v}Vnlz~Zz}~~~^Z||yr~d~m|Nzzy~v~z\Uv~~}v~xuyhv~YBz~y^~v~~~}v\Y~~dVnN~YzN\|nLp}^~yv~{~n~Ly~VM^zse~|~yU|Jx~|{~L\~~~}N~rl~nY}^W~~t\~z~yZ~jn~nv^}||Z\MznL^bZ~}~}z|~|~^v~~z}n~t^|^u~~^mV|~}~nznR~~z^mZx}z~~o^~v~~j\~~zjnMqn~JmF{~~~nnz^~tv^VP~}J~jXz}~}vljrvvp~zv~f~~l~f|\}|~}yyts~nn^Tn~uv~rn}vt}n~rEs^~~x|n~Un]u~jx|th]Ufz}~}~v~f}}}v~R^t~~V~l^}vykt~V~~knvNefV|}Nnx~jzd~]y~~}l\|b~xgnH~{\S}es|Vzn}}nr~~{|v|^}~~}~nv~Vy~j^vu^~xn~~}~~nql~\~mXR]~^z~]^^~^l}^mx~~~nz^z~\l~~~~y~~^|fki~|~izz^j~V~o~}^~}n~~zvu^Z~~^~N~^nz~y~V}~~}zf~||^vmrtvm{|]{P~}n~V~~}]^d|q}z^P~t~}v~~u~zr{~Yn~s~k~~u~~n~~~zzTV}\~t|~VU{}~~Vzm}jSvxvz}z[J|~~^]~zzk}v~vahVr^^^V~m~~|~u}yj}~~~njv}zt~Mlv~~mZmv^U]fv^~~xu~}x}n^f~}~~^v~|vZxznZ|z~^xj^l~MvuZvy~Z~[fvu~v\tm}x~~n~]}nUw}~zvr~}y]~}~z~~w,False,0.0093250275
~?@c]n~nvnVj[m|^Nv~^~~tMd~~l~nVyzn~~^b~v~|~Z~~Rvv]^]vpBL^~jjV~fff~~~l~u~rZm~~yw~Zn}{~yzv^~^r~jr~~vvNxj~~F^V~m~^~N|j~V~R^j|n~z~~|i~~uw~}r^zv|fm~NU~r^y}}}hXx{~fzn}~za~~B~ff^~tn~y~zs@~Y^|n~}VnLf~v|~~~}v]~v~z~~y|Yj|z]V~^xztxZ}lh~~~{[~ZV~~~^~z~]^z]~|Z~lwtx}~~~l~^tV~~v||z~zIVzz^~nmZT|}v|~a[uz][}~f[VFjVn^Z~vm{~n~V]|u^~zv^~}vzrv||}vhX^~~n{zNZ[nSd~|~v~|ZZ|VrN}vZX~pl^~|hrv|U}d~vu~~vnm~D~^L}^z}nN}~v|^~{t~~|y}~Je~xbzzj|Nw}~x}q~}{~~hyl~I~fM}jx~~~qzz|^]~v~}zFnu~~l^Nxy~~r^~~^^vn~vN}zj~zF~~mX~~}~^~^z~Sm|lNv|~~vm^v~z^}~\r~~nllxn~~r~Nj|zvNrn~F~]fV\HdV~~u~}xuvZ~f~~u~m~ml^}~n^vV^rnvr~~|zt~nx~~~j~~]z]}Vr~vz|nz^~zEFv~n}~L]~zvT^~p]v|~|fz^vt^{~n||~~^z~vz~vl\~~~y~~f~||^~~tz]{k~n^~{~\k^~z~nv~}~vUl|nZz|z|~fN~z~^|~vft~~]~~~z~|}yv~z~~\L}tym^~}~r}~~~|hvb~}}lX~nx}{z}|}~y}^^^~^Nxx}|~~Vf^y~v~rLvnnv\~Nr}^}~fj^~~vNFxj\~||lvvnUzmv}~j^~~}|mt}N}u~[v~z^\v~,False,0.0090389252
~?@cnnn|}~~zzg{^~xlzZbNnv~L\f~~sNvzy\nrmvr|jf]f~}kv~[~~u|}x|\}x||^|p~fN{|vU}~^~][fvu^Mv^]^^~}vlnNx~j^~~|z~x~n|T~J{~{znr|n}Y|~~~o^]^]~x]]LZn|ly~~lnu}}\~v~D|}n~zY~Knv^ykjvk~^~nrP]|lz~q~sn{~~^V~v~nzz~Wez~~Y~Tn~~M~~vl}^~~~t~~~zr^~^~z^~}~|y|~|nzn^vizuNVz[nn}~~|zv~n~v^h~f}nL^~yz^vZz}}~p~~~^~Zz}~~[nmz|\^\lurv~hni~z~n^z|f{}n}M||~nzn~j^~^^}Z|}^vV\z|^^]|~vl}~~l\]v~~~^x~zj~zZl~{~x~jnxZ}||f~~U{~^|}v}ZvTtyn~~nzYR~Ts\tf^z~|}~S|Jx~|zjv~~n^V~~z~Fv~R]Z~^lr|~^~jzv}v\~~|ur~~Vj~{vs}~lq^y^^mv}|b|~~~~x^vf~V}Z]V~z~~VJ||nnznvvpv~vVem}N~|~~V}|nzv~\Z~~~vm}Y|^nZ~N~~Nz~v|c}H|~u~yy}n~t}}z~^v~w~t}~~aY~Rxvuj|Vy^VruFu|{|~Z~l~l~~^~~zz~|v~uzz\^~Yzn~~]~}v~z^zF}^nzg~xvmR}n~~J~N]~e~{zzyf^njy~|tvvs~~v^n]v\zz^~~~z~^zq}^f~~v^~t}by}}~~^zn^|ffy{v|~z~~n~vz}^v~c~v~~\x~j\nrvn~\U|yl|~}^F{|\z||zvyy[zzn~jz~~~~}\~jv~tL|~~Lz~}i~z~VV~~nj}]~jZ|~~}~|u`vzv[u~NZ~x|~uz~~nn,False,0.0086519718
~?@c~lzNm{m~~~z~}~^v~l~vzz~~vznl\^}|^}n|yx~vfnB~j[}~}~z~yVf~Z~^~z^zzl\Z~|^ZsNt^~uig^[~^z~|~v^~V|z~{}~~rv~`y~|z|\|rjvw|j~hv~nz}\~nLKm|~zv|nMr~f^|{Nytkb\n~~~~|~]~~Nrlyy|~~nNyvH|vlm~}NUntl~}~vtn~n|^v^|xyv|^V|~^znNn~~^z~l}i~}^~~~~x~vy}^l~N|n~~p~~~vm^^nv~}^z~BrNv~y\uj~^|Y~^K~}z|Nj~~}}N~x~~]|~NN`v\}|~~vvX|~Y~R^~~z~}^~~z^J^t|u~nB}En|~\Y~|T|f~^jMx^~lu}~NT~}~l~^~i~|~jq~~fzyn~V^f~m~~^unye~~n^zx^~~\}l~\v}^^~z}^v~|^~}^T}yl~~~t~x}Yrx{v~z~^|~rV|vzn^~mz|||Ft|Zf^]^j~~^~~njnw}]^^~n~[~}~~~v|tNm}|~~T~~~~|x~}nrNzz~fnl|~{~~ndXTvzfq}~~^|d||~{~t{x^|{}r~||}ZXM]^v~~|\Zz|}v}yf~ImZzv^m~}~^mr~|~no~kXv{~wu}ZFv^t|~Ut\~f}fv~u~}~z|mz|~~d}ti|~\h^v~~|f~|~|X}~~\znn~v~}~~^~xVz}~tzdF||lFj^~~R~^~~~bx]zv~~n~n}^^}nu~~~x\^~~w}e~ztZz^~~vsln^[Z}~^~^fln~x||X^n~~~|v~~N}j~~\|o}~v[{^{nV^^ej]~Zf~nJJn|vZ~f|v|^^Zznm^~Z~~~|xn~~}h|^_^l~N\^^lT|m^~v^azfNsxn~t[]r~^zf~~^vU,False,0.0086460114
~?@c~m~k~m~~~nr~~N\tmN~fvgWnmZnw~~^~~N~z|{z~~jR~|jtn~~~^~~n}|{^Z^~u}^~tnn|[vrzuVj{z}]~~~]z{V]n\d}^^}~~~z|fvv~Vv|~s]~|~|~~}~~Zvj~v~V~|^t||}}{~~||~n~~^txvnvh~yrxn|lr~mU}vvn~^{i\~~IqnNpj^Z^z~~nrvuz|llv}~jnNfzm^vn~u~tyY~v^{x|N|y~z~{~~^vf}}u]h~zZy}rt{~ZJN\~Tvdl^zYz]u\y~~~|v~zzn~~hnx|ZnVzn]Z~N^~|~~y~Tu~~}~Z|~}||h|~v^~}~}vz|~v{vZ~|}t}vm{P~NJ{~x~~Uvv~w~z}znx~~~~|^~~~~zusz~z~n|vnz~|~v~}v}~^~x}}f~}n^~ns~|~~~~S}|}q}|x~v~f~^~v\~}~zvv^m~ns~kVXv{^~}z~eT~jt~}\nzm~~z{~F}~~~~lz|||^|Y~fn~~v~ul^N^~~v{~\~~n~z~|vn~vj|J~}~f^^v}i~z}~^n~~~r~}n}^zl^}n~n~]~ULz~vf~B~~Vuy{~e|Y\^~lbvf~|n~n~v^jm~j|~nb^~}c~uzfm}n^^~tv^~~|~}~em~~{xvVZ|~Nuyijpn}^V~h~^qfx^y^{tvuJ~zQ~X|~~}zn~|Xv~nnjv}}}Nyt}~vumzvuN|^nr}ndZ^~^~~VV}zlN|}~XFt}|^~~|~Vfvzvmz^}}Z~~n}z}d`V|mbJf}\^~}zfkvnL\pdntln|~~b~tz|~^|jZ|}^{~yNw~|{yX~~\{~vGv~}}n~M~UyTu~nzu^xhz}x}~^NN{~ntn~|~pUjvZv~xe~}t}|,False,0.0086960793
~?@c{j~|}O}z~h~~}~zz}j\J\l|VNv~{\~~Rd~}ZZl^Z\~~~ruVv~~~|n~F}|~~||~~|hl{mn~gl~g~nsnnx|zL~~~v~Uvt}~v~k~zv~z~~m~v}|Jz~xp}~^h]~vf\~e[Tr~B~^~~~^njnzfz~vngz|^^l|~|^Z~~|}Z~~v~~~v^~~~fvb~lr^}j}~~n~~~qu~]zx~^n~~~]nyXZ^V~~jZNzk~}ezz~l~D}z\z~||hv~~zy~FF]^^U^|{^~}~nn}zn|j^m||nnf~xm~vN]~mv~|~{~uUM}}}u~^~~~uVv^vuzvvq~~~}~R~~j~^~~t}n}~~~v[vVu}vMZ~vx{~x^~N~[ff~~^fnnL~|^]j|luj}R}f|n~~~~~~v^|Zvl~vmnn^~~~ul~}z@~vN^nI^~jzz~~~Fnln^vl~|LeLn~j}LV^XLtv~}rv^Xp[]n~m~|m}~v|n~t}}z|{~t|nz^vz~Nn~N~^~\]umV^~rvjn~~f{^~~mly^l~~m~vhfL|y~x^]zz}~Z|v~~n]|xvY~u~n}ZN]~}~~~n^Mu~{~}~|x\h^~U~tv]n~|^~vd^}~v~|~R~ndbn~~~vV~}~n{ree}Vsn{{n~~wG~vymxnyv}Z~~lv~}z~jy~~~~^z~v\~f~nv}nr]vnZ}W^^~v~~yn}|n~z{}~zf~~n~~~zr~~n~r~~]}Xi\]mmXN]\rjvfwfr~^jfUv~^~|^nVR~~~zli^^vv|um}~~nf~v~ltt~Z^~~|~}~Yqnx|z}dv}uuRvV~x~n~h^]^~~~c^}zN~ndN{~y|x^~Nnvn~~z^~j||mxz}v}zvnnzln{}~m|~vSvfnXLvV,False,0.0086460114
~?@czi^x~l}nn~L~n~~~zNkN~lnn|s~tn}}nuU~~^Z~~~~^Nv~vZ|~nm^^~~}~~nzn~~^qzm}vZyFVVdjm{~Zzx~fv~V}~j~T~~^hRP}n~z~{[v^vl||vZZ}~~vm~my{~m}zx~|N|}V~^j~}H}~{Vv|~hx||R~~z|~j}v{V}v}\~~~fznZ}~UVf^~zz^||K~j|~}|~}r~~Z|j\~e~zzkvnm~~LNjz~~~v~n\tRnN[^~^|pn~njl|~|t~^~xS}~uz~nmm|~zl{}fYnd|{}zUNnh|~k~ye}}f^}~Z|~z^~WV^Mzv~rz~~z|J}|\z~~vNNfnmvz~jpdjt|~nnfnlj}~{xj|nq|e~}uzn~r~~R|t~|~fnz|~\nyX~~y~nqz|x}z^^v}^}{Mnn^~~~X|n~zR]~^~~\j~~n~`~~v~~}]~j~~~|vmoteu~~uzl|^~f~{z}}Xv]lJ~fRv]|Z~~t}v|j]}~r^l~brvwg~jy\z~~{J|~]~~n|^v{unx~~|^~r~Y~~~vv^^m~^~^|~vv~~~~~tn]]~YvuvnZ^}znyztvz^|n~Nxz~nn~nS~\nz~az^rn^u}|~~xx~^vVs~}^ftzzJnV}~jvt~|jJQ\{^~}~l~|v^z~z~|~~{|n^|z^~Z~{~nnvn~|w}xze{~r~~znk|x~x~f\j~|}zz~jtr\n~um~]lv~~\^v\U~|rv^}{^~}VJu~~Vm~~~~~vn~^nt}~v~~~~|\v~}L~z~Yz~i~}Ynf~^|~]l\~{zx^|v~|zl~~I~QgZ}~~zl{vm}~y~v~}n~v^}~~|XnnNlu~~n}vj}uuf~n~MNnhd|{v~\^^|hlN~~~Zn,False,0.0087139606
~?@cz}v~~~~~]}N~f^}\n~u~}v~|~~~~w~NY~}~MVn~vj~|vN~~\JLlzN~|T]~|xZek|ZzzwZ~^uOwly~~]~~fnzVvx}b~ll~my~|ym~~Nh{v~}~~^}zv~v~k\~}fzl~]~v~^^dryn^n}n~svy\~Nu}ny}mr^~~xvzy}~~|v}~^l~~^|]}zf}sjvx}N^Fvhvj^]~~MnNjS^}|v^||V{t^^wzNn~rrN}z{fl|~l~~|f~z~p}^{n^~^N~~NU^zuv~H~}Vj~vZN~~hL|NnsnzG}{vz~^xzmfmt~r}n~~zun~y^~}n[|}}Nhny~~~ZMv}nnh~~|V~sNp|r~JunzaN~l~s|~~|kvt~~~v~N~r}~iu\}^mb~|n~~f~~v~]zvf|||yz}Vnz~~~Vp~~Vr^H}~z\~f~~^z^|}{~n~~vnN|~v~E}n~bz~{}FYjr~|y|r~~lJ~n~~m~\i~znv]~~v^z~\}~}X~~j^~vj~vz}\z~^tnr\nu}^^Zzz\M}E~~~z~}vV~{~~V~mr^~v}m}Zd\|{~~~\nbpM}~~~}Jzlv}y~~|Z||n~Yvt~x~l~^vV~~\~~^v~^|~^z~}z\~l~v|~|v~yz^zvz~rzv^}UvZ~|N\N~zN~t}vm~~|vjyz~~vVv]\x^~n|uz}|m~~~y~~}|Sq~~vz~~~~[vr{in|r|}~fL~tf~R~}~~n\~^n~~}~U^Znv~|nl|Vubj~hovv~z|]~vj~|}JZnl|^zz~n~e|]zvu~z}|~l^~~^Rv]n^zzMV~|Kzv[^yzv|nVh~vzv\rNL~~^|^}z~}~~~nxnf}vN~v~~jnV^^fnn^}nn|t~~z|V~vz|ESh,False,0.0087161064
~?@c~n|u~m~y{yUxn}~v~^j~n|}vvvRz\~zvenu~~~]||~t|}vn^vj{]z\}~}i~nr~Ztjf|f~~~jv~j~v|~~~}|~e~lVrvrx}z^nz~Y~v~f~sjz~\v}w}~n^^|^]y\]~v|}uL~|yn\vvpn~MZ^~~n\fp~|^Nr^^}}zl}~^~~}~zntxj{v~n~v~~UzsYb^v^yhv~n|s|k~Z]|n~|~jr|z~|nniyz|~zvpn^|}}n^z~xV~n~}{zyV~~~~lnV^|~m~^^~~z}|Z~m}z~v|nVVnNn^}q~n~v~TZx~~~~f~~~^~BzzN~~]~^~v^Df~}~Jjyylzr~\~}yn~Z|^~~~fzt\}N~d~v^}mt\{~^~v~u|~\vn~w~}}~zz`{~|m~}pz^|~~V}zzjvnu~u||j~xlnvVxj~v^~rzyz~v^Y|nvnW^kRjn^m}x|Nz~mn~f~vyv~~~j\[v~{|ly{}{n~n~~~~R~}bz~~nnZ|~v~~~zz~v}vv}||~l~~|pzZnNwj~|e~zf]z~Wn}~]}|vvzXT~v~vnvzI~|H~~^~zmfdMz|~D|f~~n{yz~n~~nfnxXzv^~{v\~L|~{|l}b^~}|z~^vzj~nffN|^]~M~^Vn~}zu~_u~~[njFx}yzNn~f^~nF~B}^u{^t~~s~v~}t~e~n^|^^~rtn~r~~B|~n~zFv^zvvljf^Qbn~}}|~XV~d~|~l~U~mVj~~LkVnZt~~mZ|~n|}v~~hyFZn~nmZn~^~\~}u~mS~M~~zzj}~s^~^}~~vjnlv~zr~dYnVqjz~~v~sT|m~~|tr~~njX~m|v^~~j\t~{}zl]m|~~|~~y~[z~|^^X^~D\nud|m,False,0.0092759132
~?@cl~hyn~^y~z~y~Tj~~u~mv{m~hvr}n^ujyz^fyy^~||nz|~v~}v~~ztrnvv~n||~}sve~^n~l~n^~~|~s\^Ntl|~|~~vjzvz~~}~p^n~}~xlvi~ynz^}p~ZN~vm}}~~nN~}\v|Nt~VlzZlyvXmjz|~~~zu\|^jwV~Z~~fzE~~n~~~{}Vz~zq|l|nn~~}z~mvvzz~z~}~~~i|~~f^rtu\zvzv~v~mm~z~v~~XvVa~j~{~u~~qpZnvmv^n~j}~}]z}nz~~~|k}Ue@eZ~u~p~MzV~~~~\~}~|{~~\}zNpE~u\z~}}~uT~{^zllkV~|||zt^Y~^T~||v|z~^|{}vyzn~]z^^rN~zd}~Wvm^v}t^~|tv~Zln^~^j|z~}\l~v}{z|vxvf~X|}^~f~nlu||vw~Nv}}hn~\yl~~J~y|lT|~^|~z|~}~N~}^~mxn~~l~NrZn~zz~t~l~~z~ozf^~\V^~~n{zj~}^V^x^mimxJ~~zV~T~~X~^NR]yv^vf^n^~v~r~vzzvvY~zvl}^}tm|~n|N{R^ypv~~}~yq|tnJznfn~|mqM~}u^V}v~^|}~vxv|MX}}f|~~h}~~j~~v~^v~tljztn~~~t]~f~y~~zvuf~^}n]zrVY~~zj~t{~u~Uv}~zvv^~y~|x~n|xfJV[~]~|}j~N~|~~}~~~|^|fkng^|m~zln~^ipznHoR~z~~x\~~yNYm\~zN~^fUrqzpv~\mT~Ul~qvv~{vdnv}}zvv^|~~znny}jnu^~^|mvvt~||yvx~~Fz\^V]rvNiv~yz?v~}uVnx}~|^~}j|~[r~~eN}|}[~~v~~x~}~~~{~}]w^~,False,0.0093028545
~?@c~N}pT~~}|~~~nxxj|xu~~y~zn^~|{~v}Numt~z|Z|z}V|e}^~mvn|nv\~|u^u^ejn~~y~Nr\m~nn^v^~jZ~~v~^~~x}|nw}n~^`uv^~~~|z^m~x}|~}|mrv~~t~|^~W~}LV~r~zzr~~n~~z|vM_v}nyvbn|y~zx~~m~|m~H~]~~}nznR~~Nn^^~|ZunZRbvvy~N|v~vv^~~\~zx~n~f~}t~}x~~zxV~v{i|^x~Jvx~|r~nxl}v~v~~i~|~vzNn{j~z~bv~]~fl|lnXj~z~^jU}|v]~ffw|r^vvNHBny~vN^~~D}z~z~n}~Jf~v~}~jNnv~lk[{^zz~^^\}~}~v~|}v~^~j~~}^z~}|f}z~~|~nh~||LQ~~~n}}~}~}^~r|~}~zt}~}]~n^N~~F{|eezvV~\f~[~nL~[zyZx~~z^Uz]fv^xt}][|~U\~uyj}u~jf~nz|~m]fT|z}kZ~r|}p~fq[v^N}j]z^F~^~j~~~nz}~^yll[^~r\NNuv~nuezyVzt~i~tnx~zz\}lvz~~}}~^~m}r}^xz~eb]n~~tuul|^~~~v~~~ynr}|~^~zfl~}|~~~n~~n}z^}\J}\v^~J|~^kbN~^m|~l~~|~^|m~\u~~~rvv~znTnclrxv]v~u|~Z~x~|zb^v~^nRreV~L~~|k~l^|~{ft{\~n~^z~~vfyqbv~z|^Ve}Vzn~||q~ZY^~zn~jl~u~v~u|lvnzzv{LzmvN~u~nxv~~nr~H~~Vv~~~~[vzksmm~~^}~s|r}y|hfv^N^^lznzvnfVv~xF~Y|\~~^xYj~t}{J|}F~JW|~|~}~^~]n]vztnZ\uz~yn,False,0.0093390942
~?@cv}ll~nt~tmm~~~v~^lPvum~r~vn|nf~~^vy~~^lmv^|v~~~|u~v~yuv]}}z~~}|xZ~~vz|^z~~yn~~N{^vjhlemrjn~z~T~^fzb|~M~z~z~~z\Ylxz}j|^~e~zz~vlwjqv^JnBy^|~v~pvnv~~V~fT~ZLz~^^}|F|Z~N~N~m~uz{~h|~~m~f|~}ul~~Zl}n~z~\gzzzX~}~v~vQn]v~vr|lrV~~f~r~n~~~rev^zvve~^~jt|||v~vlv{~dd~D~y~mv}~pvFmmvq^~fuf~}^]vnz|M|]^~V\N}x~en~]n~vm|~y~|^vu|~ct~nnYu~}v^n~{~~~~|{~~{m|y~~~U{~~zmzVzuT~v~{~|zv^nu}~~yv^{^nuzd[llL^~~l}}vz~xzt~Z|]h|vinX\}nM~}r~|Uyv~~vy|~v~v|^jk~~d||~~~he^|~||~M~~}]^^jze}|~n~vyVXj{~n|^~mr~{l~}z~jtv~}zDV~zv|vbsMb~~~y}^mk|~^|NnZzvNX|~n~~~j^VYv^~~zsnenr^dZ}||~InnVz}n|~U|n}}Z~V~~f~v}^|~}vnxf~\~~~|~~|~fZ~~|~~y~}v}~^rN\nn~~}j[~^|jm~|~~y~^WZ~XR~|T^|~|~u~|~~|^}^~~}zv[Xm~n~qT}vvfv~nypn}~k~~~mnNvf^}vr~nx[dT}~~^gnzu\z~mj~y~~~Yt{~d~tz~Nn^n~n~z~r~^~zf^~~Mz~{|}~^x}D~V~\|~}S}zvn~]r~R}}Lw^|Z~y}uxuZn|~Zt]js^|nv~n~~Yvv]}]~~}|znz^~xznNXj~^msU~^}Vvz~s~~zY~~\,False,0.009321928
~?@crxj^~y~nmn|V}x~nz|~]~n|~tVd^v~zjNwxM~k~~|nyvm^V{}~~v^}}mxy|z~plzle]n|vx}svzz^}^r~zlr~z~vJ^yM]h~~t]s~~~L|~}}^n~N~^Nt{~^rm~|\my@~zVy|~|vU|y|\~y|~~~v}}~~~zv\n|^tjz~E^Td|{z\Nnv~~v^^}w|svF~^~||~^t|^ik~}~}v|iv^{z~Nv~zb~|nvv~z~Zzx~}~^|~Nvns~LXn~J{nt~tVvfu~v}nn~v~Tz^~lrP~uxTjs~nNz~^~~}J^z~~}z{m|v~|yvn~~Z~~y~~y~~~]^~~n~|~{unnv^f}~~zv\j|s~P]~i~zv{n~mmy^~f|~\~m\|}~~Yn}zF~~}~m]}v]~~~}|qr~\~}~ujv~~\~xVE|]^~nn^vtv~~z}vV{tku~|rnw|~t|~|~|nNv~]~n|ft~v~M|~~~v\Mdn\uz~k~{xLzU~}{zzzxM~tYLZ|||dn~}~^zbb~v^~r~D|}j~~}~^^^}~zZ~zzz~~~|~~z\~ZzNz~vet~NX|e~~~~~zJl|]|ZlV~n~~~z|Vs|}n~l~f{jq^]~n}p}}nnnn]~Nn~~vy]n~~~z~~^n^|~l~~Vz|rbltN~vz~qn~lJJ~~x|^^^u|fm|l~n|^t}|v~v^~v~~xvn~}y~[n~~tznZ~y|~y~}z~QZ~ni~^Z\zFvvp~l~}~zl}kzvN^{zl]u~~~L^~l~try~~zSz~vvVx~{WT}~tz[nj~Zn~|nlv~l~^Pmnx|}y~ux~n~f~zvlTm\~~~zV~^|nT}~{qn^~~}~^]~~~f}u~ux~^]~u^~|x|^Vy]~vf^|}|N}{~N,False,0.0092618465
~?@ci~^]~~kz~~|Vm~~~vz~}~t~n~ntztnt}V^nun{~~~t~XvNnu~T~~|~n}ZxazuztV~{`njN~v~}T[w~~[~mylf~e|VTzqz}~~kv~jfvzt|dfw]xn}u^|~v~~N~Zybh~Xvv^~\x~~~]|ny^~m{T~h~mvvUn^~F~^|r~{~~d~^vnz}n~NN^Lv~n~|n~~v~b||~vO^~~|~~R~{~k~n}~n~~~|v^\r|^\~mv~^vzl~~j^zrv^~~~xn~|~|~VJ^z}[~rz[yn|~~|~nv~}t^V|V|~^vN^n|j~n}z~iv~NE~t~|nv}^m|j|}NV|fw}z~~n~|~n}vubrw~]v}~}j}Z~}~~~x~n{nn~~f~}zZ^~~|~~Zyn~z~|Q}~{~ziln{v~|z^v^u}~vz|ta~u^|~~~~~Z|Nm{||^~n~||~|}v^x~s^~|\nfd|rw~z~nv~~^~}~n~kv^~~Q~}z}^^T}~}i^^|v\zQdz]v~~|~VV^~~zzC~|f~~n~R~m~N|n|YZ~Jl^~~Z}}|n~{~i}^vvfm~xv}}~VZ~}j^|M~~bZyx}Y~z~\fjm~~|}~Js[zsf~m\~~Z~vn}~vv~]n~^T~{v~xw~v}vN~~zD^jn^xrn~}v}rnvYz}jV~^t}|~nZ|Vz^X~~nn~~|zc~~{v|v^rZiknn~Zvrz~~^Ns~|N~N~h~~v~k~v~~l~~^~zln}~G~z}~ctE~~y}|y\^~VHl}|pz~~^lZ]]vm~q^yvzvv~^}w\`|~ty^^^Zzdpdv{d~xb~zvmznNndzlr~|~^u~i~zzj}mu~s~}\zlzvNyvlc^zZzN||~xny~B~jV~z~Nv|n~~q~~]~~|}{~y,False,0.009365797
~?@c~~}~{m^}}^v^|~f|nqh~]t}l~~|~XN~~~~m~~nv\nz|~~z~^~^ex~~RM~~y^f~~zZd|~~^^nV]ln}Ftvyk|ny^up\en~n~|~^t^nzzczvjn}n~~Zz|xvfx~~~~^^yNj}v}vzr~n~`~~zn~vn^~t^~}Z~~~rk~|n}d}nPn|~vz|~~f~}V{zn~n~|xHz~s^~}|}v^N~x~\~fvvnnws~z^R~~vl~^|\h~xeZ~HujKZ~~t|}Z~u{mZ~~n}t^r~~~N^[}|lm\~n~{~F~~Hn~~x~~V~~j}~z}|~vv~~Vt~tln~jN~Zn^~}mz~nny^~^~v}vf~~nn]tHVRm~~zu~Nv~~^nh~}VrVf~zc~^|~uttn~jn~mvm~}}f~dx|~|u~}~Nvfz{}nz~T}vz~~^V~z~~}j^}z}lu}~e]zlZzZ|S}w~Z^^|~ZgNm~|jtyNnnzd|~nzeujMwlvn\~vy~V~y|[}[~nz~zn~vun[v~]|^v~~ruzn~|~{}~~~f~V~fj^zzjF~|ea}]t~~~~Zv~^~Vf~^[n}n}e~~N]qn^Jv~nUvxZ|vvvZvtv{z]U|zX}~pz}~~Y^~zz~^~|w}}l~z~z^~]fuj~~z~F^m|^~vvw~fnN^H}m}^~v||~n~n}v|hV[z~}}~n~nvv~ou~znv~nVu~zvt~~~~~|c~yz~}vz{n}nNvVj~}nf]}~m^|~v~z}nZ~~zyrpz~t{]}vv~^zzV^\}t~]Vz~iRvnv~^~l^Z||znY}~r~Vv~\j\uo~B~~~~uz{r~z}vnff]~~|zZivm}}KZ]a\z\x~vzMZprv~v~~vnDr~J~F~nk}}{~|z~~tz~\~~z~~,False,0.0103600025
~?@cv~rN~j|~^U|||~^^|^^}}iv]|vn|lYvn~Zv~|~~e|^Zr~|vLN~~^~~~z~^nt~j\{~^fnQ~~vV|^\~z~~Z~j~l|~~~n^w}\nzz^~}^^nv}^x~|~mU~~~f~~~^Je~||lry~yV~u|mn~~vnk~~vZzvzs\][w~nRv^z^~^~uv~Tj{~v~|lzkz||~vQ~|zzt^dYx^~Vl~N~~v^}u~y~ev~rVz~{V|~\}~~~|zrl}n^~}m~~~n{v~m|~yu]mv^^u~~|~}x^zhF^~n{}lVnd|^~~{~~~F~qjoU}z]n|z|N~qv~yn~~z{\}|vl~vj~[~~~v^Vd{~~bJ~~~~zNTz|}^~u\~\QzV{lzJ~~]|z~VY]Z~^Rey~Mlz}zNl\jyP|vqzvv}~}v~\~R|l~~tf~n\j~m~n^\~vzl|~zn~~ujVfvf]~|vf\~in~~\ny~|r~hY~v}~}}fvv~x^|}~u|\B\|}vnn|b}~v~\]xy~ezpJ~}|~}T^~nn|NryZ~~]z|xv^^vt~~^B]|~~N{r^vv~~j~N~m^}~|~txnB^~j~~nv~~~~enz~}]mnv~}n~v}~z\V~\r~r~~zMDvvh~jv~}lz|j|~zee~~~~z}d~^n~Y~zVpy~d}l^jm~u^n~r}v|~zNu~t~n{R~vv}z~]n}T~}z}j|~zv~~~z]zy~Nx~~v~ntv~tzzmbz~|zX}^~n}^|n|~yU}~}vZyv^~^RvNt~lr~nUNjzR~nT|yv~qz{^v[x}|}~F~~~i~v^v|}^y^}z~~}Zn{NZz~n~~~t}vz}v{^~nkjnrzx}utzXsyv~~^t}fV~}vl{~~z}^|Lv|unrZNJ~~r~~D^v,False,0.009087801
~?@c~~~{^P~zvv}~~]^fnnZ^|]vNx\~n^lw~]v~~[~m^~Nm^~F|~Nt~Z~ilz~^N~}Zj|}m^qn~v~}v}hl~{vb}y~nzs^nixV^{^{n~~H~~~zz~tE~n^v{r~~~fn~r~~lJv~zun^}^srvy~^^q}~~n|~\~jn~~|~}n|~~d|~^}fM~~|v~z~LnSm^~^~}k~yM||vU||~uq~u]}|n~b~~d{{QznzN~|~~~|~^N}x|~~vnpv~~^^R~wn~F~\n{zz|~zf}~r^zvvz|~y}X~wn~^^|nn|~yy~zVKUnm~uZ^R~~~~~~vz~mv~lt^~zn~xZ~jlz~numn}}}n}tzvzfxu~n~m~vpflx[}~|~R{|~murnvvX~Tjx~rr~z^~~|~z~Vz~N^w~Vv~~~{F|~ntF~~}~}n~}n}um~N~~x}~Z{X|~j}N^~qv}~z^m~~zvzmtn|y~X}ZZ|l~~v|n~zx~^~s|u~Zvv}||t~^ff~~j\~uz~}^xzncx]mbYV~~n|B~tvV~n~~Y~}Rz~~nv~]}y]\^|^n]{nv^~}~\}}~vNIh~~s~vn|~Tn\jz~e~N~}l~N~}^m~~DN~~^Nz~]j{mz~r{nL^|~uN~nnz~zxz}lvhn~~~~x~}~}^~~ta~xh~~~z|Z~}jx~~vu^~~N~~{f~V|^~zrSr|\~V}x^{}y}nzz{zE|j|TSzz~~}|Ui^^V^z}\j\^~c~zpcnv]}^|tUj}~T~XZ|vu~uyz~r~~]u~~dbn~z}~n~~|[{~V~~z^|zn~Lz|{~\v~u~x~z}{}}n}|b~~~~Jl}zjzVt}mVN}h]^~znz~}zv||~~Mw~x~rzxm~~~vyvtZwr~|,False,0.0086581707
~?@cn|~ul~[vn~^`~~}~~|n~~zZ~v|t}Z~M{vT|wz^xvMf~~]Xe{{z|z~uzVz~v~~zvllzn^t~D|~ZyluaL~|mv|b~~~z|~}\RN\nf~~|{~zvfnz~z~}vlxvh|z^~~~~vZv~[n\vZ~Mb~|~}{|]vFeV}jyzvKm^~Vzv~^~|k~n~ynvVz~xv~v~v~^~{Ni~qy|zm~\vzrk}zmvvr~]n~~~^}nn~}Z|tm~p~^Vmfz]u~Rm}^^|~~~zz^^~y}~~~^ZzXI~z^^\a~~|~Tx|n{u]Y^|^Zv^ZZnm^f~nnvn~nlZ~v^v~lF~~|z}m~~\~nd]\}l{~~l{}mvv^^zZ~~~Xv]~~vlzjzZR\}t~|nv}^n{~~v~~v}b}znv~nn}|~~~~r~w^n^nn~nmvn~vzFjF~~fvQVvfZ^zz|~yvvt\}~vX~z~}zz~\hf|~^~I~^^MN}e|~uZ^v~nuu~j^~~r||~~~~j]VUU~h~^}v~|~~~l|\|^j|u|hq~~^yZ~^znj~x}|m~~xs^n~n|]{Z~|jfdVl~~zJ~LJ~~vN~~V~zLum~nf~pb~v~||}vm}~~z~r~~}j^z~n|}zx|v~~z~~~B^~ny|^~Z~~n~x\|zm~n\~{v~x~h~}~N~~b^~~z~]^vy~|^nr^|lYr^rmzv~~n^}}~|X{~|Zv^{v~r}}}~t~~~N~nL~vr~snzn\xbnnv}~ur~~f~}}nNjrU\en~z|vzn~~|n~z|l~U|~z|~}Uj]N{~v}^qtv~~vnvyZ~vv\re^nNd{zx}~m~]}|m\}m]}~~SZ~ufn~v|~}^Nf{[}~r\v^}~~Yvv^~|NvvN|nKlz}vvJy\n\~n}h,False,0.0087702274
~?@cNy~]n|~vz~V~nz~|~zvdE^F|yNzu}~nfx}N~zW~~s~}Vr~Vn~v~yfnl~~~nT~~}vvvN~\~s}jViz~|~zvvV~m~zfxzze~l~}|e]Nr~zZy|}pzL^|}|z^~N^v~~z~z~}J~r~}vZ|z|t~~\\~Jl~nj^z}}g}S~v~\n~~^vn~]|z~~VVvE~^N~ff}~}}tdy{|~zxvq~}T~{|zun~mnfj}b^y~^^^V{|~n~~~}}~~~~~~NZ]Fz{Xz~vyxj~y~^jzg^v}j~^vlrRj|~}|vn}mt~^z~}~m~lYu|~~zyzzuvnv~u~z^\]\~yxm|^vZm~N~|Nnn~x|nuNj~xn~qvV^|xnvyzz~Lv^~jvxNA^n~~Z~X~V}~||~P~^qF]~~sNNzn}vJ~~n~j^v~Yy^\~~|z]|v~~f~~u}h~z~|`^~v~~lT~}z|^nz~jf]~~^~[|Q~~~^~zhzZnzy~v~|r{~h~^~~]mz~rl~~~~y^}NZ}~NJ~w{~~j}|[zn~n|t^vv\]fnVF~~U~^FX~|~~~~m~^vy|~Vz~~~Dz~~~^udn~~mr~}^|^|^^Vu]n~^pZ{Nz{vjlbv^|n~zv~~~~v~~z[ye~z~}~~h~~`\|h~ru~~n|~nv{~~Zxx~~N^~vENzb~}^quu~}v|n\n~~uz^mcn~dv}Y~xZ{||tY^n|nvy~A~m}k^t|~^^nzx~~~Jn~v~~~v^p}~~~~^~m||}nufNX~^wzz~~y~~~|md~^~~VjGuVjkf]n~}nN}^\j}\~M|~~n|^n{~~^^~~~f^JnwF]l~m~e}zNzv~~x|z~mEj~~~M|tn~~~y}n^Bz\zvr^m~n}tj~nztv|~}M,False,0.0087609291
