g6,attribute,time,total - 1.16883
g6,isEdgeTransitive
~?@c~r^nnstRvtz{~^z~{}yl|vm^^}}~rxjU~}|p\y~Mn~~~~~wr~z|Z|^|~Vv~zsu~zn~TNvz~~~}~u\~]]Z~~|~~jz~f|~z~~vM\v|]~zvz\z~|~hv~}^~t~mz^zn~^\~r{}vt~~~^~t~~~~y~~}v~~x^~uz^mZ|NV|bzlvn~|~Y~~rv^z]~xvtvNt|z^w~gs^~}nv}ZI~|^z}~p~|xjNvz~~~v|~}yv~zT|~f~}Z}~inn{\YZ}n~z}~~DGvuV}Nt~|~ulufy~^~fl^[ZN~kypf}vv|{~~}vxv\yr|v^z~n|~n~~z\|vuV^uT}~Tjj~l^nW~~}|vY^v~n|}o^}~~zsn~{^~z^{~zny~}v~]^f~~~~^^}~~~~~uj|~~}j|dp|{p~zjzp~j~~}^~rFu\~\zyl~~^n^~]~z~~{}jv^|ynwn^rnkvv~Z|yZ~}ezvYv~~N~vJzu}{z|x~~{^]z}e~vnfnyZ|~~y~~~Nv~Y|lf^m~|~rf~n~A~}n}~~Zu~^k|n~]^t}}uTb]ze|f|~vF}}^}nn~N~V]~zrtvV|~^~vm|zni|^|^t\ul~~}N~[rt|tf^~v~Z\{Yz}z~Uv}~v^~~jU|V~Nz~~~~v~wnz~]r|YmmjtzVv~}e}~}uj~~^n~~}{v~n~~njsfzvvyfmj}x~|lfz~n|v~t|{~V~BmF|v~^~zT~~vv~}cyznunr~nNnnV~fn~tyjnau}nr~|x}zN||Zv|~rx~rv~~~z~n^~{v~RnYf~T{tRzz{|~V~^~N~z~~~~vvvm{~~vz}rl||nu}}~exVnTnnzz~rn~~zv~nv^m\^~~~xn^~pl|vnzz}\,False,0.1879739761
~?@ch~~~vnJtv^^~Zb~^tfz~T~N~V}zR~~r~~n^~}fbZ]uj~tv~~l^|^eynnvmS~~}{~m~^|}N|j~~|js|~Z~|l~~m~tr}z}|~^n~}~|Fl~z}zv~~ff~qY}ZzCyV]}z~{n}|~i{ve}zv~lvj~F]Rtzlzi~l^ELxlvhz~m|}v~t}~l~z^~z~~lr~t~Rvz~lUld~~l}~~~\e~z]~nn~~~z~drr^lfzL~]~^\t^^z}|z~|v~b{zz~Mn\~nNZvn~{|~fzlv~^v|p~~~vu|~xIZ~~xtm^rf^~vvzpvzz~m||[|nVx~nxzC|~nil|vz~|~}~Em||}~~~r~~n{zpzv|}^~Nz~EZFN|M~n}V~v~}t~fz}~|pn}^~FmmXUt\^t~~NZ~v~^nixn}nz|N~~~l~~~f~~r~zz~}tqYy~|N~jM~~tz^v~^~N|V\Xv~~z}~~^^}zdv]v~zv|vbj|Wt~q}Z|~^}~vinUZv|~j^~{~|mZ~~~dv}~|\vU~~z}xjv~n^{{v~Y^f~u}~Z~~y~fl|~}rm~e|^~qu~Np|~~y~ifn~~{~}mz~n|v^~zTv|~z~f~Yl~z~~~~nzfn~j~|l}z~~z}~~}n^z]Lv}~~zvnu~z~L~^^mtlljj~~~~Xz~~i|YrvK|zyz~rVv^|~M~~u}~~|l]}u^n^luZ{neu^x^b]n~ff~~~~^Z~~nn~f~~~Zt~~y}|tzn~~zr~~Rr}v}zyr~~z~z}}f~vzv~v|zV|nn`vV|nw{vnh~Znjzn~nz^~N}~~v|~t~~~zfvr^~un]~^u~n^{My~~|z|~^vu~~mz|ynn~Vz^gJ~|mu~\~zNjZn\zY}|]}j~,False,0.0127010345
~?@c~~~~~~\rrnFs}~x~X^~|z~y^v~z|^yN~~}nmz^^~|z~|zn^Njvt]~rvzzZlndH]z~~^{xvceJ~^^^~i~~^tnw~]xzZv~~|^^V|nvMZxkz~^~z~~||Z~|yZr~~^tvU}[onfNz}|jv~n~|t|~|~mi|ul}^|n~~`z~n~U@~bX~{{z~xz~nMn~z`yz^~}~j|lU~Vx^{^vU}~|}uvlyzv~~nr~|zrx^^vz[~]}^v~}~r^Z}~^\~~V{v|R^~nn}n}~}w~v|}z}Zmxx~~z^~|}n~xlv]~j~{zz~vznnJ^uz|~jv]lzvzt^}~Xvwunzn}^{}j~}z~~}yn~zzn~nnzt~z~J~~~~{~n}~uun~~~t^z^tv~|z}~yn{ye~^V]~r{^j}S~}xcn~|~^}z~v~^~kNu~gz{~z~z|{~~z~E}~xLz\\|zn~z~z~~fj^ft~U^~}Nmrn~[n~~f]vnZV|pj~v~]~t~n~te|v~v~~bzfU}~}~~t{vfnyjY^~e~~~}Jn~f~m~tTzY~T\~~vu^kVn~x~j{mvvn~}zf|d~||~]z}~\x{~~~}~u|}bhZxjR}yn~v}jXx~fj~h~TB~~yfz|^w|zg\nmz~~~j}vLY~v]~^~\~Zzv~~~~fl~^}~~~~z~r~]}v~~}~yfy~mvz~~nu~~f~v~z~UnD~|v]||~v~v~zj}b~zux~o~~n|vvxvNyy~~|~}}|~R]n|~^~}~jy}^v}~kx~v}~|nNl^^~|zjv^iT~^]Xv|~vNj~n^|Znv~Vn[~~~T}~h^~l}m~I~~vtjxnf~||y}n~~D}~||~~{~~~Xv[r~~m~~x|pln}zLzp~^zmv]z~~i,False,0.0107109547
~?@cl\q~f|m~YN|yz^|lvn~n|~~\|Z~~{Z~u~VZlevn~~^~~~~|^v^tlv~~~N~^mZ~|}mz~tZv~\|zzVj}n^zuvUvn^n}n|LNxtN|j~yPN~luv\t\{vf|n^~nKnyzT^kvs]z^~f~vvZV^|K^{~~~~l~^vhHvz~|}~~{z|~~u~m~~}~m}}Zz|~~~~~^~j~~~~]k~{[~~~}~~}n^n~}{~zYv^t|~~~nn~~v~{~rzw~oN~~jn^vL|~t|~^v~vfvM|d~en^v~}}~~~sz^~z~jm~~jz~n~~|n^ynzxN~jvnffn{vQzy{}~z{~B|nv~V~zn~~}|v~~|~y~v~~m|pf~NJ|~nvzu}~~V~ye~}}hzvpx~j]~}~Fzn}~E~d\|j|}EvY|i}lzyfsVz~~~zux~tz{eit~z{V^{TNnnmln}^Ezv~~d~vvZ}~x{~~~rV|nTzfvlfnjz~n}~VV~~^^^z~h~n|B|~r~^z~ntzK|}v~u}jZ]zn|~~nn~v}^vn~~qv~fNl~\mnn~~xNtvn}~~|k~^]v~}n}~Um}n~U^Nv^Fvn}{~nx^x~}z{}}}ttzy~~\j|v^Mhv~xq}^zzf~~^jnrknn~|[zZ~y~~}}}vv^L|n~j~}~v~}|N^uX|v||x^~zny|rw{n|~bvu~~}Nzn\~~t}^~h~~u}\vnsjjuV~l^Z]v~v\myjz~z||\^V|^|||~v|u~~^z}nf~~~x~x~V~Uzx]}~^vV~v}|[~lz~~\~o]k||y^|zvvm~~fN||}~nn~~z~~N^^vtt~~lz{~^vZsNa~lN^n~~|Q|Uv~^~vu^~nv~~~~\`~}~|E^~}tRz~z~}snvzzf^,False,0.0106770992
~?@cz|xyy\R~D~rN^\Tw}iMZi~~~tjxs~~~xuw^|Unfn~z~~nzvnnz~j~T~n~|}|~v{~}u~~vetNfyf\~|^~Z~n~f~}~~z~fnnvr~tYU~~k~n}V|~~~~}plv~[~k\lx~~Z~nu~}vv||nNzr|~~n~~}~j~^lwu|]~mx}~v~ys~|nsmvj~N|jn~~lzL{~|l~u|q~v^x~z~vRJ~||z~z~|~v~~zqbnvzlz^d~~[ykz|}n^vv}Z^}~|~~^~}}~ns~lvzy~}{^nY~{^Xfz^~~t~~~Qn~~z}v~]~~[^|izz~~i^s~~nnexZ~~[]vf~^N~\yznQT~~yn~e^uyv~~nLj\nz|}^~|~~ujt~^^~~{Z~~mYjz~~}nd~}wn|yhz~~tV^~}~j~z^}xn^m~}\~t~]yyX}~x^|j~]Mjzlzvx~{~~~|n~v^n~~uzvux~\vxn~zz^~~cZMn~v~nv~~sMvV~z|^r|{nnz{~~]|vn^^ju~n}Nz~ixjknvzv~}~trn^~\~nvf~}t|vZr~^|vZzt|mzt}z|^Z|nx~zy}^rmvU^~]}v}~~vu~~pfr}v^{lL^vy~Rz^RR~~jv~~~quur~v~o~~}v~~]s|nr~~~~[k^v}vzv^~Qz|m^rbz~~z|}~~~~s~~~z}xjzi~~n^q^ZVVVz~|m~zzl~~~mv~zv~lpu^zv~vjtzy|~J~~^^zX~lh\{fnV^v~Zv~|z~}|~zp|y}X~}~|N~nZnv~n}~|eTvlvv~~~V|^|~}z|v^^k^}\]zSr~~~~zJn\~^nvB||~NW{T~n~z~T~lj}k|eie~l|}]v~e}~~~zm~~jt|n|u}~^u|~~v^vnnv~,False,0.0106301308
~?@cz~nv|~n|^||u~|~v}~~|vl~~b~~^~~z~b~zu|~Xluunh|z~w~~Rdj~~^VnVL~~nuv~Zv}z~~~l~~W[}n~T~~^~~n}vNs|Xx~}v{yz~Y~zI~tl~~^v^}zz~m~zn~^Bf|~~|}}n{hnnzhN|vVrr\]nbu|~mp^v{{r|||~~^|t{^V^ezf^~}u^z^~Kv~~~p]u~||F|{n|nb||]^vXm~nn~~r~U|n~~^^eNf~vN~}~|v~~^bz~n~][j~h~i~}~~V|u}yX}~nv{^v~~~vvvznm~}v`xl~jvz~~z|\]v~~z]jz~Y~zz~z~~TZvnwun}t~nv~y|w~Fz|yz~t~Mo|Ele~}N~|^zvc^njt~N^m~~|^|~vt\z~vZNnf~n^~x~^|~Vv}~|~z^r~~^z}bzVnm~NUq^q\rz~}x~b\~d]\|p~[e~}lv^s|~lu~xnytzn~~N~^^~~lmi{v}yzvtNnlzj{~}}~~nl|\vnzn]{nn|~xn^^z~^n{V~~~|~nj~~~|v{dv~~~QU~^~Nnz|p~^||n||~~x{zaZ}v~Z\d^n^JuVjn\v~n\eU~~|z~v~|~\b^~~yftrEz~{~zv~Jf}~~]|n~e~~|~{~{v^v}}~~nt[~~z{\n}Z~~njn~~f|~bn]v]fz^~^nvfz~}\~N^zZ~n~XmznLvu~~}~n\~r~~syb~N}|vY|}x~~aJz}~VZ|n|E~U~~y|~z~zjzv~nkf|^~MT~V~^z|~~|~hx}\]~u~~}zzj~z~~eu]ylN~Vd~nt}~u}X~j~~}{qfn~~x~|z~{j~Nv~|vf~~dnn~~|~|n|Vf~~||^n~~n|^V~z~cr~wmu~}~{~}~,False,0.0106840134
~?@c^qZ~v^x|zzz~f}}z||~v~~~sv|z{x~Z~~z|~~N~~VudnXZzzX}}~|~zVv}~~nzZ^~Z|\nr~rrz~n~x^~~Clt^~zv[v~}~~z~rJ~~~jj~v~}}~\^~~m|mv|{]rz~~~~UFDznj~~^N~|~d\r~|vnzl}}n~tvrn~~~n}N~nuI^|}~vmG^|z]J~X~xzttzh}~~|}^^~le~}x~~{q~V|nT~mXuNn^b}~^}vZ|vtu~RzuR|v^wrrn~yfjEz}~~V}~i~|[~r~~}n~^]^v~ulV^}~jvuv~]uy^Vl~l~fb}~~|~~^lrz~^]nr~f~~~~eF}n}~~~}~Nf~t~v{~~~x^vVrn~|~z~N}~~lu~niv}U~]~~~|b~z}wz~~|x~~y~rrm~j}}nY}Z^M~XUvvvzzv~N~i^|~z~vn~bbnVg@fvn^|mwnz\~xz{v{~n|~}}~^n~n|ns~]YlvZ||nz{~n~~\~~~~z^n}~~~~n|~}~z~}\n{^~x~nz~~w~n~|Vh~~vK~xvp~njzfy~~nn}~z~~~^V]DFvV~~t~z}|~zvv~tZyv^N}~}v}~\|r}zzkkv~~{}]\Tqv^~nv^^n]~~~q}y~Lzl~INn~t~|^z{~~l{Lj}Z\sjnJ||~|hyN}~~rNvl^~{|T~s~\~rtm|^~^~[]||t~yNZ~~Nm~Z~zTZl~zvr~|vmx}N}~mn}ln~^[|^U~f~ii}n~|zz~|uu|~~n\|V\nu^^\|UZ~~~~~i^~xj||fN~~~^}uVv~~nn~kz~U~xTv||y]]~vNmvz~Z}~yv~Mv^vt]^]l~~fz~u{{q~]n}n~~}zz}x}~z~n|vVe~puv\~vYhn|~~~,False,0.0106480122
~?@c|u^~||fmz]|v|^nnvzV~Z~{~v^~\}z]^zt|~N^Yv~~F|~~~~|[V}|n~|v^|~~^x|Z~nm~~R|ft{mj^z]s}]pl^~~~~}v}~Z~Vzmtz^z~n~~~^ZV~~~W}~^^~~z}f~n|~~xZv\mm~~||~}v{z~\|~fj~chzNVnv~U|NU~~j~nz~yy~vVxz^}{~~|~v~V|zn~rZn~~~jZ^\z~}}~~}}~}^|MzN|j|^|z|^~}j}~~r}{zRn^||}v^\z^]Y~vy~~lnPy|~~l^~}^}v~Nzv^v|t~~^mZ~Z~nzy~z}hz~zv~i~~~S~~|nkj{~zzzu~liTmR|^~~^~nn^n^n`z~~JuzXM^~}N^~Q~e~~j\Z|tN~~}dff\n~N}u~V|jn~|~}nnL^~V|~~}h}g}y}y\n~zbtm~f|n~~p~]~az~^v]}}|zl~Z~~}N]vm~z~vVttX^^~~n|Vz~}~~}BtWv~u~mz}^]z~v}]z~~v~ru~~mz~nUq|~^~Z~mUl}}U~\~||ny~v~e}~}~zxyL\y~n~b^TZp|fez{L~}~jtyzn~y~}fxl^~~~~~e}~~~r]^~~y{pvi~kl`|v~nZ^Z~~~t~l~~~n|v~nxb~njzvzN~{~|~ng~nv~z}\\n~jn~~~~~}Ndn{xfxq}|t|~fjz|~mt~^V^N~U~zzZFnzvZV|zn^~Fr~z|}}~}^~~lD\Mz^Gv[eNbv~~v~N|~zoz~^Ruvvz|~kI|~^z}|n~}~[~znEr~|\fU~~~k~vnvz^z|}~h}z^^n\Z}Yn~}^y~vnzVn~~V~~^~vz~lr~~|Uz{~|nnT~nsv|^|\~v}^tV|zZ^||Ttv~\~Vrj|Zu~,False,0.0109410286
~?@ch|Zm|z~~~]r|z~^~~t~}~}Nzz|v}rnyn~}]}~|~VV|snntN{~zq~Vn{f~zzxx~x[yn^~V}~~u^un^vns^~^}h^t~|vnz~~}^vvzR~~[]nn}~rVlnz^~{~vj]|~|{{vr~~{z~zm^nnz}^|BwZvn~~n~v~~N{x~~|~nxpr~Znnn~}n|m|f}}^j~rv~^N~~zn}f~n|u^|^z~vzy~J~rm~^nn~~v~nzq]zjY~v^Z}}n~~~Y\d|]k^fl\~U~]~^vvNs~~~~|kunl~tZ]~u|^nzZ~Ne~~H}ur~][|~^}n~Wzr~X|F~}~v[nNr}}~}}{^z~}T~~tz^F~~~~\|vv~[}|N~^~prn}[z}~lvw~|n~nEL~|n|vx|D}v~~~~V~nl~nLy~~Z^^ndl~~lf~l^zx~N~]~p~}~|xf~~vzzz~v~u|~x~Z^vLn[d~~vNvXz}z~}{\nx~~~m{F~z\lN~mx\li~n~~~ynn~~]~^ng~zN|r~z^qfn~lx{~v{v~e^{qZ~|uv|u~^\~~v~v^|vl~m~yuv~v~v}|]~}vnnjnf|krv}h~~uJ^l|t^nvv~nx|~Zz~{z}i~n~lN~\~YZ~v\~nwln~nj~~vj|\u\j~N{~^~N~zV|~n]^n~~Z^}~tl~}~~ut|uzv{z\~]~z^~^{^mvv~~}r~~}|vFtnnz}^qnu^zU^~~\v{{~p~~v^~Z~{~~j^wupj~nZ^}Nz^zJlt~}}zrzw~v~^zv~|x~~~~|~\v~m|v~~~klu|a~~k~ynvyz^uz~v\zzt~o~v~]f~~v@R~}N^p~\^nn~z~~r^fRmuU\~r~mvn^nnrj~|~vvzl~Rn~fZynrM,False,0.0106480122
~?@c\rvz~~nV}x{~cz~]v~~~}~ulz~f|Zb^lfVfn~}~jLVN`vnt~^~~uxz^~v}~|^Y~l|~~zzxfbrbR|v~~Uz^fyv~~b}||v~vd\F^}~{~mmN^~~z~}r~~^~|Ju|~~^n~~}x~^~yvx|^r{zlj~n~\|ff{^]}H|m^~nf|r|\Rnas^|bZ~Tz~~~Zvo}nz^n\Ur}nn~~~V}f~n|~}~~|nn|~uv~~j~zx[v~^z~vf~~~~lnn^{xVVd{~v{~~u^z~UJ~~Yn~nvn}r|~~Rnnz}J~~rnxnzq}b~^}~Z~|~e~n}~]|n~|Nn~n]|rN~~lNzV~Yn~zwl^~\}n|~znJ}}|}ze{n|Lvv~zLvrvvv]|x}~vy~yn~t~Z~~]ZZzxv~v~V~~Nt~^rn~~rmr~}vn~~t^|Vz{xvZx~~~zrf~}~^v]~z|~n~}nNrtx~uw~^|~~r|]mzV~l|zr|~l~Zn^~u~}x~n~]m]]zu~uv^v~\r~~~lvf\n}z~\mN~zrMjvnnY~|i|ZV^~rvT~~Un~^^~nn~y}^l^}Z}|~r|~n\nznv|M^qX}nVqy~}~~nvgv|n]~~uJ~~zu|nVuzTV~~v}^|nvr{~~~m~~|~z~\~znv~~VzKs~~^}^n~}KkvN}{~^yn^nZ{vfV~|~U~}~~~]~~vN^zV~n~n^{^^~}Z|~n|{~{n~~z~vU}|njy~^~d~u|}}~zv|jwj~Z}l~C~t~~vv|n~z~kz\^j~~^nh^~JzuvZXKZvlny}mnp~~q~~~R~z||j|yltyt}}~zl~ns~wvzf^k~yw|U~v~~YfnVz~}~qvvnubz~~~n~zv~zp~V|vl~n~~\Xn|~vf~mn,False,0.0107300282
~?@c}lz|zv~{~~}xjs}^\~{zzz~nn~Y~rv}}l}vn{}z}~zF~~zxy~[~v~\~~~J^tvnzvv}F~~zz|v|^uz|~v~Z{~|vnz[yoo~^v~^~n~vn\|jNn]~~l~~p{}~vuF~~~zz~s\z}nxp~|N}]rn~~]^|~nq\cu\z}}^^jz~z~~nmnjNz}z~v\Y\n~V|kx~^|Mvnm~vm}~v~fzn~^~zz~N|Vn~|J}vvv^vzy~v~~~jvnV~~n~~j\~mUee~~}}yvvHT~~~^uv~}Z~~~m|~v~U~{e}~|yyl~~nv~~{Mfzsz}y|xmn~t~n~}Rw^zt|zvvzv~mvv~~V{~Nl|~^|~^nR^|n|}s^~Rz~\v~~|MmhD}l~||Xz^Ntz~mVCz|}~tzt~z~e~|H~jK}~~~l]^m~{~^|~v~}~~y^nv}Nuv{mnvbLr]nrus~{|~rYfM^z~}n~n}zv|V}d~~^z||~dz~^vj~N~||~~k~wzNNSj^L~n}nz~i~~vv^~~z~N~znz~VNen~z}n~{~W~n}^mRu}Kyr~~{~z^~}v\vVZ}^~z~~Nun~jVjvZL|}h^~~N|}~l~k~nn~|n~~x~V~}ul~xrnxn\}w~^~]\fzx|~~VZ~N~~^v^ZKM~lr~|~Vl~~klz\m~K`~V}|^~~~~~f^qn~|~}fxzv~|u{~}\~}lp~~}^szrv~z~n~n~~{~Zzzzt|n^|]|r^~^jZ~ur~zuU~~~m|n|}D|~nvVwzz~~~~|~^~wa~|^n~z~^}|v~~vn~|}vD~a]fmj|||ns}|^QXrn\o~|~bH~~~~jf}\~r^~zY~x~~~[zz~~rzuvi~h~Z]~~\j|n}lv^z~~nv~}~,False,0.0106050968
~?@cvn~~z}n~}x^~x}{}utN\vY{]~~~~~v~~~~v}~Z}xN~|~~~~~t~yL^~|}\~^~~vN~qYenFv\F^n~nvLp~x~~~v~~T~~~U}~~|vN~zR~^v~^z~nJv\v}~v^z}bjTvx|tVvn~~~\~^~~xnt]\~n^Hv|~}e~~]zj~v^~v~~}~zj~~~^V~M|~~}k}t~Nz^|]o{~^zvrhj^~N|\~R~zk~^R^nL~n|Z^^ht|bzx|~R~^^~\zzzu~~^k[n^q~}j~~~}j|z|^z^~~[rv^|Z]m~~\~~|}v^~yv\}oN~zw~~v}}{nzV~~~v~\|Zz[^h~~~f~{|Vn~MMvn~a}~^S}{}veE}vv~in}t~~eox{\|RV^~n}n~~zN}rzYu~}~n}|~~^X}~yn]}z~j|}M~jn~ud||X\}vmvv~Zv~|~~^~~^zp|~~~~b~rv~~uP}~]tZ~l^|{}~x|t^v~~dmx|nZhvh~n~~d^yj~q}nnz~}~~tyd|~|jXz~y~vxz|Zynx~v^~x~|]z}vzv}^~|z~^un~|v~un^l~~~z^^~]v}Zt}~vn^Fix~fyx~~~m~~yh~\~y~~~rDFt~n~~^~~}^~zV{}bTvv^~ek~]~mvf\^f|]vv~n]|n^~~NZ\Vrn~~zn~^wV^~zZ]~~~n~U~\ninz}~~n}~Z~{i~Z}~d^^x]}un~}]~]~}~|Zdr}~{u|Zzf|~~^~~~znU~~~~~vyn|znt}b~zz~u{yf~~}z}|~nwZfzz^lnzvgtfo^jv~~ve\Kvn~{vmx^f^yRu~n|z~}xv~|v~]e}v}n~jsk~~{Zz}^~xzzv|[kn{u}xvz^zvyNzj~]L|~~EnNRNnn~,False,0.0106379986
~?@cR~S~~~n~~~onJztjz}}ntz|b}}~ln~~~~X~~~}~vmv~f^v~}zz~~n~n~~nmjZ~tzl~?~vTz|\zz~N~~s}~nvtvn~[~~vvy~x^L~}~~~fzwhZj^~}YL|~y~n~Y~~z~}z~lzzzu^~\^hz~}}h|~z^uznm^~~^~~^iv~|xn~~~xRv|j|~jnXz}^{zq}~}~v}~]Cnn~|vxzbvxk~vz|VYz}z~p|tm~n|~nZ}en^T~vzz~~j~in}}}~yZz|mzz~x~\Vnnfy~Lr~yvZJn^~z~}n^~vV~~\{Q}~M~~n]Z{v|LzszZ^|j}r~~\u~~vzxmn~~Nv}~a|Z|^^}v~~|o|vz|}vNx^~~~~}^k{vL~nV~||~~~v|Vmv}Kms~}v~v|\~vNfuX~z]n\xN|}z~~v~~zzzv~\l~}~]~~T~zP~}^vn^nLvv}r~\v~vV}]v~Z~z]z~ndk]n~u^zZ^~~f|v~^m~fFlz~yN}\Znvxx}Efn[vm~^zzx~nt~~m~n~rnr^bun|~~^N~yyw|~T~~z~V~vv~]ln}|~z_Y^~ix}TU~u|n^^nf}~|r~}p}yt|~}t]|~b~~~rj~nn}rjx~}||~~^~~^u~}}~Lmv~~Zdfl~fxu|vf\nNf~|vx}l|v^~yn}]vL}nN|nn\|u~~Lv~~~nNzRznj|nz|jv~n~~V|~~z^\vz~~~|~b~jvlZm{V]hy]^nNm|z~~njmz}\n|p|n~|z|^y}|~ztz|~]v|~~m~v~V~}~^~~bfzx}~l~^zjY]~~N|unfx^dq~^n\~~}}z~nzn|^z~nfnvRNd}~zW~~~s|~~un~n~~Tqnx~~ytx^]~T{]|Nn}nV,False,0.0107049942
~?@c~~}zvv~~x][~~YN{o|znZ\NnnvZ|Z}~~X}z^v}PZ^zZ}|f]v}}zv~~nx~Zbf~~}lzv~f}lp~mZ~}k~ntm^l~m|~~vzvnnu~~~~^~~`vWjU^n~z^mvn}n}|Vz~|{~^|^n~~rRt~~j~z~t~~N^u~~~^~l~^{^v^ry~pn~h~|n~uNv~}~]~J~n~~~{N~yeVpf~|~zv~~xvvl|n~^~rmH~~hzj}j~]~~zN|vm~i~[vt||^x|}~}~~}~}~~v{~j~}~~n\^vtwbn^}jf~sLzzd~N~|~~r|v^N~zi~||[]Fx~~~{VNzl}~r]^~zt~nv|~~~~}Z~~fz|f~tn~~}~~\}~|t{jz~P~||~n~~|m~^z~}hvMtnvvYF~^~znn~~j~qj~nd~uv}n|b~y~z]~~|z^k}]|Nz}z^~tu~z}bnn|t~nnVJnW~~^fnMzm^rz^v\z`nj~|W^Z~}tnEZ~Nl~U\|nz~~z~}^|faN~~tum~|~V|n|~~iyz}|~nr~~fvzzmz\x~nuL}nzy~~~}n|Z~Tz~}vz~n|Ln}yt~NW|^^n}vz|~vnv\~nvyN~v~xzVz^{~\~zU}rr|[~~q|zrzQ}|J}h\~~[XQuzJN^jtYM}~vn|rp|~]mr~~~mN~|f^~~~|}yzvm^^|x|p~Xnn~~v^~n|n}l~~~^]jmvJ~||~~^N|}~]~vzzj~}n~t^VylfX~~^|zi~~fr~~~yt]VNy^rsvBm^~lJx~}{~}y}nn}~}{~z|nf~z~zV~~JVzv}^~|zv|u}v]w~trU~|u~r~~vNz\y~v~|Z}n}Un~~|mv}~~}y}|{V~y~~~~r{}z~zr~|^~dkz~fz~\,False,0.0106229782
~?@c~survjl~v{}vlrnoz^^hvuru~^}hnn~fv}~l~~^~Zxz~~Z~uZ}{\}|z]nzltj\]|i~lN|\~Q~~n~]~~U|~]n~^~^nr|~RV^~N|vz\{zN~}~~kv^z~{^n~^~~~U~rVuxZ{~{~vz^fJv~Vy~}n^|NG^}n~|^^x~~~^~nf~^z\pz~~Uy~~~~{f|z~^fNxV~s^||z}l~qhn~~~vNY^V~tv~|~xxn~|^}n~|j}Nvh~|zznzt^zn|~v~z|^|~v}nzq~}efyv|~Nm^j~|n~^nsz~wndv|X~{~|~}z~z}}my|lv^~zt^]v}Jj~nlz^~{~}t~}tzn}\q~~}cz]}|~zy~kJm}~}nn~x~z^nzy}vZ^^xn}xL~}{Rn^Jrezve]W|vfl~~r}N~~}|znvhj~~v}N~}~~p\|~|tv~l}ry~uizj|\^u~y~~~|^v}v~~|~~~u~l~zt~Zn}v~b~t~~yNzeN|~kUnzzl~s~~nyz~v}|~zyZy}yvzy}z}pX~^||~z|H~||xzZzv~R]}MvV~ZyN~~~}^dNtvj|zN|^|m~~mup~~d~~ryn~mm||jnf~m{~z~m^~rVyVM~^vH]y}Nzv~|tj~}}~Nz~~f_j~v~^z~~~~F^d|~||}z~^~N~mu~vN~]vn}t|M~zVnn~N~mr~~~^k~Nj~}v~~|l|~~m^v~v~t|ofj|~t~n}}~}~zb~H|}~x||~~z}l}~~E~~V||~nzjv|u|x~^~~uvuv]vRZp~{v~v{^v||~Zn\nV}^^}v|r{~|~|]jzL~~Z~v^y}}Z~~~z\~~}||~e^~vf~{~njr}~tq{~j~NVvz^v]n^^~|N|^yz~~~Nm^,False,0.0106890202
~?@c}N}~[lFT~b~qn}zm^t~ftUzU}q~\Z~}rze~v~~~g~~Z~~|~Z~|^~~r^~L~n^^lz~~~E{z}^~v|^~jvy~~~{yjv~my~~xvzrhzp\[izttl|z~n~Z^~~}J~xv^~~~~~|t|~~~~^|lm~}ma~~vv}xv~Rm}vfx^Yv|v^|]~r~~fVv|~d||R|~z~~~Z^~vU}zvvv~nl|~nv~|z}]z\j~\tvz~m}~{V~vv~}{m|~t}|n{~|v\~~Vz~~~~~~y]}zL~nuX~~}^Ivu~Ft~}j|}}n}f^~~~Vi}z}y~s~y]~v~xx}^}v^znz~^}~v~~t~T]\~l}~jnezx~~~m^n~]kz~Lvzx^~|n^^ozx{K\~V^}z~}~~ezz~{sf~~tn~{n~~~zvn~zv|N~~|}|nxnj~V~Z~~nlp^t}v~~^}k}n]vVl~y}^~^v~^^Nxv|Hrzpl~nNvrz~^|~nv~x~r}v]vtj|~nr^~}~X|yunzNjnux~||t{~I^~~I~|y}~hTB~r~~~~nfx}~~r~~^vlvn[Mn^}flZ]L~}j~~\n~~nv~~kz}vizQeH\~~v^n|~n^~z|Zyn|v|m\q^f}~nv~x}~~}y~{~v}^v~nnw~n~|{v}~^}]~tl~nuz~fyv}\}l^lV~~|zu|\||^|vy}Vz~vv~nLlkduvnj\Nevl~lntn~Zp~~^[[Bn]~ym\]|~~^vmJ|x~}~vnr}vm@O|~nn{n~n~Ns~~~d[}jnv^uxz}z^zfvn~~vev~z}~n~n|^\z}T~~l{~n~N}~NwV||~z^^r}~~|t|zzuxzzv~yn|ulznnd~~LZz~}rv|Nt~~Tn~z\vr~~^n~}|t|znz\~~,False,0.0107622147
~?@cZ|~ffz~Z~nj~NVvvSn~z}l~}nnZv~}~|]r^ru^~zv~jV|{~\^|~|n~~|~n~~~ku~~J^~|zmv^~v_~}~^eP~_lv}^\^}|~z^nZnNs~nznfUV\~z~}}v|V^x~~~}~}~~u|~~~^^~zvfm~vvmz}~~~~~~u}}nNmjynfy~uvZ^}~jxmzn]~x~}~^Uj]Vt|rJ}me~~Mnn~}Vz~l~^jjTl~Nv~{^pUz~~]^}m^nlnu|n~y~~|^]~|nZ~jjr|t~}~\l|^n|Zn|nv~|^lZn|}~tVd|u}z~BnVRl~N~zhu~vnim~~Nln~~V~~v~`r||zt~y~zZxMv~~^}~~vzmL|{Tl^X~bn{~znmx~z^|~Bv|^\]f~~]~VZ~u~vzLj~~t~~]}y}~~~~~Dv~}~Jfvctr~|}NVz~~~fy}~^~tv|~x}~u~|pxm^~ynr|n~^^muh^y^~qvj~u]~~jVjn~|Z~Vz~z~|~~|~~^^\^}~fnQ~v}v~V~n}}~~}|zNZ~^UX~{~~v~~~}~\z~z~mzm~~zu~z~]~rZ{}~~~~z|fNM^nlnz{^|tZvl|j}|~v~hV{x}nMjqrnzT|Zk^d~f}~~nJzvzr^v^x~nz~z~}~~~v|}KNzz~a|rmfVv^|~n~~}R^u~~}}vjv^~~{X~tltRln]~vur|^ryNzj}zx]jl~~~\z~zVhm~~XZ~~~fM~|Y~~r~\|~z~yfZm~t|}~|}}vxvvz~z~z~m|uvvm\~~~v|z^U~~s}~v~^|T}{n~hn^X{bbw~~nv~^xV~~~~fN|z~z~nZ}l|u~mT~~Yj^{|PzzVM~bv|ml~m~V^j{vv~v^}Vi}z~n~f}~N~|v~,False,0.0107059479
~?@c~}}|z~n~}v~N^|y~V|nzz~v{~Zn|{~\Nzj~|~~}n~nssZvy{nJj\m}Xvg^}Ft|~J~v~^b~~x|{z]|vx~~~zl}ft~~}^~}|Q~~Rn~xzln^nn^T~^n|v[~~~N^~D|Yvr~iz^fv|u}u|^~mz|KvfyX~M^^vnxz}~}~r}HvnNMV~nv}]~~tn}^}vJ}y|~~Y|x~S|u|~un^r~~Y~|m^{}|}vu~}~t~nfrv\mV|~iNr~~y~v~~~vn~l~^n]nyY}~Fv{~^e~tm~|z~~nvT}n~^^~~~x~zs^nxkmV~Xv~vxT}^~}l~~]^^~~n~r~zz|~v||JnzdLLl~y{|kdJZNZzpr~^~|~vRn|~|~~yr~~v~}nv}{~|^n}zvN^~z~vU||nwriln~z|nnzM~]l|jF^z~}l~~z~~}~|~}~~r\~n~f~~^v{~nyv}~~}^~}^n^~^^~yvzn}^~^jrS^~vV~vt}~~z~~}~Y~R[~T~~Xn^Ynn\x~lvmQv~\v]]y~zu~m~R|M}~v{}~|ymv|\\|f~~}~~~Z~~}qj^||s[}~`~SC~{X~~z]m~v~~~rz^}]~~v^z~}~ezf~~~~~n~xOnvf^~mMz~x|Um}~xl~~p~~vnvT|^~{~~vn~Z~nzzxtjY|~nu}v~yUzf[~vzvFnn~~]||~^Z~|nty~]}znv}|}jyhp]}~~yq^}~Xt^~^~vn}vNyql|^~V^~nvknzn~^vn~z~v~~ynmz~|~zzl~^xnM}|tZZz~}^}u}~|N~m|\M~iz~}nnRvN~Z~^N^Zvv{^~nZ}zzzDv]Q~^}~tZ~j~j^]n}~~\^|z~zfz^~~|~~tv[~Rnlnmz~^z~v,False,0.010725975
~?@c^r~]{~xyfvtmzwzj|~~xZ~vy^~n^ym^^\}{~Zzf~FN^n~fft~lz}xvz~vvvN~~~N}F|xNn~~^]~^~lx~lJ|]z|~~^V[z~~mi\n~P^Z^uvz|W}]}t~}zn~v~n^^M{zzfu~}Jlf~~~~~~y~~^^zyr~}Fyny~~^z~~J^z~uzv^^Tn~}~~~|~~~^nn|Fy~zTm|~|}]Nf~z~n~^q^}^uW}Zykn~lrZ}TN~|mvnrnz]^^v^rz~~^~{~Nv~k\^}rv~uzv^n~|}{~z{m~~^r~Zjz^L|fvn~~{Y~|~l~~~~~z~lRYnvfZ~}}~~jz{j~FT~y~zn~y}rjn{]^y~[^~m~~n~~~v~d^n|vZm~z~mq}}y|]~~v^fZn~~^|]r~~B^~}~~~{vZz}~n^^|~b~l|zn}~^R}~uVv{~o~^~j~i}|^rzy~}~r~|fn^xjtz|Znz~tq}o~u}z~m}~~z^~{zznz~~l|~~zz~bzj^^kXU~~rrzh~~~~vzmn~yn~~~~|z~lfftym~y~}^lv^Z^~~z}|Z~|~~}{}~~Vlt~~pvZ~nv\v~ym^~o^zyZv|^Myzf|~~~m~j}z~~N{ry||r~TEn~u~~|vfVD}nzvv~~o~T~~~~zkn~^x~T~{]n]oSnf[^zU|f~lVuk}z~~Wnn|r~Y~|~~|p~~n~nlevyn|||l~~}^]~~|Lv^wl~{lwkS~v|}d~VJ|}~z}|\ne^~~n~|mrnU~^iln^~~m~~^~^~N~|v^|N~~sj|^}k{~ZVlD~}z~}~~||r~T|v~k~n^~fz^~wlvn|w~Uz~}{~nl~~zq|~n^^lvZ~^vnz^nufrjmuz~ncn~~]m~~|~^,False,0.0107498169
~?@c~~}Zv~Z}~~^~~v~~nN^`~rv}~r~h|h~V^zVnv~]zZ~f^~Y\\vV~N}lRvx}}n~~lr[~N~~X~~LZsz~^Y~^U^bi}~ivh||m~|~m}~mz\vy|~nevzz^~uLz]lv^~Evvv~jf\vn^jv~}v\^~~n^~~~^v~hNZ~v~|~^}^~z~}z|^~~^n~~~~p~n~^Nk|nnN^}Lv~~nf^M~\{ufiuvzd~~j~TX~|~v|U}|nz~~~~zuu~v~z}|~n|~nNN~~y~^]|~nm~n~nqe^}rd~UL~NM~~^nVtN~uj}T|iv~~|D~nn~|Q~nv~U|vw~lVVnznzum~~|z~^V\u]^f~z\}zj~vV~l|~}z}^||~\n~^v~p~yx~z~~~\Z^tjvjvnIzejn^yz{}n~}zt^~hvNl~}~l~~~p~R~vtjuv~t]Tnvn~|}N~wwz}^}^z~}^m{~|`~j^}|^~~~~~vj]fr~tlp[yzn~}~~N~uvj]^^vu~e{v~v^n~Xl~~v~||f|z~[n~tv|~~WN|Vvznh^^~Nv|Z~brZ~M~NL~|^nv|nV~z}z~}^z~^{^|~y~NZ~~z{z~Ts}Yv~~~y}{nx~Nv~rm}^}Nnzm|zu~limNVr^~~V}~yz]~~vz|~M~mtzMv~~~~NL~zm~ynvB^^uj\Pv~~}R^^yX~i]wex\^~erujtxn~~^~}N^zz~N}Z~~~}~n~~vv~|[xu^z~}fi~~vz~Hz~z}~XNR~n~x}~^}~~~~mMz~d~~~~Zy~]v^n|}}|zm\^x}^}~~~|~]|tUM}~^un^~Z{~nv~}\|^V~~{~|~yuN^~~|~{~nvnV~RNzz|~nj{bl~h^r~^m~^f~}~qX~~yl,False,0.0107469559
~?@c^}|~n^}|xzl^rFzl^W~y}z~^^z~^~n|~Xv~^zk|}~N~v~~zvne~\^~z~nh~v~zzrb~D~ry~nV\t~~m~z~^}~||\z~lRu~f|r}~p}f~^~[z^x}~jtj|~|tmmr~^~^~zt~\nn|~~Rj~|RmM}rn\^}Z~~~~~~}j~vzuNn~~nZ}~e|~ZXv|r\n|nnxv~f~~[~~v]~~v]eWHvVYy^ZgN~}v~tZ~~~}N~x~ZrC~}~[}vi][~~^~~b~ru{~~insrtzj~Uzt~~zv}N~|n~~T~y\r[Yvvvjzfizz}}x]~vv~MuvDyV}t~]n\NhtVro~~l|N^T}vr^\^F}~v|~z|L~|n||V^evnxzV}I]z{Ltn~lT}y]|~Fjnvm~~gtzVa^l~V|m~Z}xh}~|~v~~l~tNNyvn\~~~tr}Zn||~v~}}l~nz]~~yyklstznz~~^z~~v|~^~vurv~~N~~^z~|m~}r~FZvrn~zt~v||\fv}}r}v~~mN|^{t~]|zZ}tx]^~n}n~zZn^~y^V~|}~~~vlXz~^\vX~z}~vt^zx~~}~^|v~~~l^~vzZ}^~~}~^^nnvn~^~f^~~xn}|v~z|~~^dj~Vnt~~~r~qz}|Rr}}~^\^~~SV~^^kv^XY]Nzyn|~n|\nl|vv}~^v|zRn||njV~^N^yl~~~|^~f~v^~vzjnf~vh~m~~n~tm~^z|^~~z[}zxvx||f|nxpz{}~|zf}v[~y}mz~im~~T~~~~um}^b|~nL~js~~~v~~f~]vn^|e~nqz}v~~nn~~|}}YE~n|~~h~~~~^t|ntzvn~v}|~|fzhmnz~~^zZu~lyv~~n~Nm}zvY~n]z|ub~vv,False,0.0100841522
~?@c~vz^r{}B^~z~|}ns~r^^~~{\VzEn~fv|jY}^~]}{n~~~Sn|zSzn}|t~vZ~i}mu~^x|~~nv{~~~z~}atlvNL~n|ln~|Lmn}~v~]|~nJyzlZHlv~~fZf|^jnpx~xj^J}}}x~~vvnzZ~|^v~J~^zBw~|~{v^~z~~~V~vZ}}t~|^V~~~F^^~v~~rnjr~n{tM~nj~l}tz~unN\t~^vuYX}^uZy[t~~}qV}tn~~}h}jm~~PZ~~~~N^}Zz~\nxtddlu^rN[~~lp^}Z~~cz|y~GV~^~]\v~~xvmr^~N~~zu~~iVn~[x~zfUR^l~vf~}~}]~~~j~nv{n~jv|U~L}vN|}f|vqzu~^~nn}^||fj~vn|u^nzRF~}nf~vcfYkvv~]nv|^rnz^z~z~uz~l^]~tn~Z~~~z~~|m^yvvZzf~~~~vh\bjyv~v~|~~^~th~zv~^~~z~xjy~}nmfZjV]~}x~|^u~znzVv}v^nvZ~~~~~|^j~~P~zVrr~\rZvd@f\~n~vr\~r^|v~~j\f~^x~{jh}V|}n~v~t\n~ljn}^y]}nU~V~zx~v}l~^ZmrV~|~nlnu~v~|z^f~~~|}o^^xnzf~}z}\z~~sM~~\~~z]~N\v^|}^~bdz|vzz~u~~~~\X~zvVf~~mzw~n|\}|~|z~n~~jw~xnw~^g~n|jkzz}|z~nT~vvl|~~~nnz}]~^nq^~}L~x|vvv}nt~~~v~}}s~~}vzvZm}vvkZr^^i~Juds~~^~l}~~~nnms~~~vrvY~\~}Zn~zx~n|~x~Z}n~{v~z|Dz~|~vz~}~sv^~|V]~~~uNT~zrv|~]\^N~~ny^~]vzzw~|~i~,False,0.0100898743
~?@c|N~Nu~^{M~|J|z~}yin~\~y~~}|z|nzv|^~Vnx~v~DzNv|~v~~v|N~n^\\fu~vf^f^~}s}~^ytvnxnNqj|~|y~~~~~z~^urxzzV~]Zonn~^}~~}^zw{~~}\~|n~Fzl^|~~Z~\|n}vzAj~v~N~n|~n~k~vt~~}{~[n~N~zmv|vz{z^f^}Nlr}zLnj|\~v~}~|nx{v^rr^{zZ~~HNsnrvz^}z~v~~vl~~~~~v{xL^n|vz}z~sz~V}~~~z~~|v~~u~~\at}j~~~|z~v\~j~V~~~y^zvnz|u|~z\}}~~z~~^\mW]~~^zN~i}|V~]~zr]ne~j||dZ\\rMNuFZdm|~NxrZ~|s~|y{~zn~~xVnzvyZ~y}~|||Zr|}^}u~v|xz^~|vM~~vfV~~~}~kttnvrznzx^~|y~]^|zz}m|v{~J~~vHnwjtn|N~~v^}l}\nm\}~~T|zSvvvf~vzsp~zV~jj~~~Zt}Vv^~n~nvv|~z~~~~vnf^n~uN~v~}n}riurv{LUn~~nv|~~lmn}vz~~~{^x}~Zf~vh\}}|mz~uZvty~n~tnvj~}J~zTl^zvnv~~~y~~{~nq]|]~^}^xY~j}|~v~~^RVv^~zivu}nju~z~v~n~\}w~Vzzm~n\zVR}\V~^zj}|U~~^|rvf~}s]uX~p~t~r~v~j~zznvJ^~~m}|^vnn~lfzn~]~v[XRumz~~}^nzS[{z{}rqn~~|}f~uT~^D^|fNn}{~[dNttzk~~~]~}z}]~M~\]~^r~M~~~^}etn^lpxm^Y^^}f~nblV~~Z||{v}\nvu~z~n^^^~|^vTj}~\~v~v}^\~n~]~n\ivNjv~^,False,0.0100429058
~?@cv^~fzM{z|n~|zv~yvzV~v^r~y@tZznnv|{V|}~^}^||~|j~j{~~n~N~j~nfzd^}}x^vj|e~^Vnu^znv~|}Z~x|~n~Zz~}~r~z~^M|~vt~}}~fvzx{\lz~Znx~f[znq^]^}~bs^~r]nz^fv^Nzzmz}v^~^]~z^~j~n~y~^~}~]~~}~~|t~l~yPyVR~nl~]~nt}~x}pn~~zx~z~~~t|^z~F||~~{jnNfniv~~w|~nLxn^y|~}~~^xtU~n}^x^rq~V~JN^||~}~\^M|~}_v|~~|\}n~v|x]|v~xv~L~N^~}|h{~d~un~y~y~v~z|~nz~S~v~|N~vtv~z~vx|rz|v~{wv~|J~~~|~nvXV~z^t}~|t}~vnVyyY~h~vzvvlc~v`xVxVL|Uy|~Yuz~l~~vV~Mz~RzX~^~^F^xmnMxX~~~lRl`|n]~lrK~n}^ez|jz^nzvSNuZ~zN^v|rv~\~~fmx|Q~}~zv~b~~^uvvn]sjLZ~l~rfvv~z~^~nV~~~~|xn}~m^}n~nZhv~~~~lj~~~tzBmmVzTtt~]tV}^^y}v{|knmnnfxn]t~rqKev~|~f~M|N~Z~~Fnm{\|v~~~|^nM~|^v^~||Z~H~~^j}\~~{~~zf~N~~~xl~}~^~~\yt~~vvy~Vwl}^z}n}~~nv|~sp~xz}zz~z{^|}~|~~~~~|vn~~}~~zn~z~[~w~kwfv]z^yt}wm}nyx}~~t[~^~~eZv~~~y|~fn~zv}~~|nn\~y~^~r~~~|z~~~~}~nDzs}^jfm]^n~x}h|n^n}^vu~Hy]~~~~Q}l|{u[~^~ttu]n~nV^v}~a~Uymn~V~ry\NmvZ~n,False,0.0102710724
~?@cv\~nl~vn~vv|~u~~zr|t^~rm^v~llx}f~Zz~vNvN~v]z~vZ~~}fnx|~Zf^~~|t~y^~n|~^~][vwvfrnv~s]|~^~z~^Y}~}^~j~zuy~uvfL|nmx~^rRY~~}~|~tzJ{mpFz|{^{~zmy~i~~^z~mVzys^^^~mukxyNuzZ~~ye~~jj|Uznnpe`znn~]jVyB||}ky~jz}zlz^|klM~n|~}yv^nlD~}~~vy~~}^~~tvjn~}n~~q}|izTm~nb|~\}jzzjvrZ^~n^J^~jv|~~~~dh~^^~}N}uNz|~|vnzz{T~n~}l|~z~~x~ln}N|~Nsz}~tln~~}T|]^F~v~r^~~~}FxUNf^^fFZT~~~zR~^l|zzj~zl~dh]j~^~g}~ntz}~}~~jn]{v~}v~~^Vvfzvjzn{t~|~ntxn~~~il}m~~}}Uzv~^\~^~b~Xvn~~]Vr|~~z~v~~Yu|TZvnN^tnrn^e^^|}J~~z~i~V~~~vjx~z{Evzx|^vt~}nvZ~~n~z~rZyzK~m[~~y||n|z^svN~znez}z~Fz~~~vb~j^~V|]n^^~wV~~~~^sZr|z~vv||jTp}znJnn~n~jv~mv~~n}}M|{~~]~~~}tulmnxn}rvd~znnxmY^~~nz~}~|~}}}~^|~~[elYTvv~}}fvvYvu{t^|~v~s~}}m^t[~~~u^w~N~\~\~~N|yNjxlvn}Yv~~|N~tz~U}v^MvZ~^ny~|~~~rlv}^n~}N~n^v~~}~~yV~N~L^u~UzN~xvj~vMrj~n~nNnZ~}|}}vnl^fV~V~n~u~~}l}zwnn}w~ez~~yZ~v~n}^}~^~nq~]|z^n|~~Rz~v~^}zvr,False,0.0098538399
~?@c~n^~|v~}\v{~^^}~~nm~~Y~v~k||~vv]^~{|Tz^zg\~|Yv~f~|\Dn]~}~~^{y}vfz{~~^]N~}^{NH~pp\~n~~~}~~ns~}zmztiJZLN}r~n~|x~|]^~~~V~]|ar~z{kzYn~~{^}~v~s~^yl|au^|lN~nzu|flnV~nk~f|f~t~y^z~~n|zv|z|~^ju~rn~|Z\Z~vzTf~~n\v|j}~}jr~f|z|z~nh~m~n^~{pz~n~v~vt~~{~l}~~qvn~vz~R|~y~F~]x~{WZ|hRmgjfdr~~~nx}z^k^nj~z~~~nnvD|Z|}^f]vYuyz|y~~jlmv|~}y~~n~Mzv~~^n}~~vl}ZVnn^xvVv}~N|^^~{}}Vn~^n~}}vz~}V~~uef~nj^j^N|~`nnu~}xjzh~u~zv{\~~v~nz~l~I~||n^~~~|~ir^]N~N|\m~|w~X^~z~A^qvJjy~zlXZ^t~jz~~rn~y~l{fmzs^N}\|~uN^|y{zn^~~^vvz~~~nhF~v~M^]~~vtR}r^~~~~~n^t~z}v~z~z}xZ~vn^^zn~ynk|~~lZ~}zzvvUmX|~m~[~v}^~l~~zy~Vtz~cvnt^v~~n~~n~zln^R~^l\^uzxrR~~~{~^}ivi|z[hl~~Nj~|~~vf^j~Fb}n~fr~~~~{jtvv|r~Vn~zz~fk~t^v~nmkv~n}znxu~|~v|v{}N^zmtvv}y}~~fz}\y~Xr}vn{}~r~|~~|~n~qPvZdR~ny~~~~ZzVslR~}^|~~U^~n^~~lrOv~M~Z~n~v~nV~~p{^~~~Zvl_|\Ftu~v|f~~vvv{~~n{vA~^V}z~}txy~^^f~yvn~}~vl~~Y\~^~Jn},False,0.0096371174
~?@c~f~zwxv~|dzj~^Y~~u~~^nmrv~~~{~}^}v|~vLQz~}~~j|N~nTxjnv~~Jt~{~~nh~u~R~vV~n}jx^n]~^v~~iEn~Z~Mfl^]nr~zz|F~n~vYni~v~frzZk|f|RzyeX~fM|y~X~\|yq^v~v}~]~zzZz~^~vf~~~^v~~zzbar^z~vnNq]^Zvl|~{^~n~~x^}W[z^\n^~|z^n[tN~N~~z|~lj~{~nv~~N~w|~~^n~~~VZv\nxv}|~u~Z~d|~~ua~~~}]n~~h}lRzz\^}^nz~^Xynzfrvk~DB}~}~y~u{~]mM]inE^n\Mvu~~~~fvv[~}||V}b~|\~^jni|~v}X}|~y~^~~vt~~^~^zv~v~n^~N~z~xy~~tkzNn|~z^~~n|}|~}}^~~nv^~~nz|r~~z}^eJv^~nNny{n~~^vx~~|}\~t~vRv]}~jq^Vt|q~~Vy\~\M~~zvu~nln^jn~~|fvnv^NTinvvx^z~nn~ZzjR~~nNe~~^~sX~z}~y~Zqt^n~zn~~Bm}tvvv~km~v~{~}nv~z|Bt|^v}n~nz~|~pvz~~~uNnt}~~r~nv~}|~mzm|zL|K~ur|i|~n}~N~~^z}|mRWv~vnmv^v~Lu~{Z~zNZ|jzuz^~}~~v^n~~mmy~m~zvm~^f~VBvq}Y}f|~~x~~jv\yVNy~zn}\^n}y}T|||~X~~~zz}~N}z~~nyv~~|nlS~re~~[~|^~f~z~z~R~|]|Z^~~~j^~^tm}rzzn~x^ndxun~\r|mn\r{~~|~lnhzlNdvrx}\]r~Z|~~}rI~|}n|ju~ft|}~~}nvz~|bU||vvt|dvz~}}|^{~^~zfyihu~tm,False,0.0095219612
~?@cuNydvzd{^z~~}|}N~^^~~Vn~Fmb~NlfzN`z^\}~~^lvnm~Z|l~N~e~\srxf~~z~~zv}zU~M~^v~n^z~~~fvEt^n^u~v~^~Vz~F}Vxfx~urfe~V\|||~zZrnz~~}v~~l~~~~f^~~V\~j~~T~~}wn~}mVznv~\||n|~fwvvlrr~|~~}}|~rn|~y^|~|vtv~~|~Bx~}h^~~Nn|Fnl~W~Tu\v}\~pn^z}t~^zylV|dl~}~~^~z~lNnz~X^~l|N^yr~L^~}s]t|^~Nwy^{i}T~~vY{|xfv}}\~~Nn~rnN~~V^rTun~~N|^cnh^^~[|Vzl]~|n~r~}~lm~~~N|f~Z~u~}Y~^~mvr|Y~N~hn}~]ti~|~rb~Zz~vTz]~~}}v||\llZ~vxz|R~~xt{}rvy~z~|~u~u~zzv~~~\~jlzyxtxN|~^~~znt~nv}~^~sn^~rjNz~of~tx^\{nuz~^^{n~^|~jz^~}V}^p|XqrQZu^~|j~a~v~v~~~~u~~nh~z~]jvu}~x|y~v}|L^v~vlns|~v~hT\~~}z~u^^z~~]z~vj}p|~z{zx~}FV~~~m~z^nvtnf{~^xru~i|v{zn{n~|^|~nz~v~v{N~~}mn}tlv~~x~~x~|zN~~nz~M~n~~~yn~^~f^u~T}^^~R|~z~VVfNV~k~^~zx}v\xnf^PR|V`xv^[v~~~zv~rz~rfJ~MlV]n}v|nNz~]|}~~zx|N{UIzz~{t}Nz~xu|xeu|~lYv~~M}~~~~n~ZvZnvfn]~p~N~~}}y^~^}~|~Pn~~~^}~~~nz~{z~~~~U~~lZ|}z|^~G}qN^~~~n~zjF~zUnnJv}k|u~q,False,0.0094711781
~?@cv{}~dL^fxz|tnnd}~znn~n~\|~t~z|~^~V~~z|z~v|z~]fN^k~~l~^KVZ||l{nVzZ}{Vy}vm~~v^t|v~Uz|~^v~n~V~m}v~~~Vy~~zxw||~l|vTv^|z]~^~v^fpn|z|~v}\NNx~^zH~V|p|Z~n}}{~~Zju~~q}~~{^{~~~n~~~N~}~~~]Np~zv}V~~xz}~n}|{lvz^v~~V^e~n~^z~}~v~wl~~n\u\n~X~~Tx[ZZv\}||}~zZnu~|~^~z\~~v~VE}~|~~v}o{Zv}j|~zvl~m}xnyr\~~~li~Ztnb|~~Zvq~Y~Z~jXn~xgbzr|~[~tNnpN~r{~~~vvZn{}\~v]v~n~}v^dm~}|v~~z|Z~m^nn|r|uv~rfnz|\VzZn|~~}~n{uzX\}~Em\t~~~~|Y~Z~y^^^{K^~~n|z|}jxKuz^nfn|z~n~v}~~~L~k~j{{~y~z~V~~|ys~x~Hvz}j~~~~~f\kv~~t~~}M~zvm}}}R~z~vv~f^]jN~Xavv~^N~udr~~z~nf~jl|\nw^s~Z~|~~}Vv}}~evt~v|~qN~|Z~VVyvzrvvj~v]utn^g~}z}|uJv|ym}|yVrVnv~~~~rZxm~Z~~uv^~t||jVIl~Z~wVn^v|Z~~E~Xuv}vd~|~Zn~lnS^D}i~]~\\z}~}~|~wnzxn~^jvvzf~~fz^v^~~Njn}f~|Zb|~}~znriZz[|Nj~~~}vzu^~vZb~~^z^~n^~~x{xtj^^nn^}|~|~~]NnmjY~t]|^szl\~V^f}~m}vu~z~~~~n}vz~nn~{~vBnf~\f|~~|~v[uzv\^V|y~~}^tzz||{Tf^~[n}J~N~l~~u{]~,False,0.009447813
~?@cy~nnvyv[v~|{y}|~^~^n~}~v~~y|nynfjp}|~^s~~vzl|~~~fvZuv^y~|y~z~~~~~zvzl^n~kz^}mM~|m~}}z|~~R~~~nZZ~t~r~z~~g~YFZ|^x{s]~}|~z~~~~lt~nf^NZZ~Uz|zyzxV~^n|\{}lzn~v~~z~R~|{Vl~~zT~~nJ|Vbr|n{~~t|^~~r^}~v~~r]xnz}jzzz~k~|}x~F~}^~\~Zznz}vT^v|\kl]vy~|x~}~}~~~|^}~n~zT}|njtu~^~]^jn~{~z~}rv~~um|{~t~|j~}}|nv}F~n|v~v{zunv\nel}~klm|lrr~n~hq~z^^|l{~~zUZV~zl^n~nz~zvz~y~Z~^f]m^rn~}lzZv~h~^rz~yxj}~\l~~V|~t||f~nnlnvJ~}z~~}~x}v[vmk^nNl\~Tnz~~~^r~~xyu~~^~^z^z}~}x}fzU^~~v}|rvvV^~u~vNmm{^~n^~vyz\]t~]^vYm}|z~^~N}^Lfvn^nv|n|V}~bfz^U|^~F}z}r|z}~}~V]~Z^~]y~nu~~vYy^n}Lqur\Lu~~}Vv{Vzm^z^~v~~|J~~^}nN]^|~~^t~v{Zn\~v|f~z\^~~z~~~}^l~\|y}~~J|}m\Lvxy~~|vz}~vFm}X|\~UfzIb|i~vzzF~|n~}}^~j|~z|j^{^z|~z~|r~z~h\]|~}\^z{^~x~wm}~YT{qzP{L]u}~~^`z~}vy~~^^]v}zzz~ZmVz~~p|xz}flr~~aJ|u}X|l~`uFzwzz\QMw~r|}fv|z^~n^}|^{v~nyL~FnR~~~~f{Z}|~rx^y^uf^~}~{}~~vts^~r]u^|vz~z]nz~~n~~,False,0.0094349384
~?@c~~|n[s~nv|~~V{^v~zmz\~|v\}\n}~v}V}nzZ|vnV}\|nvZ~~Tlu{~z~~~q|qn~iv^rNdv~n}~tv^~]~zDrvjv~v~^{y~}~}`~y~}~~z~jzud~\nL}Z~|~xjvv^}J~~^nf}~vr{}~|v~fv}~~z^\}~k~R|z}}\n~vv|v~rkl|]f~\x~nyxzzntfv}gnri~v{~r~m^vnZ}VZzzZr|t^~V~vn}e~]{zHvr}xY~vv~v~\xjlL^V^~Z^^h}~Zn^~~Zm}zL^r~^~~vv}~zRVm~u~T~\y^v~[nz~|^n~z{~n|^~z~~n~~z{~z~v~Nf~zn|n|}~^~~}~~zjv~vZ~T}^zv~^|mx~zyn~~~~qvv~^^u~}^~NxnvF|v}n}~|~v~}}}~v~v\~^z}Zz~i~^z^xR~]ee~v~vVzmvnvVvU|m]~r~vfx|nv~]jz~}z}||vn{[Pzsn~~b~z[~~]vx~|~j~kj~u|~~~n~|J~~vEv}zr|}z~~~z~^t~z|~z|dUzrzvzt~z~^z~~QMn{jn}N~z~Nfm|t\~^z{\mb^|^vnf^}|N}~v~|~yvln]|~|}^~vY]]zv~znut~N^vn\z|^~Hu}]^fF~znv~~[uz|u~~^~~~}vn^~~^q\v~~|~Z|z|~nx{k~tp^v~~tNrnE~jdze~v~z}Z|}{~v|nl~~}tgy~m~n}tjZ~f~k{^Yzt}\}[nrRv|^L~vv}nz~~zy~ZvXz~zdr}rynj~ntY^z|}V^zJ~vv^V~vnnm}vyzKp~~m~f~\{ZyM~\nZ~]UB~~r~v~}~^n|MZ}~~mxw~z~vv\xT]~nVY}e~^v~v~|n~xx~~~x~v^x~\~^,False,0.009444952
~?@c~~^n~~~~}V~ydb~`t~lv^?vn~y}|~]z\~{|[~~r~Rl~M{e{N|}|~n~x~V}~V~zz~}zj~|~~|{~y|i}^~~}zUx~~~u|~zn~^~~v~~^mL^Sxf^~z~z~^n^~}nZ]~}~TiV}z|~~z[\}|xIn~|z|^~~z}p|~Z~^~|~~fyn~~nvx~|vD~~nv^vnwz~~zfv]n~zLVvzzZjz^Nzuxi~~N~z}]n{]|muon^^zm^mxxuy~~~U}~vn~~t~dxp~~~|yv|jv~z}~bUP|Z~}vedzY|}vwn~y}vv~~y~n{nnPnv~~[cv^~~}~unzv{z~zLn\vne|vn]}vVv\jnt~~VtN~x|~\y~m~~iv|]}~sz|~t~zn}tLn~lfnj\~|}vlzr~vf}nu~^z^~x|^nNvy~vn~ynnzN~Nzj|l~nv|kn|~~~ZFbvF~~x~v~jyn~~bj^vz]{^zm|~v^~~z~lzu|}~z]r~[~rh}{z~T^Vr}~~~N^w~~^Vxv`n^v~}~^uZzjTU\~~vVvz~~u^Z]^rvjUzvf}~^un|~q}~\m~~|v~m~mxn~|}|~}~t~~~~~m|rZ|a~lvv~^~~}fv~~~Vv~~~f]ms~j}|znnmza~Z~T}}v~rn~tn}F|^r}y|Nnv\|~zn|vvj}}}~|y~nn|~n~N~ef}rvm~{}u~^v}~~V~|~~vvN~~v|fV~N~~z]Inu}^z~~j~F~~J}Nvh~lhm~^}v~zr~x^n|^^F}}Y}eVN}n|Znn~Nz~}Vny\sb~X~jn{~~f~~~^[~k|~t~x~n~V^amCs~^nnxn~fv~n~]r|~{~~[N~}vZo~N^s~~^v~n|w~~}^n]M|~~dv~~nfrvv~,False,0.0094790459
~?@cN^f~e}f^zJ|vvv}~^ds~~}zj~utv|n~v~wm{t{t|r~|~v~fu^vv~~B~n}]~V~mv^|~~}}~~Vc~^Jvz|v}r~~q~~^~z~N~z~~V|NJ~N}z~~v~~n|{v~p~z~Wimxz}~zf^v}~^l}~]|~f~vz~~V|z~z}nfu^~tj{^x|{Z~^V~n~zX~|~jNt~~~j|jZvtn~Tn~~~~l~}VS~^}~un~zzjy|Hz~}||~~x^v}]qyk{~|}v]|N]}v}~jr~zv~~n~|N}~jqm~Ru}}l|~I^n~~rnbr~|~^vq]~~^wxl~\u|rrnz~vYz~y~N~}Z~d^Xz}m}n^|jpn]^~~H||^R~mn\v|~\^znv~~}zv~\nvF~}Z~h~~}\Y^~u~F~~]|~zn{Zmnr|v~~vVYnn|]Z|~zlvs||}~^q~~~v~z~~z|~}vn}}ynVzjNvznvnnXvVV}p\}v~~|v~~zn|~pzT}~}z~zzjrfn\t~\t^wj^V~}^~v\~qzr|]~l\f~^~vNNn^n^u|~}u~Xzv|~}||^]~RqF~~zfZ~v~Z~Z~z~zz~~~Vn~|~lv~]s{V~~s}Xnn~^un|\jn~Z~~|v~p^{~uV\|^q~f~}~|~N^|~f~zv~~mj~Z^zztvi^||nx~jV~v~b~~Z~oe^^^~~Fe~T^`^~iL^z^|y~~xp~~|nb~}}||~v~N~~T|Rh~k~nV|}~f~N]znn}jz}U{~t^~ly~J|x~f~~^}}~~^^zl~~v}v|x}l~~f~~}|nnrN~vz~etvnk^Vz~~A|}dn~~v~n|r~[^u^~f|n~~YvMpJZ~zzzz~}^ixVxz~\unjf{`}}Uxp~~~\|\nv^|y^Qnr}|z~~~v,False,0.0094540119
~?@ch~]vmtz~xzzl~vv]v[fNn}~M|zn~}~Zsvtzv~~jRnzn^{|L}xnxfrnn~|r^~^b{~\~~|Z}}~~^wXrzzZ~yp^V~~FVvT|]~~f~nfnj|\~r~d~z~|znva^Z~m~dvuz~mlx{tn~~zfZ]u}^~d~r~~h]z}~yv~~~z~t~Nv]~^n~~vsx|r}jvn~~|}xf\h~n}~rv]~F|]X~~|~l^~~ry~v||~n~l}~q~}{~\n~{^l~uxx~}{nN^{~jt~e^f~V~v~^ynn{}\~~~v~zuz~vh}z~{~vv~h}jNyvZ~Z^I~^F~v~~E~zyG~~~]vlzznr~|~t~~m||z^n~}ny{\vn}|vV|z~~~vfvn~}lJJ}{~V~~v{vVm]n}f~nh~xxzz^~s~J~nv~}n]~n^znrvv^~Nn~|Yn^h||~Rm}du^~^^U^n~wvvunVv~~|X~\Vqn|{^j~~v{z}|ljr^f~z~}yvn}~u|j}^un[yn~nvrz~~nv~zzz~~zZ~}p^zv}NOZ~j~fy~~|n~^vv^~~}T}~~Nnz}~r~nxr^|IvJ^z~z|Y~yrz~~^t^~v}N|~|n\~m~v~n~mnZ~~~c|~^\~~}|v~~~}[z|m}^u~~n~pv~z^~~t~~~~r\{~||m~^n\~~~v{}V\{~}{jz~~~t|^}|~}~^z}z||n~~d^\]u|~n{~n|lf\Mn~}~fuY|f~}^v~\~^~uv{~~zV~|uzu~~nv^f\n^{T{z~}vfy]ZmXnV~ZrW|zjz^{jy~x~~~u}sy~zP~}ntv^|}~~|mZnvvzy{|hrrm~z~r~~~np~V|zNz~Vw}~mr~ikY|lz^~z~}nxxn~tTlenw|^}zv{~yl~~v,False,0.0094549656
~?@c~jV^yl~}~|~l}vm~~n^z}||znrrM^~v~|{~Z}y|~z[mZ|\z}^vzv]xvvs}n^v~]fV~n~n~v^~l~|[|~\~vz}|ytiz}V~^vk^~D}~nL\~l^V[N~~k}nn^~}|~}v~nJ^toh~zrx~jn~nrn~~~a}v~|~Ut}l~ua|Epl~}vzXglzz~n~~~g~~i~v^E~}~t}~v]~}}~~lfr}zvn^|~n~ny^ru~]~}^~u~Nv^E~vnv|~^|~~}J}z~~T~~z^yf|z~~~^F}~V|[n}n^{Mn|~~\Zv|{^~\xZv^^|}^z~Uz~~j~vmy~z}L~}n~~[njz~~vY]~~~~bzuzy^nq~e\nzt|~\zvx~|v~}}~^gn|~~rlzh|Nflv~o~V~uJ^zyvu~}Ln}f}]]x~V~Nm~l~\}vmZju^nzr~~hQ}vvn~U~y^~^]~M{~~}z\^vvnjnn|}nZ~}~~nn~}~Z~~vrjnt}~||`~jx|nj^~vx^{~~vvv}rziZR~\}}~v|x`~Znb~v~~N~~z|{z|~~vzX^zuvvz~vnt||f|~Vu~n~yzm}Z~}~f^~~}~v~}n[Pt^l~~\\Ff]mjnzz|~nn|z|~~~{|^b~^tnNjVnj~^^vv|~r}]zdx|Mj}ynz\Vn~~un^\v~~|^zzn[~||d~~~~~}~zvzm}UN~m~vZ|kM~z]~{llH~~i~|~~zzyN^we^~hm{^|~}zv}~p^~np^~~~lT~^lvv~zvz~~r~~tx}~yvZzw}vt~N~Zk~v~~~~|^l}pTru|~{~{Rv~n}V^v^~|smv}~eN~~|f~z|~r|~j}zv~~|nv}l|z~^~z^v|~n|}H{{^mr~y|Lz]|U~~~{~~}vV,False,0.0094490051
~?@cL[ux}}m~~~fiszr~v~zr~|rwv}xn~\|Ny~~zv~vNZ~}nzvzu\z~jl~~~n~~~vDnVxv}~d~}\rv~^T}~jvhpvV^]q^}~^^\~~nn~d|{v|n~^P~{}v}n^~}o~~}\R^}|{~sn~n~^j}~r}vV}vn~~N}r~fm~~}|zl}~\X~n~z]Vmv|z}~|~|~~}v^]^z^|~Uv~~~Vn~Tnf]\u~i~rpz~^k}~~}nyyu\}|\Nn}~M}{n|v}v~}~^v}~n~zu~y~~}^f||nn~Vd~]V~^~~sfzvvvZlhq~~nVj|^^v}~BZ|~n~~}v~}n~j~}s~nn}\{~{t~~~nj~n~PnN|zfz~Xv~~vvtz~^mnpuz[~mn{f^n{|lzf~nz~~{nw}n~~v~~^V|~z{}Huuz~r~zn|{{r}Zjz~vu|~f^yv\\\~~~~}f~~~ny}]~}nz]NzvnT~~~dyv^z~xw~~nzmyj}l^nk\r]t~]^R|x~\y~e~Nl}~v~~nnj|n~v|v~~~n~]~~xv~vl~}vvkv~}VvzZR^^v}Nzzthw~vs~rznvJ~f~r~|~^vhl~~]lzTkV^znt}~^~p~v}|T~nyzk||qz^|~^LTdNz}}}mlV~~~}{u]]~\^~~|}{Zu~~|{\N~v~~r^dl~\zSv}~^zzvn~vYm~|xn^}~z}NvmmvVz~^~|~~~~N}vz~~{ZNz|my^n~Rry^j}vn|~|}|Z^~VM^~v~}m~|N~z~zn|~~t^n}Ve{n}}]}^m^xl}~N^f}~v~zn@v]^{z~Hz~~~^|nn~[z}Z~~zf}tv~}}Z~j~zZ}^{~|^z{r^~vl~|Pzf]|H~~]~~M{z|r~~~~V\Tt~~X|x~p~Y,False,0.0094821453
~?@cnz^v~}zznz}r{f~|u}vLm~v^lT~e}pvun^|znyT^j~v}ei|N~|M~\~~n^zz}~Vzzjn[u~~zv}~~vv~u|}\~z{}Lnv~~jU~xstv~\jz~~~nn|v|]n[zn}]~z~t|~R}{xe~~^Ln~p|w^{v~z~~ddv~]|{~~~~Nz|m|r}~}z~~~yy~}~~m\x}Tzn^~}l~~|]r~v~Nmxv~}yz~Uvh|]~fn]U~V~p\nzvvl|n~~V|nznv~z{|yz~xzmr|zl|}||zb^^i^|l^~~z~tm~uN~Zn}snUutvfNn~|~~~}|^~^u~|nz^~\j~v~nu~z~~~~||^Yn~|t|vkj}vvz~~{~]l^}~}L~~~\x~~]vJ]nX~|}]^~zrn^{fpu~v~~~p~}u^j]~}[j~n~F]~~l~nnNz{}z[nd\^}j~F^~nv~z~~~V|~~z~jn~v|~}Nt}n\yz~~^^~{{^~zn~~n~~u~zon|n~~T]}vn]z~~nyf~}O|~x~z^~nz~~~vt^m^z~nUzrvvx^~vsN~v^|jv}~}rf}qzzn~\z~vek~\t}y|lv}vuvy~}`nv~~\zy~|v~jn~|\|s^\~N~n|qnzcj~~~]}~np~Jn^~Fz~^~}uzB^m}nfvvV~]]d~^Rxu}ys|}~t]~v|~yz^~}n}^e|^~jF~L~vJBz||~~n|\}nlzNx~|^nwkqj~[^}j~z^[}xf^~~|z}b|r|}zv~}~{nb~ke|~mv~v|z~V^s~b|~h~f~N~}V]~DaNl^]~~N[Sw~^V~}lvvfzu~v~|b~ns|}|~~N~~\v~}~n{~~lxp~w^Zvv~^n^vzvvk~~~~~~R^^]}~v|~}}~^z~t~znn^~VnZ,False,0.0093920231
~?@cmem~Nv^^v~fz~f}|u~d~yvL~\v~z~ikv~u~dJ}n~L~hu\~l~Lvqv|~|znyrv^z~^~znzxzF}u|~zs|l|~~~~~ly~LZ}r^ivr~~|~|Nvnjnz~{F~|Z~fz^\}Zxt}n~n^~|z~~nzu\lz~p~F~zyz|~~~vByz^zV~~~~}~mlym|v^lvNN~}y~^~~zrni~jdf^|~}~Z~x~~u~r~v~~t^zg}|z|uflj}v|^y~~Nd~^~y[uZ~^l~~~zzvz}Jvx~~{n^n~~v~zfm^znn^~v^~N~~|fL~T~|}|uz^\}T|z~~l|[n||nzx~Ls~g~s~fN^FxVg|~t~}}~n~vSY^j}{ZmR~~~Rz~vx~}rz~|^^n~z^~n}}YQtUJ|ujd|~}ztj\j~~^~Nyu^^^Zfq|yn~~n|{N}~n}~|~^n~|vLv}l~n~^|~xz~~|zj|vzM~ny||mzvzxv^M~~|^v}~~z}W\|~vn~~Vve|VY]ln|~yX~^xz^~\|~]\~x^n~uu}z~TZ^}xxv^Nz~rz^~l|~v~MmY~~zV{~}~vn~v~\Z~^~~|~|~~z}|ml~Nn~{}}nvzn}rvv\|~|~}n]~~~z~Nz~~|}m^y~|^hz|~r~|z~}y{U|x~~\}nr~~^nzW\Nxz~nm^y~}~i}}t}f}|n~zmqmyzjn~vyZ[}~|~R]bxju~|^NN~~z{|j~z~D~~|~^~~|n~N^Krnkm|k|mjnR^x~~nnfNt{~~x^ztlz~l~~vn|T~m^n~|vnn}^ze|}~~v~n\|~z~^z}~t]er^nvn^qMn|nvz~^~~nvn^Z}nnrNn~nt\~Nz~v}l^x|{}z~v~v}~~qX\~vDPuV~^^~~~n,False,0.0094511509
~?@c|^nmv~~~~{Z]}z]Y~]^ylT}~~rZ}^vV~^~z~|~mr~`~~~|~~mbL~mzV}~nr~Z~}}~sLzp|]~|r~~~n~~~z~|t^nL~rz|~\\mNy~x}~|q~~^~~|~n]q~~~]Z~~~t~xu^l}~A|~\ip~^~zV]~~gd|m}~}nt^v}^^\Z}fnv|z}~~z}v]~^~vmvN~~\d~~~v@l~c~}^^Z~|z}z|~}~v|~Vwm^\fz~~|mf~^~~~v~z~NtTvy~~~zzl~u~^~~Nf^FEn~^~~N~nz~vPv~~V|r}~I~z~l~vtZ}zn~j|~zuzv~p^||}~~{N~h~rm~}|~n}]s^Z~Z]^V]z~tr~YmR~^Svj}W[jvir}~{rv~z{]v~~n~mZ}nnz|f~^m~~~}rx~dZ~ZZm^^f}~}~~|vYzv~vE^j}{e~{l^t~~bt~~fvx}~m~~zz~m~F~nz~v~tzv[^|v||~~^zal]z~VjUtm^|~~~ZnNz~~}vmn~e|~~Zlvv]}m~~i~f}~~~}}^ey~^~}W~t~zz~^HLn^~Zr~ny|s^N\~~^~}^^^vno}}~n~^p{yi~vV~[zx}z|ns}|~|zv}^T~v~nv||^yl^vVul~\^nx|}Mv]{rh]}~x]|Xnm~~~n~}~uhz]r~n}|F{v~~j|x[jnn\lvL~zqnz\}VV|~\~~z|^~~q~]Q~{~mn~xs~Y~n~|}~~v~y^xn~fuly}tn}~~f|~v}j[^n~}x~n~z}vxt~|dM|nn^^ql~d^m~~}jPf|zU~z\~vv~~j~N}zu~}^z~~~~{v~u{Nyn~~m|}z}{zev~~~|yNn|~n^||L~z~~[^^xn~|~s^svZxN^|v~xjunE|vx~~~,False,0.0094120502
~?@cv~|z^\t^|F\}n~vp~~N^u[]vN^nvj~ezs\~~z^X~}z~|~Ve~~]j^]^t^v~~~n^^v~|~~l]|tv~~nn~~}i~^tezz~v~^~~}|lm\\R^z~~Uz~~rz|nf|~~~rfvz~v~^~~n|z{~~in]f~}N]}~nzJnF^~vj}v{zN|z~}r~tvZvz{]tdv~[d|bv~{~yw{NV{zV~^}zym}~T^~f~zvvV}nY~y\}nd}u{]^Z}UVeu~|FnNkke~|~m~}r|^~Z~j~U^v^~}^b~|}v~~Nn~f]~xxvzV]v~~~k^[|h~^z|~^~y~utvzz~n~}u~zy~~Zy~^v^|\V|pz^~U~vn~n~~N~^|zl~V~xJ]}~j~~^~n~}~}lnM[vYx~~~^br~~{fN~nl~^Z~n~w}~N~~vzv~}~k~L}nv~^yzfv\~]~X|~^zz}x^z{v~^~f}}rvv~~[|{~~ng~|~~Z~}~~~^~ru|n|\vjzN^~tnp|zvMnMUk^u]jVVzoe{~]v\j}]|fr~y~vXl~J~jz~yu^zV|vz~~~ny~jg~|]~f~~yF~~y|~|z~`j~z~ZZ^~~v~~~}|~~z~|t~~]}~|n~~r}~~vZ^nJFNq]ev]\~l~nnn~Q~|f^^~~znZzm^}i|rv~|}LxXtZ^rxv}R^~v}}It~}jxutV|ym}~zR~~v~\~nFwZS~~zvv^v~\|~V~~Y}n|w~~nv~]~}|zVu{Vz~~z^~mzvLv^^Z~~~{~~nN~^~K~zl||zf^}~~|~J||}zzfmF^}}N|~mn~~ny|Zuz]nr~~~^z|{Nc~~~v~}]~~NVG|l\n~{~~}}~ynq}~~m~^~~Z|Zk|zZn~}n^~j|ld~L~~v~,False,0.0094978809
~?@c|v~zn~|~~~n}d~tr\v|~{~n^r}}z}~n^n\M~nN~~~m~lz|}nn^~^pnyn]v}z~~d}]q}~}\}~}v~~fZ|~ZtN~vz~~v}~z~w\~}~LVu}z^]kZ^zFm{XYz~NMNX}j~rzzT^DkY\~~~tjnnv~~}}~zz}n~~u|~Znzzr|~{~^~~n~jx~mryn~^vs~~]~~~y}Jx~j~|~nyznv}w|i~~~\~}Y~LzZun~~ttzvL~Jlj|fuf}z|rz~~f~}k~~nq|zlv~u~~~zN~v^^r~~v~X|~~|~}rnz|nyl]~|t|~~nnXsl\[~}|~~v~~yv~~UuI^}~mn~d^^t}tvzzNn~|b\Nv~l~|^K\^}^B~v~[kj|~zul{dy}~~{~]HJj}nnUil~|zyf}~|}^z~v~n~~~xz}}]Z~Z}vl}z}iv|}~z~v~~}~~~|z}~Zd~~R~^t~zr||z\Nz\~v~n]u~{~~v^n~ly~^n~}~[^Rq~}zVx~z~^^~z~~nnmz|~^^nvrFv~z|j~NZ|n~|k~}~VnJ|vSn~u~|wlmtun]j~]n~{~vtup~x\ngV^u}|~zn~nfr|NHv~VlnVnvr~nn~z{~||uv^^nLzz~~~K~~~}duZ~}n^|~mn|zSk~njfn}nm}~\Nv~ev~jzz|Puzr}vV~x~~n~}^vM|v|}mz~|~tM|~~zM~v^Y^Vv~yn~fv\v|~}Nnrr~^|~v{zlnuR\}|Zvvz|tv^h}Vbtql~v^t|zn~v^z~~{rnj~v^V~~u~vQzx}\~JrUz~x~~}zw~nY}v^v|m~~u||r~zZ^znfnn~[~^~]~l}~nx~^t~n]tz}~nvz~}~~~n]~}~k~r~]~lZ~~{x,False,0.0100791454
~?@cnl|~n~^~}ze^|v~jznvl|}zj~]k|^r|~~^~^l~yt|Vv}nuz}^~]~~~x~No~nu~y~nmnr^sV|~}e||~zvz^}}~|Nnn~Y{nlxB~@~~z}nyuZj~Fft\nl}ft~~~]|Rz^e}}x^|~}~l~Kn\l~^mRnNzZfvzn}^^td}n}nvk~p~~n^~|lv|}~|Znf~~vzn|}~~ivmfzRz~~|n~^~uzzuj{f^n~]}vz^[T~m~~Y]{t|~{}~}^lz~nn|~~}Mzzvmm~nfm^~nv~~~~n~{~^~~t}j~{vyV}vnpv~nzpx~^~~}Nnn|rzn~}~~t^^}^h~^dzf~b~n~^v~^tnv|dvzv}z|jn~t~~|}vz~z^|~}z`zvLq~nzn\u^v~~~^]~m~N~^uz~~~~s~z|b\|vj~~}v^N~}~~~}}~^~nz|~Nl}vJxzV}u~m~z|V~~~~n}u~w~z~~Vn~jhz^u]nZ^N}yzzr[~n~m|~V~~{`tn~vn^r]~F{^~]lzmrmvV|}}~v~n~|M~r{]^zz~r\~v~u^v~vZoVN^zx~f]~nrvN~~z~VvN~^~|^r}Pu~tF~n^uy~n~Pz{~v|~\nnn^~~~n}H|suz~~Vv~}}~~~N~}}}^nUz~}v~~vn|~z~l|tv~^~~|qzTbF|f~w~^ZvF^tz^^~}|\x}y~z~aNV\~^fvlvz~nf~~iy~\fBJ~ny~nt|b~}jz|~z~]|~]}nv|}v~~nt[f`vw~}Nv~~z|]b}|^~z~ZllzV|}N~|}VzN^v}}~~~{evz~~Mx~ur|^td~um~~}znjvn^~l}zv\vY~yZ~r~{]vrxz^bM~nbwvtvtv~lxRNun~n~nntzvd^~zzZ,False,0.0097088814
~?@cv|~{y~v~~|~y~~|vmdvm~~}vwm~}b~~mm~~z~|nX~Rp|n`~v~n^y^nkZ^z^^n}n~~nt|~jL{^|vnh~\jl~VVbNz}v~t}vn~n~U^m~|z]~{~iNn~|yP~BN~~}KYv|}~zVl~~^Nz}uzdr~pz|~vz\zr~e~|wm~^|~~~j]~nny~~|^~~|^n~l~~~vj^~v~~Rrjv~r[z~mZvZ}Z^iz}~nbz~r~^][^ZE~~}~vn~~~]vl}vy~v^NvQmup}|~^vEfs[~fw}^j}~^~~|v}nL~yn|vk|^u~v~|v[}y~znbvvj~~f~vE~Z~}rL~^~~z^~~~l|~}~~~~]~}}~y}vnnzvnVb^~Ul~zt~~}~}~zvnv^~~r~}^z]kvb~~^Nn^Z~wz|N|I]~|d~~~}Z~^zl]|n~~~\^VN^Z~^~~m^~N~n~~{|\}{H}~j}^}}N^~^|J~m}~~Xxtn}z~^N~~vzuN~vR~Z^|~~v|j|Zn~ny~u}|nr~~j^~u]s~n|N~D}v~m}i~~~u}n~ML{v~~^vyv^~Vvn}fj~~v^Z~e~lvLvnl\dvz~|~zzu~nffttZ}vVry~~v~qn|}n~~zMt~{~||tvl~ztl~}tx~r~ufnmv~}~~NNpe~znn|rzjv|~xv~~^Nz^~n^~pRnu~MrvvM~^xz^^^~}]t^z|}\}~~f}~}]]Zz\^hrn~rz^~nzl}fZY~t|vv~Rnzu|{v|Z|~nN~n^l~Njnz~uut~~{~t^U~z~|Jn~~dn~]uy^Rvvz~~[]}txm\r}^vU~{V}\oNf~}|n}~j~}|X~~t^x}f~qV~~~}~^n}Z~~v\~~~vz~NrnV~^n}t~Tv]~jvZyx|\,False,0.0102369785
~?@c~}|u\~}zv~~]~~~ub~~xvzr|]v|^~vnvZnn~~]~V|~i|n^~]L]~|~~rpN~ntj}^[yint}s~^~zv}qz}}^fxZ~vzy}jm~l{\~nZ{z]y|nMz|}du~|fvn|vu|t~Ru|\V~~^|h^~~|~vz~}z|H^[~Nvvl~^|~z~J~~n~^~^nm~v~Y~~z~}rr|~z\}~R~nz~|~n\{zvP[\~q~~^{~l~~c~V~x|^v~|nyn~~^~~~T{~xe~|snnnz}zt\^zV~qlzm~~V~v~z~~^}{f}\~v}N|~vL~}~{`~Nn|tru|}]jlkM}bgn|vz^Xtnn~v}~tznm~Rv~Jtznt}v~}z{~|{~~^o^Z~|~}~n\z^~}n[{|Trz~^PM^NoM}nc}}~}nj|~tn~v^V[V~}}zzhd~zvunMue~n~~vxvvnUfyvRZv~z~Y^v~~X~k~wu~w|Y|zv^}}^~\n[~u}n~}z~n~z~jvzz~~\\v|mzm~|~LV~ZV}~J}}~z~m~zv}n^^z~~uxn~|r]jv~{\vd~|z|~~~zzeVn~~}n~zYZ^xvn~evz~~W|f|u}~[[|z~^~b~Zzr}|zz~nn~jzUk|n}}p^wjvm\]z~xzr\~vhn~~]z^t}^~E~m~|~~\^}v}^}}~|~|CT{~~~z~~n~}z|^n^~|Nlv~N~|~]vtrf~~~}z[Uum~~Rz~v~N|n~~SZz|z~^]~R~itd^vv~~q~~f^~~nvy[~b~j~vqny~v~lT~z~~[~nvHZvlNnv|^Y}lv^~~Z~^~]u~~z~~f~zznr~h}}n|^}^~}~kwv}}vz~^~n~yUx~D~|n~v}~|J^~{~~~~|~v|n~nZ|~vvzZz^^|\~~\z,False,0.0101380348
~?@c~~[nkY|l~|~Q~~npzH|}Bv^\}z~~z}~^^Z^Z^zf~~~}~}nz^sS~ul^ln~v{Nn~]tR~]nz|}z|nZ\~fcfl[z]~}tm~venzynf]tz\~]~t~~{u^~^yvn|n^x~vVnvvz~z\v^r~znn\lzn~~~zv~Ntn~mxv~~vN~Z}s~vtzz{V|t~~tv~}nnn^mzvvzy~~vx~n]zIdYv~~~}}w}~yqjzn~\|~~Z}[vzy~^~Nv[zt~^~l~~z~tn~mn~Yl~~~~zv~n}l|~ux~~Y~~f^~~~T~r~]~|xV~^Zv{t~~~n~Z~NNfv~~zjxznxzr^dn^n]vYRnh~x}^nnztr~}XxV~\U~~~be^x^pxn]~^}E}Z^V{~Vx]~gp~~vu|~N^~vew}p~~^zfl^v}~v~^^j^~h~l~j|k}}}v}^|rfjt|t}~~~w~n^Bb~~n|~t{~z]LzyX}^}zs~v~|~jl]EzjtvzN~f}n|zlm~M^vtNzT\n~l~^~Zem~|yx~nzqfv|}~mnn~nuv}k|^z^^z~n~f^y~}v~~n~~x|~|jy~m|~rnxv^~vzye~~tv}}dY{y|~n{|ZnxZ^~}Ynv}y~~ezy}~VN~~fy|\~f~|\\~d}v||^x~k\^n^l}~~z~~~~~~}z]h~n~r~^qV~\|~~ll}~~}n~v~nv~n^~~zZd~n~|~~M~^~{~v~nn~}uvv^lLzn~~j~~}~~n~~VzmzVnVN}v~~xm}~ty|Z~zYZ^~z}ty~jlk~^mR~~nMx~~J}~|w}~n]vz}|ft|~~y~~^~}V^TLm~v~lx|~n}~~^t}~~~n~R~~N~{}n^N}zNT~~]|n~n}|tyr|~\~}~lSf|Rly~~,False,0.0100889206
~?@cf~|~z~nsv~~^v[c~~}l|yxVu}~z~YFvZ~~FNn^~nn~yv\qZnv~|v~n~^zz^j]~t~x]v~^z~]N~|~|j^~f}\{v~]^zt~z\m]vn~~V~~^v\}|~\]UnYvv~~ryz~~~nzUv~mu~~j~z^|zv{~nj~zz~l^~zg~}~~~vvZ}^nuxu~}~vnvlzT{~x~~^|}Nk~|[\~v^^~}ltv~~}^v~}zV}~~|pfbon]x^~v~~~mzz~}|~{^~n\me^fVn~~~n|n~y|n~}lx^~zy~umw~~|nUrzyz}nzN}vnz~v~n\v}~wbTnuvtn~~Y^~~~~{v~~nulut~~nzvNnz^~npn\wstZ}jk}jzk~|nzz|XezN}k~vtzQnZY|x~vv}fv~zT|_xvz{zt~^~N~YLx^~^\xn~l}~~~|~~]{nzn~rnrn||n^|zv~fNr~z}i~~~j~eZvT~~[^~Uvfz|~v\~rZ~}~~fv~nUv~F}~zjq[}y~kVv|^zz[zNt^vnt~nvV]~^^|}vjn\|^Vvj^b~~{~j}j|U}~xy|v~~z]MxRz~xrnv^vi~x|yL}|v~^n\}~mn|}u~~~t~}tfnz^}|mv\v{]^vh~Cn~z}~^~r~~u}LxtrYnvzv~~|~m^tu^n^~~V]e^}~~^^MnxTnnn~H~vznzzdV~~r~z~~xnvlu~w]^}vvz~m|Tnnz}|^}q^\m\|~nbvv~~v^d|~z~~x|v^MJL~z~n~Ft~~y~f^~z~ntaz~~l|~~~jE}~||}|u~~t\~}^vvR|zjv~~vvzj^~n~Zz}~^x~M]n~e~~zv}nvt]n}z~~|z}~@n|q~]lrV~~^\~|~n|zz~}~}|~}|U~r~}~,False,0.0101540089
~?@c~|z^\ZvnNU^RVTnR]V~B|v~}~|Xy}~~~f~vj{uvzv}}yv^uyhzxv~}rz~~^z~x{\f~vjn~~Fv~n~]~{~a^v{~Tvf^~vZf^~i~r~mj{zv^~}~t}~ZJNnLV}~yNzv~z~{zzz|n~V~]~|~|r|}~}n}~Zy~~lzm~n}|~^]p[Y}Mbt^~~s~nf|\[}~}~~{~~ml~~~~r`vZtn}I\]}vvz~v|vvM}vl]~}ozzJ~}~|~|tvzV^|~}~~}^~Z{}zx~~}|p~~^}z|l~}]~~lz~vzRr||v^zzrvvM~~|f}vzn}~Njl}mnf}jvr~Ztfvmxn^Z~ezt~~~T~v~~~||~|]~{z~ti~~zv|^N]~|j}|~}~]~jo~Ut~x|}M}|n|L|qn~}~}~^~|n}|fzV~~l~^~L^ZmzM^m~u|F{~~^z}nu~~n{}~m~}|}}x~[{~q{|~zv^^|zV]v~~w}I~zjnyz}~~szSy~~~z~vznp|N~vv]^ytzzvz~~z~Nxt~}ze~xw|~~z~l|lR~mz~~]|[inZw~Vl~znu~n~tz~|JvzZ|vn{b{~uZWTrn^fu~i~}ynX~vl}z~~l~~}^~~^~~^^}~^f~~{t~Vz~t}}|\Nlv~~n}V||z~d]lz~~p~zj}~|x}Nv^njv|j}\}z^n~~|l|^Z~Pn|{zj~~~~nz|^n|nn~}Qzn~j^|}b~z}NNzuz~rnn~}tzu~~~\Xtzr}nnP~Zyuy}~~xvn^Zv^nztl^~w~vu|{u~u||~||n~zzmZ~}~^sJ~~}^x^rz}N|z~~~n~^~Xyf|~}~Z}v}|vnR~N~^~|~Vx~n~~xffIzU~s~ev~}xz~j|Vv}}f~f~~^~^,False,0.0100929737
~?@c~v~tw}?~~z[~\~vvN~|{v~mj~zz{~nv^V^^^^^k~~zz^z~j~~^zz{f|~}u~n~^~~^v~\rzj`}zY~vZnznvu~m~zu~|jf~nztym}~z~~~\\vzn|~b|n~~^mn|~f~}~vx^v|~v|~~^znz|zfv}^}Nu~~}~~~v|vqvjzn]~xf\~v~{}]~~~bRlm~N]~~Z^n{b~z~|x^^~tzy~~~n~~~}n\U~~tkz^|}~^zzvm}~}zv~}jn~vm^p|r~~mkz[znxz~zs~~tN}~]}}{u~~^|tNNv~b^tl}v}zyln~Ol{_^Vnjwu~l~n~~y[C~^p~~mY\\N|^tv^Zr^x}|}}z~~uR\vxw~}~v]~Vf^~tnl~~nVfd^n~]~n~~zkYv~RvN~~^^Vzm~~N~]j}~\vn^n^~{~f^~V~vux~~tynuzotn~}hvnn~^~{]~}^nhB~~V^Zu~]~}|n|}^\~~x^~uw~|z^jn~~~~vkn~z~|~^\|~||Hlv}N|~un^^X~~}z|~zZnf}||]^~}}~z~}}x}nn^a}z~n{~nl~pvdyu~~}z~~x^~vvtv~~}ezZ|v~n~j~|Z^l|}FNa~~~}\f\vzf~Z~T^q~x~~n~v|~|mZ~nmx~sNZ~zfnz|~~{zs~~w}~vzz{}U~z~zum~{{~~nXyx~{vZ{~B|^^g^J~]zn^v}|^^n|ZxnNbJ}||~}n|v~z~~~iR^{~~YNl~\v~yl\~^~}~|xv~v[^}f|~^f\inx~v|v[~zv~sN~nur~zt|Nlfun~}vzV~uE[n}~~\|~n~vqqm~t~u~}V|Z[~\r~~\~z~}Znz~MmJn~uzyZvm~\n~vvLJ~~~~o|{~~lu~,False,0.0101969242
~?@cyz~n~|}~~y~jnw||zv|m~~~m^f}~^}[azV~z]~^ZM~l~|^~|}~~t^~~n~~t_~]M|^}fYjJ~~~~MtJn~}xz~~\zt}ul~^}}^}X~z}}vlz\w~~~|~um^u^Q}x^^~}}}~}}~~nVzzj~~~\^\|mu}~z~\Rn|\~ZXuZxNv~rv~}~xZmY^hz~r}ZV~{vzt\}zzT|Yr~z~^~~~~|~v~^}|~^~Ztz~r|~zi~~njz~z~m~nhZlv~~~}LjVjlzuVk~~xfmUt|~~jv~}nx|tnzmjM^|vtt~}~e]xm{|~|n~n}[~~f~f~~|}nz{}zvvvzrnr~z~~jvny~~z~n~j~~~~pf~nU^}b~}}z|]Vnzz|Izu\z~}x~xnrz~|~vnlvz~}x^~~uJ~|Z^un~v^Y^|^rtl^}~j~mnvUN|vvzN}rx~~t~V~l|~}}Z~b||^~Nz^n~~n^~}~~}Z~|}~^Gdvz~|~~vyZmu~zu~znj~zX~N~n~^nvyegv}\lx~v][r^n}jV~V\nzn~vz|J~~~\~|~~x~~~x||Vzv~{mit^m\n~h~nnV|~~~rnl~\~j^~}~~d~}fjzU}pz~lzzvrzY}t]l~~z~~|~nbnz~n~[~v^z^z~r}zv~}|ln|~^e}]v~|m~}n~xV]~{~^k}VZMyvnVsV]}nvzz|~etn~{t^JV\~\^z}v^}~|^\~t|z}ZjL~y}zjlut[}v^zL}m}Rl|vnM|v^unm~n~~n]|SzZnzv{~~]vnfvnk~il~^~N~zq~[z|~^}r|~~~^~~}]X~t~z~u^~~~~v}\vfd~~zLx~~LZ~zyVm~f|ivnx}l{jv^vub}u~v}v~}~~]|~lm~,False,0.0094969273
~?@c{~^y}~~|~f~nvz}n~~~|~~zi^Vj~^~|r}^jns~n~vz^J}w~n}}bv|y^~~x~x~C|^|}~~~~n}znln~~~z}}^`D|^yvmv}uv{t~n~vinwz^~~~^z|v~~jRuz~zv~^vyW~Vr]n|n~mVjN~zFzl~jv~|z^y^j~fsz~~~j~^`n~~v}v||~{nvnn}t}Z~~~mz~y^|~~^}^~^|Un|FyQ~v}~ttz~~u^}T~~~\z~nVvj~Z~|vyn^~n~~|rfLlN~}zry~ta|Pq~\p~~J~~{~xn~~~~ln~~~x~zmvir}~~~l||j}fo}g|~~{}~VzZj^nnn}~~]l~z|@z~\N|\~^^yl~vLz|N~~|n{enn^~^~|uVtT|~~vZ^u{~zz~nn~{}PJz~^z~qN~h}nuz~~~{x\~|]t}zruz~~^t~~~^^i}~~~~vlN^}u~~~~|}d|^v|xZvoUmdnvMjz]H\n~~|~]~nzvy~\j}m{~n^]|yJM~x}f}~wV~zx~~Zz|~|vv~]v^~{{}z}[K||_N~~}}p~Nohzy~v~v~^]v`uvv[|}z~~nz}z^zjzR^f~~p^|\j~vf}t~vjnfvnyzycnnr~~~~p}vy~j\vvw|~m~~ds~]}ln~~|~nt~tuz|vfv}xMzfmv~~~~~vj~~^~~^}~zzz~^~{|~|Z{~~nu{|y]\~NL~~~}y{]mfn~Qf|v~zj~~DL{|z{|~~Zz\~~tu|~{~~f|~|^@v~vn|}nn|Q~z~zvvzfJ|v|^Z}mzp~tz~m~m~Nnvn~}~Z^~^^[v^}z~}~jl|{W~^|V~zxv^mn|znv~~rwj{~m~njnzV{zxz~e~Yv~r~~v~~~~r||vzytx,False,0.0122680664
~?@cu^~TvZzvexmz~y|Z[N\B^~|u~~~v|~LzvPiT~m}~nl~`}e~^}envmt~Ryn|~rr_xxy|pM~v^~ym|~u~}M}}nzz~~~T~l~k~z}n^z~w~~{~n~njbV\~zzvm~~znzizvntZ~[~^~n|~W~~z^~z|Z^jV~^~~j|xn}^~|Vn}jlxfzmm^pu^~fvlvztn~v~}~~z^u^}~~l~v~n^^~~Lvzz{}~z~~ks~xVjnnev}\Uv|H}~l~z~}T~~I~n~~v~}nvl~mn]}n~~pn^~|~~xz~~~}|k~Z~Vjj||gt|~~~~}~|n|Kvj~|~s}~~{KVXg]z~nm~}~]v~mznN}~~d|xt|vz|zt|z~Z^~~]fz~}rxn}n~~~~~~n}^~||v{~r~X~}~~~~vrEz~r|F|~~|~y~^^\~~kzf~~v|~zx\nmmtzvlj~~nX}~zv~wRyr~~v|vnuU~~zF|v}z^e]vuf~n~{~x~|zJrzz|vrfj||z\x~A^zd]h\~ur^~~nuzdz|]im~}}{n~}V~~^|~IhNz}V~~kve~~}rbZFz~~~t~z]~Lk}~~v~F}^ut~t~}~VzLx~ZZ|^~n~^^~r^|N^j~Z|L|z~~|vv\~n~~^|vgx~N~~z|^}nf}nN~}~N~^}|sz~j~~nhp}|Z~||~|xxm[||~~~~n[vu~x~tyv~|}~iLh~~}~^rvjxU~z|~^~v~n~^~}~~vj}vM|e~}uN~xVDtzvNzlrn^^F~Un~lZ~~~L~~~~R\{v^nt|~~~~{l|nZ}^~]|v~B~~~~l~UfT~}n~VNT\z~F~nn~~v~|j~~z~jt|v}^{Zpnn{~zm~^~{E~X~~{}~~w~~~^u]~zyZ,False,0.009360075
~?@c~lu}~]r|~i]v~|\n~wnp|}Un~]~r\vv~v~\nP^mv~z{~V~~~{nN~^Z~|~n~|N~~~x~~zb~~~f^~^^~~N^f~yzz}yf~~Z~tu~||zzXufZ~|vztNVZv\v|f~xnR~zr~~u|~~Zjnn~Rt|]Zttqlr}~z~uNZqlzxzrltjZz~~}f~vjv}nf~~zzZL~z^~~lhVnmV]^~xM~w|]~~~b^~~~u~uinN|Ns|VzzX~}~}^^f^n~]nrvzzq|~Rm~jov~|z^lvx~~r|\~}^YNn^}z\jzz{~NvY}u}l~^}zn~\|^}}~^~~~\~v~~x~x}nynH~N~~~r~vnxuV~^V|jv~V~Zv[m~|qh\~~FmVf^~ntnz|{~^v}yw~~tm{zrV~zv|nzvv~~T|v|]f|mzvi~\jZ{Vvnv~znvp~v|xNnn~|r\}nvjtrV~~}~n\{~~T|y^t~~]m~~~x~mnzn|uZxzz~^^~~npXvln~~~v|||^~|~vz^~^rj~z[nv^n~~nV~v~~}~FnNfnZv|]VZx}jv|~}Hlrv^~fZv~}EN}n~L{y~^~~z~^}~z~~~t~n~~~T~l[Vzz\Y{^d~nhk~{n|L~nWz|~yz}|n~n|n~nv~tn|~~v~~f~S~yv\~u~}n}^}m|Zv|\~|~nyV~~^nnz|x|f~}{~~~^j~f~z[~~}}~n~~\nXv~~||yn}zrkZ~~^v~~qz~lv~\jv|z~vz|b~~~^|^ud~{n}~\z|t~M~{~~x~{vz~|nzx~vly^|~vZu|uzxx}^lnttu}~nm^umj]Zn\ZU|N~~~fnvmmm{^nVwp~~zvzI~^^~~xt~|he}^^||nzv~~ynlZ~]}y\~}n},False,0.0095119476
~?@c||~|~RNtl~^~^T~~pmwznvXj^~~{~u}V~z~}~^~p~~{~n~~Nl|}Xn|xv~~yzt}zmJy~~~~npxm|kv~~~^zv~n^~n|]vTs|\nvw~|~~q^~vm|}p^kzvj~Nz~v~}|~y~~V|^~ljy]tv^~vZn~b~|~^v^|~]|}~Y~}f{~|{k~~nnp}znCY~x}~^nv~lznW|rz^^~e}~^|}n~t}n~vz~{~zff~}|y}y~~zm~jJtF~ur~x^~yjwn~~n{n^~]v~z~}~}nxj~~^zzvnvmu~fz~~{^}z|~\~~|E|~qvnSt|z\^~|kFZ~~\^~i~~z~~|nn~hz~~nr]U}c~~l~z~nzynn}^tj~}~v}}z|^e~m\v|zvb~^\VuSn^~nvb}]fvu}\{~}x^u}znoJ~vJ~|zwnyv~~vjx~~~~\}v^~|~zz}~~~y^~~hNb~rzV~Z~lz{~~n^vN~|n^z~}~L~~rvvV]^f|xz}|~n~yvi~~~z~xzur|VNV{z~v{env~|m|xr~vz|~~u~|m^l~kzZ{~\]t\Ps~nz{ny~v]n~~x||}~zn~~z^n|~|~~~n~~}~^\]lrrVn^|~n}\{fV|~~~}v}|Zrv~~q|Evz~~~v{~ln~~}vnj}~T~~u`jel{nN~|Vn~zhn~Y}~zV|gJnv^f~|~~^~n}~\qyx^n~q~y|^y`vn~^V}^}^|m}|}yxY~|rnnp]}~X~z~V~RzzNnz~Y~z~^TN~~~I~}^nz|}}v]M^Lvn~vNt~}~Ixqtzz~m~~~j}~z~|nrRX~V^|}zzV~n|vv^U~~l~~~jzn|t|x|nZu^|||~v~]\vz~Sfvn|n^yQfRX~}~rtT~zN\f^z,False,0.009510994
~?@cjTz{}E~f|~v~}}^vp~|~uzx~x\n~~~jv}Fxvf~v}~^~^y~~^~jFNxzZm~t^z{v^~~je~j~~~nyw~lK~~n~u|~^}ndV\Vt~xfZn^~~ljy~^v}u~|~vz}~]l~~~|\vnVvz~fe^p}}|v~zm~^}q|~ynMnnyx~}uUpM|}Z~n`~~v^qnup}}~}^N~~}~~nSfxt~z|vJ}zV\n~kkn~^~N~~z}|nm}Uz~~}|f~~~~|vzv~jjk}Zz|^yvfN|VVvv~^|^|}V~e^~||~~^Zu|^xTnr~ilz^hltyYvr|n|~\|Z~~v}^~nycx~\r~ZtJt~Uv~}~{~~^~^~~~|~v~p}~||nn~~|~Jt}|Ul~^~|~t]mv]~~nn{r~~w~nIznV|Mz~~lv~~r^mz~~zYVA~^r~^~n}Zw|}~}~^ty}~|~Rn~vthtJN~}z~|^uevv^v~m}]~n~}}rjz~yzm|Nvznun~^z|~z~|^~j^[F}l}~vxb^~~jnznnvhzry^~nyv~mufL~{^}y|~^n~~}~n~|n^~Zv{~~^v~|^n~{~~nv~[|NzXK^v]~R^\~~|r|~NB~|M~^v\~|v^n|]}f]^vr^NN~}zjnnn~~}f~|n~~LnV~|t~bl~vv|~{^TuP~~y~z~~nf|Z~n}zv~|Zz|Qjy|fNJ~~~~R}~n|vz|}]~w^~Mr\{~~uz~j^~~~^u|u|xZ|^q|~^d~je~|fY}V^rmv]\zx~~~nvV~nwJ~nh~~Ze~i~~~yNf|v~z}|~e~lv^u~~X}n~~ZlJUb~|pVz^~~zn~K~uz~ePvn~}~~t]||~l~j|vf~~vRzN~zZ~j~~zz~~yvyv~j~^vn~~~~u}|,False,0.0094730854
~?@cv~|}^vunnnv~~k^KLv}Nv|nv|r}~}z}y}~jz}~Vn|n~f~j~V~|{}~v~jzv~z^~~v~jnut}nVNlzv}^mD~}}V|z}f~~{Z|kh~^~~y}\|nx~v||~}n~lZn}||rT}|^lvn}on~^~~~^zvn~xzT}~~Z~vmq~n~m~nz~~}~Qj\n^vvL~zrm~~vx|n~~^}~mz|Z~uNj^~~n~fmTmlV\n~}~ef}}~]v~|V~|~N~nv}nz\Z~vu~r~WJn{z~n~]yb}i}z~n^{Ol~z|~xjxt~|vj|}Ymu}~zz}uz{~\~}l~~nn~vH~|^yLt||[]~~~~|vA~r~~~~z|}vtil~d~^}n}Nl\~~}lZ~u|~v~|Tv|zv~vfm~nVvvV~|}~^u\\}bz~u~~|iz}{m||wV~v}~\blZ~NV]i~uV^Z~~^~~vJ~]zu}^zn~m^n{}~~z[}\ni~n~~~Tw|Z~n~|`N~m}~~R~}tzl~^R|\|hzV]~nv}if~mzzl~vnR~~vuz~Nzr~~sfmu~flrjl\zNz^~~vyn~^~~^ln~~~tt~~~B~v~zxnhv~j^uf~}~^~t}~^t~[j\^kTuRzv|xxZ~~}q|}tw~znz~hrnhn^^~|zvjpv}z~rZ~nvnxvVy~~nvznlz~hbuyVk~zzv}rm~^{~jTz^~~~f~~}~~}~l}~v]M~~~Nz}fVf^vxn}vm~|nMx~^~vy|v}V~^~Zf^~~|nt|X^~~~Yn{^M~^~|{N~m~|}||f^pkd~^n}qub}|F\~|v~Nn}~~ElnLm~~Fz|B~~}}~v~i~V^f}z~^f~z~~vn~zZnz|~vvjyn~~~~~r^unv~}T~f^Nz~~e~x~|}~~~y^u,False,0.0095160007
~?@cnu~}nT~]|V|}}N~^tv^n^z}~yzn~|v}~}~}n^Zt}F~z~vZt|xN}V^n}~Nz~n^u~v}}~~^n]~~~^l}x|~^~~nZ}}~ZxUz~yqn\v~^~^~m{bn||Z~NzlmD~~N~z{~|]~]uZn~Lv~~zl|n}n|}xunb~m~|~^rz~~^f~^~y~~V~}]~z}~}^nX~zv~xmn}j~r~~}}~lmUuyi~~||z~~n[b{{z|ntZ~~M~fxvu}~z~z~\~|~|^jfz]]nz}}XVzzt~}f\~Qnzn~x~~zi^vz~rt~~stu|yx~d}n}E^~N~r~|~~|zyN]y}j~VzZ^w~v~|}~|^z~zmZz^nN~f^j}e~h~{s~xzzS|~v|~~n~~nl~}uN~~~lz|z~n~~z\~}~}}}}nnnrJn[r|rn|~j~\LJ~~~zm{wZzx~|n\~v]M~|z}}pVl^y|nzzB~Ezn~~v~uxVn~Z|z}V^yr}|yutvz~V~m\~zJ~~zxy^~Ulr~ijX\~vnv^nf}t|vf~un|zz~~iZ~}z`~~hzv~}~]l~z~|n}z|Ji~|~E|}~nZ~v^{LX|}~y~}^|ZxNn^|yrvt^ny}nz~Vv|~]Nzj^^NunjV~~z{~z~urzz|~~}yvr~n~|vm~n~~~v~~~Z~V}zb~y~b~~Nl~}}vN^~wV{vTZ~~~~f~N~^~~Y^j|zvuz|tzvjvz~nxzzr|~~WU{]J~~U~TBrZ||v~~z\nv^v~z^~~^~nb^jd{ny||}v~nz~h~vz~Lm|Tz{^Z~~{]~~}~~\}vn~]~v{l}z^~MQd~\z^~ze}V}~|~ry^|z^sv^z~}s|ty~vu~^Vf}xn~|\Zrnvuy|^|nRv~uhx~n}~v}~,False,0.0102231503
~?@c~~bz^xZ}}p~Zzj~^|~n~|}zd^}~v~^zhu\fvl~K^~~n~z]~^~t~znn|j]v}uzn~^z}E^~^|j~r^}m~^^|~u~yztr~^vn~]t]f~wbL{z|N}~}~^nvu^~~|jyzr|zL~iVv}u|~v~}~~z~~~}^t}rz~n~]}|Z^vNz~~]^vzz~~~^f~^vz^^vTz~~~MzZb~~}~E^~t~~~N~~V^^|r~}~~}uvVL~jtz}I~z~Z}Z^~|~\u^|}^~]m{vzxu}]lFY~}}~n^xmfz|~~~~ync}v}Rf~~~~nzz}~~nz}erZ}n^~zu~~\t}|r~Xq~zln|t~~]~lr|n}~|v~~}}~~r~|v~yx|u~}nn^~{z|fmwn~jnzmBf}vNn~Ef|mzzntl~|Zv|z|nn~y|xzB|^~L~Q\n^zov~\rx{~~u~~xjz~|Qz~vm~~~n}}~T~]~z~z^NnvV}|{h^~~~n^YqnL}uNr|}jzE|]l~mirkv~zz|Wl^}^|x~VZvz|{Uxzl~{lnxZZ|{^VqX~vvzs}|z^t}|n^Ng~{^ztze|}~vu{^nnlv~z~}v^x`z[}u|jnnN~~}h^Nnvm{vnn~|Zz^^rg~~}|^~|}nzeN|Nnnm|Fv||Yvn~n~~nn~~j]z]~lrf|^\Qt~Yf^}~~yv}fy|~]bnj~~Z~\}txnx^lx~~n~~jv~d~|~sszv~}|n}^~ex~~Nm}tv~fZn|~}z`~y~^~z~l~}~~v^~~~rvn|~xvn|~~z|^^~~fuvnnnvn~^~||v~F~xi{~f~|v~f^~|y~zv~~}}~~luvn~~}z~{f~bjr}NX^~xp}~~^fvyv~|~}v~z|~J~vv~~mNZy]n~~nZVz,False,0.0095560551
~?@cT{}[nv|Z~f}K~^ln~n~Jc~n~~|j}^J~rZr^|]|^K~Divkjzz{vrv}^~~z~^^z^N}|s~~lvVxm~nj~m~~~}~xLz\z|zS~v~vzU^}yn|~]~~r}v}x^|^{f{|n~}~rY^}~[^n~~zp}|mvnj~tVrt|}~vn}zxt|[zUl^tPt~~}Y~}|Z~~~\}}j~\|^~v{~tJ}~~J{w~^^]nyl^V~^^zy|~zzrzv^~z~~ud~nN~~uz~~z^~z~{f^r}~sr^z^v~|v|Zy~Lj}^n]^~~zMy~^uj~~^~~VmZu~v~}nz^jxF~pn~~~~zljz~w~E\E}T^ZrjRV|bX~wRjknx~~}|m}~R~e}x~|n~z~|d~d~~}~}~NT~erfnzvv^vSn~~}Z^~m~n\v^n~x^v}js~l|uz~X^^~kny~vv~x}n~n~Kv{|~y~~^~xY]^v~|Z\^Vt~~~r~~~z^}n^zLvz~^v[}vNZ}nz~~Z~|~~|wzz~Ts~mkt~jFd}vjm~r^\v~{^N^r||~z~|rl~|nZvm|}~}~~mzn{Nj~~vz~~u~}v|~fx~~t\}~uV~}~~~gzn^~|nq~~z|e~t~~e}lyf}^~~|~~~}j~~^vv}zNu~y~~^uQn~znm}zwj~mr~t{~|n]x~n}]v|~~R^~^~~r~lrr^~jNlw~~T{|v{}^vi~vnZk}zv|~n~~vnnv~|u|FX~X|w~n~~~~~}|lz{~z~~U~~L]}~nt~v~nzz~|~~ny~{zMvV~ZznwzV~{l}^M~l~|t^z|~~s~z~x^|~^zu~znz~Z~~S~IzNy~y|uzx^f||~~V~~~f^}~~~~u~~}}r|e~Lv|zz|Zvw^v~~]x~vyUzx|,False,0.0095460415
~?@c}~~zvz~|~ml{nL}{~~~zpt~j\~jn~|no~}}]z}~c~e|~vyv~aJ}~ef{vx}x~~^ujzvfY~~Zz~~{~yr~~j[Jmr^l|zw}X}kn~tzrY^~~ZvzK}v~vHtb~yNn~kns}|}nv^j|^v|^yxqy{~N|ZnzF~^nz}~}^~^xzv~f~v~|^~^n~v]oU~X~z|}}Vfr~DN}}~|~~~^~~z~~~^|uxit]|tubZkx~~v^~l}jvm~dn~~v|zNp\dt~~v~\|x|n^}~n~^zsnuv\N~^L^vF^m~T~~NNf~~~B~ynn~^~nw}n~zZt~}~rnon}~n~v~tuv]l~nu|~^n}zz}~mz^~z~uvR^Z]~~]~vnnz~~n|~y~~zN^D~qv|v~jn~}v~nFLu{}|F~~^z}yn~ju}rs~|^^}U~r|~vZk\vR||n~v}~vzx~Xn}~v~m~u|~bjz|rv~~^vvn~\~~j^zt~^n}{~|Z~^l]{~yNoW~nR^^~}s]y{vnV~~nz}~~^lZ~{|lZ~]RM\z^V]dXZnn~^~~|\|z}^x~~~s^ryXx~vx~rt~^|v{v~z|y~ruv|~}x]~mN~|f~~u{fyz~~y]f|[}}~|~Vzx~vzt~|fL}{z~~~~~^jn~n^^z~^~kd|}~nYeN~^n~f~ib~j^xmmv~~w~v~~~~fLZzzzvN}|~|v~u~Hz~~Z\V~^~v~E~~n\~~y~|^n~~}]Rz|ft}~~~|yR~r|~~^|}w}~vJ~n~~n~{n{~~|z|~lfzvZ}}|v~~~~jnuz~|{^D~zll}z~y~~Vzzz^|~l~l~N~lvjy}n^nz~~^zNup~~~^~}n^nn|}~~{V~~n}~Vm||~^n\NNzvp}tnxv,False,0.0095431805
~?@c~v~~~r|~Ylz~~^tnv|YL^fn~|~~vt}~f~~z|q~~y^~}~v^RhZ~~}v~^~|j~~y^Nt||}~nuy~~qz{tzl^nv^~j~z^{ntnz~}^V~v~r]~{u~f}lnx^|v~{z}||~~l|z~m~~l[Mz~v}}zhv}~}~~NK~~p}|~vezv|zt|~^v~|~~v~~~}~~~yzV|n~ykvzfu~~ymU^v}vr]~b~vRlnms~dz~^~~~^~zf^~^UzD~|td~lvjnNv~`ne~}zM~G~|~~~~Zny}vt\Vtv}|~{F^}}~nv||~v~~z~~Fx|vfxjlLzLI~~r\^]~}~~}~~ybx~yIzvvv|vf~|f\v|uuv^jfr~}}{avn~~n~~z|n~~|~}nul\skutN\w~v~}^nNzX]]~~z~{^k[~b~}|JrzyzNr^zz}|z~|zn~zv~n|~~~~}~lvvXv|n~tx~L~~~u~~Vlqy~n^~nd^~xVN|}^mu|}es~v~eT\~|~~{Z]~}f[vx}mz~{~~n[zinNuz~]~\j}Zyo~^~r~]]||}~xyiz}zy]Z~z}v}tNv{ny}|~uvmm~[~Tv{~Zn]^~~~||~|~|R~vZ~m||F~~~~n~~yg~}}n~n~Zz|Yn^~~^\k~~|^}z~in^z~vnnrZ^^~~~uvfl~wu]nXl]\~^EuZ}}Vj~dbu|~~V~~{~~vmf|~Tnm}|yqV]^z~|\{y~p]~k~~zfVl|{n~m~z~~mzn^~[~yv}tyv{^V~~}m}~xc~|~zN~s~h~fv^nz~^~v|l|z|ln{~~~~VnyZ~vnv^}l~LszV~N~|~vl^^}~~v{hy~~z~m}t}jtfzXjzzr]z}~|^~j~~~v~fx~nz~|~Jn~|],False,0.0095250607
~?@c~y^{|~~ZFn|Jmr}~|hvvJz\|v~~j}|vxn^|jnmn}njvzz^n~}nm~\f}jZNv~^|~|lvtu}Nvnuun~~~~|m^~~V~z~z^fn~zXx|l~~t~~xm~v~~|nz|qZ\~~~^~vnTV~zvXNv}vzL~F~n|n^^r~}r^{}vZz^~Ln]nn^z^{mjezz^l\~\|itzzue~^vz}\nN~^|f~rj~|f~uv~n~t^~n|\M~Xvw{}zLNtN|^~mv~~~}Yv~}~ll|tz]~|~}y{~In~jz~|~z~zj~z~|tmqvuz^~|ZNhPV~}~^~}^myFdnVh~~~|~^~mv~v^^{~|zn}n^]XRm~b~z~~Nf}n~|hv`znm|~|Zxz~nz~|z\~^~y~nN~|^znNj~~^~~~M}~|^v}ynZR^~N~}~zr~lvq~z~d~lF~~MZ}z~p}}z{xu~l~|V^vn~xz~vTvnt^^~n~knM~}R|zh|v~jZnrt^~~z~n|Z^znp~m~~}{|~~~^^^~Xvnlv~^~e~^Z}f\^~zMf~n^^zv|~~vNnZ~~~rz~^~~Knv^~n}Rmz~Z{~}zzrn~NK~~nqt~^nv|f]NV~~\~z}|n}~t~^lns^n~Z^y^~n~~~~~k~}unynumuvL^~]~|z]wuK^nzwnf}~}x|n~~~]~U}U~~z~V^~~j~~~RjnfNn^{f~~Nxj~~~r~zzx\^\l|u^~l}|unnv|~}~n^}z~vv~~~zn]ylvzyr^vV~|vz^z{Nnvr^vz|}svJvmfhz}}U~f~v^~~tz~~d^nv~^p}~u\n~n~}}m^Nvz~Z~sZmrv}r~Z}~{rsRn~|}Z~Nnn{]]~amZ~}~nvYr~z~NnLan|~}v~ndvuZ~^,False,0.0094909668
~?@cxu~q|~t~|}^^|~r{]^zdV~~|~vzN}lNz]Ns~y~zz~L||PBvu|~|~vr~~XzzvmH~~~~u~~z|mv}jzj\~~U\]ny}jz~W^}n||~HEt}y}|~p^nlv[^j~^Yn|~u|~^n~^~vx~~}qup~}}vzN~nv~l~s~zVVj~lh^tv{~|\~~~znvnN|~x]fMvv}v~nvn~Zhn~NVll~~FZyp~v|Z]z~\~iq}~u^rn~~~~\z~|~{{~~l|M}|v^~~sx|jz~V^~nzqvvlvn\~~qjvrn{~~\z^~wdn|RVR^r^NNmtNj{v^}}r~~}||~n~~qv}~z^~~~zzvX~~}~~yzkv}nv^|~~nj||]yvU}z~zv~^~^~}t]|zn~}~n~xQ}l~uzV}z~Zf~lfv~n~mrFt}~fl~~Nn~X{~e\^u^\||{z~~zv~^V~F|nvn{{}f|~~z~D~`~G|v~jltv|^~v^i|v|~z~}}~}^}N~~vZ]v~{}}Z^n~^f^nlz||^^~~}m~l|f^m~|]{|m^~t}e|nVn~D}}e~n|~v~}j}vv~~V~{v}xjf|^yv|^}~{zn}~~^^}Vz~]~V||}z~~F}fyz}n~vZ]~~}~n~]]~vVs^^~}~~^tr~v~~nlzv^\~fvUj~~~{Unn}nyv}D~t~v^~X~r}^nV|v~xngv^J[v~b~^~~^n~||||~h~|w~n}t^~Z~|~wnfv~XrI^z~VNkZnu^~lpzNR~~vv~~^^~te~y~eVnemyzi~~~]~v~~r|~~}~~}~V||n~v~t^}W~h~}lJ~|^~~u~~z}z~k}~yzznzN~nznmmr^v~ZtH|{n}\~{zR}}|zuV~~^~b~]~vNnvn~nt~U^~^~,False,0.0094931126
~?@ctV^vn~~~^x}|Zn^Vzv|zN|{zpQ^m}rzNn~~}{n{~jflzuV^v~i|^~Vvz^|V~|n~u~n~N~~z}vs\{~~|~vxn~n~~^Hzn}Bf^~~^|~i~~}ffvnrvn}~zf|w~\\nnn~yjnX~~Z|~~nmyl}^ujf~l~}~|Lh~zz^jzzv~onlZWtvv|ez~rnznU^d~xJ~~m~Z~^}|jv^]^~]f|~~Znx}|vmZ~~zu~}||T{vvz|}VM^LZfzt}vyn}nu]U]vz~~|~{~~}vz~t~xy^z~y^j~Y|HwN~Ns^]Nf}f^Fnny~~]~^|n~Y~~Nh~V~nyz~|^~~~sz~~}v^~vz~|nuvn{\}~xv~x~~|}~v~Vv|^vu|jr~xn^}nn~~|~|^n~~x~v~|z]^n|~}i~~~~v}~~k~~zvnXmyvvlN~{y~f|nzx}L~^n^m}v~zyzL|~hz]~}ms}~tx~y~ZNvRzin|~~vx}~~^~~t}lfn^^~Zyn\||\z`~~|n~|{n}^n~he^^}^F|^nz}lu}~wyn~~}l^v^jv~^Me~vn~\|]zT^~~^nzzfu\~||~~v}^|~^~UN|Rmvnvpv|}~~^^~J~~l|~|}~~~}~zi}Nj\u}m}z~^~ln~~~~q~nnjn~]n|}~z\~N^}~n~v|llnvn~zwjz}t{}~|~uv~}t]~rn~n}|~}Xmt^tvhn{yN~||Z^NV^}q}~t~zrv~z~zfvnRv~n~~j}xy~zycnavn~~^zn~E~]~j|r^^j|~^Lv~P^M^v~e~|x^jwv}~||hz^~tv}n~~ZV}lzz|Z|O|]v~z~nv]^]zx}tv^znf^v|Yjxn~~f~nmr~~zx~|~~mj|}|~^n|N{wV~z,False,0.0094749928
~?@cv~r~~vnR~~]Me~~^^^~~~~~xkVV~vt^V}y~mt}z~v[}n}e}nN\~~}ns~|~~t~]~~p}~jR}Xp}~^V^|\~z|}~j~^lbn|~~z}~k}|~r~^nnz~~bj~i~n~z}|~u~}}~^}J}\}|~pZ~{^~Nl\^V^~r^v]z^rF~xvf~|}~|^xfr~^z|M]}^xFz|~}vN^z^zRvhzZ^~~nd~~~\~h~{mV}^^~w}zbXz|}zLu}]y|~znzV}^n|vzv~n~u~~{VzQ|ffo\jfZ}^zn|ztx~}]}v~~~Fv~tn|sv~jm]nvh}~}^vVyVvz~n}~X^~~~p~~e]Nnn~nVmxQn@^dluzf~nxnY{vr~^~~zUxvy~~J~~bVm{mY^vXvrvxu\tz}^z~Uz|D~^||nV|]~X~{~~x~V^|~yzv^]^~r}ziL\^F~}z\^~~~u^~~Vw~~~^n~n~~nYrd~viZ~fx^~~~~~h^u{~~[v~~~~Mu^~~zxv~\]~~~MNz^x|^}nFnzn\{v~~nn~^~V~s~~n~~~}]rt^^v|^^]}^~nN]~~z~{v}]x|r~z}~xzd}}j^K^^vuLzn||v|~vfUu~w}^nzfv~|~nnV~p^dsy~n^Kn~Bu~fyv~|^zbv~s~~~~^~zyVv~^~~zx|VUz^~d|~V~~}^^~rvy|r}|r~v~mnm~z\ux[yvq~^~m~~r|}~z~|Nn~zz~~}~n|v~~~k~}vj~|u}N~Nv~Zznnk~V^x~\f{v~m^~~rLkzn~~kl|j|s|v]~vNn~^[^v}~z~~zrX\^N~~~~v|b~n]~|^^~v][~~~v^nvZmNn^m~z~}Z~n~y|~\]z~vq^|l~~z\v^~~k^~~Z~vZ}z~,False,0.0094330311
~?@cu{u^~NxC~jn~}~t~y^|~~~]}~v|an~vz~if~}~vn~LFdN{z~Zl~~q~x|~zt~}mn^~~n^tvZ|~]~v~}~~f|~fv|\u~^~mn~NmnhU^{}vni~~~~n~n}j}|u~z\zb{~jy|}}}^}^rn^nz~Vtf{nz^rh~~jz~~fn^vn^|~~v}~xj^vvv~~nzv~Jr]|~^~}~zr^~|vz{vNnwu~vzL~zql|L}v^|r~^rm~zx|n^~n~{~~}}~~n|~~~^~|l~~s}^~N~nd^~^|}wljv~Ziz~~G~z^Vln~~z~^eMf~{N^eZx~~|~|}~|~}vU~V~jb~z~vRx^~~~~|~U}v|{}~~|v~v}}m|}{jnv^^l}~nfivj~ym^r~}~y~~vzl|v~~|i}|vK~a}Z~ny~m|~~u~Fexu~uv|[Pzn^S~T}]zN~~|~n~Zjxj~QNr||}z|~|pZ|fn^}~Nvf^L^Np~t~~zx~~zV~V~t|f}Zln~~^|n~~~zlYv{e~zznvrFm~~|~~v~r]|~^nn|^y~h~~}}v~^lt~^\nv~~~ZyjMxv~n~|~|T~~M^]l|~Rnf|vz~kXv~~}~~|v}~|^^z^^N~X\ltr~z~i^}xr~l~Nwn}~R^|u~yv~X|}n~}n\{f}t|lvvr|~m~}n|vt|~n~~v\t~\zvzmL~VVz~vl\zTZ[~~~~Jv^zvum~~|~^}n~rnlRZ]]xXkz^}n~^~ntm~j~x|lnFym~qr|^^]~~|vi^tx~~{n|vn~ml~yon~~r~kfn~plz|n~~~}~z~~^\nNy\v~|~nuuhzv~fxUf}zjbvZ]y{N}^~zi]n~Nt~~Vz^^|~n]t||z{m~vf|n~b^sz]~~},False,0.0095419884
~?@cnVM^~~{^u}|m~v}^|jF~KQnn~vv^}~z^zf|}njvrfn}|~nl~~~irv}~~~~|~vv~ne\ny|~mnvz}R~M}g~v^~^~^^nnf~X~~~z~|lmz~dn~N~^|w~{z~}~SlNV~||~z}V}~sw~zZ~m~z~tun}~~k^~~~n^~h~nm}UjV~rBf~~~~T\{]K|~f^~vR}xs~en|Zvxm}bx|ZN|~~t~|mq|~zV^l|}~T^~WRfz\~n^{Y\|NH[~^rmnZ~x\V|q~\zznnvhZT~kv|~~jlm~]~vP^~Z~ulrr||z|~U~~Nif|f~pv~}uz~zf~{|}r~zJ|v~vxf~~|^z~~z]v~~~}n^|~N]]\tn~~~Nz{~^~Y~T~zr~^^uz~vfQ~v^t}[~~~|ynu|}pv~^~jt~\r^~||lnZ~^rjv|~|~~}}tZYj^lkv~lj~~w}j~i}~|mn~n|~~}p|~F^~vf}||^ZNJm]~z}mnz^v~~}|kvl~~k^~uznvJ~~w~~~V~~~nN}R]~~N}^n|u\^~K|~Y~{~~~F}~n^}v~|z~zz~jVl]~dnRjv~z~Mn~~~||~~Jzn^nZ}k~zj}lu]n}^iv\M~||~~\}~~~~mvz}}~nw~n^z~{~}~N~X~za^~^nmNxt~z|Nx}}~j}|nz^~fv~n|zzt^~KV~zyv~nn}zn~v}[~~R~^n~~~rl~Nls^~J^~~~~~VX^~|[~f|yx~k|ven~uzmntN^~j|\~i|~vzkn~~KT~~}vNzz|~nV|~\~pzz~rrZ~~|{n~|~^~h^vVz}~MUztzfm}~\|zv~u~u~~zX~qzE~|n~|~~~}~}tv~l^~~n}q~}v~x^z]|}s\~~mvj~}\^,False,0.0100820065
~?@c^]{]x\Uof~Vb^}tnl~z~~|zJV~Yn|yw~V^]fZv~|vi|zI|~z^}\~~\}n~v}nt~~~~}~x~wX~Yv~n~hY|{l|xZ|zM~~|MkURVs|xv~xv|^~|zZvzntn~b~~fzfz~zN^}{z~~~n^LxhjNhnv~~|~~~{ze~z~zvmZv~~~|^z}]~n|r]lfni^m|~|~~y~R~]^m[~^~~k~^v~Z~~z|~vfzl|tx}~yFn~V|~nMv~h}^~r~nmnZ~}zmZq~~}xz~t~v~~z}|ZNnV|~nnlv|~v~vhmmm~|~f}Vfnnf\lmu]vr\sv~~un~}^zz|vn~h~~~z|~t|~rNt~~]~^}|z~zztr}rx}~}v}^|fmvtN~^~~~y|n}~z~~^vl~n~{f~^}}}Lz]~nt^~zivuf~~Un~mytvuV~jN~V]~Y^NVd||vn~~~nvVvn~~N_^~~s{~Ns~rzX}nLvj~z~|I^~^^~^r~~^~g|~~~z]N~F~^XfzVv^|v~vvz|}~^y{}Qxlv^N^~|~|}nl~|v]n~uzy~bn~||~~vjz~Lp~~~X~|^~mf^~|z|}nv~{n~n^~~t~vu~~V\M}f~^|~vn~~z~~j~|}~}|F|~ZZz}~Lrv~uk}{~~|~~}~~~}~~n~}s|vTUvXm|^zn~~v~~]n|fl}|~nT~R}^^{v|}~n~N\[ZmZ^z}}z~~vf~\]}{^n}^id}N~z~zxf~knzu|nvnv~|^y|\u~~~r~}}~||{U|~jB~N~~^|^|z}~fn}n~nU[]lUN~\~{xt{}~t~|~~{l~v}n~M]}{~~xvn}j~zzq~]l|^~~uZ~~J~lm}r~nXnY`~v~|n|l]vk^~~O|Mn{zz|yn,False,0.0094881058
~?@cVxz}vv~ly~v|~z~z|m~}rmZzjxv~}|~Z~znbm{^~~~ly~^{}nz~~}~u~b}T^~z^}|~t~~~z]yx~z~nx}zv~^~~~jn~~|~Mz{n^zz~f~}Lj~~|sno~z~rf|z~b}z}~|~~^{}~zBnW~}^T}ZwjnmvZz\^^Nn\|{{zznNjv}~|uf~zzmz|n|~U~y~J}|\~k}Z~~z\~^v~~j|~~~~v^}}vlru~~f~ZZ}Wt~nNn^}yZ~N~x{~}lOv|T~~zl~n~sZx~~~~r~r~vnNv~~zny}l~~}~{i|fy}z~~~nh}|~~y~~px^n~~n~LvV~zmz~~]~Zr~~~^sb[~}zy|~~^~]v|}|s|ztn|z~||M~^^uN}^~ln}rzt~Xzz|Xe}zt~~fujV}y^~}zvn}jZeF\~~]~}rmx~mP{|~d~^R}]}~|Z~}~~m~z~n~nn^~~v~inlJZt\Z|~}|vzrz~my^r~^z\}V~}~V~~vzif~^~~~nzsl~|vk~z~^~V~nryy~z~vju`u{|q}]~}~vv~hpr^zZvv~~Vnz~~v}^z~~w^~Zzt}~XZ~]^r~J}~z}|||~Nznf|H^vtiUNr}J}fzvynNr~~~\my|nY~xzh~~x^}~[uvRn|c|N~nDzd^iyz^}^vbfrzi~}xpn~|M~wzz~|l{zy~tv^vu~^^uL~r~Z}~]nX~m~~]~z~~{|yx~|jMNZ~|Z~Nfv~~|t~z^y~~~^nruznfvn~r^z\~z~~^rvN|zv~~~}~~[o~jV^nu~s|vnn}}~~~y~~}fx~n~~N^z|~t~~VV~}a~wyjy~`}\Z}nzz~zk~~~|zet}~njt}^ynzV~~ztz\~j^}z||fnv,False,0.0095388889
~?@cZ~z}^yi~~}^~}v~v\\VvZF~r|^}ynn|^Z~~}zz|p~~k~~|~}~]ynz]vv~tn~m~~zVzv~~J~~vn^MV^~Zv~vv^u}~n|j~~Uvr~yN~~y|Vu~~~Z^Z~^~^s}^~R~uz^vz{EntZ~fUu~n~|||p~^r~nh|}s~~e^~~~}|~\zzkz_~pn~~^~|~nm]Nzue~x~z~nzy~~y[^njZ~]Q~~{vmTw~^~M~^|~rNzn}tp~}v|l~nfs~~~l\~z]Nu~lx\~~~dV~t^}Nr^t{~|}mz~|~~v~|]{~^~z~nv~Mr~|y~~~n[v]^bX~Z}~jU}|~z~^t|n^~JVjysqL[r~^~~~^nvV}Z[~~}~^]]i~vv~}^~{n~~l^z~M}uZrv~^r|pznr|Hzr]~~~^q~}~j|~jn~n~J~|N^yjnvn|z^X~}l}nn~wn~nz~~~}munzz~~}z]n~~{^u}|}u|}Wuy}Vtnz~rz^~y|n~^v~}~~y~~~Cb}vL~z}~~X~z[~~^zzF^tJ]Zvvf~|||Jlz~^~}~nX~b|j^nm~r|^Z~}}Zy^kt~bMhv~{y|r~kvXjn\^u^~~NzTtF~[]~~rv~v~}~T~M|n|~n~~~z^z^~zz~\~n]Z|bzz|v|N~Yuvm~n~~~z~|}fzvL~~~zn~hffz~l~f~~~~\}~|~~vZ~~z^~v~h~~^^vm{~DN}Rvj~zln~cNx~xv}m~~jvj^vu^]V~~yzVvv~z~^vnN]vv^^~zjrs\|~}vvfS~q~Z|~T]v^YJ~u~`|~]nv~v^^mv^n}|M}xv}~~^NpvZ]~Zz^Z|~~rrvryf}npl{z|~z~~rF}zmSzlb~}~}^rnv~~j~|~|~V^~,False,0.0094959736
~?@c\~nmt~z^zn~f~un^ny|y}nly~~]r~[n|n~Jxyj~N~~~~}j~~~r{~~|~v}|n|~rzu|d^}~zv}\szvz~K~}N}WlvZxrZv~~^Pu|~vzl{zv|~}ex|pj~[Ujz|~}~pvzuVmV|wznnl|~~b]x~n~NR~~l]vx~`~vV~~~nvl~urnpvf|Nx~v~jz^x~yn^z}|VvZm|~zl|~|zv^eHv}vv~Z~nq}~qf|m~n^z}ndv~pq~}~|L|Z~v~r~~uuz~Nznt~~fxd|~zzt~~^~~~vV~}Zz~Ufzf~~Z~\yygFlrz~Vv}^~n\~}~}~t~tvf~~}~y}}|V~}~~^L|Zmz~vn~}}u~~vVmvv~|~z{~zUvj~~{j~v~~~zXz~f]}ex~l~|~|z~}nlt\}nr~}~~~vty|~~t~}~Z|~n}\}~~u~^y~~}~njr|^]~}be~^~~Tmvz|nvxn~|r|~~nxv~~^~u~z~jxn~}~^Vzdv^z^~~n]|t~~^~|}nNeN~r~}}~~^|~~~|~Z~z|dnz}F]^dvzuvy~V|~}N~~}~vrvzq{~~vz~~f||vr|~]^|Kz~~n|vvz^~nbml{~~~~x~RXZ{y~^mL~\vz|y}~|~|uiu|nBZ^CFr~v^u|z~y~]~zfZvzf~~ldvzV{~~~~xj^|~[Z~~vTr}^~[|^v^q~|~n^]~}z\~^vnnHmkr}m|Zrn|~X~zK{L~Llz}Y~z}Vft|^VOnu}W~~~~|lmX^h~j~rurt~|~v}vz~yYv~\x|~ryk~vnx~{^l|}uvZ~~nzY~^nmln^h~~n}HxZ{~z~jr~~~~ZUMZ~|~z^|~}|~^v}v~\~zn}zul{~~}|Z~~V~n}wc~,False,0.0095300674
~?@c~nz^{XZ~vz~y~n]nn~fm~~~jA~~mpj~~]Tyrf|v{l}~vmnN}~~}}V^v~U}}n|M~^|vfzr~|vZN~{ny^v^w~v~z~~L|nm}^Y~|vv|ny~Mz{nvn~^{~zq}uV~~~^|vtvnfn^j~^|L^zsvn|zZjR~|~M|y~\}jv^zX~~~VczNzmnnVtvz~yvtT}nz\|nZk^yvN~|}|jm}\|t}~~~yl~zvvZ~~|~Mn|Z\\nV~n~~~z~}yrvvvm~Fndn}~zEz~~|m~~vtxg|jZ~~z~~}nu~}~~~zx~vxn^|~~v~n|~~n}M^^r~nl~~|n}zi\z}~x}vuZu~qm~lzv}~r|nn}~~~|~zn~l|}~vxv|~~{nY~}v~zc}i]||~ji~~vnvvV{nZzytv~Xu|z||~j|m~|~|N^K~~^en}}z~}}r~~z]^n^y~^~z~in]}~^z~~~Nnyh}mz~}~^n|v~~zkZvizHz^|n|^^~qn~~q}~~~|vn\~~]{v~Ujs`|}r|]Jvv^Zw{Lz~P|~Z^~{n~X~^}VVil~xXnvr|zjvh|Xljj~~~}]f{~~fnNvZz~u}lv^}n^~~~t|nz|~~}yl~Z~nn~~}~{^~~v|v]~~~l~~~v~b~x~~|r~n@zu~Z\z~~nV{~v~}i~~[nN[lz~rUb^~^}^~qr~^|~^~~|nhv\^}vRfM~zLmw~~fgu|vOlNrVl~z|}vvk~~zr~|~t~smZ~~n|]|~cz^Mv~n~fx~|~~z~~v^nj|^ymv{~f}nZ|r~^|~{}[~nz~~~nZm|~xn~nyzy~}~x^~zm|~fm}vVuy|j\~vtul~u~z~{z~~Z~}~z|nvvj^^~rZzh|~}VrNruvx,False,0.009444952
~?@cl{nv~lzn~~u~zv~z|Xz^~~\fwu|[Rk~b~i^~y~~^ltt~rduv}[~zzZzvtv~~}v^}^|~m[oxhn|}~m{}}f~~u~^~^v~Jz|^|~V}~N}vl^~Nvjrjfsnr^zn]z~yxx}k~n^vUvlN^Tl||~}~zvVnk}jnzp~^v|nJ~|~~n}FURT~~|~~j~~}~~v^~^vx~Vvz{n~lLx~~o~jf~~v~Z}~^vn|nv~~hx~~Zvn~{l~~|y^}N~N^|v~~|utz^J[uxrS|}}pz^~n~v~~}N~~~Y~N^n~y~j}~~~zllx\~utv^zzZ~|~v}uZ~~||vnv||n}vn|~d~|~{Np^~~y}Zvnvp~v~}~t{t~t}~^~m^~||vV~~~}~vz~zspI}\|v~vznr~Ln^z~z}^z~viZ~D]v~~x|y~j^Z~Vjvz{y~~~zm~~[|~v~l^}z~^xvVy~m~}~~}t~v~vn[}}~|^{^}~M~|~~~u}|~M~{~~t~zn^~^r|~e~tnn|vz}I^z\}~zt}B|l~x~~n|zvv|~n\vnkk}z\m\nvVzb}z}jvnmF~NyE~nV~Z}p~}r~XzU~z~^v~|Z|v~vnnK~~}lmv~d|n}Vt~~z~~|~lPy~z~}vV^t^tZr~]m~n~D~s~~u^~]x|Vnvyle~~Z^\~rtNvlVsvZ}~F}z^v|nkF~s|~l~^xZnn~~z|~~v~zW~nvxz~|~lZ|^~znM^zz|u~y~|~}vc{~\zT}n~u|vnz~~z~v~~J~f@yln~W~}zn~uLnul~x~~zQ~njY~Uv||n~]~H|~~N~]nfW~v~~w}zu}vVx^tjR~n~~\~NZ\~n}V~~}zvzjvnv}~zz~|~~|f\Tzt^nz,False,0.0098202229
~?@c]^q~N^}~rVVv~zNz~W^Zvn^yd~~|z~}z~~~yz~e~v|J~ZmVn\JyZ^{^vSwNRvuu|}n~tmvjrzt{~V]~zN~|ntM~~~v|lL~^}|~n~~|~n^^Q}~hV}}^~^~~n~~zL~|~~}f~~}tM~~t|^v~^v}~~}t~~z~~z}jm}zv~n}Vv{\~~x^|~~~nj~zn~n}}U^y~~~fv^Zri~R~n~|o|~z{~Zv}~tv~nu{^~^~~Nv~y~~|n^}]lQ~r~H~\ynfy|~v~zl~q|~tI~t~nzTmzz}^~|[\z~}n~~~~f~}rN^r~Mw|u^^]R~~XkZyH|~vzN}ztV~f^vN~vzM^^M~vTv~~vuzNJ~}}|m~n|^^|t~]N~~}Zn~~~nY\rfvx~}d}~[n~j~~ny~~z|~~tR~~h}z|lz~t~^}phn~m||Rvzjv^vVmn~y|m\~}}M~[|r\Z}mlx^~\v}~}~~^ne]~~vZpz}~}mnz~V{F~E~vrrvnvuWV}~V}}^~rm|~[~}nvf^^v}~~~~nc^~M~n}J~z|n~~]z~~f|z}Qv~||z|\n[d^i}nIM~}~~zv]~n~}^z~n{|z|~n|}Jw~||~x~uy~~{^~u|t~~|fZZZ|~^}z~|~x^NlV~~xZ}Tvzz|^^}~xqLxu~}vv]xvf~}zz~~}~z}~~|tz~p~~~^|Fnyx|n|vh}~~t~~~~xQ~uzy\l^YjFU^m~}v^Fi^y~V~~L}n}|v{~~~nn~|vtp~}~m^vzz~Jxv~p~V}}~rj}Yv{}pj~~^}|zusz~~~n}vnnLvfZ|n~`V~v~n{{~~nzn^~~~~njx]|\[~~^yE~~^n^nl~^~Z~|Nz~b~|~f|}jv]z]nj,False,0.0101668835
~?@cn~~|L~`F^|\|n~zuv~^~{zvnzl]~|tx~^|du~zvvC`|dp\~z~vX~~|~\|~^dzxn{~\~^jv{z}V~~|x~~z~^~u~}}v~~~Vwv~zn~n~NFyf{Vz~||~vnV^fp~a}rx^vt|~K}nnqRZ^~~vo{zu||^~^~hVt|n|~snxf~[|zljj^~nVs~}N|uj}t~v~v~^nNinv]~~}~^~}~~NtUt~{]zn\|u~~{~}d~~n}r^rxr^^Fv|^]V~m|~z\N\vvz~~Nz}nai[xJv~n^|~V~^~}~k}NzQz^v|^vvnTyvp^v^^l^^\n~~R~fJ|Y~~M]}~u~\yN~~vm|Vn|~V^^r~^~}u~^\vvQ]\YfznZ}Vz^{x~~~f\~V\^V~j~zOvP|Y\x|N~Y]k|z^v~]Zyv~vi}|^u~~^}|~^\vsN~|xy~{~z~~v^^z|}^z~^~~~^]x}~tzvu~~n}~lmx~~Vz}zvNz]~Emv^~zfnt|X^}|~n~]}~^slvU~nv]V~m~lzvFl~|}tz~|~N~v~~vnunLxl|~|nv~zn|V~l}\|L~^~~V~x|f~~~nz^~zx}z|~~}~^i}~m~zj}e~~z~^jlly~~}~^}n|~vn^~}v|vv|u[v^zvYTV~~nZ}~vnnp}t~ztn~vnm~~|~~d~|Y~~~n~kt~u~~f~n]}~z~]m~]|tX|~xz~~qvv^[~mhnM~~~~~x~~u~j~Zctq^vnf{v}~^Mn}}x||~~~~pm|tz}~wvum~mz~~}v~tn~z}|~~zv|~j}|{~nU~n~Vv~vlnWvV~|~~~v|}vV\~~y^v^]^n~y{znv~}^~vn~~\|Zvn^vm^~~|znjby~|F~dr^^~vz|tv,False,0.0094399452
~?@cv^V~~~XszZ~~vn~n~[v}xznnnzqu~v{j~zRnvmy}~Z{|ckl{~|N~]}~hZvrnxl~smyn~fVZn~^Mn|yz~\v^q]z}z|]~~}Nvz~~}Zjt]}xyzUtu~|~~z{u}zz~{yFnL~~y~b~x~^vv|Uz^T~km~Nvynn[|~j~}vX~l~~N~a~en~vrZ~{~~ynvu~z^~\vZ^||^|f~vZ~ynr}~rm|vaF~nn]mT~]zQ~tx~l^Az~^nbl~N~~cn^n~~~~v~~v~~m^|j\nFn^~~~r|~y~zn}rnnl~Rz^jVw~||~|v|~n}N^~q\uN}vzn~~v~z|Znzz}|uv~etdt~}n]zD}l}~~~|~e~v{^~~q^mn~|~v}|j^v{}x~^~zm{ntnSz~~}zJ^lz~j~m~|^er~~~||~t|jm^nn^N~v|~~|~~^m~n^^~s~~z|Jzvn}m~}n^~V~|n~~^~v~|~^~j|u}v~m|~xxt^~t|}rz}V~~^X|st}Lz^}n^ZN|n{e~|^~]z|v~~|~n|zyyMvzv}|~zRz~Xvv~^y~jv{zm\~zv~V|vnxTw~~}{V~rz|^~mf|~vn~~f~~}{T~~un^~n}|tp}u~lq]h|~~nf}n}nn^|~z~v~~z^~|rn^v}n^rz~n~~~~~vPRzlt~||~q~c|~\~~_vRazvv]mj|\j}~}~~~^~h~t~jtrlvvN~}m^]n~v}z^VM~b~~~~}}~Z~r^r^}Z^{}Jt|jdNZ^zb~m~~n\Mvy}mz~z~~N^z~\q~~~~Yuqz~M~v~~j}~~}{~n~dz^fqmrv~n}nrv~n|z}Wv^f~}|^]||^~~v~~]~N}|~}f~~v^p}x~frzxg~~n|^z~fV{,False,0.0094001293
~?@c[nn^~~IU}h~~tM|v]zlxnyxYr^}dz~yvz~Xh~ztN^^}zz~nt~~vd~~~zu~N}p~}||~|i}nu~v\yiv~ut{lf^v~s~lU~rn~v{~lz^~x~~jV~~zZ~~u|tm~~|}^v^j^^nx~^NV~~fl~~~~|~]~fN]n~mmm~x~zz~~~vZ~l~~~y~}~N~y~^rx^|v~n{zZx~~]vhv~}}~un~ZT|m|~Tt|f]~fvNrnUfxz}~x^w~fyn~~n~n^~rmY~rr~z[]y~l~tM}v}zzm~~v^~ry~N\}~vxynnx|~^~nU}X~]{}~Z~^~n~n~]~~n~}wBf~^~i^~|vn}^L^}[|n~~^x}tutz~~~f}\z]~^Z~~~L~xONm~}}~nnv~Nm}zZmxz}\vnwz|M~~~~m~yn~~~~nzn~Uvn~z}^^|}~^}~l}z~n~~n}nZ~y~bzv\zs^v~|~m~guzxvN~fVj~mf}\Nw|vm}TzK]~}~^|~z^v~}^}yvt^NVr}hVmn^q~xf^|~~JVNz\~v}m~u^^~n~a}v|]^^~|bP~\~|TVt~yq~g~^^vv}~ez{z|~V|N|d~~~mXzmv~|~V~~Q~~zzjm|v~f~|vLMv~Ul[~h}LPq~Zlf^}x~~~~^~zztf~nu~}v^v~^~|J~~}~~|zv~\mvz~~znx~xvr~~~~t}|nM}lvnNrv|||~mZ~~n~n}kLzSx~j^}~}~ynnFn~r^^~zi}lzZ~~|~v||vniz|xmV||tqZvn~~~~Y}n~t\^v|~|\~x^z~n~}}]vmrZFs~~]~ZvNa[zx^~W~n\v~U~zjz~||nn~|z|my]}~~~nNdn~n^~z~^lz|^|~n~|~~~n}rjvnr~~,False,0.0093779564
~?@c~Oz|x^|~|j^|y{~^~}t|ve~{~}~~V~Z|]~~z~Um~~|~^l~kntz~r~[~v`~~~puq~~x^\u~~k{vn~vu|}bv~Q|^zNnhnnf~~|lz~~~~^dn~|~N~^~x~jZz~}^llufv||}~x~mn|}unlz|]zzv~T{nVvu}x~m~t^~~znUN~n~np~}c}zmxtf^~~vnvF}Nev}}m~nnn}nn~~~|z~M~~~z^~YMy~Vu~{~rZ~~~|~vvz||x\~|~}R~mzyz~]^~~t}K|~R~}~~~~~^g~l^zn^~~v~~^~~v~V~vz~^~\nrvn~|~}|zw^~qp}xnmv~{~~pz~~m~}^r|}|]~~}d~C|nyy^zk^Z~zz~lv}n~~t|N^t~fm~u~nz}n~^v^~n~ZzbJ~wz}~K{~^mm[^~v~|in^^|~~}|~d^uRpVb^N~uxZ~n~nR|zvjn}~nZ}~nnT~~V~n^n|]m~U~n~~v~|n~j~i]~~X^}~l}~j~~~t~~~~^~^~~v|v|u||n~L^nd~{t|~~~z|y~r~Fby~vn^A~LtFn~~n~vxj~jtzZv~vunzmu~~{|m~ju~t|~nz~{||^On~~|~~n^n|zr}N\vf||~}N{{~tVsy}|r}z~v~~h~|dSQ|~zqvf|wfMl~~|}~~vyn~fr]Z\}Y|t~zz~zl~~}j|An]~vyBxe{j}Fyr~n~nn~|m\~~z~lnz^}^v~~{~n^|^f~~~j~~~~Ejz~|~v~zn~a~YvEVFyL~xJ~|wf~~}q|~v~~knznvn|~y}vN~y^~mzzr\uwns~nM\pQxV]~~n]~~svvzy}t~x|\~~~X]wvV^~}r~^r~n]l^~Zz^~}vtlunsr~pN{{,False,0.0093688965
~?@c~~}~~l~~NVmz^Uz]~mv~~lZ}R~r]~~u}~}nXrnHv~~^~~U}nv~v}v~p~l~~}~~t~~~~]~~~z|My~vZuLk~v\~jz~~v~nY~Num~nv|l{z~xz~~^nF~]}~n~}|v|nn{\~}~v||~m~zvn|l~~e~|~|vZj~x||zv^z]}~~apj~~Yvn|\t[^^{v~~~~te|}\~N}^}~~~{Z|rU^~}~r}~xnx|}{yve~}V~}~~rv\~~tx|}v~Fy~^]v~vM^~~~~n~~~v||z~]lX|~~}y~{||D^fzzN^~z~z}nnzxLU~||Nn^ln~nh~lfnfu~~^~T^|}v~zv~~^~m~x|zZ^~z~~~v~~|hn~~wn\~~~yxQxz~n~~~~nn~zsr^^g}X~^~~wXztpnm]Yt~fv~~zv~Ev~|yy}|~vM~jlzva}l|Pj|\[v~~^}^{vv^~i~~~}}u~v~vvz}^V}~tZv~~~~Vf~nlUnn^~~~n[t[LZux[}~]{~Nr~}y^~~rU~}n~^zl|~^iznu~~]^|j~~~M~f^~[a}n~~vHn~zvjfnVw~\\tjhLm]~zzv|~z|t~]~uZv~|~njZyz]j~^^~v~^}^~}n~q~~w}vn~jr}j~nmZ}m~}n~jfxx~~mp~yrn~\v~{vjv\}Bzn~yMv~Mrv~~v~lZz^~~~~STi}n^\z|n~^~]i~~?}|yuQ^u^T}n~~~V]n|~\vvn^vni}~NZ}z~~~}}n}}^lg~|~z]zzzvw]}Thn~~z~r}^vjnzzf|~^Z~[d~njzziz|{l^jmv~vluv~Y|i{fz||v|~Xd]lfeNL~{nNvN\z~~|}zrv^n~^||~~j}twXZf~v^~|\^n~V~ru,False,0.0093681812
~?@c\~zl~W~z~v~vz|\zV~uX|vzy?r|}~\nvcw]z~unj|lj}}u~jdJ~~z}nr~Rmn~~|||vjn^^My~T~j}~{}~ZM{Z|lm~\~fqy~x}~^\|P\~T^|}~}^|nv{f~~{~dt~{nqZ~yZz~k~v~~|}~n~|~~nZ~~vm\yn~t|ln}v^|~x~~mn~~M|h}v~{~~~}~~~N{\z~~pz~~zk^zfv|||~f}ttT|cq~lt~~z~}l~}zz|^|~nt~~[n|}v]{~e~}|}n}~^}|~~~n~Kkf~}~zzzZ|nuz^~|nv~}K}~zs|^~UX~v\n~~zv|~zvvvnzv|~N}Ufv}]~J|~~~x{~Z~j~^~NoZ^zz~~Lh}f~rZu~]|Qvg}t]m~~nny~~n\~^z~^~|~Zn~n{~}t~v^\v}uVzvzjuZgm^}]v~~mjl~zz^nv}}t~~\~|^v|}|~Z^}~^~f~~||~r~~z~~tvm||]nzH~{~n}^zn}~~~nFjF~zjn}}|z~Vvx^|~F|~~v~l~xz~~zJ}f|~NZ~]vtv~nzNnzMv}v~m|Nh]v\~UvtVyZ~~z\Fnxj\t~tj{n\v}~oz~nvv^z~l~~vvz}}pi~}Vjv^j]v||zrn~ntNh^~]z~~nrN^vz~yL^~n~z}v~~F~F^z~~^n~^]|\}zzLm~~V]~^rNn~|}~x]}~Z|r|~z~}Vn~vr{f~z}nnl{rMnl||X~m~n^vzv~~^xx~Mtn~m~Nn~z~vn}|f|p]^^v~nnrt~y}~~x[M~nnK|mvt^~~eFv~~z~|Zzz~v~}z~~}~~nh~fvynv|vVv~m}}y[vm~Xrqz~A~}zz}zz~qv~s^}ve]|}}^}y~}|}~l}wZ|~v^t,False,0.0094509125
~?@c}nl~tzJ~]~x}|vlnfzR\~{nv~^~]^~Z|t]|~|~^z|zz~j~~vhq~^v|~~}~|^TzN{}nyjx~j~n~~|imf]X}fz^fvZn~oM~}~Ynu[F]~V|~fw|h~||urx~|~]v|~|yzZf\y~~~v~^n~~~}~~u^~|j|mZh~UiNFv|u~Z\zr}L|N~U||}n~}t|~z~zv|v~~~{}^v~}~~frznn}~z~evZz^~\~~]~~~^v~v~~~|\b~~~}v{nj^^vjJ~]~m~k}z}p~}}Z~}ZzTNv~xsE^p~v~~Kz^nj|}}vvc|^F~VlVqi{|n^}N^n~z|z\~^^v\~N|~n|~Vu|LtVmn\v{~|l~~^nL~Un^|^^}~r~~}X^]|~fyNnz^n~ev}r|{vznm|v]zzzZzv~zz~~~|P|~~~z~e~|~fzrNv~~v|nu~~~|Z~}^z~nU^v~^~^r^u||z~|{w}|}nV}Z^~~z{nfUnu~^z^~|zv~~~qmrz^v~YV~~Y^^~~~}|uv~JE~|yUf~~~~~~~uN~~|nt|]e|X}|z|V~vn}V]J~~zx~~V|}|Q~rMULn}~zb~znv~f~z}}nh~qJ\~~^]uvn|Zl|~}j~]ZVv~Vn~|zvVvt~\~vt~m|LzJ{N~|j~}f~`{rvz|i~||n~v~^]~b^^zeVmv^z^~~Yiv^|^~]|~}~Zzp\~|zz~m~l~v^}\}n~v{~l~x~j^x~~|in~|~|^}Uz~~nunyy^|b~\w}~mnvfv~i|~mn~uzzzZ~v~~^nN}j}^V~nz~~|Zr~~~}zj|~|z~nz~\n|M}n]|^j~x~f~Jl~||R^}|}^X}|rns~n~L^}lh|^~~{^V}fzz^zn}x|^wX~\,False,0.0094320774
~?@cV~~Nj`~}~~~}~t~~~JJVv^}~Nzb^m{u}jzN}}y{vy}]}ztjJ^~J^~xn]|nn~}~}}npF~~yVz^w|MN~y}u~~}|v^y|KfnV~oJ]~z~~}xeNZ[\z{n^vnN}fv^vzr}v~|~}~tu|m^|^~}~v|^|m^h~nvjj~{Vjm{vzz^^|nr^v\~~Zm~uz]~zzW}u~~mm\yq~|S^^rn\~mNnfY|zv~\|v~~}v|fyx~zn~~|xj~|^^Z]zz~~v~nnnz~u~|^}v}nvfx||~~jz~~vv|M\|~v||{~lu~l}~t~~|`un~^~j]||^^|nzl~n~v~}~n]~~v|v~^Nv~szvnm^znm|n|}{r~F}Sz~]|z}[j}Vg|t~{|z~~ykt\~^~~}}Z~~v~~~v|vun\R~vN~J{~bhvvmYjnNV~}vv|q~|ytn~z~w~jVx~zZz~uzu|^y}xZLZyzlV~^z^PnZ|~|~n~vn~v}|x~|}~VjZd~~}lw}~~~nxNy~]~~]~~nN~~lz~}Nn~~\^vnu~`|M~~j~~fvn}R}Nd~z~~~~x|}{p~~n~~~z~~}~~|viU`j~{v~^}zv|]Xnuj}V~N}[~|vX~~F~~~Nt~]}~^}~y|~}~~~^|Zn^L~v~}Zbuk@~~Ven~~zu}~n^n^~n^nnv~vv~^v~t~\Tjn{N|~zsvnvzL~j}v~}y~vZznknt^nznz}~~~|}ve~ul|s^~~^N~r~~tvvtZln~~z~y~\z}VZz~R~j|~]}zV~h~{^~~y~t{~Xjn|~}n~y~nvzn|nMU~~~^z]v}}uz~~|||X^|v~~P}||y|~k]z{}~j|lr|z~]jv^~an|v~~jnn|~{\c^n~|n^j~~,False,0.0094630718
~?@cmxnNy^vdV~~~~zt~~|~~^kzzf~~Vv}Y~c~nn}m~|m~vh~|zt~znVvxL~~n|ivz~~^~t~q|b]zs^N~iR~z~v~v}b^x~~||y~R~\~~~~}zz~f{~s^{~}Miv}^vFu~^j~~uvzj\mNMF~hV|n]^~~}}]n^|~^~^v[nn~~~bVz~~~^yZVV|npvn~t}~vtnv}yz}j^yzy]^urzlvf~}~~~|z^~~sM|~~~v^^z~u~{]|z]VYn{^n\l\~n|p^q~~yf~~~`f~~~~]V~|h~~||m~}~bz|~}K|n~Z~~m~]vuZ|}mrln|V^~^~~~|~rv~~yZj|t|^|y~t~~^~~^jd|v~~~nZv~n\~r~n~lz~qNM~iu{zs~~}m~~h~}~~ln~|~nnZ~|n~{}^~~^}b~v~Vu^]}~~f|^~~^z{vn~|nNm}~f|v}~]zL~~}}zvm\vv~|z~~~~za]vz{~zvv~^|z~Zz~{^}|Xj^mV~~x~n~^w~l~\][^n|~~]Yjmjzyg~^ljl~m{~x~^~Jf\zwjzn|^gl|y~^X^|~zN{U~|f~v^~^y~M|Nx~vj~}Nr~z\nvN~~n{rv~~|~n~}vlNZ~}~nzm|zFt^Up~zvn~V~y[~~|xyn}|J}{~n~~Ny~~mv^n~l~n~h^}}Nr~j~n[]h~v|zzO|~Mz~^}K~qwx^~|}imv~b~^~Vn|uZ|inzz~~~}~enZ~h|z^zz^^~xx]n~nmv~xr|z~~}mv~Vvnr~v~zyfJnvj~~}nq~^n@~\du~me~nAU~^NLzzz}~ynf~~}n^]n^~|z^yZ~^t}[]z{B~r|vxVv^^nzvz~]uQ{l~n^z~f~~~}Z~v~}n~n}hNz,False,0.0093989372
~?@c~|^fnz~V~|f~Vh\nZ^ynnu~|r~yn~d}}~~~vNn~jFnyT~y~~v~vvn~^}z]n}n^R|}}~tv}uvz\n~~vz~[z~znxNgvzznnm~~^{}zUf~v~~^^kUznxF~|z^z~~}~vxmNvx~zR~N|~~~xvy^vn~^l~}~Zn~i|~~~}s}|~~~zn~~v~mz}~y|~zm~}]uvx][n}|n}~hzvf}~|X^}r}n~V]N~~}zv^|~N~v|Vsz^v~|zV|V}^~{~^~i~}~|~xuuTvOjvvm~mnf~n~Z~|{\n^m}UR~JlNvt^un|~~~~]^nr^yZ~~^~~r~t}~vuN}]~~~~M~|k^~|n{\^ud~{j~j~zjzs~NxnNvz~n|}zf~~nNvz~}~y~w~zv|z~~Znn}~jz\|Z]~^~nnxt~v|{]{^fz~~^xn^~X~tz~q}yVvl{~~~Vn^f~zT~w~jVq|lN~zds{uzn~~~nN~|~pj~z]~n|nN|jyymLn~}~~}}NnH~~[N~Vz~v~z^^~{z~X}V^Z|Rz~zz~~|n|t~^q|V~~nz~v]~Zz~znvv~\{}~vj|x|z}\mv|{quz}d\j~~u|In~~~~]l]nnzvf~wvnz|^|vz~Wv^vz}Vt|zs~~~Y|~~}v\h}RxC}~|||~~~]n^e{nyy|fUn]r~Zyf|L|\lN\v}~j{VzvM^nz|~~|v~~R~~z}zz}XKv}~f~~|~|zzuVt~t~n~z^v^Vv~~~^~ny^~^~}v~t|]zT^zf~nkm~xlvx~|~~gw}f~~ln}ztm~|n|z^~n^^vnmv~~~}Tx~~v~py~iNzn|T^|~~ouZ{~~~}}^n^v~^Kn}^m^ltHaXm^MhNu~~}^z~^vvZvz,False,0.009472847
~?@c~n~~w~l|Z~`^~}Y~V|~]nx~~~vz~vnn}}~j}^l~Z{smw~~ul~v~f~v~~~v~tk~a~vu|b~ju|~t~wxv~^F~^njz~^v}H]dV~v^|f~~~^~}Nz\~vf|~zu|Zzxv~fe^{~v~~yn}z~~}f~~m~x~Z~vuFv|vq~uh~}~Jkxvzbn}l~~V|zzxj~ntV~^^}m^~~}dV~y\~^yv~zFWu}N}r^|~L|~w~~z|~}yzb]~t~e}~^R~~e~r~~v~~|~~~Nn|}tNN~n^~V~~n~zvv~z~Ltz~|~~~~v~~|^vzNuux~vXm^}My~~nzNmp~vn{~~yZuZzvn~vz~~~v~~ln|Vv~~~n~}n}~^UN~~n^rezn~|z}^r^~~^~~N||vyn{v^~}[yq~~~|]k{^~jJhw\[m~z~j}~nj}j^~N~x~vZ~z}Quc~z~z[y}~r~\~zn{m}kj{~lv{mzvvZ~|rb~z|~v~v~vZ~|~nz~V~v~|^u|{~N}MJvny~dv|~}Lt~}nr}}V~|v~~U~z~UF]~|^t~\yR~R~t|y~m~~}~n}^^lnj\hfTv}v|~vrn^^~^~^~Zv~~~~|hvH}^NwyrX~v}{n~F~}zxuvven~~}yVfnNy|~~^~vLn{~yn^~|[z\t]]|b|z~f^u\vnvy~VXvy^^{~~xv~~^{]\~Jr~x|z~k~}j~nZ^n}x~inuv^z~vZ~~~nt~~Nf^~x[~x||l\m|^~~zkt~e~vFni~|~~|z~vX~nzyv~~|nV~~~t|~NflJfu}j~u^}\~d^r^t~j|~]j\n}~TfV~\[~^i|Z~j~~}Uzqltzz~~^zX~~T{^uZvfvvvz~^~n~|r^FvLn~znluNv,False,0.0100500584
~?@cXV||}nz~zM}^~^~n^~e~]~mk~Pu~uw~~|Ny~y^|~nnz|~~^kv~h~pn}^nf}v^~n^vw\}bv~{^m|na~zzxz|m^^u~\~|~~~rvy|}~mrv|x~z~~~t~~^~n|~iX~^V|}|~|~Vz|Vh|~ni~{zvs~zvn~~\|nxy{~|n~}n|~f~v^z~r~}~v^{Vn~~uzy~N~~y~}~vlv~r~~~^`z~v~}Nr^~~lnx}r{n~mJ~nVz|zq~~\~~vnv~z|~v~}|nZvTBV~x~`~^l~znz~~o~U~~|ztZ|v~~^tVJ~]}l~I~q~vzr]^}mUz~~~~Y~~|~~~rm~~nv~~v~vxV|p}vZ~|~zvN~^~myn~xMZ~mV|^q^|^~nLZz|{~z~m{qml~zm~}}z}~~n^}~vw~x|yUftnj~~u~mFY~~v~~j|nrN^|mlys~tzL]~nn~~ksnn~~lm~uz^v~\x^n~~ln~t|vvvv~v~{\~~~v~vZv|[m~n]]r[~~uWNznvt~^|v|~~zM~~tnV}~]~t~u^}Fju~TFX}Nn~^ltz~xxfZ~vu~|~~v~v~ofl~kz~z~~~~\~p~y~z~q\}T\~jYv`|~zQ]yr}~dnn{t~~~~{~t~^n~nm~~[fxv~w{nr~t~n^~n||L}~~n~~vn~~||{v}d}^tmZOV^~v^x~~E[]~d~z~~~\|N^~^|}z|^py~zyZr}}t~f|}r~n}~^\|~~nr~}~v~krv~~]vtvUn~~|fn{zvfnNBzLrpz~^|n}~vf~^v]|^Mpy~zm^~jJx}V^}~p}~~^~]^m}V^~y^\ufj~dN~w~|{~^vnnv~~quynry~uyz^zl~tyT~zrj|~~]lPuM~~iu,False,0.0094540119
~?@cj~}vn|k~}]~vf|rn}qt^n~n|szr|}^^~u~vzZ|~~\~~|v~{z~wnljYH}~r~n~~uVQVJ|f\z~~~~v~~|~~l}Mr~}F}zvt]~jzt~^~l\|{D]}{~jz}~nt[l~m]~znm}N~vT|X~]~~b^znMuonmyf}{~w~Zzqn\~rJv}vNN~^~m~~v~v^n\m~u]~vn~~vf~ln~FnT~}~}nz|^zfuy}^Xn~~f~^~xy~~vZmr}]N}zN|~Mn~~zZ~zSx~n^~}~~nU`x~n~zv^~tu^~VrVvt|nm~{^|~~zUpm^\D~~z~v~~v\{]H~^m|v^fyn~^~}b~|^n}zfv~~y}lLz}r~n~]~~|vv~^~on^~flzfTn~v}}~m}\}^~fe~~z~N\N^~~fv~{~|~ufn}}Fkn~{|~lzZ^~lVxe~{n\u~~}jyzt~~}~^[z~Nznl~jnzzn~}n~^c~W~cm~v}~~||~wn~n~}~nv]n~NfryN~vr|nz|~v|Ul}v}~f~{r|uy~|^~||npiv~|z]nez~}~^~^\^v~x}n~~~~w]~~~~^nn^^N}zL~x~n|{zlvlZzv|n~}~xZY~xJvz~|vcTuj}~m~e~~p}n~~~~^n^\nvb~~|m^^]|j~^^y}~v~~vn^~||~~vNb~|V~^^v}Ve~~|~hv~|~~~f~Z~O|N~zvn^vN^rN~mSz}^~~~nN~N^n~v^mf~ty|~BLzun|~~u~z~zn|\~[~|^|~vmr~k}f~~^~r~zF~~Vmw|~~~~wzvvM~^~wnlL]n~T~nJ{~}~v~lzx~J~}zV~v|v^^~||]~~}zF~}q~xN~z^u}n{Zf|v~{n\}}z^{u\l}N^Mf~j~Wj^~wr,False,0.0094349384
~?@cv|\~|^~wtn~^^^v~rNYn~w~[~v|ZjY~v^~z~}^nz~u~T~lvnvu~rzE~N~vl}jz|~~t}~^|z^~Nl~~~~]vv\~~YN~}~yfl^}~y~}~~V^z~tV~zX}|uxum~V{ivm\N||z|n|~z|||~~^}~z|v~Yxzv|^^jN]]\^vRv}N}~y~~}av\[~Ev~}kN\~mv~~|}w~zZ~jq~~Mvhr~vnun~~~z~~ZYn~~ul~|y^vl~Vl~~|vv~~}]nvlvut~~^~~|}~~Xsj~~|\z|~{v\{~||qz~|zt~t~vN~nvlX}zFf~~~nvn~~|^}v|nF~}i~nnzZn|zL~nuZu^~lzVV}\^^~ZMV}z]vPny~~rbnt|]x~~v^~v{ny^~~~A^|~hylNn~L^}N~x~yxz^~~~u~uv}z~vv^~^jU|vz}N~~^V]mJ{~lo}z~}}x~|~l}nzm~UVzzj~nYb~{vY~u~|Z[n|y~^v~~uuTb~~~~}~n~~||st]j^zV~z^H~v~v`~zz}~z^unHv~N|^{~~~}|}~~\]^|zv}|]yg~Lt}nZ~^~~~rl~z~|}}z}x^^vZu}vyv}v^nezz~vf~~~NN|jk~~|^~uX\}z~z~f~[y^zx}~Zv~vrz~F|}njnm~fd~Z^^}txx||~r|njm~~v~~~~^~e~V~zylV}|VMz~~~l^ZV~crv|~|}^r|`K~vvz~fn~^V{v~uxNl^~nv}Z~~z~^|vv~|~C|xz}~jt~ZNv^~y^|vzlx^vv~~~w^n~\^~zz^~i^[^dz~|yzb~^~^[^}u~~~Nfj~}{~Zyznv~x}v~~|~F]}~vn|^hZ~N~s|^n~}{p^\}W~~NzZmxyz~|nyzV,False,0.009526968
~?@c^~p~vm|~nj\l~~Z|zv~Sn~v]\n\Z~FvzxxsX}z~y^l|~~j}}t^V^~v}^t}~~Nn}~N^|^~x~~~^J~|{~x|Rs~|^|m^q~z\~|n}||vn|~l^||nl~]sn|~kt}~~~~~~j\ZT~^^z~~y|nx~r^p~bN|lnlnx||~{s~~]]~~zvz^~~kn^gX|vx[^s~~v~rvz~}ri|v}F~~iin~zZ|^~X~~LklT~^|j\Ynv}~gL~zm~^~}k~|zj}^Z|zyjNu~|}fef^U~|znN~zj~yz^mz^}}U~m~~{rZr~~zzX|~znl}}z^Mr}v^hnzj||x|zc~\~zz]rn~{r~nh]u~hn}}y~~|v~}n~~^~z~n}l^yjl~^~~vu~~}~x}|~n|znr|l~~}~~Z~nZv~QvEzJ^}~N~~~n~}bl\hv^~|{|d~~|}zv~zdv~n~|VVt@Nkmml]^}}|vZy~~~v^f~^^z|z~ll~wu~~~\|E|vn|]~~t~vV|n^F~junxj^~^t~~~znj~~t~rv^n^~~n~]~y|m}~~Z|~^mvJ}^]~~~z~~~x^}~nVy]y~w~~yf~B{z~}~U{~~}mvZn~n^L{}^xu~v|~nv~V|vHx}L}nZ^}z|VV~v}zzzy~L]~q|u~~n}^z~}nZ~~~~v^vzz~^~}~~yz~~~y{nn~~~kZlzn}j{SY}y}V^_v^z~~|M|V~z^z~~rn~~Mz[z~}]VvU~vNvnz^~{]~Z}tjn^}]~Uv~~v~~n|~~~zf[ml~zvvnzzn|~zv~mu~nt~^~Y~vN{V~u~~~}nEza}Gznzu~}\nz]nq^}^[|~~~~tn~^n{^n}z]z|nhr~j^vvxrV~^cn~~~fvvvNz,False,0.0094561577
~?@c~f\r~vuV~MNVVx@z~z}v~~q}~~v~nyZjvz~~~Yf|Nv|~v|^}flzvnf}fn~~~l~IrnJ|}nz~yx|z~}x|rzt{~~jv~f~t~Ryfz~~v~iu~z~t|^t~t}~n^~nZtv~vvlkn\~s~nK~v^v~|^^zvN~~}|mv|^zz{~~nR~M|~b~xtUmV}U]hn}~f~~\~}}}|t]xnt{n~}B~M}njVf~Z~z~~v{n}m~ex}}|~z}~zm~}[~vY^~n^^n~^e~}V~fn~|njq|}n~ur}nV^~XN|||nMVn}yn~MLt~Z}Y|}\yzn}zu}^u~|]vve~fj^t~FF[~yhn|zlY^n~m]~}z~~V{~}~~^p~v^~d~~~~z~X~~y|nB^}~~}l~~}VJ~xz}lKvl|zV~|L~}zn{|~]F]xt~xNc~~j~q|t~~~t|z^z|V{Jn~nnkp|~^|~ml|t|fvdn~z~~z~^jzv~YZ~v~~~l]^v[v~fn~v~^\~^Zn~V~~~~~v{}~~]N^|{q~n~~}u}rp]~v~~~~z~~~mp~nnrr~|~wj~fun}^|nztVtz^~z~~~^~vs|rvZ~|fyvFfy^nVn~~^~|u~~z{{Nv}{~y~v~u~|p~v}~^n~z~^~z]nn~}~~z^Jx~V~\}jz~^|~n~|nv~}v]~~zv|^fZulpz~nzv~w~LVv~~x|vvv~t^R~~uyjv|~~z|}~\Ul~V}|}z~p~~v~s~v}|v|v|lv^Z~{vnz}~~Nv~fn~r~enU^V}nzt~n^t^~vlivzz~ix~^kt~l~|xV^ar~~~~N{|z^|exqN\m|Vbln]|]t||NV|||~~zl|z~}vv|x\n}w|]}zv}{nv{z~|~z~v\vvy~|bZ,False,0.0094308853
~?@cf~~vbja~n\k~O~~V~^t}n^s|~~~n^quv|~~j~Uz~~^|Kd~v|xPum~]UxLZ|V}W^|~~g~v~vV~~~{~^~Ix~z~^lvzhyu~}z~~i|X^z~mlvnzv~^~~~Lnn}~T^n}|\}yl~~}^ZjU~~{~vl]iVz~~xzz}~n~~vz~|n~v^vjN|Yv}zv~nX^~~bV|~~t~~~ldv\~|z|n~zulvv]~~}^}v[z\n}}~tI]\Nzry~nt|~~Ut^~Zli~}m^^~|rn}|~UJ|v[v^\n~|jDr~~^L{x~nfxlqlw^nuvlvh~~]z~n~}nv{~v}||z}ZNF~Ne^t|~|Nn~~v{z~~}t~~~^\}~~dp}xnn~|~t~~v~Uqv~~~~n^|^vzN~tyj~~~~^~~~}tv~~~n|~~~~~N~^z]dJ^{s~~~~~n^~~~NvzJ~yf^||~}^~~j~~tuzl~N|~nv|~qP|~\lfnv}~rns|h|Z|n~dzlN~zXZj~~nN~~~z^~~\^~^s\\~i}{^~^||nzRnnrnv~}~Vx~ln|z|^n{~~n~nviuvhe{m~~Wn~uj~wnzntvl}~~~{J^nZ|~~\tz|^v|VmtJ^~z|yNv~b{v}{y~|Z~}~~~~~n]n~~MtpUdyv}~~uz{~~z~t~t|~|~|}^nyz~Rf~^~\^YT|~v~VN~}v^m~Dv^an~r~y}xV}j~~f}j}tuy~nV~~|{vf]m~^T}^~nn~~~~z^Un^m~ZNTr~v^~Rln|~v~~t~n}~vmf|F~~\~|rvv}UZnnl|z^~}M]~as^V~v}zjnVn~]lFnw^~n}v~Z~~\|~F|~~~M~vp~~cn~^~vzx}~R}N~~jauvfZZ~t~~|P|}v~]}||^~,False,0.0095169544
~?@c|~~nxnivv^nz^~xnn~~^y~ev~}~N^z^z~fx~zv}^nVzn|~yznJ~~zVtn~z~^^|f{zfrn~[Nv^nfvnztjnXv~fnvzm^\~n^U]^V}vBu^vvXpzV|F~]~n|z~^{u}lvnzzz^{zz^zx{rp~~^|rV|^nn~~t|d~z}}vr~e^~^n~x||~Rnv{lv^wT}vU~|^\}x~^~sl~~~\|~nVV\~\|Zfftv~r|~~}v~{~z~~c~}~yn|RnM|^rm~jn}Frvv~ufe~v]~~}|hvvz|v^^yy}zV^}v|~~~j}z^l~~\|l~zn~|}~|~o|~|~zz~y{z\Xdl~~l~V~V}}|~}~u~n~|zNtkz^|zx|mv~b~n~zm^vN~Iva~v~~{{v~d^ntn~viq}~~~v~}^n{}zv~}r}}r~hr~}d~{|N}~~~~}xrE}f~z}~~N~n~}N~~vnvZu{~~nn}~n[vZn]uNzN\~~~~~~uvtvv|j|z||r~t}t|idF~zNv~~~}~vtu}~vm~~Evy~~}devN~~n|}vznu^rZz||}^wuZzn\md~^Z~a~x|\{}~~~n~k^~v~zvntv[Jm~i~}~pvVvo~k}~^~T~bnn~~wvu~~~h}p|n|~~~|b~C~\\vtVj\v^N~v|fnk~|~~fV~|lz~~}z~~`z~^zznn~u~~y^f~}~|B~Z]~]Znx~{}|{M}~n|mv}~|~~xnY^{z~^Z~zv~n~~}~^{yv|n}m~V~~n~}|ntj~~}m}ml~}~{~V^~n]j~~~r~}Jnm~\vm]jx\fNn\~~zv~}QjztVUm}N~m|~Mn{~vvq]m~}zrn]\zU~~r}~~~z~~zU~n]~^^K~z~~zuyv{tyM^z~~m,False,0.0095179081
~?@ct~nn~n}n~n^X}~m[vlN|jz~bt~~zmZvt|~V|nU}~V~~~}^|~~~V~}nV~zv~zn\}nFnuHv~Y~Nl~~~~~~~~Ml~~Zt~j~znN^^n~}~~}~~^~}^{~l~vz~myjNv~zzz{iN}~^~^Fj^|^~kyvx~n~^~n~~~vz|~f~zm~nN~z^||m^zY|^~lxn~~}v|}znnr~nnvtnz}{znvvK~H~~Zz~b~vvn~iz^zn~}e]~vjz^r~|}v|}Nl~}n^u{~~~\\~V~^xy~~Zn}^}m~m~|[i|j~~v~}zxYbU\~\f|}~zfn~~vn~^fLr~vnxzz{~^~Hvvv^}]zVlmM}~ynZ^~v}}]zZ\x}zzxt~~~az~~f^nx^}~^nV}~~~~}~z~~~^zVz~y^~n~zfX}|]v~~^Z|jm~^nzZVnx~fzU^nV~}^~qqV~nzt~zF~qzzNbTf@~m~tz|^z~v~xjz~f~y^~~^|nx}f\~vivm]uvN~~Vv}~mv~~|^qnz~~~k|L\t}vzn~jr^v~|~lj~urvZ~Nv^nx~F^reM|vu~j]mnN^\e~~\v~~v~jzvn|]u^zN|||d}|Z~n~~nttzrn[qnR^~H~u^~}tjt~nlR^{}sv~~T}~~zts]^~m~V~F~}~v~[{^]mz~^}nM^l}|~vvveu~tnv~L~z~ezvY~en~{Yj~fvz|~v~~|nyZ^~ZD~vTn~~vv}VVN]]~njvvlZz~~MzszvnxVy]HJ~j~\o^nvJ|^Fzzv}~~N^Z~z^~vn~Nz~rnu~r{~jnr}z~~~~~~\rxs~~v~uv^n~]tbzj~~~~Lv|z~~Z|Z~M|Jy}]]~Njf]~Lzz~r^L~|~^~q~v~vxm|\~,False,0.0094921589
~?@c^~vyf{^vx~U^F~~qzF~~fTZmmd~~Zzbz^n^~[v|bhy|}|}l}V^n|vq^|m~~~~~|~}y}{^VNfMmzv|~Tnvvu}}^Ym~v~V~^~|~\~mnF~n^vtNz~fzm^|vv~vnl\}|]|~}z|z~NHv}m^Le~|vvVn\|~nn^z]nm^nf~z~~\nvjv~z~r~m^sxf~}vwnrz~^~pRy~|~fE~|~\j~~l|}xunf~}m~\~~\v}ln~}~ZbU~z|t^rvVzj~~n~y^s^~b^~}]t~r\}~yn~\u~}R~fnv~^]VT~~mrlly~vzNZ^~vy|y~~Irn}|v~nr~xx~v~}z|~vy~xZnm^Rt~~zpvv^~^~n~~~wV~~^j~vzjn~z~lk~^lmz|||^uzbN~~vqr|y^~Tvnzj||~\~tzt~zvgv~N}rR~}|M^^^z}v^~zz\zjz^~|||zv^z~vz^fMzvTX}~ly~np~~~^zzz~~lvZ~|~|~~~|n~~~~r~~xs~|N|v~~zzl~|~~^~~wFyzz]~~ez|}~ltnv~^~|R]v]~nV]}l^~~n~n^zv|~~\~~fdv~~v~f~t~~^z^~neVx~r~nt~t^SziNY~~u~Z}z}z~}^l^{~~~z\v~|}w~VlZ}]}~n^nzv~~f~xJ|z~f]~~z~]jrv~^Hz|v~J|i{cz^^N^^nqnr^e~n|myf~n~|y[fNtJn~[~|~|~^zz~nW^z^v~]~}vj^~vn~p|]j{}~v~}~~p|zzvzZ~f}R|vvvXv}~zxpq~~j^Nzz^v~z}~vxR^~~dz~~b|ZMv~\Q^z}}|xVrE~|zzy~i^v}~vzn^||]~~c]u~zvi~}|\|}Mv^~z|~x|}~~~~|~^}\t~{,False,0.0095360279
~?@ct^nv~r~~^l~~^~z~nr~dvn~~r~}|k}SzZvJ}u}nLx~]~^~R}~\\~^mz|~d|~}~{z~FJ~}vVz^xluuN}~}N~~Nnw~|}lvv|~}^nv~~v^^~~n|v~c\eb~~}~l}V~~}d\xkz~^x^mv^n}~nzh~vnJ~yt^j~u~~ulflT~|n~~zZ^t~~~^{[vjn]~QVvy|}z}|~}tNJzx~zX~vn~nvfUiT~mR~yZj~zv~z\^~nnJtj~~~~v^~j|^v]vzUz|^xz~LzjM^zjr~~\vm~x|~^vm~z~}]~fqN^^nvq~]nv~n~~uvN~npj~~~\}}nU~N~^tx|V~vnnRRnRJUzkn~f}~~~~~ruy~~tbv~~vRf~n~l~~n}~^^M~{fu||~~m|u~}}Unn~[~zT~nnT~~Up}j^}~~~~|y~jn~z~~^~nVNvv|Xr^y~}em^ux|t|^n~}~~~~~}Z_njzv~v}~}~k~V~~c~n~~}|U^n^f|v~m~Hxx~~~~m^^ltzznPC}]zln~~n}~~z~m~V[zlvzvu}}nr|^}~velzxzrh|~^~Z~~nzr~}o~vvf~njaAzX}^uy~tuzn~}~z~]y~wI|ivk]nZhx~E~\n^v~g~||~z~zt~|||xz~~q|rv~~}n{z~~v~ml|n}~N~~v~~|z~}lV~~|~\~v{~^}^}~~nnn}~l~|~p|zrvNh|~||v~^t~}~n^x|}~~jnf}}|]nt}n~n|nz~x~}|~p{B}r^~|t]p{l~b~~|f~}ixn\~vn~Nev~~~nwvU^veN\Zu}J~~K~zv~~z}j~|~Ne~~p||vz~^|~~|zn~i^|za~nxUu~U~f}n~z~|Vn~u|}}~v]~]~]f,False,0.009510994
~?@czl}slzv^N}nvM~yzvhv]}nln{~|}zny^vr^xz~~~t~~m~LrvT|~}~R~ZmZ~vnmw~Z~xH~w^vNf}YNv~~vzln~F~~v|Nl]^~f~~nmnn\~^^vn~|nm}Yeu|~^tn_nwn\Z~~y}~N^v}~~d~z~v{~^vzzn~~Z}Nr}vZzxtzz|{|~}V{~~zxpf~z^^^ZN\~~nl}~zey~~l~u^]|n~zMt}fy^~]jj~zn~}~uvVnVokv}jxr}z~^l^|~~lx~~zpZ~|\nznv~~\~qdmm~~~Zzu|n~t\n~h~~^N~~jvYt\~me~]|~n~\~z}~i~~~|~n~rxNf^|F~z~~~}r}~~n~`|~^|~~~v~Un^Z~^~~~vzzu~z~Nj^Kz|^zz|~p|}^M]~~n~~||~z~\~n~}u~}|v~t`|^~|z^~}~nbyz|k~vn^{zz^zu\zMV~zZl~~z{m~lv~z^}}y^|v~f~~fq~mzn}^nx}|~xn^|~~jvzv~~zz{~R{|u^fVyz]rf^~d}~sx||~~|yhumv~}~~^^vj~w~~~ln|pzm~v^n\|~z~}~~}^nv~Vzztl~nmn~z~\}x~~z~~~|mntm^n~~hl~~gv~~k~}\u^}R}^viuoj\^~hvkn~~~gZ~vzjn~~~v\v~~~E{~~}}}b|~~^V~Bn^zn{vuv}v~tz|||~me~n^h~gnukVB}n|~^~t~nzt]f~~~~\~\|Uv~^np~QVtwx~L~n||~}~i~f^~b}v~^jw}|~Ttl^^l~s{tY^zVy}^zn|~^~~}|N^l~Nby^~~tuz]\m^tzT\~~x~nejm|^|~~q}u~~n~~fz~xn|l~~z~u~~nrzz{}jv]I}v\}~xy^,False,0.0095460415
~?@c[n~pzZ~t~um~o^~tv~|vj|]^~~^zyt~}MN~}|v}j}V~z~~q}^|Z~~^IqU|x~|~r}}~~|bz{zv~~[F|zwyzh}{{}\x~dlzTv~|s^Z^~}~~m{~~~|^~^zvKuz~}~n~fzzYnmYnv^|~F~~{zVzZ~~~u~~z}~~zT~r~~R^\~v~^vj~EWMZfspt~~izuzvNV|~bn~lZ}||f]~rl~Y~~}~|d|~~~^~d~~~TVn^^~^Nnk~Uzvr}~Vy~lkv~vv\n~vNu~~\~lz~v}il~nf~^zn^~z|}~^~A~frnj~n~~~~~w~nvv\v~^n~xun}~}htzln~y\pv~^~~~~b~~nZv~||~v^}~u~~~k~nz~~z|~}|~^\U}jn~~mfjl~N^Mn~~y~N~jyyd{~zr}~q~~~v~y^~j~~n}~~{~y~|Vv~Tnzz}J~u{v~~~n^~~jven^Tv}f^n~mz~}v~~}y~nqv~vz\|nm~~niz~uN|j`yzj~~Nz~vnt|~~h^z~f^[~a~~V~}j~~vVk}}z|n~~~}{L{vblv~~|}u~~nyn^|]~p|v~~~|R~}V{j}~~~vZ]~fvV~ZpVv}}}~~^x~Jdz{v|nqz}n~]{~~~nyU~~~tMzLfnzfw~^J~jT^~sq~]~v^~~^z~~Z]ZjNlJ~~v~]~|mZ|~Ll||~p~~vV^e^irvz|v]~vv|}v~n~w~X^mn~{[z~k~|~Nfkn~Mj~N~n~\z~~vnfu~}~|Vj||n}v^~~o^~zy}m~{v~^]}^~{uf|~}syz~||fy~}~~~z~~zZ~SzV^cu^ul}^~wp\mf^^[y{|~|zJUr~}}z^~r|~|]nl~~Nm}nt^j~}XMv{rl}yy|,False,0.0113999844
~?@cn||~VyLz^~~v~~|n~~~t]Znzn~~v~^fk|tzf~n}^}||y^]}}^v~n~f}jNzr~}t^lvZV~f~^^t}e|zx|||~j~||v}~}~v]qz~~y~n^Mmnx~vVVZ}~}|}~}Z~^~h~m}J|vNr~|vu~n~yv|v~xZN|~r~~~y~~bN~}~v~~^~~un}|u_~~l~}Jfj~tjX}~L~z~v|^jztzl|~~m^^uVev~nu}~\~{XUZ~~|tVz~~~~~it~~}~l^^~~}rf}~Yv^~v[\~[|}|nz|vv~|~}~envvnh~lv~T~}]~^^~~~~[znt^n}~txm{|jz|~~v~]|J\~n|l^vj~|}|L~uv~l{|zvf~pv~^B~~vF~vK~v\n`}]uF~~u~nn~~n|~F{}rnZv}~j{{f^v|vFvnb}^nZ~^|~[zr~|~~~|~lnz~}urJfz}z|~tV^^VV~zv~~nhq}}k|}V~~~vMn}zY~~lH~nsD~~^txv|~jzu^|[~t~u|z}~~~~rz|x~~}}tzvw|vl^~V~~nRN~vN]|X~m~~|u\t|v{nzvy|~]w~~Ij|}z\{nb~~~z\~~Znuxvu}~n~~~^^~|\^~V~}~~^^g[~{D^{~|nnlr~l]X~z}~d]~^~~n~nz~zxzmv}nn~^^}zrZD~vn^~|x^~K~}x~z~^~v{zvYm]~|x|unn{~lZ~~xz~~~~B~~~~^~\^n~X|xnvfVx~]~zkFvzxY|Zjlzv}~ly}~Bmvv|}|^|rvl~v~~l|{r}^]~|^nnZV|qu}}\^}v~^~f~\nj{x~]^mFn~}Z~N^|M^{~kuF[~yx~v\X|~fJm^znj~n~VT~^nz|n~v~^^{\~n~Z{~~~h}]\BR,False,0.0092339516
~?@c]{~~]t\^^Y^~l{f~s~~~]^~^}~~~~jn~|Z~xf{n{v|y}~~N}~~Zp~Tnv\~~t~~~~~nmkzx]~n|le~~Zvn|~}jqwuz|zszvNqy|nV~}^~|r|k}^n^]~yz~^z^~~z~~zz~^Vv~~]tnuj}v^wnm~zn^}m~n{x^~}yy~w}~um~vu}^~N|~|~~~~Ev~~v~m~z]vwq~zN~ZzNvr~Nn}~f}v^V~|x|~x^v|~z~~LY~^t~CZ^^tv~~vZl}|\jNL|p~~fn{~jvv~]X|~~~}~vrfX~zm\v~e||~~vv~~Jnn|}pz~K~~^uf~}m~nV~untg^^Lz}vvuin^|z~v~tz~Z~zm|u}~Z~~v^|~^Rv~nZ\^~^nZV}~u~~Y}z~n}^~}~N|zN~~n~~~~~~~y}~Fz~vTwv^{y~v|~z~tvs~jf{bqvj{]l~S}}|~h~r^^^^}~|~m}nVtNZ||~vz}|~m\~vN|~|nnrvy~}z\ex^zz~~^v|]nzZk~{jx~~}Jz~ZYpxx~ir~Nn~p~~niU}fTzz^~~}pBZu~}~v^^nh|~z}e~]v~x~}]]~Zl^n}Fryuz~z~~~u}~v~jvq}N{{^~~xRVuN~rfx{~^}^u|Yz|z^}Z]n~{}nn~z}}zu^v|~v}]|Z~f~j~v|}^~a~~~~~Tz]|klu^|~y~zNwu|~Rz^~~^Z}ntNdu~Z^|}ZF~zZ}}~b~v~\nm|}^J~^~tZ~rZ~~t}~}n~^|r~n~Zt~z~|^xnL^n}Znvmuy~}xVvE}vj~]l~ElnvzT~~||T^}v^vzVki~rYnv}m}^zn~~vz~n]||\z~{^}~|~z^{|^~~fj|r~z~|nnm~zv~vNm~~v,False,0.010144949
~?@ce}]~nln^||p^MrnZ]^v~^}yn~~n}^t~~}v~j^zZj^}~tt~n~}v|~byLn]~ZkZ]rm~zz^~~~x}|Z~}|}~dnz~z^uVv|~~~xn{y~x~vf|l{fBn~zf~n~~~||v|l]~^}}}~~y^z~fz|yv~}~w|~~^~vtt~}f|r}^~i^vrz~zl}|~}~}^|v}z{V~~z}~~~~z~}\^nviNu~~}ny^v~]nr~f~]^~{vvx^t~|\rvj~Rn|Znr^Vzv~~~~~YyU]u~~^w~|nsx{~lm~l}^Vtcq~~~vz~~~^Mps|^nsyx^t~^|jn}t~t~|Vv~bzn~y}L\^^ebnz~t^zvv|^jNn]~n~~~r}vv}V~^v]zny|vvfr~~VzZ}~nn~}^|~ekm}v~[]sz~~zVnw|yz{n~~~z~~^Z~f~Z~T~Z|y}nn~V]|n~v}m|^~{Nt~z~~v~~~]n}~~l~t\nb]~Vzm^~zzzv~f~~||jhvVz~Mz^trZ{yZn|vvL}z|}~k~v}{~fNt~}r^{}~pf~uvyy~o~nVzfn~~~zdvN{|t^t~m}~~n}~u~txn]nf|nuuZ{b^~~|f~~eff||~~^V|v~d~mbu~{u~mNVnvz~z~Nf^l\~~xr~~}~|vb~~xvz~z~\m[yzn}}}v}r{^xnNj~qn~m}~Ln}~~~zVmD~~O~~vJ~\r~z^O|xz}m~xjz]ym\~~w~~^^V~x~|xye]v}~vz~~^~^z}}mn\M~~j^~~~}}mq~|z~tw~|~k~n\j^\vdx]nnpNr~~y}~}^~v}~~tv^f}jl|z]{}~]|nz\~~f~ZuM~m}}|VVn~~\n~|ZX\nn^ry|uny~~~z|zm~~vpzj^~~^}\^|,False,0.0098838806
~?@czv|vmv~dFn~^N~yy~]~pv^}~nwyp}wrvN~]zTj|vriz|~|}v|tY~zn~n~z~}tM^v~~}pjZ]zzq^^nIy~{ny~~]}r\n~jL}vVz~rzrvlzxzv~^||nr~~tV~|n~n}~~n~~|~jju}f^Np~~]~~~]l~~|zwxy~mm~y~h~u~v~z}w~~]}~rvvf^~mbx~|~Vvmvmv~|~xx|l~^~~\|{bu~X~yn}n^~K}~pynXv~mnn~VfZ}v{Zbll~h^~~\uz]Vnj~x~j~z~~Vl}~^V{~v[~^fVZ~j^^d}~x~v~a}~~|^~^|~n~~jT{{~tv|y~}|vj}Xzj~yRyq^~N~~nt|~~cyvt^}^NzVz|z|~n~|}~~{mt^ku~vwtvMst~~Z^~~~x\|L~Z}~vnZ~nf|^~v~f~\|IZv~mvz_~v~}~~~~ln\v~~VU|~evq}^vz}z^xzbnlz^y^nnvVm~F~}^~wsmn~{~~E~~yi~~n|~z~^^T@V~~~t~~|y~~vh~z}nv}}|~vzvz|~|n~v~f~l^vz~~}zi|nv~~fp[n|~]]~~~~~l{~^tQzmn}m^~v~dvv~\~}m~~jmN^}^fFZznfn~t{l|v]n~~d|^|Zzz~~nxN|^~z~nvn\]v~vm~~Vz~GzZ~^LnndbnNvy^v^v|~}~~l^Vz{^~~\}\vyvnv^~|~nnz}\~cV~~[Vjhzmn~~[^u|~{~~^^vvfv||nzz~ri}]~~vvz}rnx\~~~e~V~^Z~NpVVVj^~^~~~U~~n}zn~ml~~]yk`]zv~v~~zn^ludv|n~~~^z|^~~~r~r~~}}~~vnt~]~Zv|zunmtZ~~^n]|v~}~V}~|~Znvvfnw{Y,False,0.0094330311
