g6,attribute,time,total - 1.26662
g6,isEdgeTransitive
~?@cm~u}~tv~n{v^~^^znv~EU~~{~jz~rt^hn~~ukv^Nu^~~zytv~z~\||~~n^n}y]~~~{Nzy~~~LW~cVZz^z~nn~}~nf~^Ziz^V~}r~T|~{~VLn}nNNJvvn}n~z{^DvXn\rz^v||jfrnj~m~~^x~\|Nzz||^Mj\y|dj|n\~j~|}~\n~y~iJ|~n|t|v|v^~^{xx^V}rz}fzzVvl~V]~v{y|}n}~~~}z~Tv}z~~fvu|N^Jf{z~nvy~ni~vzQvn|fv~~\~nzfTFZf~|XTlz^n}v~U~n}~t^n~~]~Ne|~yzPl~L|}z~^}~vvf~~d\v[~}z^~~~T~nv^M}}[~vb~zZ~~[lH|z~~z}|}}\vzv\z}^dZ[~||l~\X~EfZnZ~xz|~Zzv}^zVRz]~Y^jnnsvu}|n|mz~\zZ|EVn}}}^~z|~}]|u~fz~m~nkjzz}]n|~\~vV^}\I}nn|zn~||n|~v^~|t^tY^~E}X~ywf~y^{Zn^~~qz|}~~~V^~~lt~~zrv~~}}^VzzV~Fz~}~i}xnb\~~vb~}|i~n~Sl^}]Vm~|{YvzlnX|~tz~~lnrt||^V{~l~~v}~~uf}Bv~z|Z~fx~xzm~~zvyz~|Xvr~~Cxt~}mMn^k}|~~~^zNUfnfju[~~|~~~~xv~~}^~}|^~vlu~Z~N}xvfjl~z]{~]}j~~Ezr}~~xl~|zy~}}}]RYN~~tmzt|qdbX~hyU]||~~vv|z~~~~vT~~v~Nt~vz|jzv|{Z~|f~~unnY^~~^}}}~~~vdr^~zu~ZmZ\yzdrjz}~~Mz}^jt~||}~jj~~~nl~~~~p~~}M~fN~|~uyN~f^nf~faxlzfg^v,False,0.188657999
~?@c^~]J}j}fZ^~qN|~vy~l\v}}~m\~^nq|}zV|~~^vJ~}{~zr~nD|^vt[|lv~z^~~~^u}zU\t~eN~|viim~~Rx|xfr\vZ~~M~^~^^~d~tV~|}||~~~~Znv~|i~m}dj|}|~hz~n^]^}~v^j^~J|{~f}y]|nxkz|v}t~~~m|~|n^wY|]zN~m|n~n~nun]njnZn^Vn~|Rxkplexnl^V}j~v\}}|nnbfjm^~nV~~|~t~~~~^Etu}Rf|[~~En[~zvd}\~~sv~x}~Z^J~~xl~N|}lzb^R~u|}}~vfx^~mJ}x~ppSvvU~v^~N]Vnv~t~|nw~`~^~~v{~}{nn]|mn~z~tv~~{n|V]~z~~~m~}b~|nz~|u~~s[V]}}~v|r]~v}}~^Nn~^n~zu~}nv~~~^vrt~u|v|N~v~~r}~]|^||nn{~~}lvvx~zzV}~}|y~~}~~]~~e|ht~t|nzZzz}l}{~\vXpN~zzMmn~}~rv~~N~tuZ~ntm|luyrvzr~F~j~kf^z}~v~M~e~}ln\n~\j]~~z~YZ|F~E}fnnz~U}bn~ezu||~ljz~^n|gz~}~|N}~~|ev~~~~vZr^|~}|fy|F^t|x~}nvF]~Nurz}|z|~~xdzvzn^vz[~[uv\}N~MzU\J~J~z|z\\}wv}s^}~|~|v|~Zz~s~V\Z~~zn\~v~EvxM~v}zn\^f]^^unzY{n}n^z~\~n|Vz~y~n~Jjquz~]|nv}^~vzz}n~~v~~uu~~}~}\xN~w~~~vzN~}}^tnq~}j~}~nnVj~}^tVS|^^vymunr~wZ^~umNvnfn}n|}~N||]zvvIu}r]|n}}Vnnx~~}\zT}m}xjV[n,False,0.0128490925
~?@c}}Zz|nxr|l~fV~~Jnn~~uf^n}^vZ{jtvzzvzT~Z~~~vxvl~|^uddR~nJ~}jNm~j\~wquz^~~}z^~vn~^t^v~~Z~Lq|zz~alvp^~~vm}vz~v^U^zlNUIZz^jj^^yz~^{us~i}NfV^~|}~}zN}^~T~^x|v|^Qn|~{^z|~v^zfnj\Ui|~{~Rn^vw~}JtzvlZTN{Tu}|~ZJ}]~v~Y|~v~nv~mn~z~vrzFj|S|}~|^Ez|n~^v{|jv[bmunuy~v~{Nq~}}kNz\~M\^~~z~~|vZ}[~~~Jn~l^t~mB~||l~~|~nnnz|xv~nj~~vl}v}t^]J~z^ef^u~~]~f~~w~|vZ^WvvMn~unnzlBu~|v~j~^~|v~~Nt}~hN|~~~z~ZY~mynzn|~~~~vnLNj~v]V|~]~\^|fnn~~~~m|Tnz^}|U~~\}n^~^^~n^VmzhX~~~f~^~f~^~Znv~z{yn]f|^|t|vz}zvp}|n}r{~^ztnXlrLn}qmq{~bu~g\Urdv~z~v~^~~vvunt~~~}en]v~Vv~|Zzt|ys~~b^~n{tvv~M~~~vZlX~nnt~l}V}z}z~^V|~pv~^f^~~zv|Fny~^z}Z~|n~^\Vyzvn^nyne~v}^~~~~~zz~zr~}~]}]~}N}V}naN~zv~^^xv~k}|t|~~N~tztf~|Z|Vnzsz]xxmyV^~j~yv~~mZ~|^z~V}v~|u~xnv{~z~nv|~]rr~v}~Vrfjzu}|~m^~|^NfQVzfNxv}~~vhv~~\fv]yT~f}^tVxvY~zmN^yen~^v\qv~~v~D~V||v~vv~~y~~~nT||V|^}xm~mwz~L^E}~z~fm~]}\}}V~vzy]|^~],False,0.0109469891
~?@cr~~~ltfz|[tU~v~nv~|y^nVz~nx~~l~L}~zftt~\~t^~~~]z}x|Tz|}yn~mz^|~G~}n|tz~]~~e^[^N~{^~|p~ZzqvN~~vn~~znz^knYRntv~|NP~u~~L~]zx~|~~jzT^R}^~{z}^^j[}|mm~Ln~}zn^Vdnu]}kn~t^]x~r^^r^{n|N~^]z~uYp~~~~~z~~x{~BV~rnftu\l~Uyd^lz~FrvM~|j~J\}}vE~Vm{qm~n~|~V~}|{~^mRN}Vfz^}~vvZnpzj~~}|~~^m|n^Z~~^|nv`~z}~m~fNNm~~f\z~vU~m`~}uvnz}n~j~z~}b~Zv~~^zzM}j}~|~ZnLv^|yzvz\xMQznm}f|~f^|^~Zf~|lNZyzZ|ffzyZkZ}~f^y}V|~zn|~u}v~yN]ul~n~]vzv|nn^]~~j~~^~z}n~^~|nsW~{j~vV~n[~n|~nn]v~}cI~ruv|]~|~~nZ~}~vvx~y|lnnfz~}i^n^ju^|Z~v~Z~T}v}{~}}n}Z|}~Nv}~U]^~~TNzw}|E~Zvjr~~M{jj~Zv^|t{}|w~z~z^kjzn^}^~]{f|nJ|^\Um|~x~y^yN~`z~L{Z]~~~w|~zpx}N}~~|\^~n~~d~|~^~pY^\~vnxZm^[~Td|~Z~vv~z|z\h~s|]v~^@~jvJ}~vw~}|~mf~}^^vfp^|zvnznz}~I~~tV~z^v~rhz~xzl~^~~~E~tzb}~vj~~~zz|^|]w^~bYvn~~y{|zn~v~jyNft~x~}~v|}nn~~~~^N|~nvyvd[z~^z~zYjvz~||^~n\~~}bvi}O^y}|fN^~Z~nd~~h~y~}|~~~~u^y~nyuvn~nd]nv}~,False,0.0109679699
~?@c|Z{ni~}v|ZV}}||~p}v}l~~|~o~~~\~||nFnY~z^~|Zyv|n~^~Znfv~|}V~z~~dnbx~q~l^~~cx~~C~}v}v~~uzqj~^nZtzN\^~~}Tj|vmjzr}nn~J}z}n~^utV}pz|~}z{vi}~|rhvx~z~\|v~dZtnrr~^~}zkafznv~}^~~nUv~h\nkV^~i|n}vMzU~zn~x~|d~k~^Nn~^lvv~~~JjnbV^~f^y~|r}N|R~~^|n^NtlVv~z~~x{t~~~uv{Ju~rvvm|^\~~^n~V~~}~m||r~jm~v\[~zxnUxNyzzv~^z~}~[mu}ys|zn~^TnH}xz|~^^~z^\n}l^~}~yzn|~|~vV~V}~^{~~|~~n~N}^^V~x~~Dj~Ctbt~^^^]mj}zzj^~z^~nt~^v~^v~~ymvN|z^lnV~D}zr~^~~\pvn^vxuX~v~^~U~|~~~vXxumn^~g|F]~Mx|]v{~Yd|||KV|jndFnm}|d|}~~tv~mtN}^N~~|~~^~Sun~Vbf~v~z|b^~e}v~mjpyzu~~~]y^~~lV]{Tm^|]zrzvjFxpQ~n~]~n~vNx^}^h^n^nnM~fZ^~ju~lwj~\\~zv~n\~~v~~^~n~z~^~ttN^~uhn{|~}]~~~|v^~z~n[~]~~{~~mz}~|~|v~zzhPmly^mVl~^~kr}y|~~fvt~~}|||t~~}{^}z~nx~lv~nn}z|\~~z\~|y~v|~~^z~^]|yzmj~y~|s^v[x}mnz^~^|^xlmzmZ^zZyv^~\X{njRfT}~||jUUf~~~Z|V~y~uT~V~vv|~{{zyu~U{~nun~~Jx}~|}zn~NaZv{~f|N}~}~rbA^zzx~tztZz|Zm,False,0.0109438896
~?@c]~zV^z~Vzr~m~~rfnzvxyZn}Y~t~]^{~x~m~~L|~^v~ze~nfBt}n~jn~}]\^}||NxSz{~}~ve~zVQ|y}~m^~\zv~Z~~xALr~n^NnXvM|v~l^vVG|~}~~lvzn~|r^v}~n^a~~^v~]n~V~~vV^VP~||fuF~NbixN~~x|}N~yn^HrVn~|u~n]^z}z}u|vn~^~~b~wv~xz||m~jh]~~|~r}uz~vmZnn}t~~zze|x^~Nw~~Z~}~Qn[~nzz~|u~Nn}~zd~ze^x~~vlv~^~vnD|\}y^~zz}N^n}k|~nZlm~rYm~}~^^xun|wZnn^~Zl]z~~~~mnv~^Q~y}z~y~Ln|T|~vdNv\~~\|~s~{vm~z|~~}xnznvnuxLZW~~b~vt^t\^e}NvkpV~~~~~~~~~|~|hn~y~~~|}X~vH|~}~\~hu{}e[}|^v~~z~V~v}~~|~Nvln~v~|V^~~~~V~vkwvl~tnjv~fn~q|~~K~^Lbn~Z~{~z}n~n}|\mwNt|um^]Zvf~~u^|v^^v~~vj~z~~f~vj\~~nf}\}nV~Vv~v~~vjf\z~Nlqm]|zx~{F|~h}^|z|njn|zmn{~^{~^~\lzb~V~}|qw^vK~v~v}L~fRR~St~n~Yznn{}nVT|~}m^~^z}{tn\~V}~`~~lX}~~x~by~|{yN~~mnu~@nzneN~m}Zzn~y~]~r|rZ~~nxv|~~[gN{zjn~|vnu~]v^q~vw^Nvn~j~^y~wn~~~z~}}n~~~~}Rf]~^y}yb~~}UMvhs~nwl^x~~~zy\N]r^J|o][^~}v~mtvz]z^vZ~~|n\n~t~UY{z~^Bz]~}}j^~~mv}~d}Nz~e]^~~,False,0.0109229088
~?@c|~v|u^^x^l|ZKn~f~~U]nNb|~~t~jVi~r|~~T~~~~zn~~zz}~^~|i~zN^E{umr~xn~nN~jz}~^r~bZuv|||rnN|^~n]n~~]Z^\zfs^~bf~~f~~]yvI~vxz}}~fr|lntn^hjV{{v}t~Ptxz~}^~^~Vs]~rl]rj~jHz~x~^~z~vtnLx~vav^~V~~|z~t~}|V{l~~z~|x~~mRz~^~VvnC|j^b}xv~~YzzN||f~~z~~~~~ptLn~z~~e\vN|^zvM~}}lrZtrz~~~Zz~^~^~jxzv~^j~lviv||^oztvZv^vyrx~zr}rr^Und~}^~^~n|n~z^\|nfnn~^~~Zn^~|^y~Tn~^ez~V~NulzV~zVuz^^[fum}rj~v}|~n||nvz~v~Z^~RnvNztyrx~zn}|n~nZ^~Z]qn~~}}qNn]^zv~~jn~~~}}[~~N~\~^|z^UTllX^z~{~z^]~znWz~^l~zv~}VV|mf{xF\z\nn^^r|~x}~Xn~{{~ov~v~^~{Viy|sv^}zujYX|nn~}||\n{rZNZz^\~nvzz{~P|te{^u^jv~n~~~njnazzujhn~my|z~U|}~~uv~|bj~j}]}|kjnf~|tvl~M~||FZ~~^~~kk~|}~lvn^~n~~~v~t~m|~m~v|~|V|^NHz~~~R}yzD}^^m~Xz}^z{vL^~Xv}fi~V~z~~~}r~y~tz}{}^~{~lfvtM}}XV^y~L^j^fu~Z~~x{|rx^nl~}nv~Hnr]z~mZ|}~UR|n}n}{\~~t~}~n|zvvRv]}~~vw|zfhMvn~|^vlv~|N}Z^v~~|Lx~Z~d}~jzqHm~n~dv^y~~}z~~}|z}{b~]~\~~z|z~,False,0.010931015
~?@cN~]~~~^zzftfl]^zjp~m~]~fn\zZ~z}KtVtl^{zn~kn|~Ljn|~^~|~v~^z~^}~Funj}{~zzyf}^^~Y}md||j~~mlz|~^xuJRQ~~~l^yt~|VM~T}p}vj~}}\|~|~z~\{lTm~]|B}x^r~vZtv{~U]Ns~~t~^}|}^~|vx~~zY}r~~N}~~~zr~vnlzv~{wi~fn~tvuf]`n}v~V{}zL~~~|^Nn{zb~||~}~~~}~}~~\~uzIX}~~VN^\~\p}^fuv~~{F~\~fuNxyv|lvu||~x|ZN~m}~~V^Hvn|~~R}T}nN^nv}|~ufZv~|~zydm~~zf^~k|y~z~vnT{^vy~}z~jKnbr\zv}j~||x~~zz}}VN}|mT|h~~v^m~~JJ|~}n]h^~^lz}~xJqt~z~x|~^}~{z~^}qrnvv[vx~n~^~~~~Y]~f~~z`|[~My~Tf}Z~||s\u^]]|bl~~~ubvN~~hnX^n~^{m~~~~NzuVhnzxlvn}znFR]}{|{Wzy{~Vnlz^y]~z}u^v~{|jj]Fv|^vf}||vT~|vt~]~~^~N]\~yzHz~~~~pZu{~^~u~~B~^{~vua|~wnny~~~^~}~~^evFx^^|n~}z|vzUzN~xju~{V|z~~h^}~um^rvzvVzv}}vr~|zynn~^~\F}~}z~jf|A~~FN~|^zyMnu^~tyv^~^~{^v^~z~n~jn~z}R}~|~{^m~~n]~xvl}v~|~yl~~]nn~v~v~mj}^tpv~^|~^F\nnmm~v~}u~N~~czN^mx~~~z^~u|d^^}~}~tvz~Yn]|ftzmz^[q~^vg|lld\vvv\~~|v~zm}|~}~e~nz~V~~ru|r~zNv~}n~}z,False,0.0109729767
~?@cz\x|v^|m~~N}Qsw~NNv~}v}ns|y^zm|zm}~^vkth^|~~~~l~~||}|zvSnn~|}zzr}vfr~Nv~nnz|^vV^e~h|Nl}~p]~|mdvi^]N|d~^nu~xu^~r~~h]~lnZUxr]~~n}}vX~~~XL}l]~~~Z~vyz~v~y?tn~x|~~}~MV|Gn}{lt~~l~~|lb^|v~f~vv^~~n~~zUuV}}Xz~~ZmeV|nh~|~~v}^Xz~ev|^~nq~Wrvt}v~~~~}L\l}msr~m~||||wjv^{{~m~~N|]^m}z~~^niv|zm~y~nvnz~~p~~~f^]eu~~n~~~m}~~^n^t~~Z~^p^li}d|z~n}n~~~~f\~v~X~J}^z~}v~}~~y|~~^zZ~~ZZK~`}{xu~OtzNm~Zrl^VZu]{\jlpWv^zZN{~T~wvn}i|}]v\fvn}Lm|}jY}M^~L~|~u}z~n|zz~s\}}^}}Bzn~|vh~~|}V~fNz~]izm~~vdx~jjXvp~~~{|fN]r|ny~N{yz~Zv[z^~\~fv|n~~~|L~jn|~^h~nwy[n~~Z^^|~~|rp}~mZu~^n}u~~~Z^n|z~|^\~^vZ~|h~|}^}~~zv~~uz|Z~}~Vzy~~~zy|E{~f|~v}jtf^~q[~f]~w~^Vm}~n~~NUYn~tnZ~~|~^^|}~|~}~~|~v~z~~}nvbp\^azrnvZ}|m~~V|~vF|~~}~vz@^nmvy]nnFl{|}Yumv~~v~n}}kv^Zd~~N~}RjrvhTln~{}}n~xfXtn|^v~~zj~\~Nv~lf~mhL~^z~w~vf]}~bz^NBiY~z~n~~R~vxrNynvb|zVr]nz}}nYnz~}v~^n~~~}~P~v~n~~~Kfvur~~^~~t,False,0.010974884
~?@cznZjjn}fvT~~qxxDzzn|~zz|{^~~|}}f^]Ynz~uVvnnv}vv~~VvmJ~|~~Jn~{~n|~q~~~t^m}~~}z~^zlvuz~Eq||~~~c{~~}~~\zxj[~znNh~~^[~|^[r|Z~um^n{}n~{zVnffn|~nu^p~~z{f~~t~vZv~~j||vuv~zzz{nr~PlZzNh~qn|}y^N]nz~~T^n~|~v|n^nn^^{^jn^nn~f}~{zmu{nrnvlflx}|}}^t~v}~~\nNz{|jz|]U~~m|}[^l}l^~vnZVeyVZxt~Nv[Rxnnz}||{tVzf|~~}~~fmdy~z^i~Y}Zri~~n~~nuBtgy}^~j~~}^||}n^zt~Zdf^nr{~~v~~~nn|~~}Zvx}~ln~}~~vz~|~~T~~~zl^~^y~gs~l~xrvl^~Lv^~A}m~JF\g|~rv~~~~x|Vz~zn\}hjzzzTtJ}~n}lvnnNSZ^n^i~z}t^~z~~~Bn}|nn^}nb^{~}]~^~\zeF~~n~~^~zxz~~~n}~zzz|r|Nvj\~b]n\|t~nl~~~|s~~hnu~ZN~~~\^z|U~n~zxf~k}~x~{~TNvvmR~x~y^~~jt~|N^v|t}z]n~zvvNX~vnUyu~~}ivJXx~~~r~^ZN|}z~n~q]~~v~NzVzJ||n}zv^iNYz~~|~nn\f~{nez||i^Nqih~zz~~Z~~ui~xny~~^^|V~u~Lv\~V^~~z|v^U~ZyufY~~~DvjV~^Nsu~~r~}~v|~mEEnv^ux~b]|~v}^vF}|]n}r~~rjwz~\{~z^~N~b~|~|~|zzjf|qu}~}~~\maz~^~m}vzm]nnyv{~YN~\s~~~~~|zm|t~OrJ}yvu}}Brt[^~~^~,False,0.0109260082
~?@cBFfh~|~~n|JZnRVpfV|zn~lfbMw~~~^vnsx^|}Z~~vl{nz\Zv}yv{tf}~V~vv^v{|~~N~V~|v\zz~{q~~n|}{~}~n~|e~~}z}}|w~lr|}^~UwtV|~|^vm~vnn~n|~}zt~z~yzjV~v|}f~V~]~z|}Zy\}vn~nslv~v}~]tTzUn~~nlzm~z~|nEv|jnnVv|?M~j}]z}|^~v^~~~|^{^vy~Yufv|Rzv\~u}v~~~nzzn^vf|t~vf}|rSz~n~]nkbz~|~}n~|^~zfx~m}~~zZmuvy}~M~}~~P|n~j~rznuy}Mz~ye|~t^m}~fnnnv~p~~^~~n~~}vB~}~~|vB]]}n~ll~v~xnnu}~p~~~{~j|~}~~r}~]jt|v~Y^z~l~vv~~z^zlj~^j}nv~vuXtgvv]~vjx~f{jne]bN~~^^mn|vxj~~~~vKf\~j^ZLtn^uz~fjv~ywn~yfn~x~vf[buZv~n~fz~|Tv|R^rz~kz^zj|^~^vYzR~v^|mxb~ym~}}nbQ^^K~^~~{|~|~~txz~Onzv^N~~~|~^^Zv^~}vL~}~~v|^N~v~|y}lr||szfN~||gF^m|~~nX~j~N\v~~m~nv^x~nv}|ZviJn|tz]^Dz~~}Zn^c{AvnnY}}nmy|tV~^|^~n~}j|~c~ZnUN|v}z~u~~Zv|z|y|z^~N|N~\jE{~Zz}vz]~~~z~~}n^njzluz~~~{~~zxu^n}n}~zVHsT|~v~rL]V^~zJ^tzsZu}vb^~RRv~}z~v~^^^|i~`ljk~}MN~^~|~~n}}~||fRzn~~kkY~|~hzr~uny~p}v|~v~}^Z|r~zyy~vjn}tv~~Vnf~]riz,False,0.010917902
~?@c}vdynv~~vmtR~|~~l~||~i~zx~K~fn]r\l}gntzn{X~jm~~mr}]^|~}N\~envZY~~lR~~Vvr~v^t~nr}~K~d~u~Zn~~fl~~{z}J~Y~d~{~z~}N~zn~~~nz^~}nnvumjt^^ld~~\~^}^t^~~v}f]~V^~ym~vz}g}^~~~l~]n{~fzk~m^}m~~wlxv~~zz^mxnf}z~n}v~r~|^{~{Z~nnn~}V|N|u~v~^m}~l~x~nzfz|v^||y~{~}Ymn|\x]rz~}~z~Nmdzvn~V\~Z{n}Jx{~~~~p~t^~^}}}j}~Vv|~^r|yz^}vp|~~|i^|~nn~~^~^zv}d^~zyS~ZdzxDt~znFVN~vf~N|vv\j^Nz_Vm{x^T~f]nu[~Z^~ujjjj|bt{~zzvU~Z~hnxNvwx]\||N}}n~~{v]\~zpn|~|}`n~~tNNBv|tnvv~^n~~~^|Zm~J}^}bB~nf~]}mzGfm~~~trd~~~U~~k|zl~vz~zg~U~t{ml\nx~~\d]m[\VVwzvtn|r|u~|k}x^k~z]^j|rzv{~~rnZqVzz~{fx~r~}f~vV}~sv~}|vV\~Njxvnu~^~~{^mo\vxv\z~~|~vxvN|Ez~u[l~z~tzv~|^|^Zz^Xz|j]nlnV~l|N|}~Vy~}~z~vv~~~Z~nvbn}~}^Rz~^|~~~^~zVz~NN~~~~N}t~V}zLv~n~~~u|R~zl}z}\Lvxzv}~R~{f~v~v~{VX~~~V|nZzlv~~yr|~v\lZyUun}vb~~~u{vvn|}~~zuF}~~rIv^~l~}llMy|nsy^~~f~j~|~Z~~F~J~~nwqz~}vnnnn~bVs~e~vn|~}v|n~}rz~nfZy}~^|,False,0.0109350681
~?@cz\|x~i{~~~zv}Xn^JZ~tj^v\~]V\{mvx^~|nJ~z}vj}~~Vf|b~~~~}f|zejk}^}~~~~~n~|n]}Zm~ptvv|uvpz^l^u^|rvnzvz}v^~rn^~~x~~^z~|^n~~N~f~~zn]rLm~lN~~}zuz~z~tyxJwv~x~jn~n~K^~^~Nj}lnzn|}r~rNz~th~|\zxv~~~qj\|z}jf}~^}|\}~^^rnjf~JV|tvybRz^aJ~~rkfye{~~vznjnn~~}~z{w^v`~n}^|zl^~tnmzn~T~z~u~zwji~y}~|w~~D^f^~T~x~n|ZxfvN|^~~nz}~VF^~^^}}j~vnm~~J]Jv~|\vnnt\n~nv~Z|]]|u|{~|v~^jNv{^~~jn~~N~bvmn~r|~xFn~~t~\zz~}zEz|R~^UihZrnm}Z^l|pg}^V~njhQlzl~z~~nn~~m~Z]v~~lr|~vvb~n~~Z~VtL}Jv~|vtu~~t|sn\v|Z~Wu~^z~~nx~jn}|x|v~vn~}b~}x~zivn^xeZ^xrv~vMzu|v^v~|nz~|Zlz~n|~~~fz~zr~~Z}nif~z~zq~jn~r~nn}]fr~nY{~}|~irx^z~~||vvn^~{vx~}~}Q^^f^g}n|FT{\lv~\z^VTn~~p||n|~Z]vNnb]M~nnZM~jnNkzz}~}|~u~~y\nn~~z~~}}zz~vz~}znvexe~NvO^xN|~VjVv~v~~^mrzuz|~|{~~\L~^r}nv~Z~cVflfR|v^sVv~~uvb}z~]neyj\}f~|r^fz^r}n}vzy~Z}~n}^|}|~tnX|}z~|}~~z~nVJ~eru~~~n|~y|r^|J|zy~|uUnj\~~z~zTh||tz~_~~nv^n~rw~,False,0.0109241009
~?@c|Rf~~^q~vn~N~|{|^~NyN}y~v|N^p~}^f~~^}}uyyV~fMv~}lK}V~{]n~ZqRl}UzeJ{Evv]v~f~~N~uV]ezzvu~~zn^^n~|r~fnn~~xz|r~mv~N|^|}Zz~Mz~m~|~zfe{\~yEvz~~}tZ~Z~t|Ny_r~Z~q~Tlz~vVzzfn|z~l|~~~~\~m~|{z^zx~zL^N~r~y}z^nr~m~]{vvt|ny~t}}mf~~|~jy~}~vn~~~v{|~y{zx}|vvnr^z}|j^T\}|}znv~ltzNIzz~ul\~~~~^dm~|v~}^|[~Jz[\~z}v~~~~u~vv~Nehntzn}~v~Z}zhX~VirNlnv}^Mz}}{~^bv~u~Z{R~~wv^^vVl~f^ln~^uex\~|}~]}}^n~zdv[z~NnvV~Z^z||^~m}^^D|~~s]]x~znn^N\mzk}zNvV}t~|~[~~nZ~|^~z~~y^~}jv}n~TD}\~|^f~nxti^n|}n|v{n}eVxZ{nFn~~~^~nVzml~^V~~||~m^^^vf^z^xt\nZzz~me~yqt~x|n^n~inv~vMhuz~Z|^~|N~~zl^]z~~~mNn~~~T^|A~}~zltn}l~^^[^^^nn|zvvZz~~^||nnv|^~|v[}~||~~}~nngzZ~|d~~|~^~|v~]ytv^Zzn~|~~}N^~zFn~^L~m~Z{z^~tl\x~nyn|{}n~z}]]j}v~^~f~\Jnw~nZ^|~~imU~^^}~~~j~~Ndi]jj}pmXr{n|z~vTt~~~z^Z~z~|}~}V~gn~~~|fe\N^\}~^Vniv]||qun{~}n~M~v^z~v^m^~nzqTn~v~]Wk|{ln~~lvxe}~~U~CmpZX}|U~{]k~|~~e~ut|v|},False,0.0109050274
~?@cZM~~{~nx^m~|Mn~~v~j}~\~nmy^Z~nu~tjv~lvj~~Dsln{jxylnl~^N[z~^TtUB~}X|N|F~|^~|~}n\vr~}Xn|VnnzRr~l]wz]|n~Jvlv{}v\}~^ZfZN^lvzx]Zl|~~w|~xnr|zv~K~|F~vM|}^rNvv~^vz^VzX}^wmlUF~^|~~Ntf~}qn~n~bVn}j}r~|~xzmr~v^zv|f~vt~~^~~v~\}~xfRv~}n~X\b~\{~M~j~|R~^n~l^^ny\vvn~j~t~~}fnt~~^~}~~dz^z~z}}sn~\~}]]v}~t}|~Vn~~^n~zm}m|~Zxnt}V~~~~h}~zxnz|v~kyn}|k~~v~~^mh~~|{^}Ji~~^~u|~n~}~mvrvv~^y~zx}~^~|~M|k^}]~n~|z~zyv}XjH||un|^d~sBkNN^|nut|^~|~vr~ZNvv~\~~~vN]~n]f^~~juvzitUV~]jn^~~n|{n~z~jflyn\krzuH||n~fn^~~}Ntz~~zPwINlenQZ~Fvn~e~]w{zz~}XRvs~klZ}n^E|mt|~}vn~{j~{|n|~\|n{~~~tYx~}z~y~UvPvnxn{~~uR}Xj~~vv|~Ndzz^~e|}}U~~W~vy~n|]|wf^j~sxu~~nP~yxRn~zvz~z~v~j\nntv~z~z}|~[^~~}nlbtZ{~|r|~j}~^jnuxvz~\}N~|vN\~|}[^~Yv{d^zj~]y^Lmlz~~~{z~]y}~n~~~~~Y}wxnjmrt|z~^~~vz^r~~~~|jy|ttfzz|z^{^Vm^r}|j~~d}~~x}}^~nvz~^~~~Z^vvv~vr~~~~Zni{mz^sM^z~vz~N~vf}~~}~y~vf^~~|z\}u~mrnxvy,False,0.0108828545
~?@cZ^~^^in^m}v|]xNv~|~}~rzr~~}~vx|z^tz~~|v{J~~uvz^zvyy~~n}~r~n^~}~|\vHmm~^~ML|~~s|~vxn}|~^}Vn|u~mjm~v~z~}^|mmz~n^~evjyvZ~}j}vN~~~vznt~u~^vzL~x|v~|^v~z|]z^t]Z|yn|VZu~g~v|v|~Nz~}~~~n~~}^zYN^ub~tz~N~y^^ml[~d^xunZ~~~^~_Y~R{|vFZ~~~~n]iZvmtv}Nv^v\^l~~~^~~nd^vJ[{j~~z}}^}lp~in~~\|w~^iv~~l~^|yt|^\~}}|~~u~z{jjnPnn~vjn~~~~ynzRxn}~~lvU\|zYvz^R~t~~~z~z^t|R^V}}]q~|fXN~~z~Vz~wtb~~~~jt{~Nnv^~|~X~d^V~v|~Jjv~||\~|~v~x^~ZNvv]^~~ibbj}rnG|v~^xmx~vu~~|jy^znVn~}~~nb\tQ[]rx~|~\~~xz}~~}~Zn~\~u}X~^^}l}l|l{v~{}xnv~Vx~|y}u~~~N~n|uN~Im|~]~\vn|x\n^\bZ^vzn{yu]~z\nLn[~L~V||V|mv~mX^~u~|XsyF~zzlz}A|{~v~~|xvn~^uv~~~j^v~vfhz|~Upzn}tlnv}~|}n~^nvz}y|m~~ttt~~z~j~n{n}^V}~}zR|Oupm[~Zv^nknnvJ~Z~v~^fN[~}zzV~}z|z\z~nz~y~nF~n~}lf]|}^v|uwx~so`v~~M~Xnn~\\~an~|zSp]~u\au~~v|n~yn~~l^}~~km]^~m~~Vkx|~}]P~{|{^n~~~~yuZbv|^}n^~^Ljrm~}yj~{u\v~Dzv{vfx~m~s~JuVu}ztv~|~^Mv~Z~,False,0.0108778477
~?@c~~e}]y~|r~vZU|nqunn^vn~n~~}~~^Xj~~V{p~Fv}Nf|~\}~v~bZ^xir||}m}~nxnyuR}~~]UvxJ]^Xv^~Y~j\~Hjnh]Jf~M{~n~z~`v~}t]|\v|}z~~\~uzz~}V|~h|~vz}~~[z~^}e~yy~~x~^}F|Z^B|~LvvU{}~ZmnV~\~~^~Y~~~xv~lvkz}|t~n~~v}p~t~}v~z}{|er~N~J~n~FuzV{|~f}zzqjr~~~\|~q{znX|^n^ZnZ^|~||vm~~lp~zmV|~zl}~vN~^zuN~Y}~V~|L|]~uz|u~n}V^n^tvyr]~~^|]~~~~Zv{^~V|a|~}}F~n{xtnVzy\yr^nzn}|Vz~l{m\m~j}k^T~u|zv~~ld}|~v]^nZl~||FNvt~~m\e\l{v~j~Z|~q~~z^}~^~^z~fz~|Bry~^~Tzzz~v~Vlv^~z~~v]}]\~N~vJ~Hr~q~Hv~~}t~v}~e}n|~]|tn\}~~zxz^v~fkLvjx|^~rsv]~\n~il|~zg~[vz~x~~vm~~^}lv{zV~~f|Vn~yw~nzn|^~yqe}|wmN~~y^q}~||~|\|}{]B~~nRMw~Nz\vv\v~ZnrT\~n~~nx~]U^rY^}u}z~dy~}^~}z~~}~[{r~fZ|j^~^U~r|Mvfn~\~~~^~j~}ur^iZ~~MXu]|}~v~~~|}}}XV~^^n~Zz~~zzz}~z}]n{X||v~z~t}mn]}zS~N}yzj^~mJN^vrv}~}}~Uv|zx]Lf~|~|vt|~z^v~sn}tyZzVvVv~nwn~z|~jn~v^zmh^efm}V}vz}~ul~|yv~j~z}|v~~Nn}nn}x~~e~~vn~ljvvnzm}zyltvz~}zN|~{,False,0.010833025
~?@cNvN}^~~nU~^^t~||~w[V|sx~}mn~}~UNn[k}}X~rqLZNn^~n{n~z^~}~XzmVlvZX~~~|sy}m|y^~V~zz|^V~^~n~Z~j^vnjZF~~{~z^|{^~zy~~~~~lzN~uv~|jzfm^~xzb~~nj}}xn~vvl~~|~Eg~N}~]~v||Xz~~Nf~xnyr^^|nz~~]e~^~~Xn}^z|}|~uv~~~~~V^vnr^|v~^~yrqn}j~{^frvnz}\~~ZN~nxZ}r~~^ydz~d~\z{^~}m~XenBH~|vv~~}{urzqK~ZlF^u\}|~mRm|\{}~zmhv}Urt~n~}~d~n~[vnMrz{vfY|j~~su~f}~^n~H|Vx\\zv~j}~z~yyngNZzVu^~MxNz~{~N|^~|z}R]^vy~|}nrz~pn~vV]~^rv~na}~yZ~~v^K\J^~~V~p}}\|~}o}~}{Uzjs\~z~z~tv~~~zll}~^y]z}~~^^~~~Y|vt~^z~Vzl~~|jN|vzbfx^vun^r~}NO]n^^z~~v~n}~ntn{~~}}ye]}t~|vyyz~{zfib~~~|~~yzn~~||~~nz}~yM~n~zjx}tj~y|Vv||uTl~r||~R~~yjv~hYv~v|~vZ~v~[^~Wt\~~~Fvz|~x~zyzDrzn}n~yamz||^zqMF~nnmN}zzY}~~u~tnn~xd~~vr~~t~~~~VBx~s{|~~v~|~~||lx~~fy}fzyldB~z~~fv~|l~f~~}N|~kvr^^~x}~~zsnv~}n}^~y}v}j}v{^}~kj~V~d~}v||jvz\^~jqvmvVj}{~|~]|~~uvzxxV~n}qn~N]|{~^VxUl^zf}~nN~{~~rvnyx}\]x|]vFvvz|^}MziV~~vbq~,False,0.01080513
~?@c}}k]~}~v~t}\V~~v~~}uh|n~z~q]~tRJ~xX~~v~uz}~l~n~sv~~y\^zv~n{~^~~~x~f\\un~|znvv^{~~v~~]\}vz^mUzuV}n||~Z~z~~}^z~||^zx^|tfZj{fyi~Btv||evv~~~~f^^Cv~nl~{|n~~i}n~Yz~~{|zO}~r}T{ynt~nvnkn~Rv{xl|r}p~J~w~z^~IXF}~~|xZ}d~w~v|~]l~M}|nknxvvsxn}\vflr~Z|N}}fv~qm~|Ym~q~~vzx|QZ~^v~~^}|s^|b~}||]~~n~zVb^~v~^N^^^~e~z|~~l~svt~V~~n^mp}{]vye~q}]z\U~f~x^}~vt~|v|~s~\~vr~w~~~V~ljfZ~}~]r]xj~v~|vZ~~~^s~\vQv^|T|nxz^zznnRn~r~k~^{|~zV~]pDv~~yymnu~}~b}v~nu}Tbrt~|l~ly^t}x^nz|~vm~~\^m~|qFz]z|rk|nj~Xl~~tx~~~~nz~~]^?~J}~^~n\uJ~nj^|~|~u~vzz~~vmz~z~r^^|~n~z~lzvxm}urv~}^~~t^~Nj}tX|nZ~~^~~n}f}~nv~|}Y|X\~zja^|vv~fv|vNv~f}~~i}~mv~N~y}v}^}}^r}z~{E^j^~]p~vH\|~^kB~~l{xVZ|t]~^\Ud~Z^j~rnqhvvv~T}}}~W~~Z~tpn~~~zz|Vvu~zv~L^z~rzb\jfZduJ~t^]|{~~~nydy|mznv}~h~~^~a^}~]r^|nn~Vxlvzv~Nn}~~\~~~njvvZZ|}`UZ\}zjV~V~iN^lZ~~~eT]^V~~|~}v~~j~n~~r~~|{vnu|~Zjzfi~h~~}n|}j~npdm~N~fz^,False,0.0108599663
~?@cNlvrvv~~q~~~~|j|}zpnn^V^lRZ~nmxd~^z~g^N~|N^^~|~I}}r}z~|~~df~e~~i~q~f|~^vzl|t~vj~zo~u~nu^]~Tfn^t~n^J}z~^Yrn~ezW~jvr~~~j~vq~{v~~~~~`v^n~|~~~v\}{~Z}vYv~}~}n~x~srn~z~n~~zpz~z|vb~~~~~mz~zt~u\~~kn^|~]z~|~|~~}zt~~L~[dn~nV~JrbZf\j~j^bzfNvVF{]nn~nn~l}vn\c}ZJ^^yn~pnvZ\vDt|~}lDzj}}^{}n~~~~}~z}qx~^~T|Y~|~~V~xxNVzyVz}u}~}]~z]~|nm{VvN~~I~t~qfnRdlrztumm~~~~Zsx~T~~~Vzrux|t}vnv}z}hzLvzv}~^n|n~}j^|~|n~v{~rv~~z|nu~~y~|V]]|Yfafry~~v~{u|Vd}z^}bzz^~vy~vnvnc}~lnr^ziY~dunUpb^b|vu~|~}]\fv~~|~d^z~ruvlf~nv~z{[g~}||v~vZ^~~}Yr|}|~~uwnt^~~K}~x~\ZVn~in~f~~{f^}tz~n^j^~y|~t~zTb^~n^W~znh~~tq~v~Nz~~||~}~}zrN^[^\M|~uZv}~Vv^v~~iinl~j}Y~uU~V}tV~~jluzJ|^}z{n{uVn~L}zz~y^~~~Vn~nv|n|z~vr~~^NT^]|~~^~~}rT|}ezrrin]z|~~|z~Z}~S|e~vpzrf~~^n\~}~Z}^n~}~~vl~~wm^mv~B~}}i{ZuzmN~\y~~~Vne~|z~sv~mzi|N^cevz^|dznfr~^~^^n^~^Rzev^~~t~z^zZ~nzv~v~|znmn~dyzlnMnpNz|~fyt|^\vm^~,False,0.0109040737
~?@c~n~tumn\~U~~nym~~^zt}~}Xvuv~myqlv{}^jv{~r~v~~\}~^~n~tvb|Ilz|zv]Nn~~^~|\v}nx~~~XnvmuMe^~}~~bl}~gx^n^~n|v}nxbjvf~|F~]|~zvvjrJ}zlzkv}Vv~nj~yvL|m|~v|~|f~j|Tu^V|m|Fv^V|]~~^R~^}xwX~~n~~~]vr]Z}{]~|t~Vv~~~\z|nzx~~~|~ux~wzv~}}V{~lc{~l~wze^~}~}~~]~izz}vL|SZ~^n^n~l~~T~m|jz^l~}~~~~w~v||~llnx~}nmnmn~vnS~z~~t}vvx~n^dtml|j}js^r}l~{^tDf~x~N~vI~~^~vg\nvm~Rn}x|}}~y~~vz^mlVy|~m~|y^}}}~t~S~|~~nz]~^]z~}VJfvQvwz~L}^^yn~~]jNz|~p~zR}T\~z}F~{tB^}z]z~~b\Lmntn|~l]~v~~y~~t~^~~Tl~z~|vuNNy|}ttpn~l~~v~~vl{sz|r~\||~^qg^x~n~xZ~|~xVvd|~]z~^~}|v|~z|fxvn~nk|m~Lz}r~VnZ{\|~nvNi|B~|yjfn~rZ~q~~IrzNZ~mz~xet\c}nZ}v^~z~q^~v~|~Vv~\n~z}|~k|J|~z^~~n~fn]svl]||v^n~n~zv~nXzj~n|^n^~^~~~z~v}e^}x^~}]t~~^~xm|~}v\~v~\nNNj~zN}wnrM~}~v~v~jvt^~tz~~}~z~UJ|q||lZz~tp}~^nt^~Fk^vn~lxKtV~Nkn}|~zV~}^r~^x~~dm~lnmjV~vZr~\b|ukl~~P~V|y~by~|\z~||xZ}|zN~v~~Nm^X^vFn~zvv[}~\n{zw~~lj]~,False,0.0108368397
~?@cULu}v~}f[]}~nZ^N~{Y~vt~jnx]~z}~^}srlvz~lk{~^|nN~n^qHu~Kq^~z~nv~|}~|l~Ynrt~rM|Z~~~|^z~^zwr}~~nAxzzYzlN^rhV~lj~}}{~`|f|v^n{vl^zuz~~~v{gn^Vjq\m|~nzp~~}~^}}sy~yizvu~~ZN^ly}|zzx~Vy|~V}~|xl~^~rnv~z^yzvz{n~{~j~v~~j\~v~~~~zLV}z}}zVj^~~~Kn~|n^^^v~}q~^~n~xrrF^zvvv}y~v~|m~n~~~NvN~r~fx~s^\n~}Vv~Nv~v|Vnl^||z}zn~~zv~^}lz}~~bf]^mfL}~Nn^F^}~\~vmi~zzv{v|vRv~^}zz~^x^rzz^|Vz|n~qv]}n\~V|r~nlNnvhv}v~cmd}Zz|vt{nzlx]jZYkv~~~]^zt^~i~~b}^q~^^}|~~F^x~^}t~~~}Yj~}~~~Ct~^~N~k~zzv~~rp}D^mFjz~}Z~~vj~~~zsrhvc~v~||zvx\v~~rN~z^p~xv\pDNI^~||n~vNt}Y]jN~~~~~~}~~tt~~uffyr~~vb~o}^{^Ztns~pv\^uj||}~~~^~~^n}Yl~v^N|zD^]~}j]l~~}|^n~\~z{n^^|tThj\]~~y~^~|ve|\uy}lrz{V|c}u~h~~^F^V~mzBW~l]v|n~vl~~uZ~}]v~|~Nm~~v~{~}|Zz~d~vn~|~n~}n~y~z^{z^~~zzy^VCz^vf{\|J|v|jYtd~]}~t[v~~|~z}\vnI^zWz~nz~~M~?Z~~}rl|l{~v~mrvy~~~Nvn~zj^^v~zrn}n~f}f~}n^]~~~x|v~}z}t~\vPz~~l|^|vyQzz\~||t,False,0.0109138489
~?@c^~~vq~sb|~}v~n^~njNn^z}~pnzB}zl^niB]vev]|nvvw}vq~^~rzvyflzuV^~~t^^n~}|~^|nUvvj~~^znvzvU~^f}vV~vf|t^n~H~|nf~|X~z^mh}h|~h~zvvjgZ}~}nzny}~j|V^|ff|~n|~~t^}~~Hn}ky^z~bt~~wv~z~~~nvj^~~~\z~vl}mZn^nN}~~}r}}z^^y|^S]s~Rr~P}~~}Z}~nv^~~~nnr}v~~vZr~}jz~~jnry~zvvfz~zi~~fZ~~lzyzznrz~~Vv|}N^zvr~vmn~~t|]v\~m~vuz~|z^z[~n~tT~{L~~^zKz}~J}^|^f|vJ|dzJ~v~|^~i~{M}~z||iQn}mN}}y~n~|~}r^]v^y}nFmxn_~V^}~|znN}^{Zm}~Z{^]~~v}lzn^nUHun}wK~VUpv~z}{~~^~V|qyus~r|nz~~~zBvj~~\~[|^^NVZ~~[z~krz|~^n}Wz|z~fNn}~}}wmI|^Zv^v^~~^F|yz~{~N^`~^f~V[~f~^~jnznn^nUZzn~~L~|}y~vv~nj~rR~x~~n~atz|\~^|V~|zl^v|}^~zz~^Lvg{Vzhy~rn|~n[n{}^^^}h~r~Vnu~~~~\~n~}~~~vnuz|{z}^V}unz|~~v^~k^|~\Vc|u^~f[Zvx~~~~q\y]~yZR]^~}C~b^^zv~|~NZzzs~Fu~QtVvnul~vn~~nj]v~}z[f~nfvv|~nx\~~W}Lg}~~z}~rmnn~V~vf^Z|t|n|{~~z^~lvu~~~~rvfm~v~^v|^|^~Zz\~z}~Y~j|V~~|v}~^L|v^zRp^R\usZzoN\^\V]|z~|~}r@f~^^uZ~~~~}z,False,0.0108420849
~?@cjzz~x~~|^R\E~~u~V^~||y~N~}~vz||{}~^e~o|vNe\b|Jx~^E~l~}Z~n|z^vv|\}]le~z~y^zt}}~~~^y~v\^~b^~~}}R~fu}^Z~~~vy~cun^z~vuyw^^~xp~~q}l~ntnr]z~pn~zn~|X~}~~v~yl{~~Z}z^}}~~w^~vjV}{^^f~r^rv~~\~}pv|r~JZskb}~[\Vk|zzMVxnz~zmv}zn~nH^i~~|oxv^x~|}v~~|~}|Mu}~z~~~~}^~R~y||}~lW}~^~wZv}~~Z}n|vn{i~^vls~~~~vp~~vHt~}]~|R}z|uT~rZ}~zWn]~vzp~v\v~v~[v~ns|vm^~v~~v~nV~~~~|~slr~nve~^]~vq~yfjV|z~u^|~kz^~U~h]vbx~~mNzn|}yz~z}d|~yflN||~}V\vj}~vn~|h^y|l~~n{Xr~}v|nzf|dZ~~~~z|}yj\~~nn~wn}~zkp^nzp~j}~Tz^~xV~n~~Zur^]~u^n^B~~n{b\~}ln~xzv}~~x~nz}v~vU~~nv~qtz{~N}n~~}a}vv\~{~}Tjn}E}zy~vz~sv~}~|zbljvt~e}urvy^}^]}lnf]~ef^~fMfJ~\~|N||vxl~S~lvunn^|t~~bt|}u~nr~z^v~k~~~JZJ}~|yv}~~~~z~vWX~z~AzD]~Y}z^p~^|z~x~~vz~\z~vuvvJs}npjf~}t^vn~}R~n~qnunN|nz^nxmt}}rtz~\Rz\rtumt~^v~qZk~|l|~tv{v~}lzvv]V~I~n~v[m~f}~Y~~}}z~lf}]|^j|}~}z~~|Y}lZ^N^v\zJ}~^Jzlsfrx\xz~x||~t^r}umvz~~~~~~{,False,0.0110878944
~?@cz|vr~Fjv~~x|l{~Ndxu]}~tY~~~~bv~~mv}nJ~vZ}Uv~]~~}~mvNzv~nftN~z|YZ}rn^m}|zVhXvnfV}vzZ~sx}~{Ln~~tb}d~~~}~z^l|z~^[|MVn^Y~Zz~^~~Z~~zju\|~~~n}vr^|u~]{xnu\f]Vv~\^~vVy^^~ZizTz~rv~mzR~}^m~vzjVfzt^mB~q^J~~~~j|xt~z^~Y}rx]|RE~Nx~^|xznJ^x||~z{~~zr~}^J~n~Z~j}kver}~}~j~~~rh~tr|ty}d~z~[z^~~y~]F~zv|Z~n~u~v|q]~^m~v~~]v|n{|~x^^v~^xnrmv~]L}rt^~l~^~|^~|]|}zv}~~Ln~|v}z}|Z|hV~~XVvznv^~v~|~~~LqlV}~nXnRm}}z^^}f~Z~^nxUy^zv{^~zvjU~Vf~~sVnn|~nV}|v~x^v~z^Rm}v~~~~v~|nnn^Uzz~mnV~hq~z{Nv~~~vr{^nvnxlTtxz~^n~^L~}~nx~^vVrpp~~}h~}ay}n{z\R|tv|^|v~~~X~}j|r|xr~x~c^v}vV~~{~z}~xxvm~V}Yh~~~y}^n}~v|dx~}jL~|~y\}~^r^}qvn}|~z}q|\}{|{N}z}xvnzN~^}^}n~sNx|V~~v|~\b~|~tv~}~~vn}\U|lfv~~VZwvZnnzs^zfr~InZv|e~z^~^m~}f^~~f^}k~n~Mx~~z~^wL}vXz|nn|l~~^|u|~~}Fn}d~Zzk~{v~nt~z~}}n}~t~zvzvT}\v}ll~z~zzmAN|tyv|j~z\Y~NZho~}~v~~^t]~Vn~x}m~M~X^^vvvyp|Ntl^pnzv~{nmrx{\~]|}~{^~~~jv|e,False,0.0106971264
~?@cn~||~ffnyre|}y~Vz^^^|z~un~}^~z~fVNNnU~unvQkZ~z~~y}Z~z~}~zz]~n{}pzwx}SV^VzH|||zzl~{]xu~kv~f~Zn^^^nv~{~zz|~k{^j~|Z|}f~dnf~Z}}q|y~}v\~znv^N}~vv~z^J}~~~|}yyuz~z]|lu|^a~~^vnb~zv~|NyvUuVZ~ZuUnfvNRvn~~rn|x}|v{}K~|zvpfZ|~fX~~v]|^FsM|~l~tl^lfnlz~]j~~^F}}~~v}lY~L~|~~]tmv^~m}vz|v|~v{RN^vm}zPBm~k|Vvxn|r~}|u}~~uz~t|^^t^y~n|v^|v~jUvs}|}~v^~N~q^~`~h~~|ov||~f|}nzNx|n}jl|m~~^^}np~~YzYz|z~l~ltil}~|c^~~~m]}PZZ~|sn]|~Sn^|v~~]mytFv~^}|v~||z~Y~m}~~~b~|n}Zzz~Zen{Szz~~n~}|V~j~j~~~Vnvnvv^lN~\~~NZ]nb}t~nV|nJnv}^{z~~~ZnvX~~{x~z~n]~~~u~}vv^dnkN~m~xz~^~~~nupzG~}\~~L~|~Ntyn||{mz|^~~v^uP}o~~~^jv~|}^je|~vn~Vn~nj{\~||v~jzv}^v|~^^nz|nvn~~~v~y^yn}{z\~z^^y~v]~]yVY~z~Jmlj^N}^zevlvj~vv}l^bm~j^|~~mzt~^k|vE~y~^b}~z~zv~{ynz~~~|~|N~wf|V}~~bv^vz]{~~m~ht~F~~w}^Pu~~~}fn~[l~~|}~n~}d~v~|y~}eEnr|Vtv|Zv^RN|m{]~n}^t}X^z~m^~|n^z~yL}~\Ntn~rtZN~r~Nb~^|J^^~x~~~J\|b^\,False,0.010821104
~?@cm~y~^~n~fnnq~yV~y~n~vJF~y~~|X~~~}~tzly~~n^n~f~~y|R|x}llv{v~m{r~~^V~v^WNM~~~p~nb]^}^zVjm~m`v}Z^ln}vvnj~PVjnj~m|}nm{}|j~~Uy}t^Pn[}vxvnn{yzN~jVNZT{~n|j}~}su~{nz~|t~~~~k~f|jsvX~VzL~n\ynZ}jj}w~j{n~m|Z{z~z|~~rv~U^Lvz~^~~vY}~}`n~z~\^[V}zrvz~m^~F|{~v~^~f~~}V\zzylnx^jv^vu~tn|n~vz~~~Ntnf~y~kT~}jN^^r~vs~nN~vm~~yvl~y~~|~F^x\}V^x~^z~j~~Ytn~}]N|z}N~tzvXU}j{~\~}rJT~~u~z~~}^{~lnvvD}N\~|r|Ntv\}~~~~tn}z}|z{~}~}^}vNv~l]|~be|~~~mfqf~}~\n{myM~~{Xzryn~z}Z}y~|~xynVzZv~a~~|sv^^N~t]~Z^v}^^rz~}zF~xr~Rzzy~|{~z^unz]^z~^}||Z~~NNeVn~zm^z^pnnn^z~nbe^vn}~zn~~~n~zTZ~V~Zv~~~zt~~^s]]fdn{~f^~lv~~nz~ut}t~f^zv|}~uyzz~nu^^n}~~~hvv~}~}zz}my}T^|V~^vvkvzfl\||tuf~^~vxnX~v~j~vhvztm^zFv~~zZ]~||}Bd~bl~nN~~izy~zvwnTl}tbt~|~|a~Mnf~}N~UF}U~n~vf\r}f~y~~{~xmjvm^Jm^|~z{]kyjnvj~LNn~n~~Lzv~}Jvs~vkV~r~}~nZ~nnlnz\h~k~|~L|z^~z~v~}V}~z~^f[~vvz~y{tz~zv~~iX[V~~z~n}r~~j}{vp,False,0.0108659267
~?@cvNnL^~n|~}ut}}\~{~~}z}v~\mx~Y~}}~z^|~~~~^l^Vn^~~~~L~zA]vnV^vn^V~~f~~}Xkv~~|n^}X^z}z~ly|nZnzu^in~|h~VnK^{jv^zzvYY~^}~nl~|qnr~}nVz~q[~~|m~^}nNUv^ln|ll\~~~yiY\qr}tv^zupNz~ny~~~}~~nnvr}azv}~~^~|~n|vn~lzz~e^V~}e^|WFY~zq~mllz}{vz~~~r|~Z[~U]|^|f\F^xj~U~kflt~V~~y~v~~~^n|Xb~}~f}]z^n}}~~|d~{z~bn|M~vVm|~^^nr}m}~}|fnN\|}~z~vV~n|v~~^}\~~z]n^l|~~~~~~jn^lt~X~}l|~vn^|b~otz^~vx~Vnfnhmbz~~z}~^}|]zg~|^IZMz~~vvf~j~~nlV\p|v|ein]\}^fvue|f~V~]~vZ~~]|y|t\~~xvF}v~^|zn~zm~LBVn}|~|~~v}zVZ~uv~~~|^j~|vZphzf|[z~{m}t|{]~{]zY~H~}|m{^~zv|{fZ]ULjzmry}z~~D^yft}v^|Nt^r~~~R|v~~B~H~^~N~wnf|^~~~zr~[{^^vv~`~~~~qbU~\z|~v}ZN}~e~v~~~mZ~Ev~v~T^~~|f~nZ]n|zl}r}v~v~lq~ha~~\^zt|j^|lrr~|n~]n~~~l~j|~t~~~v}{~lzxnu~k}^uy}s~~|~x}xz~u~^~Nu[}~~|]|\~xzxvru|mR~tnV}zN~z~v^v{~Ncm}z|\nsp[zv~~~~h}v~dU~umwWZ~z~}x~z~}V}v~v|^Zj~^~m~x~r}vnr}~v|}le]e}m~jzU~}lJv~v]L^vz~jq^ut~f~r~,False,0.0108120441
~?@c~r~z|LxR~Pz~^z^~m}n|z~XmRnjz~~~^yuv~x{vv}^^}lnxv~vNm~|Wl~~T]vlz~f~^}zzyml||~^H~~r}~~xn|N~t~vlr~~z~~~pUY~fT~||~vx}z~g~Rd~vv\E~zrr^}~n~zrT|z^j~zjHv^}~}vzzvu}f~~z~~}v\~x{Q~|ty|Sibny~vR}~Nn^NyV~}Tz~d}|~xNx^~~~m~SVvzvj\hz|V~~j~|}ny^~D~{zzqem~j~e^~nse}Nt|t~rvtf~rylN}z|z|~|vF^^Jz}{n~~~vT^d\~{^p~~~~~}~~~z~^vl~iv~x~~~}vt|^z}x}iV~^t}~zV~~F~^|~pdlfm|vryjJ~~~Z}zy~nn|z^hffZZw|t~~x~n}~M|Nv~u~nV|v~|^T^my}l~~\jlZu|uvj~v~Vv~~~{~|~v^~~~Zs~}|x|~zyN|~~xff{v~\v~~Y~~un}snxy^R~~}r~zysM~~~~ys}~~t~}}~~vvfrl~~nv~y~^n~}zvn|rn~nmnT\e~~mmz^~m|NvzlVm}~~|~}}~~fy|~N|eqzj~zvVn}|~rrynx~|nv||]^t|~u}~x~~uQ^|zs|m~y^zmLnZ~~|jn~RXxbvr\x`}~}]it}~l^jr|~~~|}|fjVnL~X~~|^xz~~z~}~F|~~y~V^[^n~~~|Zvrfv~vt^~~~~~Ss~v~u~~mn|t~~FVxUo{z^~~yn~^t|vvt~|~~~tv}u~~Bv^~\fR]~y]|~jUkj~~~yz^dwv~]NzM|y]zrzN~Xv~nnVn~f~m^~}E\~f~vr~zv~|j~nt^v~xny^rx|~n}v~]^y}f^{n^{}n}Yjj~||tjzQV,False,0.0109059811
~?@c^{~m^}nz~~vzP~jv~j~Z|\Jy}~|~V~z~X|wvmId~~z~~~^|~c~|}^z~~~y^^|^~\|mtuN^}}n^X|~~zlv|ztvnJy~zjn~`N~tV~y~}z^x~{ZLl~mV~zmM^z~}tmXn~^Tj~xl|~~~~^~^j|^]r`~}r{\\y~zv~~v]]ZZ}n}~yV~~~~N~~|x|~IVli~|zl~z^Xmyxn~zzzm|jj^~zz~~]^~~|~n[d~}w~{|^}~l^~^~vtYnnfv~m~~v~l~~|f}mvw~|xuwTl~nz~~n\qv~|~VL~LZV~yXt|bk~nuXN}f^nkn~~n~|vV}y^|]|yf}^lf~l~~~lln[~}z^~v~nlrV~~r}~vz^l}yvr~~z|~j~xm~Nv\z~w~r}l}~v]~lg~^~r|~|~uv~^w~|l^~~zz^~xn^vjzm|nj^|~^Gv~~X|t^^~}h~\xVm~|~y}m|}mn|~P~~|v~^}v~|x~||^~|n]~sUvm^~v^f^x}M|xtz~rvbe^x~\f~Xvn~~^~xj|~~f~t^^zv^~}n|~]y|~~|~N~~~ntV~^nnzx~ZxNN|{}dz~zu~}~nur~nnnz}~{n^t~lnf}Vq~|~mvefv\mV~Nx^f}~~|v~~t~|{~f~VY|~~^~fv~P~m\~~wn\|lu}U~^znlm}~^Ez|z~zf~zpb|b~^]|u|~v^uyt|F|x}~~v~|S~ylz^^~ft~Nn~^xon~^vYxlzf~|}~NmztnSJZ~~m{D]}fnt|~tzlvv~{~}nVzhV}i|~Uv}nezMI}z~xfvvNtM]n~\|ZBvyv}d~rnV~^~^zeB~}ztmu~~~~^zxu~v|mZnlm^}p~^n~\v~~~|~wzz^}~Xt,False,0.010892868
~?@cuynv|~nVzJxmj~^z^^QvnNw]zn~~~~x~ov^z~l~~}xn^^~|f~vn{[~~Mzm~~|vyZVnt|n}lzz|~fnnz||~~tndnnv{n~v~U{|{\\fn^tzm~^ktSmha^~rm|nvNnstv^~mnxxln}t|l]z~~\Sf~^u~u^~}n|Jn}v^t~^]f}vRbnvr^h~}}~z~|W|~Xw}n}\~~nzv~j~z}{~]~Y~~xnX{}nz`~Z|xn~Hz~J~~|xdz~vV~|f^zVv}~^~~~V}~u}zzzj^~]f^}{Z~n~nNmnzz~v|{Vvk{~mw~~nbv~nvum~]~y~nnY|}vxvr^~rll|unqz~^~n^}Vx~~||~v}\r~~tv~vN~Nz}nyvi~vn~~|v~tt~X~}nxnn{~~~]~^V^nvnvzzn[hdz|~|o~v||z~l~v~F~\f^~~vz}zzv~~n~~nUzjv~]~{vkslrllFyv}}}wnU|Znzn~~~vnV~~jxTyvZ|a]}[f{py}\Vn}~^VT~k~|~n^zz~zn|lj~z^nI}v]~Z]~z}vn\~z|nK~~z|~]vzS^dn^vu}~~~m~y}~v\vnv~v^|~zfv~y}l\{n}}~v~~~~sBLtf\N~~~o^l~~zV^vv~nz~~z~}n~}_~~Vs`M~V}~J]|~}}D~Vn}n|~j~~Y|Fzul~zzzjn~z~~~Mv]z~}BfZ^~z|pNVJnm~|Zty~~~~n^zm{^d|}f}m~bzz~}l{vzvn~~~|nZ|lqX}|Zv\iuy^~^~~z~^~xnjynNh~~k~~zX~l|~^~~{zjf|z}ZwVV~~n~^~n]^vJ~h~~~ll~~v^nz}e~~]v^~~^~}fr|}~UNN~~~ud~]unnnQZ~xV{|^N~~h,False,0.0108170509
~?@cn~~~}~v~|~~m}X~zr~f~~j~~~vf|lv^J~vy~~v~fm~fzTrv~~~~m~vVu~n[~~]^]by^^n^VZ~n}v~n~unuR~n|^~v~u~JVXz~~~l~^ut}~~\vzJy~n}}\~^U^j`TxuZRZ|^R~^~nnn}vrnn~Zvn~y]}~nz|^}\}}}n~{~yzVnr~|f}zz~xp~nY~m~~n~}unV~tSLr~|kr~zr~~JZ}nrzfky~~B~}z~Yxv}s|}f~~zvvyn~~T^|d~|~vyJu~z{~mn[~}~tlz}~x~~f^W[tm~f|Lz|\~||~~~Vufn{}~~vum~fnLVnzxV^zn}b^WSnv~~~|fvkn{Zz^~^}~n^vn~N~|lN}~ni}jnYNzen]vqnz|^y^^o^uNm|L|vtl~~c~|~^~i~}xN~|z~~}~~^~v|fN~z~uz|~~~~Z\r~kyvzV~q~]mP~v~~y~ux^p~\vzz~{|klZ^|Bzut~]Vzn^~{^j}\~}~f^v~x^~z^jZ]~L\zy~pzinn^|^j}}n~z~~z~^}z~nuhfj~~snvT~Y~V|}~z^u~vuZhvt~ut~~f~vvf~xZ~F||nm~{U~^~~V~mY}n}[v}}xvb~~vme~Jtt~xx~`~F~~~~~Yrz|~}zjJ~rVHm~~nzz~Vxn|}mfV}}|zt~n@X^Zs~y~^ZL~Nu^vn}vn~n~z~~}hy~v~my|n|~~~~~~~znn~^h~xv~}zn~~jzz{nv]bzy~^~^~|~~|Vz~n~zmvuPv}\Urvv{]t^{xullp|Zx~^~|zlm~z^pNZnz~m}||N}s~zm~x~ls~vq^|}~||Wn~~Lnz\t~v}F~~~f~}}~rLn~\i}KvnEt~nrWzz~~|n,False,0.0108361244
~?@c~p^v@}F~}t~}evmi\~|~^|~||~~~l^~~Nvli|}j~v{v]^zx^zm}~~~Pbj~~}N~v~|}|}~tjynv~|\m~F~}~y~~Vzz{n\n{^~{nL^~Z}HzWx}`~L\L~v}^|~v~}|xzd{zj}|rR^nzu~^zv^v~~r~v^~|~~z~j|\|zx~u~]n}NV|bj~~tvuyvz~zY^e~xzi\z~JV~|~\~|~f~zz~|mf\zynj~~~z}^qn^M~z~}|}XR^~SZ~gzRZ|~|~~cv~~rJf^t~znLv^n~Lv{vb~vJnI~y^~^~Mvu|~m~~|~^f~~~nvx{zW^~~~fx~mK}}~^j|nvT}~~~z~~~fxf^r~{Z\|n}hj]v~jz~fn|f|qjz~Jv|fz}ZV\k}~Tz^^}|~^|t~~|~|p~~t}~x~^V^}vVr~^n~~N{~n~~~}E{~n|wnV}m~f~v}~~uvx~\~yRFVLYvJnZz^wz~~xY~|~~^mm|u~~~~euM{v]|]T|Z~^krmd^~Fm^~^\^nL|}fxnveMLl~~Z}{ty}x~}z^~u~~|}}fpvz|n\|}|nTVjms|~~}}^^UtLv|~x~}^}Z~zn^\[~~]~||Vq|^Vn^~V~tV~R~{knN~~rn^}m^v]|\f|}NdN~pvp|iN~v^N}~^~vvln~L|vzz~zJI|~~zxv|{v~vzx|zz~~~q~~Z}~^F~v~~bYennun~~~~~m}~zx~m~z~LCv||z~~LX|~lnr}~N~zM^|z~Zk~~~ny}zuznkym\[n}~|~}\nnzU|z^}~}r\~~}jx~n~\n^z~qnu~n^^~n~~{~zz~x~}Y^vz^z~n~{z~}y~n||}{~n~~\]^~L}ruuj~in~n|{nr~,False,0.0108709335
~?@c|^yn|~~lLtn{^^~}lz]^~nvw|tfvz~dUv^V~\nN^~~\w~rnVn~h~~\Zx~~~u~M~nz\~^L]vxmLxn|DRl~~~YLmsz~vJ^~~~N\}|~l|h~\uT~^TZ|{~ey~r^zY~~~}Nb~z~MZ{~~~~z]Vz}yvv~v~l|^|n~^KVERn^zJn}v~yj~Vtzkn~~s~u\d~|N~jvv}nz~PT~|r|~~^^m]~~v~|z~\||nkr~~}~JnZz~|U~n|~f~vT}~~vz~v\ig~~~vV~~n~n~LT~fmz|~M^^n^n~}~~~W}Rx|}j~vZ^~^~~~v}z~~~}~zz|^i^~N\|^y~w|nh^z~@~~^xv~~}j|RV~vv^~~~~n~}~~|~Yv^~\~}|~~^~v~~~~~z}m~Vl{`zk~n|ltdpr\^}N~tnm\^~Z~mz~hv~^~F~}wju~lvfn^n~mn]}~N~[ztbn]~~~r~~v}yvz]|jtnFDu\|\mM|R~nt{~zz|\FV~}vvz|~]iT~tvmn~~X~fpn|~r~Jvv~qy~~z~v}^ZL~Stj|r{z^m^~^|^ZzVnfM^~}\z~Xvn~~J~~l}Zd~}v^~zNp]zyzEl^\~Vn~M|o|]fzfv~\v^||^~~uNv^Q~j]vv^dtxy~^|^\~~t]Tf}~^l~~~Dn~\~]~|z^n~~~N}^}vLnI~rpzNNm^~Py^~~|y]Fvvv~h~}z^Lq|d~Z}vw{~}nnn~u~n~^Z~~]~|v||f^rn~f~{|zjyn~~vy~u~v~~~TrdNZ~~|R~~~n|~vn~{]]x~}f~V~~^cnuP~zn|^}|nx~R~~zny~rt~~t^zmnvb~m~|~zB~L}k~^Uv}nz}~\z~z[z~~y~r|~}]]b}\,False,0.0109131336
~?@c^~~R^f|y~}avv~m~|r}~~~^~~~X^v^}v~~~Fz~z^|u~lvx~~|}r~~]}j~d}njz~~~n|^n~t~~v^nzjvthjt~Uu~z}~zzkzT^~}zVzz[m~vml^V]zwm|d~~z[x~y}Run{~}~u~N~~nb~x~iN~`~l~~~ZvHl^p~v}z~qvl[v|xq~~f^f^^fy~{~yv}f~Qn~}~|tvbv~~}|~z~{^T^z~v~zn~s]t||~vi|}z^v}^~}z^~}z\^}xy~n|j~~^~|~Z~j^r\~v~znn\n]V~Hl^NR\n~~]~|^^i~{zmnf]v|~}~\~J~}n|svv|}l~{~mZ[\{Z~{}\n~vn}|j~ZJp{Nu|v^YM~UjL~z]~n^t~~]ftj|~uj~|~|v^lt^v|~~}usz~fN|pjutjlv~~\|~~z~`v~f|~~]~~u{H~sv||Ynrl~~~\~}pxy|~e~vfzfmv~}Zz|u}~n|n\~NfnKx~l}\|Q~}v\^rIasUTU}t}^z~~~v^[m~}|vn~{~~v~xNlvt~}n|~Zlrzy~w}NuV~~~}i~v]~\~vn^}\NZhvay^rnR~~\V}^^~vynj~~xvm|~z~~^}Ut}Z~~y^fz~vl}N~~~x}~^^~{^z~~N~~~^~xuya}|~~{~~r}|~l}}~s}~^yvz~ne\~vN~X~yZ~t~zzSnn~r~vj~V~z~}qB~^~vty^^}z~v|v]Z~x~jj}~|~~nV~~nn}~~^^zzVu^~p}~VvAzT~~|]Fr~_pflvv~u^^z~^~}b|~~vXzZZn}^x~V{vR^z~v\~]t{~mhvO{~}vx~Lxu~fj~r^~~uZ~~\n~^NYvkj]vn~~|~~r~y~~~}R~~LF}QEzvWvz,False,0.0108468533
~?@cyzn~|~|zUp~^^]~\^n~~}~}{n{v~~~cZfv^zBmXf~~|v^|Vj}lvt|ij^z}jn~~~J{frwz~rv~t~zzVZu}j^~nnjv|~~z^|~}b~mk~}u~~f^u||VuZbf}Vzz~l]N}~~q}ymf~}^v~|jJ|^~vx~u~~X^}r^~n^v}zN~vzVS~~zv~~~x|}fzrd}}}~zvuvvNt~}Y}n}vN|V~z^unnp~Vzzfl}[^~|~~||m~r|znZiVn|{v~eknz\x[nmLJ~hne^t|~yn~]^l~Z|lv|v|~z~}~~vyr^~bv^||~^\hV~~}[~z~v~~vfZ{v~v~z}Mytyn~L{zrvrtnNv~~nnnNSb}VZv{vi~~]JTvz~~^|~|J|v}vm^~|zz~|}n^^yBv^^~P{Ua^z^~~]~}~[zv^|}}~vt~j}~}v~tv}m~^~~n~~L~z{z{{v}~yzzxti}~nv|~^|~vlv}U|fw~r~~]b~Z}~~^~xv\^~^~}x~nl]u|fy~zF{\zl{z~v}|v~MY~^~~|J|~l^}~b~v|\vU~~rmzkZtVv^hen~n~~~ytNlT~{}\~z~}}~~|~t~~}~{MnNrN^~}t^~jAx~~~zU~z|~[}]^~~r~w~Z}tn{~N~vnz~~^Rvmv}|yd~Z^||zv~i~x|xvzmz~k|t^~}|z^~t{iz^z~Lu^tnxn|~u\t}|z~~V}~nV][}ffmU|}^^|z~v|b}yU|^zvRrVX~}hg~fN^~z|dQm~rn}zvv}~n}~^~~|~\dz^t}v~y~nn^~u|zvzUnvvvv~f~|~z^j|zj~~}Nx|jy}~~n\~kt~f~~}D~j{zuTV}|}j~~Xnf}n~^~~z}Nvrl|~]N~|v^,False,0.0108299255
~?@cnvz{^~}t~]~~^~g~V~|~V~V|~pn~|^~}|{vvz^^^yZn}Z~qzmMv~n|~vnl^Zf^~|Rl^Wilun\zt^r~|zsl~z~|n\~}vn}~v|z^VX{~z~n}f^z~zV~]}vx~v|zV}vj~\z~^v|v}|Z~vp}Nh~n}v]~Yz}n\~vt~t}~z|t~~r}yVzX~~vaVnVi~~^~n~|Z|}zFn~vz|{f~n|vR~zd^j||~^NNtzmntn^~Nlz~}n{~]X}ny~z\Ez~~~~~\|nnty~z^^~yuY~hNn~nn}n^|z~~vv|]A}zn~v}yex^n\~~wnvuyNyrF^vnNzvxys~^rzMvnn~v~~~vRm}~nzvVzzvXz~pz|~~~r~~^~||\v\|z|~mzJI|^^~V}~]nv^vf~X~Z~r~}sq~xi~|l~~z{^V]|n}~t}N]BV~}{vn~n~r~Zx~uv~u]l~}}uks~~m~rv~~^|v|^~}nnn~v~~rn~w~fvz~}v^^t\eZTzz|~}f~vtxwn^~h~z}~i~vRndx~~jv~iBl}~[d~r^}y|kfzxnn~v~~||LV~\z^Xz}|zzrVvXx|~^~hS~t}z}M|~xv~~v~znnZl~}~l^^~{|y~vN^^Qm~^V~mN~~xv~n{~~vZnkz~u~}l||l}t^~lvRz~~|nz}~^}]v~~zV~^L~j^~jZ~nn^]f~F~|^nV|q}|v}Jteb}zN}]Zrz^^~Tnyfnt]~X{[\x{~rzz~~n}r|~^{~^^s~^vxvn{~~q~X|z~|z~~F^N~~}v~~uN~nzny|y~F\VnZn^~NaLb\y~}tz~^hnk~f~VxVvm~~jvr}\~nm|~N~F~~}~|j~~pL~unjVUy~jnN~x|{Vzz,False,0.0108509064
~?@cr^~~j~zlxj~yv~|zI~~~~r~~r~}]~n~N~v^}N\~~p}fqz~mn~Z{\z~vj~^vz^zvXnv~y~|~np~n^i~y~q|~|n}Zr~~qc~FvvN}^x~{|~nv\~{\m\|uZ~^h~Nu}~~zlzN}}}e^t~~e||n]U~Nf~~nx~lw~{nny^P~Fn~}vt}~~n~x~xqnu|y[}~r|~~m[t^~Vx~~m}un~^l^|]|~x}fzr~am~^~~}||~zdvm`~~~l|]~Jv~~}tyRvv~||Z|z~^{tlv~|M|t|~kl^\^^~}n~Z~l]zXMU|~{}~~[sv]zrV~^tX^zun~~~|n~n\}r~~~d~~\hzn|lvfm]~{|~x~snLl|N}|y}~z~|~zl~f~z~j~zJ}bnzzBNjvFm~vlxvz^^n}~n{zuZ}{~Yuz~}^~~Hy~~~n~}mZWl~|I^]R}E~n~~fzk~Vf~~^n^~nj]}~n~a|~|~l~|~Znw~zu~trX~~y~k~}^Vux[~}J~~vxvrlv~~{l~~}r|~z|^~^vXn^|zz{~~}v~z~~^z~~}rf^vNZ|n~|~rvvb~m|Zpz}FR}]j]znlwn^ng~~zfb}zlz]|}i~~~^z|f|~~u~]zN~^mf~rX}z|YrvF~~ZM}~Nu^Zu~t~n~}}}vt|J^~~nlvn~zZEv~~~n^RuN~R}vznk^~v}Xz~Cz|~~~~^~Z}R~~l~~n|zXf~~}v}E~z~kr}~qvl^n|v~jf}}Z}uN~fm~v|vmzV~y|^|~V~|V~zdi~Ml~z~}^zx}N|z}}t}\\~LY~Uv~~|jW[Zw}yv~}vh}~n}}vz~~z~l~n}Fn~~yyn~^{~N}}lv^z~~~]|xMl}yyn~iLNm^nym,False,0.010778904
~?@cd~n~^rln~v|~|n~|z|bvz~v~|zJ~~U~~h~~jh~}^|^~M}Y|Zwf~~}z}vnzyvn~b}u]zv~V|km~~m~NrerV}~~NnzyZ~v^Unl~{~~|~|]NznnL^~xR~j~n}z~^}^Uzk~n~nn~~mn\N}r{}~[}n~]|zvlz~|n~Nz~v~znazn~fnl~~~]M~u|wl~~lvj|h~~n~|}b~vp^^~lz~^}~|^b~vSU|mb^Vz~nVlv||~~~~N\u~h^^w]e~~^~vZ\|}v|~n~zs~z|M|}}~|d|~~~]|t|vZ~}vNzv}}y^v~|^u{~ufv|llZzfvvm\z^^^m~z|J~z~}]zv~}v}~~znu~yT|n~{NN~|vy\~z}r{Y~~Vysymnvnzrr}|n~^]~fNn~k~~l}|^vn~~vtv[Yv~zN]^~~r~[]~~Yz^{yluJ~Uy}vf~nnunpl~wi|vt}~^Z^n\L|x\~}^^^~\~jVv^nymvzt}}}~|zn~nXnw~FtN^~p~r|V~|u[r~vn~~V|~~~}r^~~u~~~Zl^|z~rjVfzu~r~^X^tZZ^~~^fv~FNh}|V~~u~z~~~]f]~]V|Vpzz~H~~vw[}z}^zz|lZnv^j]~S\~Z~t|~F~|l^v~~dn^zf~Vu}ven}nVZVvvpnNmmnzr}~c^xnvflV~}|v|N|zve~}n^^Fr[}~Nnv~~n~^}}~~~~^^v|zv~\|{~|}r~y~]|}zzy~t]~n\_r\^~V~BmzvVnv~}Lz~ydZN~X~~}|v^ynv|}dnvhM~zn|^symnf|X|{~\~mnZum|~~~~}~y^j^ZX~n\fv~~n~m~t\otpZ~{Ui^n~zY~l^v\v^~~n}~~}^~~|sin~ru,False,0.01086092
~?@civ~rzVzqp~|~mbVN}~vn~v}~vni~N]|^v\~J~`i}in||~^~]gvm]ej~nx\m~~t}~~~}tmN{t|\~~nTI]~zmmzvEU~nlvx^]v|~]|~I|~lpZzrV~~Z~^}xz~m~~~n^X~t~Xvz~ZzZ~|suJ~n~v~~~z~RF~~j~~}^]|v{~~vmev~|v~|~zzxt~_~n~zfnzi^~q~|j}|]~r~vzP}xnuz~Ls~M\^Nh~}~VV^~hG|n~v~~}~^~Zhzn^^yf~|n|nV~e~~~vY~^V{|~~~~|~r~^~~~~~^~|~z~^~v}~jdy}}~~hdn~~f}as^nuNxn^~~vv~~~^IfZ|n~~dv}l~~|vv|i|un~mTduJ^n~n|z~n~Vt|}n}|~~f~zF}v~Vvv~^~neb~^fxnz^N~[yxnzzl~NI|~ZnnFej{uZ}^}Pznxmmuvn^l~Ns}i~zFUm~~m^~~\v~{ul|^z}n~]}]~j\sRN}^~~}}uxZzv}~~^vj~V~U|~~~Nbj||z]y|j|~}~}vz|y|z|^v|~~~x^^vnM||fl^nn~zvzz\tyjn|n~h|Jn|}My{zt^~z}^t{|}VYn]n~^}z~~z~\r~|n^^~~}~|~Sl}y~vlm~~|N~~EnV~}|v}}^_~~}~\~~\~~\~zm{z~d~v~]wY~n\n\\X~Lz|~vVmv{v~V~}m~v^~|\zz~k~wi{i~vv}hz~m^}{~t\zvz~~~z~bj~[^~vzy~v|V\~yvxn~ntVb}tun}|~z]~pV^uy~|~{h}~jU^~nv^r^yt\l^^J~z|zmqvt]ZkxV^}~z~Vpzznnxl~u~}Z{znvm^~tL~~z|~jvnz}}~V}V~~v~V~x~w~zv~,False,0.0108950138
~?@c~}a~~~~Nx~}Z~zV~]^mz^tz~v~n~z}~K^~bMx~vNz|z^||~~vPvbn^^~^}u}~zc~~N|R^fz^~~t[|^~|n^mV}iyu~~Z~~]lflzzn|~|i|~zV^~w~|i~~L|}h~I~~~nu~J~{~|Nlzv}wwh~^{nD^|nv~rnv|v^z~^tz}^z~~j|rnxxv|~nzYh~~nv~~~fmnn~nx~~uh~vuv~~|~Myj}~\v~st|vyn|~V}~~|~F~^}~y~\v|mL~}~~\^vn]|x^~rV\|~~Z]ntv~~z^}R~~zln|k~z~v~N|z\|nznZzy{yN|~}v~}^y~^|zz}x~V~pvz^x}||i{nz[L~vxn~~~V~nvjxv~v~f^z^~z|~Nt|W~^h~n|~o}Nzv~mvxv|zen~t|u~~~zvvz|~{|z~~j|~~Ln~t^|^}Zgz{j^|ymG~Z}~vj|}}|fsZ~vv~{{~~mn~v~m~nz|~rN~}{~]n~x~~l|^FTMz}~|~u^~z}~]y`^v||lxnv~~not^z~~~ur~zz~v^~|Vr~N|vT]^t~^~~~~}~ry|~z^VNvVvv^DJmntmmyfsun[~vv{]c~~~~yz^l~J^Vaf}R}vs|^ntv}nv~n|~]~~^~xnkMi~~~~tz]pi|vv~~~zF~uxtzz^]K^i~^|z~~~jvjzn~~~Z~zT||^^f|~j]^zb}ivv~rUly\wv~XU~~Bj|^nw}~x^N~yzvN^^~}~y~~mv||zNvXrrvvvwny|~V^}~u^N~t~^}nnt~}yr}|\nvnv}n~tmv\~il^\vv~XsV~mzy^nu^]vX]N^~~~JZR\xLrtj^z~}jkz~~u|v|~~R~N|^zN`F}rv\mj}v^|wn,False,0.0109198093
~?@chv^~\}vn~vn~z~^Vnfmm~uk|~~nyv}Z|N~}~}f~||svnylUN\}r~^~}nt}|fv|n~~zl~~wj^zn^~}nnyxzN~vI~x|p~}}}|v~~z~]v~|vxNvUjl^lnvvU[}pzjV~||funvn~~llNn~r|~mkXNfvVt~g^^~nN}hv|h^|~v~~^f~}rv}n[^p`~~nrn|~z}p~|^~~v~~|~}Mr}~z|}^}^|~rlzbszZ~~{^x~n[|fyf~~u\Nv]^~~]NVVn^~~xz}U]tn~}~}}vv~mn~tu~ve~X^vu|~~}~|^\^I|^vdnz~\]^tz^T~~}~y^^^~nw\z}}\vZ{zj~||^Wuv~z|s{~~}uvzVV~K]t~~nj|zN~~~~vyv~n~\nzv~w|q~~\z}}~tNv~rF|Zv`f|~n|~l~^~^~~~zvvxVvm{~zXNzS}~vrkTNz~}F\njzF|uVl~llqj^v}|{x^Vv|Nz~r|r\z~|~n{~rul~|~~|xz^}{mc~~~Viv~~]~y~~~z]^v~|v~~^Znh]~vn~Tx}|yt^vV^UvZ|t~mJvN~yn|r~|^V^V^nxvj~v}snm}J|\hzz~z~~vV\^~zNm}^\ul~J\~~z}u|~^Xtbz|zivmuZ^}~nu~~~l}b~}nv|Du~f|~~^\|~Vm}~~~Z}vv|z~u|xZeT~~J~~nnt}Vv~Muv}tB~rv}r^f~~~}Zu~~}~z~\zU~t]v~~~fn^~~m}~kxv|~izuVZ~z~{vvwxmN~Z~k~v~|~X}Q|vzz|^~f]d}f^{z~nn~^~{}|~nv|v~^f~nz~~l~zi~yy~~~uv~~h}znnx~t}z~dNu~vyty~nvj^~l~nL]J^~{~jEzLy~,False,0.0108499527
~?@c^mt~\n]~yn^z}F|ffrJj^\|~{|Y]}]}~]nj{^vyvI~z}}^VUn~|zi}zd|{vn^|v~v|xZ|\Y^|v~}[m}l~~f~k|~n~Xtv[zv~~f~xmn~~@|~~i^z^tlFv~Z^~~tnf|]^~~~y\~u}}vj~}{nv}Zn~JWn~v{~\E}~}f^zw|j}znumz^zvvlzjzZVz~zVv~|^~vu]~|v~}fz~nz~V~U~sn]~~m~rlvzzh~|n}~F^Sn}x~Nj~Vv^}h~\nznTZ}~]y}z|k\j~]~~~ml~ZF~~~v^z\n~nv~\v~~^}}sE\~y}|\lzv~|z|E^N~^zn^~z~}rnu~i~~lwt[UfzrV^~^}z^~~~^~\|}||nu~~zik~||Zm|vl~t^|J\~vn~n|~vjz~Hf|V||j}}^~~z~~nm}[z~e^X~~qyxj~{\Z}N~nzz~n~xz||^J~z~~xvy~~n}~~}|z~q~qTzE}}nv~^z^tnj|mNvLb\Rz~v}~XnvfF{~VvqVa~^~~~~Z}^zx~z^r^y^~zm||ntV^~J{]~~~|r~]jn^V~v}n}^~}|{^n{~|}uz~nvrvn~nnN~}~m~z|~m~x[ul|v~|~~fFRnHN[~}z~zvn]^vJ|^}j~~m|~r~~m~n^^|d~|~qvw|fnmnt}zr~~lZF~V~~~dfVh|nRxv~j~vx^n]|VvuUhRz~}Tz~l}~{Jvz{Mr}\}||N\x~jyg~~~^~|^~\q^Z~~~~\~jzx}nfn^||zm|vf~nyv|^}P~||lnf^~^z|vlfvn|~u~zn~m~~~n}fv}n{Nxv|~~n^n\nz}}~~z~~~vU~vvzldx~~p~z^]Vhwk~~mjv^ryk}z^~zn~n~~~,False,0.0109620094
~?@c~~|}n}~[m~ry]y~~~^zO~|^vFv~~~zTNsfm~}n^}\~|n~}]ziv~]f~b~w~~~f~n~rvJU^}rv~~v~~|n|~~}jnVvvrZ~~^~x}t~n^lz}~{v|n{~^d~Ml|t~~~}~~~~~~~q~yN~^n~v|~zTvf^H\~}~n|mzj~F^kt~u^nzn~}|~~}vb~~{fm~}^yvnzx||vnf}r~~\}nzYT~t^zkZu^|^t~v|vvr~|e{]~Jzz^Z}~\z~s{}}~~|t|~~|v\meU~z|~n~|~z~tj~rzuHfv~|e~~}wjn~]^\v|q~\~i|\V|k|VhNy~tdD~\~~^~|v~w|hu~{~~~^sV~~zM|{`z~}ynU^~}\lhv^zn~nv~vVu~z~nxz}sfJv~tzzn]y|Zrz~~~~zvM^~mnNnyf~zM}~~d~}^aV~p|m~\uJznD{|shnxv^{^v~i~Y~zH?fz~rj~~~|~zx~]}^|tM~jn~~F^fvf{ZV^rvz~|^}|z^~^~rt~~v~v~~n~~mz~fnn~^\zn~x~tu]f~~t~v^xE\nquy~zzvzZ~{XvvvM|]m~[vn]\~n~|^M~~w}zfnnv|zZJV]R~m~~V~[~tZzVLzuvT~mM|~|b^nynvDz~X|^}~m|UI^ZVz^V}~t^z~ntvn~~zznN[N}~V}mv~}J~qn|~h}z~nn}~fk|~t~~m~N}~m~|]~~n]z~~yJ\n}nH^z~~~u^~o^m}Z~}~frv~|zr~|z^y~Nz~|znv}}~e~^^jxTdl}~Q~s|U~b~}v~~n~z|~]}|~Nz}}Znv~^~wvY^tzY|}bv~uy~n~n}nmZ|^\n~v}}~z}\~^^|n}M]Z~{~\vU|N|{n\f~^n~,False,0.0108168125
~?@c[z|u~}i}v|b~^yr{^|tZu^^^}~\~|\Z^~~~^unymz~{~Iz|~|~}f~v}vvY~b[~Fr~[Y~u~~|vvl}z]]~|~^~Wv|z}~~z~j}vv~{j}tSnyvvtzefrz~~rr~~~avvZ}~bN~zyvZz|~\L~~Pvp]|~x~~~qm}}~ntf~Nv~g~JtZZ{\~^~vfnjz}m^}t}}|~~n~}~~|zn~yZrn}N|t~ez|[x~~vnjv~}kn|~yjn}p}|x~|ur~l|blz~|Z~y}~}v}}vz~\~r^^~nr~J^Un~{~z~ny~b~vn~|leVf~r~nj~Dv~}Q~v~~n~~^nezvy~unWzj^~~n~Nl~j^tn|zfbzvzvnpN}}}z}|~~ntj~~~^nhU[ft^LvZelN~}^Jn]~mf\l~~u}m~U~~~|~flWjnm~~~}~nRq^vv~mZ~~~~lv[V^vV|wv~r||z]zzl~|~~l~~E]vYz|Vv~}jjzOq~ft~nV|Uyy}~n\]s|U|Z}yv}x~z|~Kvzn|~~x~~nJ~lv^^tVv~~Zvnzluf~^v|^~~^n^~|}]vvj}~~l~n}x}~~~n~mmle~~z~~zv{fM~{}~z^~l~wU~Z^~}VL^h|vX~}~nvZ~{h~~n~|Fv~n~~kx]q~m~~Un}V~z|}f^}N~nz^iu}n~h]|n~~|~^~xvtv~Z~n[hY^v~{|n\n]xu}^}]^Nt}~^}vz}~}mNu^zbu|v|}y~~v|z|[~||]ZX]^{|^[f^~z]z^^zvUvn^~Lz]njrllM~zz|~~nvv~~k~}|~^~|~~|Ym~}t~~yvlj~~m~|jfu}v|Lyrj~^Rz~~VJxX~n~ne^mzNvvns^|z\Z|~~~|n~vfn~y~}LN,False,0.0108401775
~?@c~t^~U|~t}~^}~V~^t[zy^r|vV~qk~v~Vd~}]\~^}V|}nzf}~^xy^v~v^um}zv^}fnzztn}X~vvmv~R~|~x~|~j^f^|f}Tn|jvUVvnuj~ztzzf~~x~n~~~}lnZ~Zn|r|x^~^vzvr~nyz~}}J]|^~}^t\Z~~|Jj|^}zfTW}~~|~Z~z~xL~~|yfM}~~~r|~~N]v^z~x\g~m~nD~~j|mv~y{fgk\~zvu{~z[~~r~~|v~~zz}~\a|mj^in|}]v^~f{m~V}~u~nz}}zfLn}~^~~^n~tv~~x|U|z|v^t^~}JTIn|^^~rnz^~\nvn}~V|}V~z~h~zz~~~~~|n~}d^t|n|~tur~~f~|~~}fXr~~~n|jB^hm~|~in~znz}{~nV~~U^F}~vlz]Z~~z~HZSn|{nVp~vxZd~~~kHuNzhn}n\vVYj~~nzyLz^f~}v~eyv|~~\~d^z~}~~uY~FHvz\~Rv|z~\rJV}x~zz^|}F|zl~d~D^|csn~V~lv~zv}z~mz|~^~{~~\v}r~~j^fY~|vu}\~\l~}vJkt^z^^I~zn|v~~v~^v~zvl~t~y^nz~~~^zq~^}mZ|i^|~nx~jzw}~^nv~~~|~Vv~z}zvNj~nJ}~Vfo|D^~y~z~iv~nV^vgf~v~~~~x^sV|~wf~~~|~{n~EU~n~y^~{}hruZ^r{|~~N|V}nUE~h^~~~f{\tnnzV}v~unjiv\}~m~}~xb~zT}z~~vm|fzm[vh~n~n}tnV~f}au~er~h~~^Jj{~n~~TzI~~~|~zz~nz~^lvyvl^~~tv~n|~}|Tv~|vY~j\m}nAfn||ofp{~}vnLb^tTn\\v|\me}}~n,False,0.0108780861
~?@c~m}Vffz^~|qz~v^dx~WY~MnY}c}~fvz}j\Zv|zz~|~uv~t]}nVb}~|b~i}n~^ryruj~~~kz~~b}SmV}HvJf~~]~ZZ~JWFzNlnn]|~rfkZf]n^Cw~|nzVeNn|lvzE~~~|~}}~t~|nr^s{tzvvn|rz|~}^n}v|~j^~^m~xj~z^~znsTl~{v~N\Dv}v~zzx~N~]~vv~z~}r~]^~zzmp~n}z~|yn~|~\~vz~znrn|}}^}~~fp^N~z^vtz~]Zb~zzyl~m[[\\~Nz~Uz\}{~Y~]~v{nZ^hrmZ|w}~z{x}~||~^~v~y~~]~^m|~un~~T|~~^n~RF~zr^^{~~~~vj~i~~}n~~zzu}x^~^|~z|}yt~}~^d~lfQ~~xn~~b]xpr~f~n~lU\~rvUu~ztt~^^^llzJl~|zcy}\Z^^nn~~}|v^^~Yn||]~\~zv~Z~J{}Vv~t}V}Vzful|~zL||r}|~Xv~^|E~n}{G~~jvuF~n~F|~~nvv~n~Vf~v}uf~Jbz|y~z~zl\~|^~kxd~Fn^}~}z~z]}~f~jTn~v^}xmnmv~vj]v~rzvv~Vvz~~hzZfvvi~~~|RzRq|~~}vh^X~}]~{yz}}~^nz|~~~yv~~n}a~n}~^~|f|~v~^~j]d|~z~z~xt~~xv~^Vn|~v~{~UnMjx|z~}~}~jf~m^~z~~zv~}iV|ufE~k~~~^zmx}~^~^^z^^tx~it|MjN|~n\n~~nt]~~\|e]^~n~]Vzvx|~~^X|~wzMZvzu~~x]~|vuzx|~^nZ}~~}^e~|~~F^|nT|u|l]}j~}~}zL~]^^Cz\v^Lv~sZ~iS~Xfr^F\g~x~|~~z}L~L|n~v,False,0.0108678341
~?@cxmz^x~Njsz|y~tn~pl~Zl{z~qy}~lvqxZ}x]~}}}~U^~~~mzt~Vlf~lzV|~Ju~jj|r|~}}zn~^}^}nr|~m~~v[vzR\|Ftl~}nn~~Fmv~~r~zrnf~t~v~^~~|}~Y^En~n~ntV~L~}~^[VZ|Tnj|hzmfz~t|Hz~~u}j|zvz{~r~uzznn]zmltwcv|~zm~~znmru~|~z}~{~\f{~t}~zmv~~rv~fedn}n}~|~|neZ^L}~]^vl}v{~t\FzmH}X`zlzx\R\pu}t{~zrT~^}Vvrfk~}~z}~~ok~^Y{l~jfz~z~k~~n^~fm}~zv^Zv~nu^v}~~~~vzz]V|~uv^}ns]u~n}vz^~}~n~n}z~|~~~q{N]\fh~yvI|{}t]upM^mL|v|^lb|vNn~rn|v~u~]|vv~~~~~m~n^}~rwn^mw|~Uv~Vz~NznX~~u|r~~~^~nuvnrF^v|~~wn~ahvm^nu\~~nNyyV~|~f~|~~|^Nv}F^}~np]zR||~^~tr~~||rfv~~l}V~q}ux~zt~|zv|w^ndyn}x~|zn^~~x~x~t~}nluvNv~y}knrf~nn\vv~n}{~Dzf^N~~n~~tnu~}]}~r~~rr~zj~~aLvn~^zl{~x|^yo~~mvz~|l~v|un|~~vv~~u~Dpr~Jbnd}~~Evl~v^y~nx~|}Z~ii~|~Tz~v^~~tyN|g~}|n~~|~{v]lh~vy~vvx^q|^n~zv~}~jju^^X|z~m}zz~NnN^nz~\~f~~~{~^tM~~vi}^f~n[rzy^~dvj~n^~mpr|~}|n~||~~^R\~~iy~m^~p~nn~^D}~~vlfeZ~v|unn^\~|GnmY~vv~~^unx|Z{,False,0.0108811855
~?@c~~|^vn}~njNjj||~[Z|ZzK|z^tnrm~}v~~Mr]Pb^^~f\{|nb~hT]xvV}xz^~f{y~v|^~n~}v~M|~z^~z|e}vmm^nu~u~~J|zA~u~u|Z~F}pt]|~rlv{Wfsy~vY{~j|}~~zNvn}vvMN}~~|m~Yl~ryuz]Zy}~|lr~~~{k~}~J^N}^~x|zvv|f|^}~ZnN~~~nVvN~~RDyz~NzZl|v^r[}ip}ln~|b~Fn~CpVu}~mJ~~~a^}z^vuz}~|~nj}f^uzi~~qd~~x]q\}^eVLe}~~~z~|~az~k~~d^n~j~\|nmzv~vVV~v^~}jnR^~~~~n|mv~|[z}^r|~~||~nj~|jb~~~~z~z|~v~{|nv~~nmz~}~W~~b^R|vBz~~tX|~~y~]n\^~v]|uno}vipv^u{zn~tLV^{~|~~|vn^|u|n~|~~Z[~j~znl|N~~|FfnIyn~~uu~|fx^~Yn|~|l|~i}bn~}~ze~ux~~}iZul}|~~znuy~xV]M~HL~Vy{u^}~n|xTj|iriZ}u~~f~~~~]t\~nZX^~v|w^^}}nn~~vy^{Z}v~z~t~n~~~|^mtj}J^Z~|n~v~tlu}c}v|^~~~~|z~JwVn~|~zz^FRzv^vnvv~^~X^vvt~u\z^^z~~}^~~nT|}o~v~~~nrm}~zv~~|y~E|nUzN~fzn}n~z}n}z[tv~~v~J~~|fX~ZuNV|~|n}~vV^~|T~v~ZyJv|v]~n]~^~Nl^xlv~n~z\}\vuj~~~JZ|~p\fn^nt~||~v~zk]~v}~z~]]|sZZj~n~j]}Uv|~mvrzrzm|~tl|zf~M~zv^~~uvjtvn~v}ZmNn}l~z^nN[~v~ff~~,False,0.0109190941
~?@c}~zl~Ltn~z^f\nb|~^~~~nn\N~nZM~~~y^~vv|~~UU}l|n~|d~~~n\^mt}|}n~q~|~}e`v~nn|~Ff]~^~^N|~}k~zp~y~}n}||~]Zu}V^}n]ft~{\}x^|U~P~z^^^~p\~uy}leV^nzr^j~zz^z}v]~y~^evv]^zv^~]|y^]u~y~nv~~v~|~zx~~^}J|f|z]~zvu~|~m~Nm~}~|zZ}~\xi~nVpuq}vjNn}~~fXdn~fuv~tZvLz|~~~z}mv{njNhf~Ut}zfnZ^HZn^V}}nv]z}Z^^~~}zN^|~vzZ~~zxX~~Vnx|{}~~d}~r|||^n}~t^~Yf}~Uvmn||v~Qj~\~t]}nvr~~z~{n~v~Qf~]]z}~~VmV~n[~v|TzzV~i~~N~jVn~~~r~Vn~z^|v~z]~~[z|d~~Ff~~txewn~euyw{zn|h~Vpl~]r]Ve^z}x|~~~~rxnTVmy~~zjznx~~~V^V~^[}~~}~n~ta^}~}Znru~z~}~R}yz~|~nvJ\]f}~|}rnn^zuvV}j|~~~b}mvzyUvm~~l}z{N}U|wx}~~b[u~sl}{~^^~{tn~Tn^znMx|zv~~~B~}~~|~~vn~x~~v~z|V~}nx}\~}y|{f~ys|^~ytv]r~|~^^|~~n~^~v~~krzekgvN~f]J{f~nn~l{^~~~}d|~zz~lVvzz|\^n~}yjrqN^~Qzo~N~m~~~t~^vJz?^nr|^z~n|BXZv^~f~mtZf|nw}z~n^zn`}~v|~|~Fv}^Lz~x~dT|T\n~w~zn^tp^n|~~vrNn~Vv[xZ~Zy}V~~j^jY~~~^Lm|NnzN^}}|~~dyJ~|~fn~~u[mn~Fz~}~f~s^n,False,0.0141170025
~?@cm[^}z~~~^~}~~~n~yV~^s~}}rrF~krZz~~jv~r{v^l}~~m~vxd~S~n~~un~z^vbzm|bb~}}|^]^}fzy~mL}]ZnNnyvyN|Vvn~~m}DR^zip~R~u|}t~^^^m^|~zFN~~v~zM|u]ymi|Z|nnnv~f\nN~~tr~v~^~tv}^f~~~yYzy}n~zZ{|ssj~t|Rx|]bllhj}}~ylNLq~y|z~^n~jf}fnVpzh|^~~}~bz}jnmv~~^~~}^~d}kzx~Jh~b|~~R{zejxzjV}n~nuZm{uunr~~k~}N[v^~n~u~ZvUN~z~v^b}~}}~~dvFu\~nkz{z}~Zn~^^|Nx~~zzv|}~nx{N]~xV~~n~RnS|f}^n~^~n~~z^^|zz]FxF|zVzzbM{Stzu~x~~~sz~~~~^rv\~^~P~zfn~^~||m~~|~R~^t|N}n~~~~vVj~e~]R~}^~vr~v~~nzn~~~e{~Yn{{~V~j~}|wZ|}|\vtz|}b}\rV^m}Xy~|~bnz~}v}^^^~~usnznuYm^Z~~zm}zx|~vmrz~{~p^Nqz~~~i}~^]~z~^^~e~}|f\d~~|nxXZnntv~~vn{~^}vnZ~~}{|~Ne~~nzl{rU~r\nN|~H~j~~^~em~t~p|~ZtV}h|{Ny~vu^vh|zzrr|^^s~a~~|}vy~}|^Tz|~m^}WtZ~~]~`~^^~~^|zZn~~n~~n~v~y~b~}t}~r}|}zn}M~nv]K}vl}~~}Vjz|l~sv}~n~NZ}}~zBMn\z\v~~~L~~~zNtrR}lv~^zm~t~~}n|||lVn^v^^v~~ezDn^zzU}^m}~v~~|n\w~{Zvmt}^Nn}z^~~y~zt]~^bfnvfj~z{U~~z,False,0.0106961727
~?@cT}x~vz\n~j~|^~N}pztvdvv}~\y~z^~|f~~|f]v~zJ~S|~~V~v~{z~{|vztNIm}|v~nr^\|frv~vN~h|\z|}tv]~nfv~}vz}jr|Y}nelzhZ~v~nz~tz~~~~zv~n~n}hZs}|N|\~n]~vzzZtv~vt~~~|~fnm||Yx}e~}f~rzz~~b^~~~vF~Tz}Zz}l~Nn~|trD}~~~Znr\p~~~n}Z{|Z}Nn[~^n||{~Zx~tji^v~\njt^l~fl~|]\Jrzm~~^~{v~~NwVzV~N|Ivz^~mNr~|n~fInnx~z^s~l|r~~~~L}~vz~t~u~|{}z~^zvuzZ}m^~^Z}~F~{v~v|Wr~nn~sf~[bm|^\rU~|z~bN~V~~{{mnrb|]n}nslz]|~R~nNuqfvsz~n~n~Tn|rfd}~tnefn^^~dU~{V^z~^dnn|pvi^XZ~z}v~Lvzln~^mXV~v{]s\fv~vKn^^r~^~e~vnwn|m}{tvz{~Zn~hd^}\d~VKt~I}V~v}NMnv~z~V~}~^Nj|mz~kt~n|mvv}e~}{l~m~uzf~v~uvYJ~~|huU~~lf{rVM}n~^~~~f~l^l~~Y~n~Mfvn|~vYrxx|~~zvmx|}|n|^||kn~v~nv~|n~m~n~n~u~~z~zvz~Bz~tnz~^lrV^~||]ve|m~~}~N|~]jnv~~~}}Fz~~~\]|~~z~~~mVZ|~ndvn}r}]}~~N~uVMzj~~m~nRr}[v~||v~z~nn~|zz~vfz`~~x\@|n~r^}vt~n]~|n}^~~{^~^rt{~vt}yzn~Zln^~~uZ~y~|vD~nVfHu~R|}mr}}mfn~n~~n}^~NjtZTV~d}D~j~n~}z|v~~nnnvmr,False,0.0108628273
~?@c~|~~NZnrqmz~~n~dzr~|z^z~vz~y|vy~~|u~nz}{~v}}vntt~}y~t|lzhz~Mx}z|rn~]}tvzZv^n}n}|||rVnj~|~zYn~|r|~~}lvznhY|vdm^z~|j~zrzu^^mz}^v^nf|~z|~jvnn^~x^^znz?t^~|r~~|~u}l^v~}|z^vr}sf}|Ou||~~^n{~^~~mR~~z~nZw~n~~v~}vn~~~^\^vyyvn|~[N~~zV~~n~\~l}~~vDv|x[`x{nnJzvru~v|M\qt}n~}}|}uu~~~~~~~mY^t~}N|~~\R~Z{~mq}vz~]f~^zn~T|l}\~{z|r\~N^}^r}\t}r~n~|{n}~Urunvn~~^~nf~~\~f]f}xz~^Vm^~~^|]vzF]f|nvWnlv~nj|nZv~~~z~~bvyx^~vx~X\v~vp~vkll~{fv}d~fm]f[}l^rs`}~}Dnxy}zZ~N~N~~n|ntX~~~~lj~j\|Vznd|n~~}t]|rrV~nx^vynnv~]~^|jNnNj|m]qvm{~zvZv}~~zZ~|vz|HnX}~}Z}nUF~zzx^v|x~u~~ZvztvY|^~zv~~l}yzm~|~jk~i~}}zL^nZ|^~~z~n]e~~Nu}^~zz~~~~v{hp\f}~}~yv~n\~mb~Rn~~~bvyz}|Zr~{Tv~|z}vnu~ynvsvmv~NjN}~}m~~}r}Zlz~dytvf|v~^~~U^}~r^v~~ni~y~kn{~{LV~~nN}|\|n^}fz^nvj}e\~X]]^j^i~~nf|^^Nr}zs~u^v|z~ux~^^^iYuq^~|\f^]~{~btl^~|nzt~~~}jxv^Rrxr{t~ye}~~z\hfEyKw^Mmzvv~Evz~Tul~m~~}~~~|~}n[}q~,False,0.0108408928
~?@c~X|~|~zv~~r~t~n~~l^t|Vv~~\xj~a}r~lMn|^^}|}~~~rnzWv|~n|m~V|]^~vn|~N}|^^mn~tjn~~i\~Fx~}^}}~v~Uy^}vS^zt~~zntv|~~vf^~^vzZ~mbn^|rl|lvVv{z]pk~~^}\}~v|~~}^~p|n|f~zwR^~|~zyN|~^pL~^fv~n~~~^n|^YVtVV|fZ~R~~u}nZ~n~zz~^~r\|F~{~r^z~njw~`ojzv}vbnN~~^]n|~vM~~M~\l|j~|~~~gsjvjzZ~v]~~}zxj^~py|Vy|nN|}j]y~^yrxivu~~~r~lV}NNf\z~~nvn~\Nsy~c}{y}mRy~z~x|~|n|^^v~^l}z~z~lN~n^n|^V~l^~xtnf~}zuUn~yvzft~k|v}V^z~^}z|Tjr~}~]zQ}v|~~N|~ZjN~]\fnVZn{~|~nn^~fv~~V^^{tvn}nz^|j}~~~~~n|vX~~rv^~~NynzzS|nj}|fn~v~~Pf{t~uv^~nz]zVv~}}~}ea~v~Q}~m~^My~~~~Vz}n~}^~]vjr~Az~~^~NzpNlk{~r~{zbnb~dv~~}nv^v||v~~ltnufnn~rxwj~v~|^^~^xny~|~zuzMv~^}mpzPfn~~mzrYv|z{Fn^~z~{^T~v}v~cn^~~~vt~lvxgz^vR{^]|zld~Jf|~|~zrV}|VZ~z}YL~IV~nE\^}\u^~\yX~n}~N^t{\~vZ}s~vX{v~{zntuzw~z~y~n~g{~q^zu~z^}^Z~zjv~vvuv|T~tnn}~uh~t~~]xr~Z}d^nmz}~^~}uZyVn~}|nf^znv|\vn~~~n~R|~nk^zv~V}r|I{~~TijR~~]]vqN~nv^m,False,0.0108060837
~?@czB^I}n~zRJ~l^z|^~s{}^z}Z}um|u}Vyxv~fmfm~~~}zz~z{]N~u~gm~~~nv\N~~v^|}~~^w}~~~zn|{nn}{Z|wnmzfnLv~~|F~z~\t}v~}}znw]\}~v^~^~v}V^~v^qy~nR~~z||~Vlv~||m~ln^~r~~~~len~mn~rn]r~n||f}nm~^}~~]^xN~^~tmvz~Vz~z}r~}v~IBz|~~~~jt~tV}h~nvlVnJV~tfn}qv~~N~|~\~}~|vV~lrZ}v~~n~\~~}}nnx|Nv|^}y~}^~|^~[tnql~~n{nnrm}j~~N~t^nV~~z^~~vv}^~~~rn|vm~~|Vtr~F~uzfj^m~zVvvl~~vfo^~tnvcl~~iXeNtzh{F~^N^r~~|z~r~^|~~L~zqD~|~~c~|vvz~~Lw~~nxz~t{^r~y}jt~zVimnn~~~u~v~nuvz~r~i~bF~z~[}~v|XZ~tZv~z}vu}nz~vw}~mln~uY^}|m~nK~r|~}~|~{^th|~vz|~vm{Z~~~nY~t^ntbkn~}vz~n|}~}~zme}z~xzr~~qz~|B}z~}xm~~}~^v~vEntiv|^\m~x^vxz~~TnB~uyv}z|t}~YznRz~~zZ}cV|VN]V]z|Z{dZ~mu}~L~~~dnnyX\x^m}^jv|}uHVn|jz~~n~~}zZ~y~d}~v}^T~lrlvnN|ZL~~~T~~t@v}~}}Um^[|{z^|u^MR~\N}vxxw~l}vv^J^Zn^x~Hn|}v~[^S~|~vxtfxkn]b~}|nv}YN}|~rn^Zvx|~}~~~~T~YzNnn~~^~lhz^|hnMnvzvfiz}[^Nb^z^~nV^z~~^~]|wmz|~|\}vN]||v\llzjvy~m,False,0.0108010769
~?@c}z{~yz~~~}~[~~}fx}~~n^u^v]|~yn^y~v}~Nn~~Nq~m}z~^~|~]nnzvh||n~~{~}|~~fn~M\~~Tyjlqk}~evtv~^nmn|~}vz}Jljn~|~vlc^~}{~~~~||~}}}Vxv||v~d~{urzh}^~nRjZ~|M~K~x~ux\~zuju~|~||~|N~~~~~Nt|ynw|NntR|}}}X~qd|zr~n~~~~~~~~`|~tvl~f~~}|~zxZ~jj~|p~~}zvYrvj~}n~~}Vzpp^~n|}l~~~~~nfj~lrxzv]z\fm~N~zDv~v|~~^^z~vzNTm~q~nYq~]|LLq}z|usNnay~|~Nv~}[vzluvn~n~|vruql~nd~n~nX\fn]d~}d\~dNh~nF~hZ{nJb~n|z|Zy|~~vwtj~N^~~}D\qAv~Jtn^~n|t|~}|y^~vuydN}~[|m}vz~V|Lxt|jxzl~~h~~k~~mn~~L~qf{~~^vhml|wJ}nz^~lnUzlNs}~~}p~~lu^fsX~^~~z~j~}^x^p~~z~|N~|~n~~yn|^~x^d|mb}zd^~{vbr{~~^~nn~pF~~~~luws}r]mf}}~~~ze~hv|Z~wnzn~~fvfxz[m~~|ve}}f||jM~~]jx~lnR^~tv|sn]r|vX\~tv^VUqf~m~z~~}{}m~j}||bn~tyvz}~z~^[^|z]|z~YR~z^e^}gl~nN^~~U|~~~nvn~f|FvZ~j|}^^m~xyhvtnn|~}|z}~|~^~ZNT~~qb|}^^^i^~u~^yM^n}puut~}n~xZm~tV^~jV{y~S|nfR~~ey~~zX~jn~N~g{~vs}}~vVZn~~z~}~vxNzkl|~z|n~~~}~nv|^~~~z~~|vv~~nz^n,False,0.0108029842
~?@cZlrJLs~yM|^~nx}nZ~Vh~~z\UZ|jxnX}l}~ux~Vxn~~|nz|}tZt^z~}A~|}z|V^|u{ty~~~}v^~~r~vx~|l~~ninN\UZ~j~~|f~u]v~v~~~~\|zzqmy~|qr^Zmn|Lu~ngnYvu~n^~|~VVvv~^nhtv~zzL|C{v~v~ez~z~z|~zvn~S~~vv]~x~S}^v^^Vbv~z}~}|N~}}Z~nn^X~}|~~n|v~^Fz~~i~^Z~nn|yV~n^^NNn\n~^~ln|~~~v]vtzpB}v~v~v~mzd}v]nfvuxcu^~~z|ruz~zn}~~zvv}}}vv~V}}u|W~~^xKmxy~tzv\~Y|n~v}~Fvvv~~n~k~q^~v]z~[lj^~M~bz{}\}FE}~^eTvVy}jV|xM\^~~}t^{~|z~Xnznu~M|vq^{vn^~~m~]z~x^nbyyy~vr~Vnn~nV]Z}^NYu~~^}~nv~v^}b~rnn~UN}f|Yz|~|vMu^~z~|~vnuwjNvvJ}~Nl~^n}Xn~|j}~{~|^~}~~_VxvN^\~zMz|}}~j~~|~^^~}}lv~ynJW~~nnn^~~|~W~Z}l|xnL^T~r||z~E}x~M^|v~Hn~|v~~|V~~|^xz{nvzz\v~zv|^mhttjv{v}]v~~x~vF^}|~~|~^^~N~vz~~~V~[L|]f~\{T~~|~i~~}~^Yz}|y|^~h^z~mn~xvZfT~nny~~~}s}|V}|~||zrv|zH~p~F~y|~TRn^}z{~Nj{~~||Y^|n~e{yx\j~^T~~n|}{{vzz~]~n]v~~^j^vO~ly~~znn{rz`^n~o|~~~^n~}v~~~]~{nq}n||}}^nRV|^Qu]R^F~~nZmt~tmL~Zv}V^jlnz~|\x,False,0.0109159946
~?@cy}}mvi~~Y~~~ovn}}z}v}|~Zx~z~sn{~p^~x}nx~~n~~~~v}~jwn|i~^Ium@~e|lnvl~{]v~~x~}~Nt~nF~vf|mjNz~|Jv}^g|}fxtZ{}}V~f~t~vnZ|]^Zn~n|\d~{~U~j{~yv~~i~~x{Yxv~z~}zlnfz\TI\~x}v^]n]F}~{~iv~~l^}U^vt}mzM~~l~r~~~~~Dl^^^tfn~^^lzvuv~zlyn}nz|r\zmnn~^~~~vn~|uvu|~|t}|~j^J~Y~|~~^f}rh~}v^a|X]\nz~u~nUr~j}^~~vwfjv~~~~nnZ~{_|t~^z}u~^z~}vne|Zrv^k~}~L~rjzr~]nYuz~n~}j}ny}}}N~lZN~~nnzx}Zvv]~YZ~zN]P~M^N^^yz||v~crVzxZ~vzTv~~||^n|l|~tim}v|}}u~}f~^v]Jnlzxf|Elj~u~~zn~|tw{\~b~~~\y}|Zu~x|Zxp~~z^M~^n~~Zn\Yz}vv~nl~~fnr~M~~jz~||vN~f~ntzrfN^z}y}~^~mzVvNzbv}v^r{f~~}}|^~j~}}bvq~zyvvyZn||^n~~{~~}~T~x~y}r~r~hzqN^^~~~}l^]nvl|vv~|v~xV~vr[mur|~}zr~Vn|~N~^Md~mkm~nnuifl\~v~n}^~{|l~~}~~}xjnzu\j{]}~~]us~~~t~z^~F~{~zz}}n~nr^|{~ny]n~{s~{v~|Z^^~Kzw\y{mnxz\}]~dl}Yv}Vdzt|}~~^~Z~Fnv~z~^zZ~zb~v~|VZ}||z~v~|~v^~t~~`lj]m~g~{~m~xz~~~vv~nUvx~z^[~Vv^~N~rZ]~}}~v^^|v|fj}tyqTn|v|R}n,False,0.0108869076
~?@c~}i~Yz^\~}nfv~f~~zn~Vz^{vvv~||~vv||~z}~S\n\l}u^~~uze~und~~kuN~m~~|}nbsd~m}Vt~k|~rvZl}`v||w~njU~yz~v~|]O~}z^uzb||~~^~u~~zZ~rleqi~i}n~\{m}}^]r~|n|~~~~|v~~~^l~\|n}~~~~~r~Ufv~t^nf~mVNz]hj}~ndv}r|v~nn^~l~~X~|~~n~n{ru~NZtvsf]xr^kzz}~lM^~~}nt~R~X|~u~vv~zyvYnefj^x}~^|zzzZnzn~L~svN~z^fn~^}~~nV~}nv~utlv~E~U^~uv~~Vh~~|^~E[N~jrV}v^~mz^~MeVn~xff\vt\~tvr}~zN{y~^F~N^T|v^f~zk^]~}~~ni^z{|~~~~VvR]~Drnjvn~r~V^mnVv}xrv|V|\|~||nv~}~~~z~~~n~sN|na~z~zzzrbvrzL~~~rj~v~~~~}Zz~x~Z|^~z|~}qutl[}v}^fm|~fmu~zv~Z}Vmv~}[}vtVv]z|~^j\L^|v^~|tlL^lF\n^Zx|{~~hyV~nZr~^ZM]T~tnyz^f~V~}uQv~z~v~~l~yzy|~|Z^x~v|V~~|~~~^`]v}\~lz|~X}|y~~r~|qu{zR~UX~tJ\~L|v~zzv]vZ}ln{~rF~i~N|~^|]zix\Z}~~zv^Zun~||~l^~}zv~~\R~N}^~r}Ztxv~^~~nn^nZxvm\lL~~}dnH~~mb~^]hz~nz~^]n^zrPj~^z~r~L^TwZ~v^vvp\Yx~z~n}~vv~T}{nvnXn~^Zz^|~k||{z^~}~uV~}|~\nzkS~an]xe~}lLn~~~mv{r^~~n^|~|z}lv}x|~~f}~|[,False,0.0108568668
~?@c~Mv^~L~~nxgj]}^~vN~Xz^~~n~^ln\j~]~y~Uz~~zZzzLmnzr}jxrf^{t~}ryz~zvF}u}j]^|n^fl\jfm^}~~z{~}UVj~V}~^^P~|xq\y~r]fn~vvZ~isznOV~}~jl~x}}Z}^v]vjfz|~|}nvm~fe]~V]jzbze}q^|}^^bd~vy}|~\n^J~}z~|~nuv|^l~~nn||v}m|n^~uVz~~N~vt|Jlzz{\^^~v^[^h~~uHmFNz]|^~y~wrnzpfvy~n~^|zv~^Nzuv~V]~^tv~^}v~~n~~n|iz^vvnb}i~|}qNtz~~z~]vtuvk}ju\|l}~xt\^h||~l~~njlnl~fz~~}~~~Ly}z~Z}Z|~z~fxn]zTv~|j~z~|^m~}~lfi~v|^~r^~t\v~xnz}VNv~^n\^~~~KNZS~~~z}|j^~}vz]fkn]~n~^~~^ZU\Fn|z~n|~R~V~~^zV}v}g~~ms|~~fy~z^Ztr~t^rv|~nnE}fv~~yv~zy~pr~ii~^Rz~~{f^^v~|f|}v^}m~n|ZV^vv}~t^n~n~Tu~z|rjNy^to~|~~bk|~vlm]~t~p~r~~^}~ZJ~}~^u~^vtV}}l|]jvu|~^v|m~Z}n~}v~v]|}m]m~Mv~^~v~|z~vj~^~^~~|nZ^~}{]h~vR~{Nuzn~~~vx}~n~~t|z^|]~nV~~]^~Zr~]xp~x~~]|wv~zdnfV|~U~^~}{z{XT~f^~^~j~|l~ts~z\hU~~Tvzuz^nYVTN~[^~~^Uz{nvz~]}z~{d|~s~v~~mZn~{nnw~vy~^Y~nuw|^^~vmn\]~|}z~}~Vi}~xvm^~v}U~lyydv}t~zfJ\^Vfu~~~x\~m|u,False,0.0108308792
~?@ck}~^zvee~|ne]f{Nj\|\~fr~}~~|~zn~~v|vu~~m~~^~bz~|clN|nv~\nfvTZVy~z|nd~Tnx\vnxr||z~n~qD|tk~~v}~^uyrNl^Yb`n^~~w{rzlv~}|x~~v~~vV~^n~}~^Fl|^x~Mzq|^t~Nel~N~~~^v~~}v~~nt~mkxyVv~z}j~\z~|fe^z~X^~n~^vm{~f|Z~~~j~|Nwv~~~l~vq]~b\dn^n~l~x\t}z]~^mv^}|~~m^z}uJ~}}IzvR~jd~~^^~~lZr~t~~~w~~R}v}^~n^||v}nVv~Vv}nrnr}n|j\~~}^~r~fjnf~~~~v^n~y{xlmRv^|~v|v~zN}~~svJ~]|~M[|~j|n~~^}k|v}}}xL|~~~|v~}l~|M]xpzv^~n|i~^m{|~|~{\x~\~~vn|~|V~t\fy~~~Opyr|~|~|X~]~v|bv~~Vl~v{\~\y~|zn^nVv}qzny}f}z~~z~n~{n~kaVMVbfvq~zr}~zp}Fqv~|kzzI~^v~~~V\~~~|~uZfvz}fr|n~~u{^~vzzu~\~l~z^rz~~~^~pNmmutzN}~zzKZ~^vfJ}~}^~fv~~^~v]|~rvH^~~D~L~x~~~~~Wfu}|^n~zUv^z]ny|~x~~^~N~r~Y^~~}nLj~~|}~|~d^nimbt~bN~~~Y|iZZNzZh~~~vwL~vn~Nzj~n~vfv~|ivvp~]~~n~yn~zrxN|~SxYuQ~z~YtivL[x~nnvd]V|vZ|~r~}~u~p~m~rP[|zx{vvtn}|v~}}zr~jn|~flv~xtf|]j~}k}tiu~~~|~~v~}~n|r|{~~rjtH^V\|^Z|}~\|XTrzyj~zjL~~^}LzUttv,False,0.0109260082
~?@crfvmf~N}^~vF~^[~n~r~^Ln~~~T|uZymZ]z~un~v~ivl~~nNUuzn~zN}q~{~vZ|zZx~r|vZ~tyVwc^zn~~~\zvqv~z}v~~~|~NL|~jt^vxz]L~^z\}[Lv~~}XlEvnf~un}ynvjmwx^T~~^^~~^x{\{~}v~~|n}|N~~~~~|erZ}nfM~fx[~nu^zr{z~n}z~z]|g^vmln~^~{lyt|xn~Q^lwr~~jNx}n\vztimVTv|~zdr~}Uv~\i{z~|znjn~~~Vz~m[~n|tV~}^lrlzy^t[^v~L~|~^LZa~f\~~mnjt}~^~y]Z~~|~~}~j~my}~~|~~|L^mXZ^zv|kvU~Yr~{[~fX^nl\u~zm}}x{}xzvTnJ~}vx~~~~n~|b~znPzyz}n~v~zt~U^~vn~~b^n~~Jz^Z{~z~n~fz~u^f]z~n~{|u^nvN]af~~ftnmfulnn|Iu}vN~V^~n^~z^m~~tX~||n~~^n}|^~f~Tn~~~n~~~|E~~~vNvNEvVtut~d`~u\|~z}~}^]~^n~]~~l~v}E~}^^~vvdj~Zv]zby~Zv~f~kNp}^||~}NU|t~j~~mevln~z~}nzz~vzx}~~~~~~~~}ZR|~~~Zp^vf`~|ZvZUyk~Z~ez~mv}vs^Zw~e{nv|~~^X~~}v]mm~Y~]v|n~Vnlyn|\t~z~~}~zvVvk}^~}jrNI^rljHzi^wYn~zzp\}v~~~~~}L[~r^~~Z~m\}j^RV~m~{j|zw~m|v}Tzn^z~j|zln~mvjl~~nvt}~\~~~^~\~~~rzu~jnv~V~|~I~~^Vt~~~n^~~~nfffZU}\^^v{yf}nv^nr~~f~u~Mnvz~z~V|e~,False,0.0108730793
~?@cz}|vy^x^v~nv]viy~uY\~z~t~jOz}|{{ZsZ~NP~|{q~z~N|n}~}V}~x~C~dz~xs~~||Zv~mTrzv\~|~~||vf~vnnn~W~dWz|}~~|^znltvR~zl}~zz~m~vk~v}~u~lmtzn~fz}}zMr^r~nZ~n|^n~l~zmg~}~~ZN]}}~~~y^N~~my{X^f|j_v~^fzzrz~v|~z~tv~z~EzpvZ}rz~rf\v~~B~|~}z]zdz|]}v^~]u^n}\^|z{~z}|vz~~~xx~|~~mv~~jR~~~U|mz}vfU|~`r}nnvzl~lV~nn~vnj~n}z||\fj~^TYmb}m|}~~Zn~z~~^}VXqZ}t|xnz\v~vv|vr|^z~Qnv~~^~~ZPxr}v~Kvsx~~~~|n~l|^z~~lo~vquL|u}{nw~v~^^^~^~z}jn^f~nr^z}~|~|}N}\Z}~~u~~^{{|u~nnrf^pyn~^Y~evm}]~~vtj|n~s~~~rfvpvnVv~vz\nn|tv~^tzr^B~Fr|yvzv~~v|\~v^~l~vt}Nm~~n~^~\}nvtt~|||{^n~~^v~rx~vvvpm]zt^tv~v~|~~x|Tktrz~|~^|^y~mxrz|uz}\~^~}~~~u~~}|f~m~mV|vntf{^~|~~zzq~n^~m~^j}^nJv~v^Nz~m}n~tuntV^zZr~{vD^Q~}~~|~i{hLvz|eunQ~j~Ms~zWo~V~~T~Iz]ln}zrv}\ZM~vz~l]uJt}~ilNz^^~~~E~jz~t{z~}^~|M~d]}l~~~zpfmlm{l~zv|~~~~|n~~^zU^znNj^zcvxn|n{~v|Eu]zq^\~y{z~zm^~|~vnuzq|zz~Rj\~R~zvq}^M~vfz^}||x^~~JM,False,0.0108969212
~?@c^zv~zfv^nk~\~~z~\~z~v~~~~vy~nz^}~Llwv~|~x}j}~z~}~n|~vyb~~|~vnur}^zf|{{u|{~|jM{}lv{\f~nzv^~{]Lv~|~v~n~zqvzje~\n]N\~}|R~~~~~flu|}^Vu}^s^l}~zl\njnnZnx~~}ztvn~h~~vt{zz^}v~]^rvln~~xv~^z~|~lrr}}hhu~tyn~z~ly}vu~t~nYv~~~\z~x~y~Lv~rvw~~\}x~|\|{~\vMF~~nv~^|yv}~|^{~~nxv~nvy~m~u~{}W}~nX{]I^}yf~JmzNXZv~IsNy~~m^j~m|n~rLzf^lvl~~~~ofnzn^}|w~zn^}vn~|~N}}~p~\~s}|Z}|~q}^}~~~nx~a~uxtvnv|NZnJ~~~z|~vf~Vv~vvn}~~v}t|vdt}VvJ}n^~~u|]N~^||~v}^dykm^yjvzv~r|zmr~~shlW|z|}~~{vvx\^t~v|~]\tu~|Hnut^^mBzrzxvW^~Nz^nzz|~~\}fi~n^^XZ^P~}||^ZvV~vn~~~~|^~]nf}~\|^d~}Vuz}nv~|~~~}~nuuzv~{n~bn^}~~yG~Uz|[bn~y}|}nz^^Z~}\~|vZVX}zNQzjqxn{qu~y~}zuyNnq^|LmV~f]~Z~wvfvwz~j}~]}N^fS|~~}y}~er^jVt~Vj^}|VzjV~n]Vvjn~~v~|~~|{F^~~lm~y^zx|z\~~n~|~z}~]uwmln~Rn^~}|vLzzeYr\m~zlnv~~~NJ|^~~v}}vzMx{~s~umd~zz~j{]y~~|\~x|n|~~^vz~mfv}~v|~v~xyny|~|~}xzfy~Z}jyRn~v|wifxrZz~~n|zVv^Ro~niz,False,0.0108289719
~?@c^vL~N^v}\~~n|~jv~wltH~[~~~||mmugqe~|~N^v}~~vif^tUZ~Vv~vfl}n~~v}}vr^~zz}~l~yp|{r~N]w]|{z|z}r~|NZ~m~{~~X}vnvx~~V~HZ^~Q^|~^ynz]nznzNuj~f~rv~tv}|kr|~|~^}Jv^]Vfv\~JZnZ~ZS|^^sul~To{\vbm~~~v~zjZ}n{|~|v^g~||m~~^~~y}~}]ln}j^nct}~xs~n^^|z^~mr~vyn}v|lnz~vz~rzwz~~~}~y~]~z}kznc~^vx^~~VFnz^n~{vnt}~}}^~nb}M~~}nvi~n~rVn~|~n|U|vv~~~}~~v^{|nN}n|M|fj~r~}||}z~Vn~~v}|~^~X~^~~jnynz~^J~qmn}d~{z}[~~tn]|^Nsn~|n~}||vmiz~~z}~n}~vn^w|wZ~uupJV|~n}~}~ig]v|~u}~V{{z~n\vv~}wlZxn]uz~\||}m~}U^zf~d{nq~}n|}~fKf~~x~Y~~TRnbNzMv~~~~W~nnx|NsZJ|Z}z{~tn~x~~n~ql~vI~|ll^~]txnN|~{|}m^}zN~~~~~]}|ff|~e]mtwg}{^~~b|z|kjm~v|v^|n~EWNj~una}~~v~w]~u}V\u^vV~Z|~tux|zzz{~|]~^^~~zx\]t~|{}^v~}nnvM|}v~mv~\LnD|}|Z|^^v\v~|~|Z~}yy}}~~~s~xnZ~aL\~{}^~b~Pknz}^Nny|nmy~~~~vzn^[}~y}|~~v~~r~}~l~^vv}n~v}jZ~f~{m^z}~x~}v~^vt{]z~n}U~~~Z}x^^z~vnZk~]vqzt\~}yvz^mnnF}~~l~~z}Xul|vN~hf~v~V~hn,False,0.0108549595
~?@c}~mmEsrnP~n~^`w\~}~z}~~~~L~FK~vz}~xnqn~p~~~~j^||y~~~v}~V^}]~~|~kt}iM^uz||^~~vLt^xv}~vj~i|L^^|}vCfqq[k{Fv~~\~z\^~~~m~~~^^nx~|zVtnDh~u^Nn~zzxz^~lfvyaV^^nvf~n~BrVr~nnz|]Zyv[^nW^~v]wzbq}Tv^|~^L{t^Z~n~|q|v~~vz]]~y][~z}}vV~~nLVn^|~y}~|}v|r~lHzv~{V|vmz{X~L~|\|zx{|d^^vx]fn^~un^b\vzm^}nnz^|d|~}YnpNo~{f}~jnNff|r~~st~n}n~}~M~^z|~nl]~}^lMz~zzvt~~~jzn~^]~iN~mN\hmtzxvrz~]~tr}~~z|s~Xv^~}v~~~~t}xv|v|fnVn~^|t~~~^^Zn|^|~Bv~v~j~Zr~Jf~x~^~}v~~~z}yv~~d~|~Nx~V~|~szXvNW}v|~~^zZnjvl}|lz^Tiyf}}fn~n~^~~~ydf~f\~z|z~^vm~~lb}^^v~~Zz~^vvz~^j~l~~^~}|^NY}{~~vnVz}~\}noz~u~^V}y~v~]n~|^^~~j~~jm|ZsxN||s~||~zY~~v{u~vj\Vfv{~fv~v]{}zF~dlz{~~zM~}d^]T|rmzb{~vz{x~Zvx~|yv~~jV}~jNu}~^|nV~~~}m{lv~~}\~}}v~ZulVzz}U~zf^|r~~~~Rn^Zv~^Jzb~j~c~v~zrlj~a~F|}~T~z~~~`s~z~nnnf^~~|~~~}~x}}|~}~bv}vmV^~v|}}v|y^m~~jv{evz[z}xxF{huyY~e|~~zl^^nz~vj|z\^kn]|mvz~o\\^vm{]|~v}~~~|v,False,0.0108799934
~?@c^J^~~bby^xzy~{LTz~dq^v|y^~t}~}|}l^~ZX~ixnkzrN^zv~~zM~Zr~|~n^x]Vlz{|vz~~^z~~^|n^~}y^}F|bN~j||nzz~wF~~}nN~vn\wvfvv~}xuNv[n^Yxm~w~~f^]v~v|~Zm]\{nZvn~rNl~^J~~~tnt~~^vv\~Nj^~|X^~b^~v[|}Rv~n}zf|n~~}r~~vv|Zzj}}K}~x~NN~sz~Sl~~]~~n~xh~~\|Tf~x~|^zRrnjr~nFzwVv}fg}~~~}z^^n~z^v|~Yzmx~~{~f}}~}}^~L|~z~Hvv|^y|xnn~\{}s~^Vlzn|{Rzm^v]z~{v|rnnv\v~v{\}[~]z~~v~nyz{^Zl\tN~~t~[|~^N^r|~~x~zv|r~m}X}Z~V~Jv~~tn^~vfezkmS^vn~{~vuu~z}}M~v^~v^l^|r^~q\~^N~JZX}t|zl~~v]~vy~jz~ZnZ~vf~qz}zyv~~~il^~j\~zzt~~~~}|z~}z^~N|cz~v~~~en}~}uNCrv\jtk}v~zN~n~yr~~||^|~~f\E^\f^|~N|~mv^~[|~zrat}Jtxm~\~~~z~N\]{~~~^||lv~l|~~v}~Nz~~~|tx^||ru^~rn^n^bmr~aNnz|vzyf{~M~~||]t~~|~r~zvf|f|n]|Mvvj^||[~~~z~h}^~^jF~||^^|T~^frVm}nj\|~~^~^|vuv|nnyl~tj|^vu]}z~|z~l~v~U}{Q|~N~vb~^lt~Pv]v\v~~n~N^V|zy~z^~t~\~|v}t{Zv~^~u{zZ^fimSg}zj^~~~yMs~~N~~}|vv}nnnu}vjN~||ydm~mk~Yyy^V]Nzy|\nz|~n~v|~S,False,0.0108251572
~?@czmov}z~~vl~~yn}^~[rj~~~~zxn~nv{m}~}r^nn~yxlntvu|~^^q|\~vz~nn\~~J^s~~~f~~~vjVn`~n~vZ}\~znvxm~zvdm^}R~az}Unm^i}|lmr~v}\i}|~z]~|k~N~}h~~{\f^UiM~~zn~}v|~\~~rV~~~z]~~x\l~n~~~~ezH~TN~~flyl~rN{^~v~V}vndZ~l~zw~|u~yl^i^~vn~~fv^z~~~ZGnnzxzym|~~zt~NKvf~vV~~~nz~h~vxNZy{mn|^^fBmv|^~v}T^~~rlv~^}m|~|tm^~}x~Iy~yvv||Nzur{~|j~|~lyn|z~^~{yjlz|L^ZV}n\u^v~~~v~y~m|]y~~i}|^~~^V}v\[V~~vnTY~fzn~nH^J~z}^~|v~xf}~xv]~f~~^z~~~~Nz~v^ny|V|v}vlNv~^{~~|~~~u~n^}XRr~~~W~Ym|[^v[n~zR~i~\V\v~~\~}Nx~vv}p^uT}vxv}|~^v}^}j|~zN|^}}jwqn^zzN~|^v|~UyZ~~}|vztfx{mg^^}Zx~^~[n\j]Mn|~}~tnp~Y^r^}n~k}~^~~nnk~}fjnfhnv~~~~um^]~~RN~~}nn|\t~~~~~ny^}}jdn\v~}{~ll||~^~^~xN~x~Z]~Tu^z~|vmN~nx{x~v~~vUpTfVteVvnDn^]\mm|}?nn}n~zv~y~^nmj}vB~~v||~^rnp~yzi~fV~~s^\~u~~~}{urXyN~z|m~~nzzzTdftl~^n}dz~b{vvx]}||jvz~|z}znyVnj^^~}~\^s~~~~J{||Nxn~~|~j|^vnx^~n~zn{^]Mtn~r]~HZ]mx~\k|}VqZzju{y~,False,0.0108389854
~?@c~xn~~vvzN~{j~^~Z]l~|^zn~tz~[~hF^~Vy~yuI~N~v|~~}~v}|{~~[~|n^~MyTX{~|t}~v^n~}}^~Z|~Vg|m]~~~n~~~z~ZvZjy~v}~X~V}~V~yv~~ZN}Vv^}~~z|{i\uJ~v~[v~|~zzf|~v~~~e}{Y~v~{fz~z[z~nz|lk~^\{~}tjmyje~z~~m~oj}~v~V~]z~zZvzz}|~Tmf~}y~}n}N~~Nkjj~lv~x\~n}~t~Z]~nz~[~mz~mznrlzZV^u~z~syN\^~^nZ~pn~T}vy~n}}n~xp\n|~q~|~x~z~t\xzdv~~~~~~{Uz^~}t~vM^|~v^~fy[~U^]l^^En|~n~Zzf|Y[nvT[^|~um~ZV~~n|vx~~|z~}Nxz~Z|u}~~{n|vllsv^^qvvzZznvj~vvf~w|b~NvuZ|}v~}f|znz~|zy~z}~R~rvnM~~rVvv~m{ny{z`~V~n\^}vn}z~~}~~zlv^n^SVm}~ly~rlz|~}~~z}nht^lv}vzZzy~rZj~v?qjU~znn~n~~|}nvj~~~cN~MzVjz}NElnfn{y~Dnj^UmfZ]^xi}~]~}{z~v~~v{~|~Rzm]jzztv|jNnYnNlz~~~~}~~]vh~~~~~~~~~v~KfxZ~b~h~z|zrZydZu\hn{z~}]j]n}}}t}Ry|}{||~f~|N^{~V||v|^~~~~~mslvJy~m~y^n^v~lJ~Xy^zj~}}]|jKjZ}VP~lz{^^~jVntvnP}z~]kz~}{~Ifvm|~tf^{~v~vz}rvZ}vzv|~~^\|zl~zZrj^~z]~z^r~]Mj~~~|~^~k~tv~}~Vl||~lrA{v~^mv]fVvNp~}{|Rn[q~~~r,False,0.0108859539
~?@cbr~r~^}^~{W~~~T~~tz{N~|~Nwv~|~]^}~Dn~}^i~z~VZvgt\~~vv~ML^vk]~z~}lN~~~^ncz~nz~zf~~~|v~zn}|\vv~pj~M^z}ZVnr|^^~vq^~yu~n~}~n|m~n~~^~}v}~n}z|^~~N~~Zx~nnJrz}^XnvjU|b~vL|x~^~V~^v~~A^zz^v~~TI|vtR~}mn~vxq|zmn~~z|^z~uv~nz~zq|NTm|}|~e~vxlfr~~~kn|~m~~~~~}~~~ntfn|zx^z^~~zl^znv~}vVqk}Vz}}^m}\v^xlv}m~}~n]b^~^x~|^V^tvvYvvnf}~f~J^tZHnjm~Z}}~~nry~^|Yn~SNxv]r|UjZ|zv~j|~~nu^]]~kv~vI~~^{J~~M}~F~ZNrm\~~~~nL\~x~~vx~|~vz~Zn^~Mz~]~^|~}Ujv|}ely|~~ivlxl|z~VVN~c}~tU|[}sML|n}~tv~f~QVl~|~^~vm||z~]nXean|~Mz{d^zy{~u~~M~n\~[]V~Tm|z~}|zzNfz~vv{n~}vzqZf^~~~~^~rn^~X~n~~~njmn~{~zjRMWu}z]^~]r~Jv}|]z~Z]t|^M\Tv}z~~^u~unnmnfzn~}~z|~~^F~Fj~~v~^\^~N~zmhmnjtCr]~~n~tm^|||^VF~t~|}nx~~Kd~~}{\fp~xu}^Zzjyv~zz~Y|x~v^vNsz|~~N^}T~lp^~v^^~Z|~uN[fV~}n{jj~v~|Z~^nzvnJ}mZ^}xmfzt^vz{nepr^}|yj~rF~x[|o^~|~|~]|I|F|nzkx}~yti|c^~v~~Vl~~v~^|}^~Y~~zn~~~]~n~m~uti~ze~y||Xvn~}|~v~,False,0.0108790398
~?@c|nnM|zyvzw~r^{v~zmf^jZy}Zy~~|~v|u}]~~^^r~v}E~w~~nij~^]L^l}vl|y~V~}f}|t~nZv~|x|n~w~~vv{~^~Z~N~~|lE~Nkz~}]~|U~g|~v~~}}tf^MV~]]s~^Mvun~|ENv|]^}v~z~\~u~\~V~z~rw~\v~rl~m\~{m^lwDyf]~u}j}z}VvV~ct~mgf~n~~vvjF?yn~m~z~|Vy{~nyT\z~ZN]~ezjztim~{^~|fV~]~Wzfmn}~Zjzn\j|^{ulv}yrV}u~~~t^^T}|~~}ZNn}kwnz~zf~Nnj|tm~~~u}na~}]m}z~Z|v{~^}z^v]~|~vy|~~z~~|nz~z}[Vlvd~J~r~mNv^}uzrv~}{H|~NN^m}N~jTVj|^~~^}~~jw^v^~v~y\Z}~|~uzjv}~xHfN~f~lvv~~~F~~\yzZ~^zfWn||v~v~^}~|Yk~||nv~~~uzfznxj~u^r^\v|nfj^yj^^}~yN~Zxyfv~vvzJv}~~^J~|^^y^~N~b{Jb~Fyx~~~|~~x]xz~l^X~~~^~^{|^^jn~~~[Yl~}n}~~\l{fn~~~vvny}~|R~|vl~p]z]tvyv~~nnn~~c}|N||{~}~~l~k~rn^v{~nn}Z}~uTx~|n}~x~]~~u~|zNvn{nd~Uy~ttl~zuVUz~~~Mq[rv~}^z^r~}tzn~f~{~~~xjXzwl~^|]v~kv]|~z~~^}|~ffvfinXZxmzYzk~~mnzdZx}^~Z~~}Fzz~n~f}}~~~z}~~rzn~M|z}^[pnn~n}~p~~~}f~m|~}}]jm}{~~}Z~v~~z~NDzf]rZfmn~~}n~~^~~t]yvkzud~u~}^}h}}|nzr,False,0.0109438896
~?@cv\~^~u|}~}~|jvb~~~nZN~Lll~[nrr~^^JxzftNdxfz^xf}}nv{Jy|~}\~i|n~r]vr~Dn~uzv~~~n]~Z~jnzv~rvr}JmJyn~pv|fyzpEi}~}^ny]k}d\P^]z}~]~~oyz~~~a~z~e^\^~~zv]ne~~e{|z{~rZ~j|~}jN|~fn|~fj~vzjVts\]h~J~n~\SnjqN\M~\v~N~en~r}ud}~~~z~~~|^~~~~Zmn~vx~v}vzM|Z^}n~vmv\|~|Z~^~r|~~o~m}~}Nnnn^~L^~ur|z~~}}n~~^nxbu]nzt|Pz~r~^zX~~Wn}vxJv~~^m^~~nm{X~}cbn~f}}}nd~zxv^r^z}v|~z~~E^~X||kxv~~t~~}^zt~m\y~^z~vv~n}}~zMn||\nv~}~~P~v\Z}\nf^\|A~|e~~||~rv^p~}m~~|sfn~op~~u~~^n~z\yql^~v~nx}~~~v~~j^vD~^~~z~~k~|jN~Ln~^^V{v}FunZ^M~ven\v|~jnv~~eYz~~n^vv~zzz~nj~|~z}^~~vvl\Z~Njfne~zz{z|^~}z~[z{j~Nn~~f}}^V~~jjrfn~ulvN~v~t\nNztN~{}cpym~p}z~yv}~^}~|tz}^~z~}xvzxr~]y~\j~zt^zm~[NeN\~]~~ts}z}^Nt^u|xpf~|vkzv]^\z^|||~h|^hzv~}z|}u^ue~~n~xt}vyv~z|ng~~~^uTNn^V}~Nzz~v~|i~~n~v}~t~m}}un~~m~~^}^|~{}~Y|~~n~]~x^z{n~~]~~|nzv^~il~N~v{Mm}N^~nYn\~y}|CRV^}vyz{^k~jijy~^y~|z~VjV||}Nuz^y}|{Sh,False,0.0112450123
~?@cs|p|~v}nf}v\~\~zy~y]}}~v~~|~zn^~n~v~U}Qrt}~\\u|^~y[v|uv}q}~n~tz~vv}~~LQU~^^nZF~jyvz|unn{vzz}^~R|Vvmv]~}~l|}^zjvt^nn\w~{|~|rz}~k~}fjnn}v{}~zd^y{z~~~n|v}~nxvzz~n}}f~n|Z~r]zv~uZmxnz{nxzpz|nn~v~rf~~}yny}rzrvu~jn{xv|~~vm~F}~dxh}jjU}^~zr|kn|~|~~~slzn~~~~f]yj^vwvz^ujj~n}xX^~~y~~kv~B~}ntvvZzuzz~~|zv~~~ln~Zmv~|}}^Uvnu^}v|vv~~|~Ur~^F~z|u~z^l~nNzsr^~t~^U{}Z}z{~~U|v~z~yjvv^~r~^vlnr~vn}nhV}i}vsrr~nnj^t}n`~f}xvVpqz~}juzd|j^^~}z^~}v^{T~|||^nf^R~Lttl]Zf^m~j}q}lL^z~\^~Xv~z|~|^nr|~up}v}n\z~Tk~~}V^xNnl~l~]z|}^~vf~|~z~Sj~~Rv|~~n||f|]l~|J|~~{~{|{]~q^]vn|u^}y~|vqjeZ~nz~\R~Vvzsz~xp~m~i|Tlz~VX}vR^b~n}|~^~Z}Zz]~k}~^M~|nz\~~vzz^T~\f~JunN\|I|~vz^~}~~~}~~~|}nlZzfz|~~jnnf}_^~z}vn~~z~^~|~}u}{^{]~vyjzy~~~]~}~|u~}\]fZR~}vrf~st}N}l~z|zx]~NVjTUV~M~~nveu~jl~y|}n{V~|^zuM|b|z}\^^]^~M~{v~~^~^~fLfu}Rx|^V~~v~vt^lnzY~\}x~|~~Un{z{~{|lz|NnZ|u~^ftYz^~|n~nj~,False,0.0116019249
~?@cn~|lz~Zu~~^N~z^v~nn{QRrZz~uz}zunnx~Z~vu~^p{~v~vl~|i{zm]^l]~j}^~}Y^fTy~Hn\sm^vnn~~~~|n~nr^|~Vs~~l^|hd}jvv~rZXXymr^~~~]{ptr~b]u~^|~B}f~}~z{V{~~xZ}yz~^|Nezvz~Z^v|^}~~]~~nxnNj^^}~Ml{^z}^}~vfV~x}un}zzn~~nzmf~xv|~~nr{^~}m\\||zrlZ~~r|~fVv^}~~^y~|y~~}cvXvd~~|rxxn~l~~n~|l|\}~~n]u}e~}Vlj}^}}y}NN~fy~}^~fj}zv\m~nzvl~\nr}~~\vn~z|~^|~vuv~~jv~~~zR~Lf~}~~D}veuu\n}]z|j}hx~~zZ^~|}^}vz~}ly^qjY}~u]X~vv~l|~mnl}n^f|r~|~n~~zy]v}vl}W^~v\l~^~^v^~~^nn~~^~~~zu~^f|V~}~vyn~~~zM~^nne~f~}fr~~~a~|^^z}F~~l~|k~bZvuf~\v^JvNjy~~n}zNwyzo}LV~V^}nn~|v|ZV|~\z~n||pL~z{r^y]lmefN~~}~|m~~~mN~v~}~~{l}vm~xzvz|znrv}\{~lzj~z^~^r~~n^y~~SunznrWz~}~n~]n~{l{}~d~nZ}}^^Fzv}}Zrnb~|~l~~yj~~v\z}Vt~V~vv~\j~nzv~}~ntv~]z|~~NT{|}[~~Jvv~}~fzR~}Uf~V~rT{vv~|~~~wj}VF}rLtM}{vS~}Lnxpvv~uOZ~}~yZ|qqN~^~lNJnl\~L{Vt^{~~I{z|]^m~ny~^~M~F~}}zZt~r~Rzkff{^z^z\uL~~~Em~n~v^^vn~rnCd|NjZ~nbz^,False,0.0103719234
~?@c}}\]~}jnUm~N~T}L~||~~o|v}bl}^lv~~^x}~MYzzn]~rv~Y^R~{~~n~VxjyX~N~v~}nZtzvb]|zn^n|^u~pV|~jjh~iv~xz|~~vz^~n~~v^~~k~nu|I|z~|^||~t}|~^R}m~}x~~n}huvZnZ^fv}L}~|V~~Zkt^}|N|u}v^^n{{}T~u||^^^~z~~]~z^m~~NVyh\v}y}N^r~~~~y~^z]y~~VZqZx|}^x~rzy}zluxNz|~U}^vz^z~tmv[|~~nxvxu]h~x|f~wu~^ZnVz~~xNv~Nv~f~~|}~l~q~x~]}vn{^~V^~z|~^{ff~vpr}~v~^~~l}nmn~~xz~VZ~n^~tr|[{v~vT~r~uN~V~{f~L\ns~|dnvvn}Sn~zv}~|vv}yrx^m~zNnv~Ev~~~zRvBzMNxH~^n~}|~mg\drvjdj|xz|v}ym~~^~^@txb~Nzz~~zn~T~v\t|z~^vvvn~V|~~vn~~z}|z^Z~^bD~~nUVz~TuxnL~}~\N}~x~z{vz^~v~~~|~|~hXNR~lv~~^zZs~~|}VV~}~xn}~~Ww\}{nf~N}~xnx]~^^f~}n|\~~\jJz~s~~Ox|xQ~~zr~~j~{^n~}z~v~v~^~azNz~~~fzze~n}v^{^v~~}m^~zy|v}X[zr^v|^Vtl~|~z~^{t}~o~|~z~v~|\nnpf\x~}ltttfy~n\^J}y~}z~rz|og}v}nZp~N^|~^~^tVz|~R^^nz~~~j~x{|n~w~~~v|Vybpz~neq~~~v~^nNjv~}z~vnTmeVmTzM~~~^N|A~zr}|~~~z^h^z|U|~zn~|R^]X~v^nvu}mv~hi~}thz~hk|i]|^^y,False,0.0103139877
~?@cu|vl^^vNfh|nx?wN|}np]nL^~~]\|f~N`vz^~~^}Z~zvz~}|N]~nm}b^^~bzvRz~|~xt~|~~zzNe|M}vd~yv}N~~P~~eF^]~kv^}~|~nv~vvnz|~^v~rnn~^jv~~~}ntl~lxk}Z~Dh\n|nw^|~\nl~{^zV|s|{{~}~~mBjntnnz~}}v}r~fz\^|z~mZvz~v~~}~v~}~nqn~^~|sm~~|~A}l~^|znnl}Zzm}vFt\^|V~}z|~g}}eVr|x^~z~yUm}]d~n~\~vvn^}}Hv~{yz}~~NtUv^m~}V|}~}~zE~~zjqzxm~v~~~zjrY|z}fNnj~~}R}zV~fiv~~iJ|~H~~l|v^xtvx~U~v|n}]|r\^~~z|}z~~n{vHg}m~V^vndf~n~Nzkl~n~\~|Zv[z~nxn^|^xVZ{~f~]~^^N}b~^|^|^vyn|vj~nn|~~i}rH~|^~z^NYz~F{~vvyUmv|x^~n~Vr~v|~\~^~f{|m~~En^n~|Nyq~vz~`^[}~zr|l~rz~}~i^^Zz~~r~vulnV~{tv~\}~t~z~~Zzmn~l~yvp~v|n~Lz}zyn||uYnxn~p~~|m~z~}tY~{v~v}N|Zv{J{{~z~|~~\]|a~v^R~lt}~Y^^v~~|zVbd~~yrB~~y}~|v}nnjn}nfu^~^n~~~uM]^zj|]~~~aZ^p^}ff|N|~tz|}~n}[ZN|f~mFv{n~lnrz~~~u^~~n~~|~~nt^m_|blnzw~\]z~Z|suNjj~n|u}~BFv~Z[yb~j^|\t~t~~ra}~~^~v|n~^^`}}}fvuv|njvb~y|~z~~^]~N^v~~V~~~~n}~~\n|~|v~~jz~|}v}f}}@^|v,False,0.0103399754
~?@cn}l~R\x|{yz|}~^^~~{pn^~x~~T]^}nzh~~n~z|zuq}U|v^mzuN~~n~^tI{x}~E~n|zvy~b~~tVy^v{xnn}x\~vnvJ~tr|u~z^~~~wy^]wny|Vf|M~Lxnmex}n|y}~~~wynF|z~~~szr\m~~v~z|}^^~zu^~~n]nVjv|rz]iJ~{~z~~RTj~}vzPf~^n~yyh~X}y~~r|~Nn~v~V{[rvv|z~e~^fVvwnzzv}Fzjr}^u~nXX{n~~~~wBz~j~}~p}F~~m^~}~Nn~\}lm~v|m~}f{{M}~~|~jn^N~w|rxb~vyv|Zni}[|^~h\~\^fjN|{v^p~~^Yn~~u}wv^~v~{zt^z\n|l~ll~~~v~^~\}~pr~ZyzNxh~~~zzk~~\}~myzvzzz~~Zf~jn}~s~}~~~|{~~^zvvz]v~~J[yz|^~{~~~~}~XryZy~n}vml{~~|^^z|vv||~Jn~zuI}|}y}~}~|Vv\^]~~zz^~H~t^J~u^v~}\~|nz^~Z\mvZzz]~~}~~v~x^V~N~~~f\^^Z^~Zt}~~nunY~~~R~Fzz}~\~~n\m^|^~f~lrxn~^Y^ZVn~}^~oME{~vXhv~~Ntyp~~f~v~~~~d{~][zY~xmz^r~Um~vN~R^v|\m~~|fT}~~zN~n}jv~ruz~}x|~~yv~~~|Ul]nue}z}nvl^]~[~ln|vnz|~vx]}t^lnxz\~~u~}Z~nn\~z~l||Xvwjmz~~N}vaNefbz~~~~~spn~\wl^~~vn|v~~|n~zjzdqn~}fmn~nfjzm|rzR~~|V~~~r||rl}~V|~~vvuL~zny^luxn~uaIt]nZ|}qZzvJ~|^~dk~rrf[v|~z,False,0.0102870464
~?@c|n}u~|~tnnv~nv|{}~vU|Zx\^j^vnn}{~zz{~Uf~zp|z~mv||V~\u~nnlyZ~^~V|u~~[Z~w^~}^n^^lUb}v}|}j{vn~|bnjl{~~{jszz~r~l~\~v}L|~|^v~}hv}E}^v^Yl~vC}az}w|~^vzfr~t~~n~y~Jn~~~^~Nlcz~]vle|x~\}Vynx]zNl|~{v~zrNqn{~m^ff~m~l^N~}j~uv~z~}}~]^\~~ynr~uzzjrjv||V^v}zbzvn~~V^^yj|z~sYrV^^~]~N~uz}~]\HnqjU~NyPyz^j~vquhV}f|y|z~k]~~^~}n^}Un~M~]~v}rR]~~~mnz~~milm||n}~~|V~mk~z}^~^^F]~MNn^yz|ya~ufuxVqV}}~~~xyZmzzJv}n~nER~}^}~~rnzu^|~~DvjV~{]v|o}~~~jV~|~rv|\zi}z~~~|v~nkvmn}b~zn~~}wE|v}xv|~^lvt|~vvrynr|j~|fq~}~tvN~~~|~z}^~~n~~|z~~v~Ez~{^fM~tZn~|uz|n~~~zVvp]|Vn|Nh~wn~fxJ~~~uktm|\{T~}||}}|l~\|~~~Mz^~mnn^~|~}znnfz~~~|^}^~~~r~z}c~~|u~~y^jx}v|Nn}^~N|mpR^~Z}~~wv}~j~vtv~zy~~zu~N~~|\^Df~}~vzJnv~TrnV~~fe\~~~s\q~Nr~vFv~vf~~~nn~e}Vnz~x]Z~zln|^y~NjLxh~vTVXn~~^|~}n~jv~n]h\{ny~|~v}~|{|^nnn~yv}~vX^^N~vu~~^Rj^~m{|~v~~T~xj~~nz~vUJjtpy~tpzPty^j|nf}^~|^|~i}~~n~vvjZi}~R^,False,0.0103199482
~?@cR~nz~Vzj|l~r}~T}^mzrN~~^|V~s|~zc~zjlz~}j}tj~~tZ~vY||~u~jmi|~efTn~pz|}u~~]{^^n~~zd|wnZ^^^|}|]vvw[vv~~||kF~~^FnmnN~}v~Ny~yvz~vf^j^n~~z|zvNvl}~~v\~~tt~~rxh^Rvq~~~j{n||n^nz}nZzazzn^Vsf\~~~lfj^|V~{^~l~j{~~yz}|z~{s~z^~|jyV~Nyn~~~^|}j~z~v~f]~rv~~j~u^|znzyl~~n~Pz~Fd}tunv}rv~Unl~nv~z~^~yz~uj~jZ}qU^zjvn|zzK~\y|v~~|Z|\~k~^~xm}nvzZjlV^v}e]Ulvj~N\~lVv~~r~~Y}z~z~^hM~v~nn|\}~N^np~rIv~z~~~vz~~}v|~{~|~z^~f]v^v~~~~|v~vh\~~F}~~~u|~^hl~dnx}\mu~}I|njv~V~x~~~~V}~~}NzZ~~~ziuz~vy}~|j~HNn^N~jv^Z~~d~m~^~nnE\n|~}~y^UhxZ\j}tn~~mm^~fv~~nvdxy|~^P~l|NWngJ~|m]~Z~dzz~as}|yfVvz|~~}lv~m]nt~~^v`v{~nzd}yVsuv~~hlnRvVzfmNmn^v~z|h~u~y{z~~zX~N}z{|lzzz^~~rhvT~~f\~Rn~]nxN|z}lkr|r~nv~yqcjf~~^v~]~~z^~m~Nz~mlfx}[vzv~vz^|z}zZ~^t~uUt\~Yv~}B^wuoe}~qn~etv~M|~^^~\||x~}}luLn^^}a~sz~}~v^zzyr~~lZn[}Y}~zjvn~v|~~vp]ujtun}n~xvn~mz~^z\~|~}\f]Ze~nj~a~vv~~jr]~y{}~~z}v~~}^z,False,0.0102701187
~?@cZmf~vv~vx^zl~~^|z|~ts~~Znn\~~^vn|~~~\|~SVZIk}IFvn~]~tjj|{vv~|}vlv~z~|n|bz}n~~tm^lx~~Z^d}vN}}z}}jIzwNZt~~nna~^~z~nV~vr~~~~}]~~}^pz^mvf~~t~~{|]~Fm~zn^N^~~~~}~t~iU{Un\vf~~}yzqtt~lh}~m~f~u|^u[n|xnfz~zvv~~R~zN~d~n~^L~y}{N~nZ^n~nnnUvtuz\|Vt~n^Lpp~~^n~ix~n{~x~~y~^~z~|{~~|zy~vuzu}^zzi~v~^xz^{~^F^~~t~~}~\^u~^^z|~Zl|}|~imf~v~t~~~z^i}|r~zl~}|~~~~d~|nnwN|ZzZw{n]z~{P^bu^vz]~~vx|Ukmzv^~\~r}vVn~]j\xl~m}\~}v{f~|rn}ztvh^zvX|v~f\U~Z~^~~~fvv^F^f~~~nzR||z||~~}z||nv~vvztq}zm~}ntxzf~|X}Nnl~X~k^}]v}\~V{}|vpx|^}i{fzj\\iw{Z|\b{^n~~nNutZ~Ye~n}~ND~|v~~f~nxV}t~}|]fq|^Mr~~~X\|~Rlzv|v[t^]VlnvnT~~ZzuvvV~N}v[~n\~~}u}vbvv}{~T~v~nl^~\~nm~~~|yyG~nzs~}nZVbn[N~~xv~~~Zv}~~n^|j~}Z~R}~f]v|n|}z~~n~~xrzRln~w^~~~~}l~{~~~tn~tv~\~~SMv~hyNN^v{z~n^~lv}mh}v~zSZp~cyd}t^N~zrvN}|~~|j~]nqZ}}U~z~~Zzt~lzz\E~~~xz~jlnVnl~NN~^~i]vzq~~\{\n}~^~tz~^]~~~{~|^{nJ|nn~vDVat\y[v,False,0.0102648735
~?@czv~FVx~ezm~\}y~]~~~[n~v~~Y^r|~^~zZfxB|V|~^vvvJ~z|~~~]~Vxf^zl~m{~z}~~~f]|}~}f~}~^~l~v^~~v^|~yl~n~^~n~^q~U|||~uymdo~~{d~w~WZ^p}~~^n]~{nz}Z~ls~|~X}V|~JtNyr~j~}~~vn\vzh~Zwzqt~{zlfJtv{tj~n}|n~x~Hv~zz^~n|n^~vl^vn^T||~~zH~~y^Nsy~kmzdv\y~~[^~f~\q|}ml}~v^YtN^Zn~vzlu~v~~~fnl|U~|y~k|~}^`~}z~z}~z~\z~~fv|U~~~}~U{}~~~|~n~}~x}~e~~^yz~u]}n\Z~P|~v}nv{~{L~{zMm~km^ME^~Vnn~~^{v~~Blv~nvq~}zf~zn~}|^~|B|z}z^nvZ~n~^|N~~~mZ{|~v}\VV^z~z^umV~~R~uV~\Z~nrz~z|tTvnfjft~t\ezzZrNx~y}~xG~{~|~m~}w~}x~~}^|~Vyn^zz~i\~m~i}N~^T^fv~}vNx}z^~vdFlR^~^u}l}~~bz]F^\N~v~^n~~XvM]~~nt~~rm~b~|^Nf}J[y~^r|qVrv~v~zv^zIiMz~~~}}~~^xe]~vn|Ym~~z}ulv~~N\V~uvt\n~k{|nvlv\~LvRn|}}~^ls~ncz^VRIn~}|}~z^Nu~~{l|~~l}~RT|~|~]t~nMF~~\N~tfvj~~yxZ}|}~~{|~Vuv]~}zv~vNav~~~~||z~^~~}|~nz}U~x]~N~\[j~~N]o|~~~}]v~{zr}vvnrnytFvz\n{~l~Nnz^~izvdn~{{l~^lU|l|vK~~zzv|x~I^ntvm}\{lzus~~nJ~X~O{~V~w~,False,0.0103509426
~?@cv~~~rlf^y|tn|^f]Nt^v|~]U~~A~}X}~vnnn~vZnZvx|VmZ~x~vZq^fz~Nz~zlr|~Zv~z}num~n}~\x|~~n~~^~~}|\~~~|q|Zt|t|}}~z~|}~tge|{~}^]lNr{}~z~u}~h}~~yNs~~v~jlq}~RjnC}tv]y~m^~E|vgZ~v]~q~n|fCznvg~y~z~~^~}]|vb~nR~v^^vzv}F~u|v~Zz|zm]~[tlz~~m~zj}|tS~~^~t~~n|s~n|}~z~tiZ^yX}z|~f~zzr}u|u}zxn^r~mn~tvZzn^nmq~^~Nt~~zN~~~fn~^tz~~z|jmz~Nn~~~V~v~t~~}nr~nVjIf^~v\U\zuelu^~~~^voeVZ~yv~N}|lu\nz~z~\V~Y|}m|xft^^z}|l~u^{fv~zr~z|v~~~~~~z~n^M^~|~~}~Z{fl~Qev~x]~~v}xn~tf~~~~f~z^^~~~rzp^^~f^kk~~z}v~z|YnVhv~mxu|ozj~J^~~zh~~~lz}~~~kNm[h~~zllx~~zBxIF~rv{}f~xnVv^~^~rz~knZzx}k~n~~~uw~mzu~~Qn}}zzlWzZ~vY\~^v~fKr]vnl~Z~iuvl~|~\~\U\bnb^y|zm|v^Nr]N~^^}xx~~~RV~RNj}~}vz~}v~vlv~v{~}^z|^}rvrs~z{N~~~^v^|}~zU}n]\Mj|~~}~m~vnZ~|~Zu}y^|~~~r~zN}}lmnN|]u~B\hanz~~~U^P~tjndj|zMj[nN~}~v~~nmMvzv~znztv~z~~}~~~^nN\}]bMx|~V~~~uz{mr}|nVlvz]|~n^al\~~^t|lYv\T~I|~~njjNo~^\|~~|~zN~i~y}z,False,0.0102958679
~?@c~^\~jqm|~uZn\PZKzEljr}mVcfz~y~~zvVuz~~znRnz~~RVtt~y^vnW^^v}^n}vvy|~m}Zbu~~~~~^nn]tvf|z~|}jjj~NnT~^}~~h|z}}vy~~[~~~w|d~n~~yu}{znxzN}~]uz~[~\~~bv~z~u]\z~n}~Vv~nv|nxn^f~z^\d^nyz}ybz^}~v^n~v~XVf~j~z}M~v^~~{^v]n~~~v^^~^uvn[~{E~~fzv{]KF^v~t^VN~R~~unnv~Vt~~tv~^}vvz~~n~yJu~[~~szx~|z}v~~~VFLNvs~z~{~zpm~Vv~B~~|fZ~}Z~|xn{uRn~~n~k~^|b|\j}nz]yx^}^}|^zuV|r~v}y|z^}~nYv~z}~y^u~}n||cK~r}~zTyn~zh[jcn}~~~}dl~vWx~w^~~]]sRmv^r~p~^|zrn{Anw]~n~^I}]lR~vr}f}n~~~~~~]\nd~Vm}\zlv}v^~l~irz|~~izVn~~nnl~X|\~fKQn}}~~zm|~~rr^y~|~~^Jz~~~F~bv|m^nr}~vNq^~v^n|vz|zn|}Z~mz~^~~~nXz{V~~vZv^~f~Lz~V~~h~Zx^v~pE~~^{}|n~|R}rszzzn}x~Zfmnn~vzn}~nJ~nj~}}~x~nfnz^xN~|~N}D~lvn~}z~Nv~x~~~iZ~b\^|fb~~}~o~^~Z\~bzjcfx[tzvjV}~nzVw~n}}~~}~pk]}lT]|tzyr|zy}}|J|}lznYVvxt~vnzj~~~uNvfvp~v~nv~vNe~N~i^}~^nNl~~^^x^^nD^~{p~~l~~~~~}~~m}v|V}Mq~^r~|z}z~q~~~v~|ujn]e^nrlwL~v^{^]|t~~~z~,False,0.0103371143
~?@cJvn}~n}^~jz^]d}nv~zni^^~~~~}}x~FzJLFr~q~jt~kN~zn~n~in~\^N^RZ~y~F~}~fn}~N~yx~}p}~~nn}Onkn~nvn^n}}n~y~wMT~k~~vzVn~}n|uz^~}~^\~z~N~dz~rf~^}jinfy}z^Z~ux~~[l~~zy|~P}n~|J~{ly{~y~yb~~^tV~|NznVnjltznP|]~ZVvMfFcb~}|~zvLnv~tzkz|~Vn~b~~^sxz|ln]f^v~v|nV~n|~v~]n~~zZ~~^~tz^vMlz~Uzm{v}~~v~~bX|}|xi~v|z~|n~v~||z}vb~l^|vPm}~~X^~~zrt~J~}v~}zrt~~~aS~~\\~\~zyv|~^~~n~~z~^~knFs~}|N\^vn~~V~T{vkzxjTn~lz~l|F~z\~Z}\k}nx~Pz^~z~~n~~rSd~u|~\f~vz~xv|~~r~}mzxkz~~~^~~~^Qmk~z~l}svzv~^uB~~{zjv^~|v~~uyzn\~vbnd^p^~~zT}~~~}v~ri^^Y~~z|n~nyfvVMR^|nt~m^|z~jNrnr|}}nZ|^||Fx~~~~JlY~ivnm~}}zkzvWy~NSk^xJnZ~Zz{~v]xv~~~n~\^Vnz~vt~~^~~~~~rhZrw\fx^^~}z~~{i~R^t^V~}~~~}~}|Nn|R~l}yn~mi~~\~fSU\nnx{~~^nzvm^n~Nvvzn~]~mxm~~{zzn~}j^e~k~]~mMz\}z^~j|nxzzn^}|~t~^Ivvz~uV^~\}}n~^v}d~~zzm}ufzflnz}|yVx^g~f}}l|djnlPj~Pftxn}~j~^zn{Z~{|~lf^}n^L~|~n~u~nPr~}{nvw|~f]n^z~mjl|zt~rmh|~v,False,0.0109090805
~?@cnzy~n~j~v}~nj^}~n}~}lj~zkz}vv^~vvJ~j\nrf^fs|}zx^zN{}lv{|l~]^f~l||}}}~vz~~~Vyy}|z|qZz~xi~^m}}f~sfV~~y}x~~{~l~}N~~}j~}z|v}tv~l}vvv]Ltx^vvjyuWNi~u}~~B~nJ}|{F^xvzn^\un|{^m~|vZZ~Vnftwz|zLr}y^j~f^Ytj~M|B^h}~}z~~p}~~_jV~]nG|^n^^XlM}|~N~~\Z~j~Ufz|~n~^m^gnFZ~v|z|vnvVy~zH}]f}{~M~zvljv|l~|~`mX}N~]~~Z~w\|v}^nq}}z}^nzm^F~~~b}{~|]n|uNZ~V~^kv~zn~a|~^zv|zxm~v~tupz~e~^|x]~~|n~nVNr^n^yN~@xlt|mtz}}~}~|M~z~x`|gxVn~n~zsU~m}ZYdr^|}}vZ~]~^~tT~i~f~zu{{r|}n^m~~jnnrVny\~n~L|~znmX~}v~vn~~~T|]t^^}\~~j}~n~|hn~}Y^}jn~Mv|v~nZ~w~\~~~zu~^~y|n{}~}m||~^~Vn~f|n~zvV^~\^|nz|z~~~\\~\~|}~~~F]vzA`~vj{f_n~}~v|~}nf\~}yz]^n~~n~Z~I~vJ}r~~~~nx[zn]~Z`{~~~vJ|T\^z~]^^}~mz~~~~jzvn}}v^n\~^znzrb|^~|]~v~~|~^n}M^rvz^~x~m~dp}nVn~~n^Rd]~vzp~|n}n~|V^Y~k~V^~Jn]Zuz~z~m^\^zVvx~]~~v~~}ul~~~^yaav~k|^^jvy~^}^zv}gzn^~~}_~~{~Y}~{~RV|~z~n~n~v\~v~\~ntnVF|s||~~~n|~zF}r{vv[~}~n~^~l,False,0.010422945
~?@cl^~yv~}nl^^Z|nL~RP||~xmn~~l|QVJp~|~}^\~znN^~LNfNvnz^~~~}nW~~~~n~}MnnvL~~mz~]vnz~uynjtYNy~w^^Jdz~mZ|~nr^}Rv|[}}}v}v~}~|fVrnnzl||{vtx~~^~~}n^}nN~~~{~~~|l|~~~vrz~z~l|~^~D~^}r~~D~|r~x^vnr}~wx||nj~sviVzvzu|^\~~^v}n}\~n~S~~W~|LQy{PCvlz}jF~~xn\}zlz}zn~NuQ~~~~v^zlF\e^~~rRzs~f|Z\~d~PV~~fwz~|t~vn~}UXnz~s^zt~\mUyc~~~zv~~~r^~vxm~^n^~~vnz|l~~~i~~~X||~~ls|^Vz~v}~VzV|~|~~rv^]}}v^m[|tr~~|yz]y|vv|~r~mzl~~~zu~~jn~^NIv~z~j|~xvwV~~nV~V~jf~l|vrfy~mz~vN~r~^nZ^V|v}~~il{z~Z~~x]^^~m~Z|Fn~~Z|Jz}~xznn~z~|c~x~}evpnY~z^]zz~~~Xz|q~^p~|}torzv~mz]~~n|^v|~~X}}^nx]\~~v~~~|p}nd~b|Fl|}n]znt}Zz^}{~~~zzl}~~~nLt^~^~jvznnz}^{X[~V|jZ~zqg^^nf~~\v|Uxz^t}|lnv~|]z~~uZz^yx~~VyfvbjVQZ|~t\l}t^Y}}}V^n~^~^jnr~~||~PQZ~E~||z~n^}ryh~u~~~hp~}t{A^~mnzn~~N~zR~X~~rV]nm{~Tt|Z~~m~l~~~~~nuN~}~N^afzn|z~~~m~|~uvNTn~lv~n~fwj~~~znt]Zt~~}~vynzflN}nl~j^~Yf}U~@Xilv^[^Z~b}yN~t\~H|,False,0.0109641552
~?@c~zzb}~~~~mnN\\}^vxN~uvyxUl~t~fZzte^~m~x|}Zx~m~f~sv}v~vx~f~~t~tnUf~|{~F~vp^~^}}|U~Unu|}\j^~|F~Z~Ztf~v}|~u}}f|}~w~~|xZrnNvtz|~n}vn]~vnpz}n|}}~nh~v~^[}j~~vl^~N~zz~yy^|t~kvmVz^~|~j~~zn^}n~^^n~~nv~~{{Z^Z^vnku~vNuz~mn~d}^~^~z{zJz^y~lxu~~M^NnNen~vUy~f^C~q}J~Nvz~|vZ~~~|sv~L}v`|}z~~t~~}\z~m|^k\}vz||rw~l^[^v^~Nx~}nqtx||{zy]zvv|^~|}j|v~N~ql\~~v}r~^EeBzM~Ntuv|YvPk~r|z]~L}u~~v|vFZ~~NYznz^~x~|nv~^vv~^M~~{nx~]x~~~|~Q~z^qdo|vfM~]sF~vlz~~}~|~rs}~|z}~~wsl\|fX{rn]~zn~y~\Ptyr^lN~vj}zrx~^~{|f}M{n~~z^^L|J^Uun~y^~~\nzvi}n^~~N^^m~~Vy|T{}|~UzRz^~~~}^|\y\_vtt~}jx~~L~~~v~Z~v~hl^~}v|n~trp~|uxb~c~~h^x}t^~~~q^|}vjz~mF~~n~}V~R^z|zYxNn\~ejfbtzjzr}x~t|}}v~v~~~~^vvnl\^Mz^rHv~yn}f}yvl{~~~~~t|~h|gAf~^~^X\n[y|~~v}v~U^~l~\^~z~lz}t~~\zZ~\~^~~FM~u\Fz^|~n~~~~y~n~~n~Z]~}\z~Nznz~^qn^}~X|zez^tmz}^~unNE^uu~|u~|~Fn~~}~FZ~~v~v~nU~nu~k~~~~wm~\l|||||^xn\~xn~~^Rn,False,0.011013031
~?@cnEnnxvj~u`~~~}^~^F~zX~~u}~~fZv~|~~nZJn|nzO~n~~~nZ|zkn|~N~~~]\vy~vM~^v~u~|z~duf}n}NwvbX~Nb~^z~N{}Nz|r|~|nrn]f|}\v|~n~x~v~Nv~~jnlnn|~}R~~~~~]||m~rXmvLbz\]n~uVj}||~njm~~i~nvnynV\nvyv~]nZ\r~z}]qZvdzv^|Mn~~n^~\^~|lx|^\z^xv}rv]Y^~z}uzt~rn]y|v}bVyr^~o}vT~txyzl~}rvv~~~}|v^}~RNV|Z{ntj~tkL~z^|f~vvj^zynzf~Rxn~n~~^t~z|n|rV{m||Nvfhzjmkvl|{~~v|v~R~nurVb^^}}|}~nnjxf{\x~v|^\v~N~|t`[z~Mz~~mzF^~|m~~vn~m^~nZuzvt~zVv~zrtvnqv^r~}r~N~~v~~~}~kv~~~R^rsR~^nr}~|~~zv}z}nnXnv^~r~^{~voVr~nu}~{~u[}~rw~~~|~vv||~~\B^bR|Y|~^z~^[|}~vj~}~~~t~xvl|fv~m^vveSjvF~{~~fy}ynn~N^j|~}Wjz^n|~^zn|nVvytvTzvM^|n]bx|][~}j^]|m~rztz}~v|~^~^~t~Nhn~iV~~~Zz}z^z|~vun}^vl{~b~~yn^~vvjAr~~k~N^uz}zf~~z|nn\|~~m~|zn\i^jrsZnz~^zv}|l]}~~~nnw~tjz~|^||^Td^zjVzv}z~v^~~z}Q{~v~szvt^~|~~~~nbvu~n~|{m\~z^j}r~mWL^^etlPu^rv]TX~ru|]t~v}yNv~]VvN~~Zx~~v|f~}^jmnL^{v~}nn^~^v|~}~Lnn}}kv^p~n~~,False,0.011038065
~?@c~dv^u~^n}Yj]^~fXhsnjnnn^Lv~^{~|L}}zmr|~N~|~}m~vv|v~fr][}}J^nvK~Zln}u|^v|l~^^~M~|Z~nvy^~zpl}|Znzql|z^|zzzj~nv^vUj}j~VmnuT~~y^}z~~^~wU^z~}|s\|~||svN^Vfvypzv|n{e~zzzj^}jzU]|y~~~~gtzznWz^t}fl}~Yn~~i~|s^zvn~Vvy~^q^^|l\[zh}\R~^tZJ^}y^|u~~~l~~nnbvf~Z~|~~~lv|N~~Vuu~}v|n}unn}~~~z^dVVzRxV|v~Nj}~t|szz}zV{|~u~~~z~yv~N~~~u~z~|v|zLn|}hnV}w~n~jV]znzu^nn~l{Vv^{~qRvh}y^X{{vv}~^}k~~yn|rzz\x^tSr}nn~|~n^Hy~~\K~~~Jn~~v~[VvFnp^}z~~~~~~Tj~\~^z{~~z|cn^xz~V~~}p~mv~}vzd^vnnvmzj{~~~|m}z^}~~m^yxm~n^]t~~y~l|zvRzf~~~~~t\nz\zN~z]Zf@z~}}c~a~|}n~n[~~|Rv~m~|}Z|~^mv~nZn]{~|~tn|~n^OVmvn|um~|Uv^Nnz~^z^~~vv^[xn~r~}N~z~~^ovv~~^inq~bzl^|~Sn|j^}fx~~|^^\nnvvrXv|n}z~~}~n}z~~~\y~}~~~^\~uz|~~z~}~v~nn[N}~z~t}Vx||~j~}t^rz|xF|lrmZrn^~~m~y~y~~~~~z~et}~z~|]~um~|}[]}bVnZ~~^znM~x}x]|nmxj~~~~z^^Z^yzZz~^n}n^Kxprt~xm~N~}~^xNqR||y{}^^l|I|zj~~pvVqz~\~zZ|\]uNqvnnldmny~~V,False,0.0109288692
~?@cy~~]r`Ynnv|^~Vn~`}~Jv|~]~~|~f~n~~uNmy\~t~|Uuzv~vvV^nv^x~~zu{~znv~^z|~z~[NZxj}p\~[|~~^rrUut~~y|uve^~||}|zNktMvlYVy~wt]~vh^~z~Cz~v~XRzl~}Xzn{x~tj~RX~}~|s^~~{~n^V}nv^h^|\xzj|KN~ytt\^w~VzmZ|{|enj~~~|M\zn~~W~i\k}~RVr{~z~~nzNzE^VrM~|mv|{~}v~f|y}\|Ly~svtp^nNdtzN~}~z{^Z~}}~~}z}z{~~vT|~~V}}~~v~^?^v~jx~jx~||~~ujZ||z~f~~~~~~~~~~|~lz}vx~]v~t}~|^}}xn{zz}{~~V~b~vzv~J^t\f~|{RF{^vfpnV~v~||Zt\|yz~~~^}~mvkv~jUyv}rvnd|^^Z~}V~v~n^~~~|z^~h{L~z|^~v^v}v~|lN}~f{sni~Izv|zjv|t~j^JJtnU^~hZuz|x\nvu}~{~|z[~~}~~xux~]i{^i^~g~~~ryrj~~~~zx~}^uzyv}^^MvenZ~Z~t}~~V~zvnz~s~fvlf~~^}}~~~~~~~x~n^Z~|zz~\rnv~it|kN~nv~ny||yJ}Z~{~kJv~fiwmi~nz}nz~}~e{v}vvN|~xNX~j~lkzZ~}lx~~fl}N}|z\~~nu}Lz^Zv|~^m~nL~rz{lw~y}\~}v~|}u~\{zYvYlv|^Vne~|~z]VTnu[~~mr~z~~njnY~~~~nvnn~l~zv~}f~cqFNzF]~^~v^~t~`~u{z~I~~}yl~~x^^zy~~^~~u{n{N~jzz{~~~vZz{|l~~zN|~~~Tv~vZ~veVbntjz~V~r|^^|^~zv~,False,0.0109241009
~?@cnn}|l~x~xhU}x~~n\^~v}|nl~vmu~~^Jwl~Nl^z}^~xn~~~^Zlz{zvz^zvTznl~}n}v~~^j|~~~zfSnru~vfv]^~~^k~z~^~mn|vJj|n}~~~Nj{vJnn}~Ns~}~}^lv~nln~Z^~m^j\|}^Y~l~Gn||yr}f~}n~z|v^~^mn~zXzn}j|\]}zvbj~~|z~vfl~J~~~^z~ty{u|v~n^~^~~nnTL~N~n|x~i}~}}znZt\u|~R^|fM}vyTpznnzrl|~~{m~}~um~~^xnV~zzYlwunl~\nv}|tn|l}Jz}~|~ztv~}F|nrnz{]~~|^~r~~hvz~v|~zv~|^~Z~v~nu~MvQz{~Z^~nnzz}~}nd~|FNVS{\n~~]~}~~~v~~~zwVF|~^jv^}zu|{uuzvVnnv|TtZ|rNJd}hvV|~~{~nZbzr^~Un~^f~^t^]~jn\n}~xwv}~~~vn~e]~}k~nx{v\z~f~~tJR~}i~}j~~~wV^lz}~mvunb~nz|vAxn^vzT~\~M\|vnzjz^v^|~v~^zz^n~n~~nfi^Rz~h\z~s}uv~~y|Vn}nzwz^zVVnN}\z}}r^~zv}~Nvvvjv^fftjjT^~]~u~~~{}~~rlu}unVvnfz^^nX{nx}yF}zei~n~|~v~}V~~N}|zYn{|}^~bjf~l\}^Zmnf~~vn~~{~J~z|oX|v|~}v~r~~~~n|H|nRl~vr~x}^~z}^|v||R}}h{v^^z^}bz\}]~|]v~ej~r~^^~{h~zvv~ketlzu}}}[zb^|nd~~]r~mhXb}|l~^vn^v~}v~uz~~~m|d~n~~n}]e}hf]M}~{~X{Ld~nv}s~~xn^\Zv^l|P|~zy,False,0.0110180378
~?@cv|f~^yxnzve~fmqnv}~en~|}dvkt~~zzfv~mu}J~}~pue^~~z|Nx|~|n~~nv~~~~~^NXFz\~~}|i~n^Qv}l~~Vz^}fTy^wz}zz~z|x|v^N{|r|~]~}]m~f^|}~f~~q^n~^xv}^nn~}nr^Vtzl~\^vW{{xZ\|\u|~~u^Y~|^J{^~fV~vvj|~W~~b\ptfUzj~|ERnv[~fk^~tj~~~~vfj~|j]]z~~^vNf~vY~~znvn^[v~|~Npnf~~lls}^je|z~~zyfjq^jt`~~|N~z}[~~mf\r\zlfu^vn~Z~FvffnnSNF]ujnvTN~yNZr]~~V|r~~~~~rhEvyT~~|ZsT~no~V{\|d}n|~w|bJjnn~^r{f~{t~V~~~}|~gvn}x~~vfz}ftVs\}jn|^|yR~~|}b~~\]~l}v|~~Yr[w~}nt|~~~~^}~Zl~v]~~]~v~~p}\vP~~~ut^~~\yq~Y}vb~tNnnnbn^n~]v|r^sZv~]~}^Vzbl~n}|^~]^]}~zV~vv}j~~~g~~~}n~~nzz}r~{r||n|vtvv~znNn}^k|l~||}]\\z}\zzn~~v~U|uvf}n~v^^~~~~}|z~unvv~f~||j]MN^z]En}||W|~^{Hrz\}]~X~^nt^lNx~{z~x}~~~g|U^~~~v~~f~V^~~^q~|~nt~v]~~dX~tn^~~}~~|u^~Fs}u|t}V~vn~n~}zvn~~zr}t|^y^~{~}p~~jc~{fmz^Q~t~\|z~erNNn~~z|zz|~{zVQ|}l~^^~}~{~l~|t~}~m~~z~lzvfFjv^~z}t}v]^|x^VN~|~~xnn]~F~~nl~zv~PV~~tf~v~~}~~~}{zp?v~fV~,False,0.0109140873
~?@cnkZmY^y~y~z~}Z^t~|~~vlv~n~|}~Q}}f~tu{~\trx^rg^yvq]mr^nm~~t~zvmn|v~nzf~~^|m^Hv]m|R~^tv~dNn~utnnYmm~f~ZRV^vv\env{~~n~n~\~M}t^|}~vx}}[}l}~\ydzM~vxp~Z\~^n}^M~u}D^~~|\~~d}mT~~Jt~|^~n^Vz~b|l^lev~vml~zN~^l}~~{n|~B^|j~~lvq~tv}fz~vxM|}}~~xNd^^wxun^~zn~S^v}~~~~~^vn~mv^Vrn~yiv~vHl|jDvi|z}B]~^~]~n~fE\|nj}~|}xn{|n\k~x}Nv~z}zjn|~|b~Vp~v~~v}~vN~nV~~^~yz~|\~~ennm^yv~|j|v~l~~nN~~|~~n}vk|uvyuQ~~}n||^f~un|^vj~~vt~}{x}n}p~rn|Vx|hzR~~~^vesS~~z\f|vLj~z|V~vvj~^~E~~~luK{qzJ~|NbyuN~fN}v~~]m]~v|mz~{{\~ym~]^~zM~^zzxN{~~kzzV{^g^n~^f|~nw^v~tynzf~~zM]}~|]nn~~v~wUxn^]~|z|vf~~Rn}^zz~^yl}~l}~~n~ju~Q~Z|}[z~z~y|zx~z~m~~N}~iJ~H|NVv~z|N^zz~~zN~v~}^xZ|~ZTly~n|l^z~~~Y~vvU}^^znnX|}z~zznN~||wx^zkV~n^z~~v~~Xm~~~}n}z~z~jv}yz~^}jv^~Zzrq~Ze~~^n\}|~v\fnvvzkNMl~^|Z]y}}q~ive~~nzy}V^^^N]\|{l|~vZZy|~~~m^tn|V~v}^^~x{~~FzJ~~znnjmI~b^zn~M\}~^nv~}[~~riu]v~z|z~z^~^}X~,False,0.0109028816
~?@c~~vYYtn~~~Lz~z~e|~{~]Z~t~n~ts~\}~}~fvVtv~|w}jv]llz~~V~nvpx~zz^~]~|l~t\jI~tf~v~nnb~~t~n|~UN}n]r~~p~}vz]zn||}|\v}~nUx~\~^~^~k~~{~\|yv~rN|V|z]~{nlx~m^v~{~}fvn^v}J~nvVr~~c~t~rz}nz~x|yn~m~|~xn^|~nv~r~\yixql~~~z^~~v~n^lt^f|KZ~]~lznq~vD\nrr~Z~~n}rZLmY^nV}~Znvzr\yjZ]~y\nz~z~kkN[|Z}z|~m~{p|vU|vv~t~NrxZ^~|xv]~\}~F{x^~\|ln~zt}}d~hjRnM^\N~~Pzv~}~}i~jn^^}~z}^n}x~vr|]nx|Z]]~q\|{r{~g}n^}ltXm|~~~f~|~r}n~r~]~^K}}v|vgn~xT|~zzv~eq}~zz~^x~^n}^zuN^t~|Zv~F~~tyvN~n~~~~}~h|}~~}|Z~~~|^{y^}^M~zuya]n~|N{xuZz~|t~u|~~~^}nzknvf~~~^]`zmNnFz{~Rkf~^jv}p~~\~z~~~~v~v~\f^Mv}s~n}~|~}~v~n~z~v^~m|~t~VF~]~m~~~m|zy~\{xnlV~\z||m~^\v~vx~~n~n|iNz\K~dj|mm]~|T|~}~~~Tw]v}v~n~~xZ~p~j}j|}]~{~xn~yVnzn}y}[|\^~|zv~m^|r|vrz~z~mhV~~v|YrVxj}j~}^j}V}~~}y}|~nz~MUz~}\~`nnnHwHj|z}[~vljmj^xrtv~N\^V^|^~snnZ~J}\^l}~]blvp~^~z~{Vn|}zN~e}\t~~~~~^d^~n^j\Vnndz~zw}~ZRR~zx}l~jzv\v|,False,0.0109620094
~?@c|~x|~}~^e~u}t}U^nr~~~}~Yn~|]jl~v~~^~rl~|^zx}J~~~iF}^vXz^||r}Tj]U}m^VMUn~~nrSvmyvmzf^~Nz{z}vn^s|~~v]^~~tpnnsN~zr~vt^}nZf~~~fN^^V|en~vF]j~~nz^z^]|p~~~|~x\v]zn}xm|~~xv~~ZR}jz~]n|njnzqjZz~t||mz~~n~^l{}~|y}nmm~x~~Zzj^bV{Zv|xLu}|vT^~{|rnmtN|y|V^fnFT^m~v~~~~J~~~]^u~q]Uvlyz^^nn}Enzv~Z~~nvvzun~~~|v|n}~s\v}vzL|vzxP~unz~ryF|v~~~|n~zvv|~~}n}n||jzz\zjnVvvx~[z\xyVfnU~~omf~i~~\~vvtn~iv~z~^|}|l}[j~\r~~z~t~xZu~~n~{zzznt|~J}~}\~{k^zuzq}n\~^vS~\f|n^~^zR~}~~}zn~^^^}Vn|~^sV||nz~z^~d~f~~~~~~n^n^}n~nftn~n~hvvUj}n}nnZV~jF^vV}u{znx~^{vz~yzl~|l^xevv]VlI~~~}~rx^~v~~L~^~~zu]]znvL~}vz}|~jz~Vj\n~Rn~~f|u|u~v~m]vn^hv}J~rn~T~]en~~^]r|~~~qu~z~^~~}hRzvz]^~f||z\~~~~~|H}Z~Lb^k~z~ujmZusvv}}}~^vV~~~]kxR{~eK}V~v|l~~\l~n~VVvzv^|i{~qvN|z~~|z\vy~}v~v~]Zj\|}k]~]^~tunRMN\~~~u~nZ^rzxN}un~rr}~r^~j~~\vLv|fF^y^vx~|~Z|F~~Zgy]~|m~em^vw~~nfvv|eSv~~x~b|^~y~dt}Nj~S~^,False,0.010931015
~?@c|\~^|v~~~~~nkv]~Yz~x~~}Q~~~r~~zbT}FK~bSU~z~}k^^Z^|~nx~zvvt}n}~^vvnuvYz~^z~^qS^i~~|\YLzr~~jv~l~j}jvY{~xZ~~f}hr~f}~nw~~zvrn|vt~^}u|Zfv~^]^z~y~v]~llzv^nx{~t\^~}^M{e}~^]v|}lM~^|\~z~\~}^^Vl||~Ufgzz|~u|v^f~}z|tTyrv^}z^yv~fj}|^v~~zTj^^drj^m^ielt[RN}J~~~V~L~nz^pf~T~{mr~Tz~n||}J}zq~f~~nn\uxnKfn||ve{t~vb|ygi]|^en}~~\{^fm|zu~p~~u~x~mz]f^|f~~n^}fU~~~}TynjV^t^\~v~t~y~^}~|nzu~r~j~{~f|mz~zzz~v~lG~ZNV~n~}F~nry}v~zj}b^~~ez~}|zhx~Nv~^~x~z|r~Vz^Nn}}ZVXll~Nv}}vZz}r^~u^x^z~^vz~}uzvz~|r}~tnq~mf}nsvfr^Xlz~~i^N~mv~uzk}nvz~u}lr~V^}{}~uf}|u{~nF~~n|}}^^`nyz]|dzN[~nz~~~j~}~t~~~~z}v~|Fyvm^n~vZ~z||^}zvzR~~z~~^~~~~kv~~zLzjV}~|zfvuznBrnvv}v}Yz}z\nS}nx~~mfz~|fz|ntnt}}m}~|~R^}z~f^n]}|^iy^^^~nv^n}mzWjt~^^}ztuz~|^V~~~i~^~~xj~jN~~~x~||x}~}v~nyxlvUrz~xur||B~^~e~N^fu~~v^v`njyZ|~^pz|~R|e~v~Vv|}n]znn~{~inx~knv~uF~zy~~VeN]n~~n|sv{~z}v~~~^zv^vZ|fy~z}~~^~c~,False,0.0121469498
~?@cnjm~vru}~^|}nn^{w~}^z^~n||vv}iF~^js^r}nuv~~l|v~~N|zJnv}zp~|^um~Im\~]{~~}^j~zn~~pT{~~|mvz~v|}~nVn~~^EbN~~~|lJj{r]~|zB^y~x^m||}^n~vv~n|tZl~}vn}w~}~^u^m~M^~nv^kz^|zrf^j~|N\n}^xt}]^V|~me|~}nrmv~~y~]}}t|~~|~vzk~vt~^N~~}~|fty~~~z^v]|z}~xyV^^}}r^rz~z~^^zT~|nv~}|ty|]~~~n|||vnvn~R~YNv~f^~}gzJz~wf\|N\vlVqtvfm~^n^~z~|~~Z|yN}}nn~`jxv{}~t}~u^|uvbj^[~v^z^i~}}Xuxn}V~~Z~v^~~^~[b^n~z~[|~|}~n~~V~}}~z~|nJ~z^|zmq~~z]V}l~n~|vz~U|}zt^xYzLPnNz|Mse~|}~VU{~nz}~~fzz^Vyl|^xvtM~~y~z~|\~\nn]~n~~t~]nx{Z~~wlN}v~du^fpf}z[^z~u|~x|f~}}^jX}}JnnzYt~~~zn~f~L~z}|vMux{{~hv{n~]UU}}x]Z~{~zuzvn^|f~|~}vaz|~~h|n~{~|}zZyVdD}^n}v~q~~~vo~m~n|J}V}Nb]~]~v|y^xldzm~}^V||m}~|N}kn~x}I[zn}f^~~O^~~wvb~yun~Szzn^\v|]x~|Znt^t^|X~jr~~ynvzR~|~\j~~~]nxn~{]zJ~n|~\u~~m}\}zJ~~~mnY~zVEzmv~}~vz~xl|{]{vvuz}~m~~e~y~nn~|M^m^^lvVv}eMxz|]~y\n}dy}V~]nz~V~~yz^\~fz~~~~~~~Mu~Ry~~[n~x~v~x,False,0.0106348991
~?@czi~v~|~Jl{n|zn~ej~jm~}q{Vzz^~{T~~}rfyz|~zj~~^vx}e~~~~}|N~^~KwvZn}PzF~~~^n~Rj~}~rZz^~~zz{^n~Rz|h_~v~nxvd|v_|l~t~~ynv~~~tvp|^Vjy~|z^zlt~~~~~~~^iE~~~Eny~{}L~}Zm@^s~^||^nuf~v}~~]vn^~rftZVY}~{~Z}Znt{p~[}~Yd||V|~m|^zv^d~~rnvbvlnf~~^z|}|r|^JyB~YNTn~^~Zyjzx^j|q}n~~~t~Vu~fnB^~~~z~~vy~~~Z}n~z^h~YZzv~~Klnn~}~v^~b^|q}]~v~n~y~fnz^|^n~v~~|^~]zv~z~Vh~v~~nz~z~lwL|l}~~]|\vv~}m|~f~rl||n`~~wn~w|~|v~Zz|vUlz~s~[^v~x~n}~nv|rr~^}^l~U[J}~}z^~~}X^}v\m~t{vnV~~^`v~^~^jd|nnh]~Z|~tn^zn^|ZvN}Y}qzt^~V~~}~vvl~{fh^}v~~]}n~~n|~~~^~fnZ^~v}lz~~vpbm~~z~~~Zn~|~^}v~~lVn}|yz~mN~Nvz}zz~u~Sp|}\Qjnvf~]~^~zvvp~nNZ~~~vnnVR`~vt}l|y~R|~f~z]}}ffzwvx^sy}Om~z~|~nt|~nz^~tu}~}~uMvd}[}ZL~kTj~z|f^}\y^z~~FZvy~Vcz~}~~d~xqVvvz~vL~nlv|{rnm}lNevnvy|O]~~z}Up~]nv~fp^^|~~v\zuf{|v~~~zyVn}r{jVjjvw|{Jrvnvjvn~~|fjRz~^~N{jrv~~\~~n}fNws~^zXZ|~ltp|}Nl~v{rV~~~}~t~~zfv~Nn]n~Vw}}f~^n},False,0.0102460384
~?@c}knMb}~JMndz`v{Z^^~n|Z~n}|zN|~|~~~~zn`z~nT~~nizv~^Nzv|\~n~^y~vlt}|v^t~~~Zz~n|dx{u~~_~xZn^^|xm{zF|~~f~b^v~}dnvFZk~lwz~}}Rnp~^z|un~|u\{N|}nN~~~~}nsz~n|n~znnK}fb~~x~r^}{|~v~~by~Z~x\ruVun}vx|jrFnX^vnur~k~emmL`v~f~~}^vz|}~`JNyK^l}~~n{v~tzn|t|~n|l}f||U~nns~vx~v|~|~~^||nxVz~~~~~U~^yz~|~vts]~~n^Hljf^~^xa|mVn}cpvz~cm^bnj|xxzn^znixo]}jvz\~nn{|znz~nl|~^~zd~~}k~l~^~zz~n~^|uyby\vlZvnnZzrzr^~m~z}}~i~VZ~vV}^~|j~~~^~~zr~jfn||^z~ffnv}|f~|nn~zj~}y~~]|V^Y~`vRzX}~~]~^^~~~zTn~^Z^}^|^}~~~~~~~}{~nzvnnX}~Nz}nzTP||dfzzn}~N~`v~~\v~~U}Y}~~~hv~~}\n}~vkfvN|~N~]q^tv^v}~r~nZ|zXnz~}~}]vl^y~~~^]^|lU|||mj^r}nh^\|u~}zz~{Vxt|v~j}zx}}z~xv|xzK~z~~]d~r~Z^~|~\zzldn~`~~z^N~|~qvvvvt~lLfM~z~ffnxnV~z~~vz}zM^z~Nwvn~N]Nrxz^~zm}F~n{r]}k~~~|Zzv}q~tu~|}nz~v~~t~~J~FT~e|}}~zr]~\~~Nqv~~~NZ~^v~}}}~}~`r~lu^zn]YyNnJV~VfLtmr~u~~z|z}|~zvnJZq~~~tX||~^nnyBnF~~z|^zzx~lhjzz,False,0.0101599693
~?@c~m~^Vmjz~jj~\GZv~zx~vp~Vzzr~~}}~~}Y{~j}lvxz|^~r~~~Zr~nVZ~v~}N~N|t}^Pt~^Hv~~{o~z}}~|~u\bl~\n~wn|gl{kvt^~~~Nsj^f~~\zt{~~^~z|rzzj|t~Z|~R~~]vVD|x~f{^vz}n^v]tf~~YZyvn~zVynd~n^}vnz~~@v}]~~RnZ~d|^NK{nv]u~nzpvlmNFr~^~fnzj^|^|tXn}tt~vn~n~tFnv|~jZ||z~~~~Zn|U~~~n~mZn^Rh~zvTvi\~~}~X~}|j~_~{Fn~~|}~n^fuzj~i~|Z~fv}~~v~~vX}ZvvN~~N~n~^M}rmz{|~mN]v|xzVfrngVvLvj\|j|u~}otF^z~~N^b^~~~~|r|FuvL~j|}Nszn~l~~lN}fn~~{zw}h^v^r~~k^fn~~~~}^lnhes^}~~}}|mun~}vm~y~l~^z~T~V[z||{~|\|z~vv|fv^en~~~v~~}~~Xn^~xn}yzn|yev~n||z\{n~xv|vny}|z~~^~}~~zP}|e~~nnzVj~~o~z~frvx~~~~Xynu{~k{j}dS~~j~|njS}~|~}zF~zvvX~]|~Zzv^Fn{~~X~zR]vv^~tU[Rv|v~Xz~~L~~^zu}n~^]v~y~}ms}{\Vv|Vzb~~~^st~\n]OTtUe~z~~v~t~nnYv~^}^~zYV|~}\~zVn^nNvvur|vn~V~~f~z~~^zuv~^n~~~^~~u}nV{vu|~Fl~rrnz|J|~n~zFznrztmnf~^~~vznu^n|nny}Zz~qnv\t|{\z\\~rHkZN~nbnV}nz}~^y~~}jv}~Bz~~~yNy~||~~v~mz]~l~mx~v\nu\~~|Zd,False,0.0101938248
