g6,attribute,time,total - 0.65781
g6,isEdgeTransitive
~?@c??@???@@??G?????G???????????????B???????_???O?????????_?A???O????O????O????A????????s???????O???????O?@D????????????@??@?O??????@C??????G???????C@?C_??Wa?????c???AA?C?HG?OG??C?O??_????????E????????????_????G??G???G??????????????????O????_????@?@????@?@???O??????????O?P?A????????@?OG??????????P???@????G@?I?????????????_??G???A??@?B??G????@?C??O??A@??A???_?G???A?????WcoC?????A????????A@O?C?_?C?O??A??G????_??`????????????@????G??E??GO?_???_??@?OC???A@???????????O???O??????@AG??C?@??@??__A????????C??@D??@O???_??@?O??????????CA???_O?G?C??????OO??S??A??O??S???O???????@?????H?_?A@???A????A??????_??PC????????@??O??C??G??????G???@`O???o???_??G??I@?????????C?????????????????O????G?A???????@??C?O@AO??A?G??????????OC???O?G???AC?_?G?????@_??c@?C???????G@???_CAA?????@????G??O????????`???G?_???@??OAC??E????A?C?????O???G??_????@?,False,0.1798319817
~?@c??A_???????@_?@_?HG?_GGO?????G@G??A_???O???O???_??G??I?H?C?@_A??????G??_?@A??_???_??????????????aC?????????@@???????????_G????_?_???????A????A??????CGO?OO???_C?C??????@C??????C?????G?G????????O?@OO????????????K????????AOA??C????????C???W???_????O??A?AC???C???????C??G???G?_??_??O?A????_?@?cC?O?_C?OC???_?K???G????G?????????A?????I???C??_??@?????_?????A?_?????GO?????????@????@?A?c??G???G???_????A???????A??_????G?OAAC???????????????@G@??_?A?O?????????G???????@???G?A??A?A?????????G?@??????G???Co?G????_??_A???????@??@_?A?_??G?@GG_@???_?@???CGC?A@??????C???@??C??OO??C??E@?__???CO???????A???_????????????O?__????????AO@???@?_??A?G?C???????????????O@???????????AG????G??@?????????@??C??@?????????_?????????G???@????????AO???O??????g?C@??O??????@????C?Gg???????G?C?G???????????AO?_?B??H???I?A?I??O???????C?????O?@????A??????G???,False,0.0064320564
~?@cG??????????????CA???OA??Q??????_?@??????????????????C??@?????O??@??????????O????O??????????G??GA??????@?????@_?_???PA@C?O?C????G??O?@??O??A?_@???C???????COC?_??????AA???????_?_?O?@???????????????@?HG?????@@?`???????A????@???????i?OC????@????C?E?????C????@????AC?????_?????G????H_?G??_C?????????G?@??????O?????O?????_G????@????????????@?G????????????_?????A_A?????_A??A@?O?O????GK??????????@????_??_???E?????C?_?gC????@????OA???AO??A???????????????_?A???????????CO????C?A?O?g?A????_??O???CC?_S???@?????G?G?CO?Ao??_??O??w???C???GC?_???A?_??G??`???_????????A????????AAO??O????CI?@???????GC???OK?????????A???C???????@???A?OKO?@Q????????C`???????????@????C???_O???????????@???????_P???@?O@???_Cg??O????G????G??????@@????_????????@?o??????@????????C_???_?A_??@?O????AH??O?G??G@???C?@???b@?????C????????Gc??????E?_A?C???CO??????????,False,0.0048100948
~?@c?????????IA_O????????O???H???CC?QG?_@??CO????@?????@?????G?H?????????G??_?????????G??_?DG???G__AOA?????`???_?H??@??G?O???@G`A????????A_??OA??G@c?????B?I?AA??????AG??????G?G@O????g???@?????H??GO?????C????_@?O?J?????????C?C?C??????OO??OA?D???????C???@???????G@??A?_????A?????????A???@G??A?????G??@????G??G??@???O???AC??@???????????A???O??OO??????G@?A_C?@??????O??????C@O????????????@??@G??A??@?GC?_??GG??@????O@?G????????@?@_???E?????A??@G?A????????????C??G????@G@?AB??????????A???????AA??G?????O???O??@O??????C??O?????AA@???????????A????_?????G????KGG????A???????O?????????CO???GO?G??A?G?O?????????_A??????????????G?????????????E_??????????????O????????C????_???Xg?Q?????????????C???A????A??C?????G_???????_OG???A?G???????@??????????H?_?A???A??G???????????????????A??S@g??o??A????@??_???AO@O?????_???A??G???G??@???????????????,False,0.0047171116
~?@c?A??@???????C_????????????A?????@?@?G???????????????o??_?????@O???_?@????P?????G???G???_???????_?C??????????@???C??????G???O??C?G???????H_??O?CC?__@??O?_p??CC????C??G?O???????C???D??C??_?????G????G??????_@?@?O????A?????????@O??O??????O???????????????aA??C????A?A??????HO?@??_??G??_G??@???g?G_??_AA???????G????I??CO??@??????C??O??????SO?S?_?O???G??@?C?_??A_??????@?????OO?C?@??A???O_O???A????C??_EAO??_????GA?__????????C??@?@?_@?G????OA????????@???????????_??????????@??@??????G?????A??A??@????_??c??????????@???????A???????CC???G??A??@?_??H????Q???A??S?????G????Ca????CA?C????G???C?_??AG?C????_??A?C??????A?A?C???????????????_???O??G?@???@?@O?_??@???????C??G@??????AG?P??????????????O?C??G?A???????????????????????a????OC?@?O?????O??E?S????C??A????H?_????????_????OD????@GA???OC??O?A?C??P?_?G?K???_?????A??????????C???G_???G?,False,0.0047149658
~?@cGOC@?????@?_?@?AQ@??????O????O???_?C??A?@?C?_?A?G?CSG???A???A??G????C?A@???????G????@G??AG??O????????_???O???@??????AA???CG?O?_?O?C?????_?????GG??G?G_??d?AE????????AG??G??A??_??????@?D???GA??_?O?A????_???????G????@??@???@`??O???????CCG??????_??O??????????C??O??@???G?_G??CD?G??@a?@???????????@????O????????????????????????????@??A?T?@??????O???????@?CG?G???_?E???GH??AG????@??G???c@?AO??DA????CA??H???????A??G????????????????????_O?C????????g????????@?@??B@??oC?G??_??????a???????????O?G???@??S??_????@????G?PC@?????_???C???@???????G????C?????C???cWA?G???A??C???_???????GQ????G@????O?????C????O??????AG?????A?G??C????????O_?O??C????????B????????A????@????O?O?G?????????????O@????????A???@????????????????A???A????O????????CC?????O??????AGC????????????AG??????A???W?_??A?G??????G??PCA?AC???????????O????_??_g?????????????C?O??,False,0.0046648979
~?@c?A????@??A??G??d?????G????????C?GC???????????G@CA???C???????@????C???????????????????O??C?@??????I???????????????????_???A?_?_??G?C?????_A???????@_@?O??????C?_??@????E???A???C??_?@?????????_g?@???C?C????GA?????_????@??@OG?????OA?????A??????????A?A?A??o??????????C????????????C??G???????A??G?A??O?G??????????G_????????????????A?????????????OGA_???O???_O?AGC?R???@??????G???????c??????SC????@?O@??C???????_C??_?`C?A???????G???GG@?G?@AC__HO??o?_??_???????????CA?OAG???G???A????????????A?@O???AA?C?????C_??A???_??????_?O???@cG????????@C?P??O??CA?A?????O????????E?????????W?O????????????????_??O???CG?G??G???????@?o?A????????G?_?`?????CG???A?????Ag???C????D?ac?????C?????H?@AI?DA????@???????O??????O??????@G?????G??C?G@????c??O??W???????_?C???PGA???????????S?GO??????_A??????G?_??@???????G?O??CA?S??G??????_?????????@G??O?_?????C?,False,0.0047721863
~?@c????????C???????G???????A_?????_???CdG????????????????PC????Og?A??O_??A?GGGO_????Ia???????????????????G???GW?????O?????A?g????@A????@@???A?O?????OG?OG??_???@??????_??A?????????????GA__???????_??@GA_????????O?????????o?@_?????A??O????B@O???????_??_??????C??C????O???_??_BG?G?_?C??KH??C?????????????????OG???o?C???????G????G??C?g???@@@??G??????????GA?G@?A???????CC??C????G????C??AAO???C??H?G????????????????????C????_?G_????G???I????@????????P?@???CC??G??O_??C????O??_?????????????C??_????O????????????_???A????G??????@????????_????G?C???O@?????OG?C?????A??CGG?C??G????CO?????@CC????????????A@????_?????????C????OA???O??@_?OO@?A?o?O`???????CA??G???????????_@C??????????@X???A?_O??BO??O?Cg?_????@?AC???@????C???C?????I????A??C??????C??????C??A??Oo????????AC_@@????O????CO??????????????G?????@AU???@????A?????S?????C???????????A?,False,0.0047199726
~?@c??A??????C?_??????????O?B?CG???G???G???O????@??C?C?????????????A???_AO???G??????g???A???GGG????????@G????B?@??_??C?@_@?G????_????????OG??C?C????????O?G????O??@??G??G???A??@??????????????A??G??O?gO??AOCG??????_????????_AGC???????O??a?????@????A????_A?O??????????c???????A??@??A????A?C??????G?????D????@??????_G@??_?????????@C???A???@??CA?Q??@??G???O??????A??????@?????K??o??G?_???D??@?@?CCA???G????O??????????????A??AC?S???G???_?AG??????C??C????GHA??????O???????O????????_?P??C?G?????@A??c?G??????????????AA_??_?K?@?????@_????@C??G?W?@C??a?????O????????????A???_?@??G???????_??GA??????O?????O?c??_?????@?@???????AH??????__?G???@?????????G??????????OK?P???C??_????WD?_?????G???????????C????@A??O?G?CI@???????@?@?????????????CA?@?G???????A?????????????????G??CO?G_?C@??_???@?????????O???SCl???_??G??GE?????O?_?????A@?O????????@?,False,0.0047280788
~?@c?G?C?Wo???????????O??@???????O?@C??@_???G@?G?????????????@@????@@????_G??_?G????E???G?????O???@??ACA?_??????G?????OC??@C????_??_????????????????c`C???????OA?O?C?C?C????????GA???????G????O_???@????????A?C?????D?A?????G??????????????C?o?????????????????B??C_????_?????????????C??????G?A???????A???`???@???C??????????@??A?????H??I?C???O?????`o????????@GC???Go????@?CG????????E??_?@?_CA??????C???_OA???Q?????????O?@???_A????_??A?AG???A?G???E@?_?_??C@??GA?IO??_?O??????_?A_?????O@?HAOA??G???G???G_DO`??????G??C??????G_??????G??AOG??????O??g@S???S?????@??????????????????O?CO??`??O?A?@???????@?AO??OO_?????a???G_?@???????A???????????????????????C@G?A?@?@??A???????????I???A????A??I??G???????O???????????_?@_????????????G?????_?????O???????????Gc???????????O?CC?C?????@????????`?????????O@_?@??????A???C?CO?CA?A??????d??@?????????G?,False,0.004680872
~?@cC??K_?A??@?a??_?A?@????????????????????????O??????_????@??????@???G?G???CO??A?_???O????_???G?????????????????O???????_????????C??@C???C?C??_G????????????O???????_????????G??????A?????A????C??S@?C_??????@?????I?G?????C?A@OG??C?????__???O_????C@??O????_????????G???????A@AS??@?@???E??????@O????O??I?GO????????A?G???????C???A?_COO????O?_????A?????G??O?@????A???CS??O??@??G?C?C??Q?G?????@???@GO????@?c?????G?G??????A?__???A???@??@????????????????W?G@????????_????A__O_@CA_???????O?C??@??@?A?????a_??AO?????O????AC?A_@????GG???O?????O??G??O??A?G???_?????C???_?@?C?????????A????@@?O?@??????C??G?O_A??_?????c?????????AA??_??GC?@?CO@?????????O??????????A??C?G?????????OO??????@?C?O?G???????????????[?@??A?????A@@??@?G?_A???????A??_????G???_??A???@CAC?G@???CG??G_A???S?_?G????????????C?G???C?_?_?@C?@?????C????G??????@????_???????A???,False,0.0073029995
~?@cO?OO?C??G@??A????@??O?????????G??????@????????@?O??A???????????_??C?_??@h???????_??P?????_?O@????O????I?O?_@???A?C????????GG????????????O??C??G@???@????@@???A@??O??????????C????????G?C????????@???????C@???????I?G????@?P?_??G?AG???h??????C?A???D??C??A?????????C?O???C?AC??_G?????????O?????O@???G???_?A??_?O??GG????????_C???????????_??????????G_????_C???AG??OAO??A????O??_??????????C??O??????????A??O????@ACOO_?_GO???????OCA?_a?????C?????????CCG??????????????_?A???O?GC??@????O??????g?@????C?_C?O??????????????????O?_?C?@G??????A????G__@G?A??o??_???_@????????_C?Q??????@??G????CH?AC???C???O????????????_??O@?@???A??A???????@???????@??A???????A????C???????_?Go???G_??????C?O??????????O??G????OG??K_G???O?C??G@??????????C?G????G???_C???A???????????O_?_????AD`??G?????A?G_??AC???????_?_O???A???????@?A?O??O?CA??CG?C???A???@_?_??C?,False,0.0056071281
~?@cO@AY@??@????C????@?B?_???o??O???????????????O??@???_??AA??????C????????C???G?O@?????_????O?c__??????????????_?????????????GGA??GG????????????????????D???????Q???O?G??C??C?????_?@?????C??G???@O??A????????@??@???Q??S?@?????G???@?@G??A?_???????DG?C??C?????G?O???@????GD?O?CG????????O?A?A?O??@???G???@????A?_G???@O????????_??B??A?@?_????G??????????O??????G??_?G??_@?A??G?????A???????C?G?A?C???A?O@_??????????_????????????O????G?G??aO???A??????_o?I???????AWC??_?@?_?????@?????????A@?C??A???A???_??GG?@?G?G???????G??????????????????CO?OC?????????A?O??C?G?_?????G??@????????A????????_??C????CC????_???O??_??????c??_??O???_???O_o?????????_????A?OO_??C?O???A??_?@?O??@?????@????OG????@?A?@@??????????????O?G?G_O??G???cG??????I??OA@@????_?G?O?????GAoG?G?@?G?????D??GAG???_A??G??????@??CA???A????@??@??????????@???????????_????????_??O?,False,0.0046539307
~?@c????O?G????g??_?????????????A???G@??????O?C??????@???KO?A?_??????????C??_?W?????G@_??????????@???????????_????????@??????????????A????P?????`???G?@??I???a??????_?????GO??OOGC?A?G????OO@G???G?A??G?GC?C??A?A?`???D?????????_???@CC?G??A?_?C?@@???A??C@?????@??@GA???C??????????C_?O??_o??@H?A????OO??_??????????G???G?????????_???C?A?_??A`????O??O?A?AC?C?_G????@?@_H???????_O??g?C??????????_??CB?A??A?C_??????AA??AC?A??@???@??????????@??????G?AO????????????O?????????A?????????`?EQ???C????????G???A?_?_???H?????GAAO?C????@?????O?A???????_A????C_??????????????????????C_CG?@?????_???????????O??C???????????_??C?_?GG_??????????????A?????O?C?O??C??O???????????O??O??OaA?????????S??A????O???????G????C?_A`?????G@?@G????G?A??????????@?C?@?_???????O???H???OO?O??????@????OOEA??G??????@????@???_??????CCO????_??_???C??C?C???_?????@???_C???,False,0.0047068596
~?@c_AG?????A?@?O?C????_?C???????C??@?GG?_???????????G??_E??@?????????O??A????O???H???aG??E??`????A???@???A????????A???_??G?_??P?A?o?@C???????@A??GK????O????????????GA???@?@???????O??@K??O????????O?GA?????G??_???????????O_???C???_O??????@???@?????A_???OG?BA?A??????????OG????G??_??C???????????????????G????@C???O????C??G????????????B??????????O?DC??G?????_??@????H?_G??GG??????_??`???CB???????GO????@?????C???@?????@????C@?S???GG???@O????a???????????????????o??_??A????_????C?????@?O????????????A???E???????_?????????OA???Go??@????C??G??PG?_????A??A?c????_????????_@@_??A???????@A???@??????G????????????G???_??????????_@??????AO??c??GQ????OGO???O_OAA?G??????????????A???G??GC_O@G??_???A????E???@???????CC??@??@P????????G??????????????@??G?@D???????G???????Cc?C?_A?????AC???AAPAC???_@????_?????????A?????C?O?G?C?Q?O?A?@???????A???,False,0.0051908493
~?@c????????????????????????@??A?O?G?D__???AA?G???G???A???????????@C???????_????A????G????????A????@A_??FOC??????_??A????_????_??????????_??gGA?G?????????@????????G?????AG???_G??@?????_?G???@?CU?@??????GAC????@?O???@O?A?`??@????G?G??_???C?????A???O?O??A???_C?O?????????O?G????????CO???????A?A?????G?O??@?_??@???????C_?????????O??????_??C@??????O?IC_OG??O???????_O_?O_AG@????A???G??c?????????Og????AG???@????A??G`??@_???????C????ED?????A??????@?G@?@??AC?_???O??C?G@???AA???G?_???aC???G????????????????W??G???_??O??GO???@__??????A???G_a?C??_??@_???A????G??__??G???????O?GO?AD??????????????AA??G???A?CC??????_?O?@???O????G???O????GGAG?????????G??OG@??????????_????G??A??????????@?????????C??_???C?O???K??????????_??I???????????A@???????????????Q??C_???????????C?????????AGA?G????_???P????@?GAG?G????A????G???@?CG?O???_A??@????????@?,False,0.0046429634
~?@cG?_???????????????AI?@?O?????_??@????@_G??_?_@?G??@??C??A??C?O??C@O????C???????????A???????C????O_??_??H?C????????????@_?????A??G?????????_?????K???IG???O??G??O??A?O????O?????????O????????????@_???????A?????G@A@??C???????C??A???????@?@?????????????O??O?A????A??O????AA?_???@??????A???_?G?SI??????@????@?@??G??O?????_???C???G?G??C??????????@@`?O@?????????????_??????D??A????????O??AG???????????????@??A?????@???????O@A?AGA?????O?????__`?C????????AA????C???OG?@?????_??W???_GA??@@???@??A?G??????C??C@????????aG????O?G@???????AA????????G?G???@?O??A?????@?_O??O?_??_?????O??O??CG????_??????????????G????C?O???_?_???_@_?????A??_?s??G????IA?????C???@?????GC??O??????O?AG?????I???????O?C??_??G@??_?AA?O????@???????C??@@G????O??????C??G?_?????@A???O??????@?_???a?CB?????K???O????_@???A???????????C????G??CA?A?P??A?@C?_????_??O?GATA??,False,0.0046360493
~?@c?O???????????_?_?????????????@?????O??O?O?A?????F?????G???G?_??G??I?C???????GC???????C????@????G??o?@??????C?O???G?A??????????O??????????A???c?a????_@?G???A?????T???_AI???A??G???????QA?????O_?@O?A???C??_?????????KA@C??S?C?C?C???G???C????G???@??O?AO?G?????C?B?c?A??C?????A??_?C????????GO???A_???C?G_C??_?O????@??A???@?_????G?AOA???O_??C???_???@?K?a??O???????????A??????@_?????_C????O??????@?@?????????GCX????P??????C???GGo??A??????G??GA?A?A?H?????A?A??????????G?????????O??A????AK?O????A??????????@C??????????_??M?????????????_?????A???_M????????GO?G_@??W???????G???C??????G????????????_?????????????A??????@?????O?Q??????????@??????O@___?????????????@??????????W??_?C??_?O??O??G??O?OA??_???G??G?????a?_@_?G?G???????@@??@??wA??@?????A??O?O??a????O???@???????_???G???CG???`?????@G??A????C????C????????????????_@??????@@??O?????,False,0.0046770573
~?@cW?G??_???????????G???????O????A?C???????O?_???G@?????_????A@???????Q?G??@?A??????G???@??????O??AO?@?@?H????_????C?_???@??@???O?c?GGO????????N?O??A??g???G????????@??????????@????????C?????????????_?O??@???k?G????O??A??@???OC??G?QCa?@????G?????????CO?_??C?????_?C??????_??O???O??G??O?aCC?A@?O???C???????C????@??P??O????????@????C??????O????_A???A?????????????_???????@C?A@?G???GCGD????_?????G???K?A?????A_?CG??C@?????C?@?????????????O?????A@@??O??@??D?@?C???AO?????G?A??A?A???A??????C???_?C???@?????k????_?G???????GA??????????@OA?@???G????C??O?g????????G???A??C??????__???A?A??A?O?O??????P?????CC?A?@??????O?G????_?B???????C?????O?????A???@__?C??C??k??????W???C???OH?B?????????O?????_?G????????????P?G???????C@???O??_?O??@???????A??????OX????????A?C?C?G?????????????O??B?_???????O??A_???????_??O??C??G?O????@???A??????????O??_?,False,0.0046579838
~?@c?GA???O??O??????@??_???@?@???????A?O?????O???O???@??A??????C_?_????G??????C??`??G??????cG???AP?GO?C???@???I?????@??@??GE????G?????_?A??????A???O?????C??I???g???????C???G???G??O?????????G????A?A@????_??GOAC???????O?????C??CCA?????????????GG?@?????_???_??????C????G??????C?G????_??O????G??@AOW?????????G?_?_?@?????????_?????A?Q?????_????????O??_???_?????????O?G?CG??G??????_?C???@????O???O?G??G??O_D??????C?@?@OGO????@?????????A????C????@?????G???OG??H??C????A?_??O@_???C_?GO?G????????O????????????A??_???????????C?G??G??@????O???A@A??????G?????????????_A????@?A????`???????????_?Q?A??CA??g????_Oo???A?????W??O??O??O???????O?_V????????????O??@????___???A?A????@??G?AKCG??????????O??_?AC?A?O??????@CA?????CC??????????G???O?????A?YiG???????Q?C??OC???????O???HA?????????O???@G??A?A???????DO???????????_O????????Aa?????C_??????C???,False,0.0046789646
~?@c??A??????????????????G?????????A???@@?H?_C??C??CA???????O??A??????A?O???????A?????OC??A??????C??c???I????@??_???A???????????GO?H?C??@?C?????OGG??????I?????A?????_@@O??????????@?????O??A??a???@_?A??W??????C_????????@_???????????O?????G?????C?_???_@????_??_???????????_??@??????????_@?_?@?????????OG???G?G??AC???????gC??????`?C?????A_????B?B???s??????????????A?O?G???????G????????@??_???G_???????A??_?A?????aG??@???????A?????????A??P?????????_??A_G?G????@_?C?_??AK????PO?O???C_??????AaG?O????_O??CC???C???G?@C?O@A??G??_??A???@A??C???O?????A?????_?????C????????A???????????B??????OGO?_???G?????D??C?Q?????G?????O?C@A??????C?A???????G?H???G??????????@???@??????B????A??C??O???@??C_???_???_??OA??I???G??CAA?C?????O????C?????O??A?gg???????G???h??C?@????O??G???CAC??C??????A??????BG_??C?????O???????H?G_?????o???????@OC?O???????G???,False,0.0047249794
~?@cG??C????????A????????_????????@?@?????G?O?AA?_??_CA???W????O???????????G????CG?????G?@??CC??A?????G?HCI??GGG?????????A???`???D????T??G?????O_????????G?@??C???????_??_@??GO_@????G??@ACAA?C??A??????_??AAP?????AC???????GG@A??_G????C???CO??A?????O@??O????o?AO?G?????S??????G??_?E???SGG??GG????A??????????G???O?CA???@???????D???????@???@O?????@???????????????????IC?G????????_????@??__??[??QG?_G?????A???@?_??O?GGC?c??G????O?O??????CO???????A?A???_?_A??????G???C??`??????A??A?C?__???S?????G??????O??Aa??A?????????E?C_A????@?????O??O????Q??__??????????????ECG??????????D?@???@????B???@??????@?A@???@???@????????@??G??O?????OE???????@??@?G???G???@A?G??????????c?A??C??????GC?????????O????C????@O??A??A?????????????GG@?????????????????A??C??????GO???????????????@????????A???OC????G??A???A???O??A?_?@???KG???????????O????O???????????,False,0.004652977
~?@c?`_?OA???@P?@??_?G????A???????_??G?B@A????A?????O_?????A??????K??H???????O??OcO???????????A??_??????@??GO?????????C??_????C@??G?@@??????????????A_g???????C?????????????A??????A?O????GC??????????????_????A@??_?O??C??@??o????O????AA????C?C??????????AA????I?????@????o???@?????G???_O@?@???C????????G?A_CC_?O?W?????_?O?C????g??C?O??_??@A????@???`A?A???G??_??????@???W?A????@??CODGoGC?CA???C????????A?????C??????A???_????`?BC?G??????_g???A@g?O??????EG??_G??A?E???OgA??????AC???????@??O??CG@????_??????_????_?G??????G????__??????i???????????????_??O????W??_??CC?sG@???????A????G?O?c?A?????A??C???O????????A?????????o?????O?_?????????`@A??@?_?????????@????????????G???????OG?????????????????O?????????????@?A??D???O?????C?C?????_??GO?O????GO??_G????A??A?G???G????????@??P?????????????G?????C????G?C???????A?????@???A??????_O?C??????,False,0.0046639442
~?@c????O????G???????_???O?????A???????????A@G???????????A???????G?O????@G????G_C???OO@????O?_??O??????A?G???C????C??????????OG??GO?@???????????C?????I?????O?_?@??????AO???O???GA??O???@?COAO_???????G??D???????@????C?A@??@_???@C?@?A??Aa??C??_?????O???D??@??????Q??O??????GA??C???????_?????_?_?A?????_???????????_??_??A????????_??G??????@?CO?????????D????W?????@???C??@?????????????????O?@?OG?????DO?@?????_?O????F???????_G???C?COG?????G????????@GOAO?@?????O?O?O?O?S??????C???@???G????????C_???C?O??G????????@??A??G??@__@_GA???_W??G?A????@?A?????C?????????O??_???_O???_??@???????@????C?o????????C?????????????A??A??G?A?G???_???A????????_???D?C?????@?O???G???????O?G?GC???????????_?DC?G?A???W??@GJ??C?????????@G???????@C??_????C?_OO???_??WD??????@?A??O????@????WA??I@?@O?A??????????C????O??OG?_AA??O??G?O????????C???G????_??G?????G?,False,0.0046861172
~?@c??@??????????CO???PC?A@??????C@???????_??????_?????_?????OA????????@??A????C?????????PB?_???????????S?????O?????_???Q????C?_????Co???GA?C@?Q?@????????E?GG?O?????C_???????????G???????WG??C??A??G???A_A???o????A????O?????_?C???GA?????c?_???G????O????????????C??????G???????C???G???????a?????G?@A?????@?O?GOE????O???C???A_???????????C?G??U?@??????Q?????_?_??A???KGG`???_????O??A????@G?AC????????????_????????A???A?????@???????_??????G?@????????@?C??_?????S?_?G??g??@???????????h?_??????A??C??_?C??O?A???????_G????????????O????????????????@????_?_AE??CD?D_??I???????o?OH@????_?_??O?????O???C??O??C??G???@AO????@?????GK_C????O?A??A????????A???CY???????O?O???G?????????C?_????C????@??@C????????????_??C_??????O??????O?A???O???????Oa?O??????@??Gc?????@?HA??C????A??O????@???@??O??_??@O?C??????C???_???????GO???_@?????G??C??AO?S?_????,False,0.0047559738
~?@c??C????_??a?G?G?_O???C???????????_@????????????G?@????????_S??????_D??_?O?????A????@???G?????????aO???S????G??????????????A???????@@????C???C??A???????????@??A??C_GGCA???A?????A???O???????????????@??__??????O??O???G????????C?@A?@????????????????@?@?????Q????O????_G@???@???_?AA?????OC??????G??@??CC?????@?????C????G?A??C???C?O???????@??G????a???????@??????__??@???O??????????@?C???_C????O?C???o?????????G??A?A???@?G_????_?_???CA????_??????@G????????O????G??????G?CB????A???????_??OA??`?????C??O??????_?????_?O??????CC??A??O??C???cO????h_????A??O?A???????O???GG??_?I?????O?C????????A???????_??????__?G????OOGOC?_??????_w????E?O?_?@?????_???_????_??_???_?????@C?G?A???O?HA???@_?_?A_?????????O????@?G?????@?A??@????C???_?Q?O???????_?C??J????_@?_??Ag??C?_?@????C???????cIB?G?OG????G??A??B??A????_???????O??????_????C??@?C?_??WG??,False,0.0046920776
~?@c?????G_?@????????????????????C??@C????A??__G?A?`???`@??s??_?C??K????C???A?????????A??A??????@??G?c???A??C????C??????C_???Cg?O??????@???@GG???????O_??_?_???B???????????_?????H???A???????A???@???????C??C????_?C??????@@?CG????gW????_?A?@?_?????O?????????A??c???_?C??B_?????_??@@???????CA??????A?????A?O??_?A??G?????????C???O??????????????????????@???@CA???G?C???????????????????????O?????C???????????@_A?@?O?C?A????????_??BA???AO?????????C?C?d?CG?????????????COOO?_C?G?CCC??O?@??????C??????????_@???@A??_?A?C?????????G???????????_?@??A?`?O????_???@???????????????C?AEAW?G???????OA??IGG??????GC?C_???????CC????C?@I???????G????@???????????????????A@???????????????AO@??@?GG???AO?O????????@c????_?????@???CG????C????a_???C??@????C????A??????O@????_?A??CGA@???G???K_?CD????????DG??????A@????A??Q@_@???G_?g?AE?????????O????O??@???G??,False,0.0050909519
~?@cC????????O?@CG?C????G?A_???@???_????@??O????A?C_???G??@?_??_G??A?????O@?????????O?AA??????????C???????????G?O??@?D@C???G????????A????AG?_A?G?DO????@?C??S??A?????C??@??A??????G??C???G???O??O??????_??C?_??????CC?C???_@AcS??????_??G???_@?C@?G????????CA??O??CPO???????@?????PCO@???????????????????C?CGA????????C?C???????@@????????????A?@?_??????C?????????@?????@???????C??_?????C???????A?G??C???_@??G?????O?H????C??????C????_??A????????????????????AGC?A???AB?@A?????????????????_?C@A??G_?E????@?G???_???_ac?@??_?_????A?????@??A???G??????OGP???????_????I????Ca??????A?C_?????????C????C?_??O????A?????@??CC@?C_?G???@????OA???????????K????O?A??OC????????@???_C??O???I??@??c?????D?????OO????????????A???C???????A??Q?@???????CC?????G?A????A??C?_??O?P????G?????A????A??????????A?_W??GOA???CA???????????@CC??????G?_C??@????C???CG??G??O?,False,0.0047490597
~?@c????????O?O??C??O???????????????G?A??????G?A??_?_?@???@?OG?O?????_?????????_??????E?C?C??CG??????????_??A???????G@??C??????G??????????G_?G?????O?O?__GP????????G??????A?U_???????A?G????@_??G_A?AA??P??A?D??@????????IAA??O_??@??o???????M??????U??K???_A????????????AGO?AC?_????????????????G??@???AAO??????G??@AGC??G???????????????O???????????C???O_O?B????A??_?????O??GA???????O??????????A????O??????????????@????????_?K?C???O??OA?@??@???O?_????P?_?_?????????????O??????????O?C????`OH???????JCC??KG?@?G???I??_G_???`??_D?@???G???????????_???_????_GG???O?A??A@??_C????_C?_???????????????????@??C???G???????C?????C???????AAA????CG??C@?????@???G??C?_??????GC?????@????O???_???O????????A??A??G@??A?????????SOC??C??A@????C???OoQ???O?C??G???C?G????????G??????????????GCG??_????PA????????C?C????WG???????GW??@A???AAC??A?????O?????????G???,False,0.0054049492
~?@c_?@??????????C?????@?C?O???C?G@??OO??????@G?????O???G???C??G?G?_????O??G???C?????AA??_?????G???C???__O?O????A?G????G???????AC???OO??????????????????????????????@_?????A?????????_?A?_?G?????????A???_???????????GOa_?????_??C??G????_????G????G_?G?G???GGA?????????E_??G???@G??????????O?????C??@??_@???EO???`CA??????CAP?????A?OC?????A??????C???O??AA??G??_G_?O?D?OA??O?@?????CG??????????@?????G??@????C??A?@??????O??A?????CA?_CC????C???A?A???????GA?????????????O??C???_@??A???????_B@??@??_GCA???AC@A???????????C??G?????_???????OC?O??@?O`????O??????@IG???W????_?_?????????CO???????????C????`??@????????_???G??X????C?????????@?C?_?G?????A??c?????K?_?????????OOB??_??_?????_?G???????????????G????O?OC???`????_?C??_???????C???????_O??????C???A???S?_??@???GM????_?A???A??O?C??@?G????C?GCO?DA??????C??I?G??????????C??_O?C??_O???????G?O??,False,0.0043988228
~?@cC????CG??GO_???G?G?????A??_GG????@????_C?????c???????@??G?OA@????@??A?AC?????_cAOO????IC?@???G??????C_O???????A???W???C@???????C?AC???????A?????B??G???O??????g??G???O???????_@?C?G??AA??????????O_c??G???AGBGC????A????G?????@????@????????@?O???C??@???G?_????????o??O??????????A???G_???????????@?_????????C??A_??????C?????GG??????C???C??????????_?O??C?G??@?????A????????????????????????_A??A??G????????????@c???A????Sg????_@?C???????E??????@C???A??????G???????G?????????@W_G??@??`_?????????????aE?G?A?G??O?O??OOA??A?AC??C?????GO_?????????G?AA????G??????_A??G_????A@?A?c????AAG?P????AG????????@??G?????G??O?A?_???OCO_??@?_??G???@O????????A_???O??G?G?????_??????c?A????O?@?GG??C_??????O?????????????C??G_????????????@???????C???O?????????_?G??O????????@???????@?????????C?_??A????????_?_C??O??@?????A??_?????CAO_?O?C?G??@??????B?Q,False,0.0059931278
~?@c?_?@????_@a???I???????C?????G????????@O?A????_?_????C???I?????????????????O????gG???_???P????O????????_???????C?@???????GA???????????_?????@C??G??A???_?@????E_?_??A@???????@???A?????????@?????C@?????@?GA????C@?????????????I??E?????G??????_A????????_?O?C?O??????C????????c??a???????????C??O???G???A??????????C_@????P??????????????_?G???????????C???_?C@???@????_O?_???OG_??????@?AO??O@?@????????G_??O_@??G??_?????????C???_???_??C??Oo????????@?????G?HO?????????????A????O??G??????????@G@?????????`???????@C???O??????@?O????O_????OC??C???G@????_??????G_???P????@B?@?KQ????????????BA?G?OAA?@??OCA????K?????O????G?D???gG??O?????????A?G?g??A?C?g???CG??_G?Q????K??????A????@???O???OC?????????O??O??K?_C??@????C????????GC??_?O???S?_???????C???????C???c??G????O??AB??O???C?A????????C?AW?????????@C???C_?C???H???????O?AA?SC???AE???????_,False,0.005428791
~?@c????O?_????G?A?????A?????CCGO???_???_??????@????AG???G?A@????SG???A??@???A?G?G?????????????C?O??????C?O???_???O???G_?????????_?A????AG?@???P??????A??AO??G@??C????O??O?@C?????O????cC?A??@????Y??GA?@??????E????_???A?A??A?C?G???A???_?@???G??A??????????O???A?????????A??_??@??????????A?G?E?O?G?????C?G??A??O?_C???????????C?_???oO??_???GC??G?@??H??O?????????A??O??DGG????_??QC?????C????O???O??a????????O?D???A????_????C??C??????O?A???Q????B?C?????????GK????????????G???A??A????O??????O???OO?????G???@?G????A??C_g_??O??A??W???O????C?_????_????????C???O???@??O????C??S??????O??????G???????_??@?A?OO?????????????_????G?A??C?G?C??C?????@?????????????????O???@?_?C???_?G??????????A???O??????O??OA??O??????????A?????????Da?OG????Q?OCG?A????D????AE??C?O??O???GO?????O???@????C????@OH??????????D?????A?A??C??C?OPO?????????@?????A?O@???_??,False,0.0044779778
~?@c??????A?`??G???O??????_????O???????@A?@?????E??A??O???_??A?_??????o???G????A?@?P?????O???WC_?????_`_??O???KO???_???????????A??_??@?G?_@?W???GO?O?_?@?????????????????_??????QG???I????????AG???G?C????O??????????@O?P?????G_???????C?G???GO?@O?????G@?????????O??????G??C?O??G????A????????????C???G?@?????G?O?????@?A???????G??O???O???O?@?G?H?????c??@???????????A??G?????AC??????????O?O??????@??????G??????????@???Q?C???@????I??????A??C????_?_???A?????c?????G??G??????_?C????A????O??C?G?G??A?O?_??G?G???_?U@?????CC?_???G?O???????G??O????????????@G@H_@??G??_?W?C_?@???OC???G?O????????@?????@?A???A???O?????A@?GA@?????AG????????????WC????????O????C?G?AO?@????????G??B??????????A??D?Q??GA?O???W??????????@?_??G??A???@??C?A??????????????????_@_????????_?????A?_?__??C???I??@G?????????A_cO??????????A??@??????@AO?H??@?W@_??????@??GG?????,False,0.0044820309
~?@c??_???G?????A????@??Gg?@C???_?A??O???G????g??????GCP??G??????O?@????O_@?@???????GO?_A???_?_@????A?C@???GC?O????O???G??O??G??????????????????O?O???A???F?????Oc??????????G???????@???????@?W`?C`???????@??????????O?????G?BH?_O_??@?????????A?A???@???a?A???C?????G??Q??????????G?@O?????A_??A??????_?`?_J????A?????G??_????O_?A?G???G???`_??G???????_??C???G@??????????EO???A??????G?OD???_?G?????A?????O???????o??@?@???????AAA??A?C?DA??????A??O???????_??????????????o?G?I?????????_????O???C??@????????????O?GOO???O????????????C????C??????CC???????QS??????_?_?G??@????C?G??AG?EG?G?A?A??@?????A??????QC????????????_????????@???????G?O??CA?_?@A??@?@?G????@??G???C???@???C?????A????????????@?????W_O@????A??@C??????@_????G?C????????????C@C??C?O?_?@??__???????C????G????????@???????????G??A?O???GO???P?????@???????????C@?????B????????@??BOG,False,0.004472971
~?@c??????A??????????_O????@@o??A???????????@?????C????_?S?_?A?????????g?C?A???G?OS??CG@?????GGAG?????_??????????BC?@C??_???????G?@?@??OBE???GA???@_c??A?????????_?OC??@_G??P?O?A???A??????G@A??C?????A?????@?O????o@C??G????C???O????AG?C??G????G?@@???@O??????D?????a????GC???B?G????A?C?????Cb?????_?_??_??_?????C??OA?@??????_?A??????????????????@?W??O??O??G??K???O??????????O?_G???????????G?????c?????????W???AA?????A?????C??AA?C????A?????_??????OO??????A??????@????????_?@???@?????A???@???I??@??_?_?`???????????G???g???_?????G????OC?????????D_A__?c???C????A??????????A????????a?O???_????O???????????_???????@??O?K????_???????????@????????A?G????????G?????????_??????????G???????????@????@??o???G???A???A??C??????A???BC?C@?????C??????????C??????????C_S@?O?????O?O???aoA?????G???@??????C???????O???OCOA?????A?????_?Q?G?E??@A?CSB?A???,False,0.0045468807
~?@cA??AGG??CA????_???????H?O?????????????@C??????_@_???????H???????????????@?A?????C??_?@??????O?C?@??`?O?G?????_GG???????????B?????O??C??@???O????O?A@???G??????A?@?????????G?A?G?????O??A???_???????????@???@???????@?_@A??????D???G?@?OA??@r_?C?G?AC??@??????A??_????AAA?G??????S??@????@??????CO???GG????C?Z????_???G????????????C@?C?A?C????O??Oa?@O_???@???_??????G???????????????G??????????_??_???@?A??O????O?O???????AGC?????@__?O?????A????@C???????????G_???A??@???_????C?A?A???E?C???????K_??G???????C???C??A???SCO?????????C?o????????_????????A_???_?@?A????GGA?O?????O???C?EC??????A??@`@???????AAO??????????G?C_???????O@??????O?????GO?????O??????????????????@A??????_??????@A????O_AA?????S??C??A????A@O?@???O??????????A@??????_??@?AaC????A????????A@???O?????G??_A_A?G??_???????_???????_C??A?????CCC???GH???????CG_????___?_??????_@?,False,0.0044901371
~?@c???O???QOG_???G?G`????a?O?P????__?O??????????OC????_?????????G?_?????????@@???oG?G???????O_????C??`?????@O???????????G_????ID??A??C?_??AOG??O???G_?K?????A?????????O?G??C?a??????_?G??????????G?@???????C??????????@???@????A???@???C?????_?_?O??????????????????G?????????O?????AP???C?????GA????a_?CA????CG???B??????Q?O?????D??__@_?C??A?g?Q@??????????AA??C???C?O?@?????@O?A@?G???@K????????Q????????E???@?????????C??C_?????????@?O????????O???A?_?????????A?????AG?????G????OE???O?g??????_?A??G?????C??????C?OO??????@??????_???@G?@??????????@A???????@????@?@G???@G???_????`??@?????Q???????????A@O?O??C?A??????O?E???C?_???D???????????h?OOCA?A??O?G?O_????????????????????O?????????A???????B???G????d???????C???O_G??HC????????????C????C?O??_????????_?OBCG???A???????@O@?G?????G??????O???????C?@??C?????G???????CO???_E?_????c???O??A_????,False,0.0044789314
~?@c?OG?????O?O?_?@??????_??OQ?G??O????G??????G???@?F???G?????H???GO????G???O?C??I_?????????OG???_?A?_@?C????A??A???AA?????????????????????O??i???????A??OGO?????@????????_????C????_??_????????_????????G?_??????K??G??O??G?_?A???@?C??G?O???C??G?G?????C_O_????@?C????????????@G??????O?C????????S??_?p?C??@??????@?????@???????P????O@???GA?_G?G?O?G??GA??@????_???A@??O?A_?O???C????A??C???????A?@?_???????AC?????O??_?_OA???A??AC???O?G@??B?????_??@??O_A??????????_???P_?A??O?G???@OG????_????@??S?C??OC`??????@??????????CO?????@???@???A?????@@H??_@?_?C_O@?C??????????C?J???@??????A???K????????g????????C_?????????A??????????????O????_O????CC?A????C?A@?????G?G???????????GO???WAC???????????BAC@????????????@????????O????????C???????G??_????O?????PG?A????GA????C??C????C_???S??_A_??O??????G??????????O??O?_??????CO????????????_????GA??????,False,0.0044009686
~?@c?G???????C???????O_?A??_???AO?_?G???D?OP?@????C_C??_???C?????_??A??O?C?????@a?A?@??????_OA???C????????????O?@`???CG?D??@???G??G???_??_??A???G??@O????_????_??????C???????@??_?????????@?????????C@?A??O??G??G?????????????????_C???????C?A?GG?G??I?C??????AA?????oO?????G?????G???C??D?@???????????G???????O?_?G??G??_G?????????????????O?A???_?????O_??_?????G???????@???G???o?A???CGO?i?????_bOA??_@????B??A?C?????O?C??OC???????????????_?????A?G?????@?????O_??????C???_?????????C_@@?????A??_???????O?A??@????Q?_?C????@@?oS??@A?A??????Co?????G_??A?C???q???_????C??O???????????????????O??O???????????????_A???????@???O??G?@_AC`?O???A??@??@?????????????_??G?????????G??O?????C????_?_???OG???_C????G?@??AO?O??C?@?????????O_?C?GO????@??_?A???O??@g???_??@???C?@?@??@?__??O??A??A??_????A?@???G?_O?????O??????????G@@??????????C???C@????????O?,False,0.0044698715
~?@c?O??????????oQ??GGE???G_????G?H?????????????A??????????????G????O@?C??_?@?????????A????@????_?????????P?@_A??G??????CC??????_C?????????o?H????@???G?????????@?_??_???G????OG??????G???????O?CAA??????@????C?_????????????_???G?????@@_???????AOA???????@?_???????A???O????C_?_???B???H?C??@???C?_???????????G???G?O???@A?C???????@A?????OGO??@??????????????????A?A?O?C??C??O?@?G?C??????????KA@@?????@O??C??O??I????????????_?O?G?K????????G???????G?CH????K??O??_?????QC?G??C?G?????_????????_?BC????????C??O?????@?O??????????cC???????????????_??CSAa??G??????W?O??????@??????????@???G??C??A?????@R????C??_???O?C???D?????B??????A???O??A?AKC?????O??????I??@?@???G????????_?????????????KOO@?A?A@?????_??_?G????O???????__???C?_O????_??C@???@?_??o@??AO????G???C??O??O@??G??????C???_??g??O???@??G????K??Co????O?_?????W???AA?G??????A_????@A???G?,False,0.0046041012
~?@c??C??G???????????G@_?D??????A?O??????O??A@??C??????@?C?C????A?a???????????????C????I?BCA?_@O?_?????_??@???C_A?CD????OO_?C?????C?OC?????A????????A???@@???R???O@??@@???????g?C?????_G???AO????????AG????_???_??@?O???GI@?G????G?????_?????????@?????????_??_????_?????G????_@?????_??????O_??@?_??G?G?@CO??@O????A?_?????????????O??????????????????GcA_?G_????????_??O?????@????O???????Ca?_???O_??O?CCG???????@????A??o@_?AC??GO??C??@?????????_??C@???????CGA?E??????C????O?A???????E????O?O?@?????????G?????@??G??_???????????C?O????????@c?EA??????_??O??G@?????@??C??_??O????Dg??????O????C????GA???G??????O??????C?C?G????@?@O????G???Q?@??A?`?_?????????_@????_O???_??????????A?@??C?G????S??????????????Go?_?OA??`???????O?????????????O??A??????CC?_?CO???G@??G?????C????CA??AA??_???@?G???????????A??????_??A?????????@?D???????g????@???K?????,False,0.0044550896
~?@c?CG???G?GC???@_???O?A??GO????CO???????????C_???_?????_?????????A???g????A?A@???_??C???????B????@@A?????_?@??@@??C_???G??AAO?GC?OC@??????W?????O??O?_?????G??GO???A?????@???@C???O??????A???????G?????O?O`C?O???????_?????A?A???O??A???O??A??G?C?O??_????A??C??Q??_??G?A?@????I????????A????W????C?C??AO?????C?CO????????????????_C?A?O??????__?A@????G??AG?I??????_??Q????P???_????@????P??????A???_???????O??A????????O?A???Ga?_@?????????_???_????_????@??O?o???????????@????AO??@??AG????_?@?????H?OC?AOG?OOO???A?????????_????G??C???E???G_??????????_????_C????G?????@C??@???G??C?????_??????@??????????_?C?_???C??????g???@????????A?@???C_?????????@OC?????O???????????A??G???_???A??AA?_??S???C???_?@H?G???????@??G????G??G?????????G???C@C????CE?????????_??D_?`???___?????????????OA???C?G?????O??@????C??@????G?????G@??????O?????GC???B??????,False,0.0050358772
~?@c??????G??????O??_??C????O?_??G????G_?????????????W`@OS??O??????_???G??_?????????????@GW?@?@O????????_??C?????_A??????A_???A???????G??A??@?G??O??C??C??????G???_?@?????????????????@?C?@?O???oA?@?????A????Y??@G?E?@@?P?????????????G??G?G@A???????@?__A_?G?GA????_???@????????????GG_?????CC??GAC??G?????@??????K????`??G??@???????CC???????A?????G??CA?????????????g?a???A?A?????W?_?@???????C?@?C????????????W??SD???A????CO?O???????_???g_GC?????????g??_??BG?O???????___????OO??_@?????A??_?AA?????????C?GOA?e????G_A?A??@????_????@C???@????????@???O?????OQ??????????????????I?GEJ?_C??????O?_??????G?????????????A???C?????Ao??????????????oG?????_A@?????O??G?@?A?????????????O?C?@U?OCAO???????_?????_?O????GG????????O@?__???????GG????_@?@??@?????????A??CA????C??????G??????A????C??????????????????A?_??_?A??????????CA??G??????O?@??O??????,False,0.0053930283
~?@cC????C???o?@GH??_G????G?_???C??????@??????C?A????C_?A_????GC?????_GO??E?????????????C?A????????C????????????@??OG???_??_??CG??@???C???G??G?GC?_????????????@??O????@A?K????TC??_?G??O???G??????@G_??A???C?????_C_O?G????OG??C?????D???OC??@?O?G@?Q?G@?OO@??`??????????G?????????G??W?C???C?@@S??@??????G??AC??????G_@??????????OQ@????????????@_???GO???G?@?@?????C_????C??AA?O??????????C?G???A?CoA????????????????OQ?????GC??_???A_G?@??_?????G_?CW??????A???????????G???_??????A_???C???@??C?????????OA??O??OO??_G???C????A_?@@???G???????????????@G?GO????????G????A????C??????A??_??G??k??O@??_??O??????C?A????@?????@???O??G?????_?????????????c??????????????????????????@?@??C??????????????C?????????CG??C?G???CA??@??????AI???@???C??G??c???????????_????O?O?_?_?_???o?@?c???@???AA???@A?O??????????G?C??O_?B?????Oo??OO?????????????????@?????,False,0.0048332214
~?@c???__???G_???????_???S?_?????????A????@????????@???C????A?????_???_??_???????_??????C@???@C??????_?_??????CO@_??@??O?c?_?OC?@???@??_??_?_@?????O?A??HG??OG??????@?Q_?_?AB?AG???_?AC?????_?GG???O??C??????_???C?C_?C?@O???A_????o?A??c?@???C?@O_???A????O???????????O?G?C?CG_?_????AC???????C????????????a?????O??????O???A???ABC?@??@??OA?@A?C?????@??G???????????C????_G?????A????????O???C?__L??@GO??????_?????G????Q???????????????AO??????O??????????G?????CO???O??G?????gG????C??CO????G?????@???O????GA?c????????????Q????OO???????????AO???@???A?A?@?A?CO?O?@?AW???????????????G??a???????@??????O???CDC?AC???????C??G@?O?G???O??????GA?O???O??_?K???A?????@C?????A???????????????????????_A??_G?????????P_???O???A????????GGC???G???C??????GA_?D??O??C????@???@??ACG????@OQ??@?O????@????@??????C????G?????_??????????@??C??????O???????????????_,False,0.0053930283
~?@c_G@???????????C??????A??????@?????QA??????G?O????O??????S????????W?O?????O??@@G?O?A????O?_?????????C??_?@??G?O?G?WIG?????????O??????_O????WGA?????@?_???G??_????????F???S?GC?CC???A?O?????@I??@??@????????C_???C??????G?????A?_?????????????@?_???_g?O??G???O@??D????G??Wa???@?CO??_C????CAGo??@@?A???_??@A?????A???????@?C??`???????O?????@???C?????C???O??A??_AG@O?@???@?????????????D@?A????@????A????????????????????G???G??????K??CD?cA????_??C???G?OC?CO??????????G@??@????CCG?C????G??@???????G?AC?O?C??O?_?C?@???@?????_@?W???A?@????????OC??????????G?A??????????????H?C?????G?A_?C?????@?C??G????@?@??@???_A???????A???OG?K?C???G??????????A??_?O????G?Oo????????C???CGC??????????S??????_??A???C???????????@?AK?_????A??C???@??C?_??_???C?@?E????_????????????O??C??@??????A??_???O????DQ???????????????@??????O????????????????OC????O???????,False,0.0047171116
~?@c??@G?CCA?G?O?G@??Ab???_?Q@A`????A???????G?A??g?G???AC??H?_??O???A???G?OAO??CG@C?????????????OC?G????O__?@??A@?????????_?????G?_C@HOC???????O?????@??W??O?O?A??????????????G??C?????????AA?@A_??O??O???????????????????C@@???OA?C????????A??C_???_A???_????????????????_???G???_@@????__??_?????S?@??@AA??????O???@??G?@??????a?O??A????G??_?O??C????????C?????C@???_??????C?A@?_?????????O???C??????@???Q?????GA?O?_@?GC?A?@???????A??????????@O?C??_????E??GO?_????A?@?????O??A??????@?O?????????@?AO?_????????????_??????????O??_?@?GO??G???O_G???????C@?????`@???????????@???A??o???????@????C?A??_?CA?C?????G???O??@?OG_?????OG??G??QG???@?_????????A???????????O????????????A??????????G?????@@??C????????G????????????????C?????????????A???K????????G???G????G?C?G?C???A?????_??_A?@A???????_????A??AG?????AO?GG??_AA?O??????A?o?_?????_@X????????,False,0.0046019554
~?@c??C?????????O?_??O??O??????????g_??C???A??????O???G????@@?A???J@????@@??@??@??OOC?_???G?G??O???@???????A??????C@@GC?????C????????????????????A???CAOGG??@????????I????C?O?????????O??C???????`???C?@???__??CA???????OA?A??????A?@??O???O????G???_Ho????????C???A???????_???GG????????????C???@????????G????????_?????`???@_???G?O?@?PA??A?_??C??O?OC?????_????A????_?A???`?OO?O???????????A?C@_????O_G???OG??_???????@?O@?C@???_@??????O???I??@????OA??@G?????G??A????AO??????????????????????G?O???????`?????GO?????A??AD??????_C??????????@??_??O???g?????????????C?@?@Q????????G?G_????S??????@???G?O???A????????????O?G?OG???A????@???A????????@?E?????`???????G?????_?oO??@?GP?@C?H?G??O????????@`?????_??A??????@??@_O????W?C???@_????_GOI??????????_?O?????????O@O?c?????C?B??????@?????_????????O?ASO?????O??????D?????A???????IGG????????I?C????,False,0.0044209957
~?@c???????????@OG?A?O?C?A?????G???A????O_??Y?O??H?_????A???_C?G?_??????C?G???????????O_?????C?????@??OOA????????????@?O??C?_?C?C?C????@??????@????E??_@G?????????W?_???????GCG???_???????O?_???G????A?@????????_@A?O???@?G?CA?????O?G???__OA???C`??????A????A????A?@?C??O???GC??OA?B?????O??????C?C?_???????????G??G?GGO???O???_??G_?G?O?????GO????O??????_????????_????G???G@????C??C??_??O?C?G?O?C???_?G??????GOC???H????@??G???????????@??????@??@???????i???`KWG?A???C?????????????_?c???@???????_???O????G????????????A_????????Oo?_????????????_????????A?G??_?G?G@?????O??????????@??????A??G???AO??????@???@??_??G?O?_?_??G??@?C?????_C@?_??G???G?_??A???C????????B?????????????A?OO?@??@??@???OG??@?AK_?G??_?C_?CO?G??C???????K???????G?A???AO????@__??????_G??OA????????????????G?????@???OA??A?????@?G???G????_???@????????????K???O???????AOC?_?,False,0.0050420761
~?@c??A???_???AG?_????G???????oO?????????????O?_?????A???O?G????????E??????????????M????I??C??_?_???_?_??C?????????AA???@A@???G??@G?????????GA????????OA??CO???G???H????????????_??A?????@?`???_??G????AE??O?@??????????@@??GA???A?G?C??????@???????D@A???_???????S???a???_OO?????A????????O????O@?O???G???_???????_????????G??????A_???G???@????G????a??O????????????C?OO???A?G?????C_G??A??O?????GGOC@GC?????A???G???_??OO??KC???_@?C??_?AG???g??G?_??????@??????????BO?OG??G?p???????O???@?????G_?_??@?_??@???_???????????CP?A?????????O?o???@??O????????O???_@O???@??@?C??CO??_?@????@?G@???????@????I??????@OC?A?_?????O_?O???W?????@?????@?c?@????A?????????????@??C?????????_??????A???C?@_????O?@??H????OGG??C??????????AOC?C??_??????????????S?????Gc??GG?C??_????_???@????O?????C?????????GH?????C???G???_??_?????????@??_G????????????_r?@??OC????,False,0.0044760704
~?@c??????_?B???A???????????O???_??C????O?????G????G???????@????????????????G?????CC?????????AC?@???O?@????_E??O??G??O??Q@???OOg???????Q????cK??????????????CA????G?????O?????_???_??@???_??G????C??G?@??OP??_?g??????A?????????????@????????_???A??????@?????????_O???C??????????_?G??????????????????????@C?????O?C_?A?@G??_???OQ?G???G???Gs_CO??????????O?@OP???D???????G??G????????@A?_????G???O??OC?_?_???C????P?????_??C???G?CC?OA???G?G?_?????????????O?I?SO???_@??O??`CI????????I??GO??A????A???????AOA?????_?C?????????@@????GS?O?????C?C????@?A?????B???A??A?????O?_??????CG???????CG@G???O?Ao?A????C?????K??????O?O??G?_???????@??OO@????????????o?????G??@????@??A_???OAO_???_???O?HG_??????_????A???????O?_A?C_A@?a???????OO????_???A??@a????O?C?@??????B???????_??????_?@??C_?_?????O??C??O??@?@??_???G?????C?????C??O??????????_???_????G?????,False,0.0045161247
~?@cC??????????_?A????A?C??C??A??_?A?@????_?P?c??G????????????`?????_?C???????@???????????G??A?A??????_??G?C???????@????@_GP?@????O??O?A@????????G??@?????@??G?_GD?????O????GO@?_??G??????G?A??????????????W?O??A?G?????O?OO????C???OG@???O???????????????AA??????A???A?G??????OG?G??OO?O???????O?o???P??????G???G??@????????????OO??AC??AOA_@@?_???@???_?G????GH??@???????A??@?@??A?????????????????????_G??c?????O????AQ?O?C???_?C?A??????_?????O??S??????????????????OO?@?@@??????G?????_?G????@?C??C??A?????????C?????_????????_??H???@_?????C?A??????????????????C??`???C_???_A???S@C????O???????????????@?@??????G_@?C??E_C???@OA???????@JO?????????????@?O????_?C?????AC???????_???@E????????Cx???OI?Gc??g???????_A??????A_????C????C???A??????A??G???GG??_????B?C?_@???_A???A???????_???A?O?_????????D???C????_??a???@G???A???C?CG?@@???????????_?CA?,False,0.0050032139
~?@cCAC?Q@C??G??????@_??@Ag??@??C?O?????A@????????O????????@???GCQ?_?@????OA???????AMI@?????A?????I???_?????????@O_?G???Q@?_@????????????`??C????????A??_?????????_????@?_C??C?_C?A????AA?????????_C????????????????????_????_?_?????CGCO??C_@?????????KC?G???O????????C???????????_????????A???C?A????C????????A????OqG??CG??A???Q??????????Ec???????@?O???_AC?C????GC??????_?C?A??_???_?????j??_????O???H????????_?AG@G??????@???@@????@?????????O??????????C???????????????????GG???_??O?????G???@C@??????GO?????H__O??AA???@??????GC?@?C???????????????AC?????O??????C?????O?????????OC?????A??????_P???C???????G`_???G??@??????O?GO?G?_?C???@??@?????????_??????O???????G???????`_O?O????E@????A?O@a????AA????G???o?D????????????@???@????_C@@C@????D?????????OA???_?H?G???@G??O????????OG???????C@??C??@?C???????????????@a???G?????????OD???@??????A??,False,0.0044939518
~?@c?@????IGC???O?A??C????????CG??_c???_?G??????????@?a?_?@?C??A???P????O????C??_?A??@??G@??????A?P???????????_?AW??O_C??????C?C@?K???A?C?????GA??@?????C?@???@A?B????@A?A????????_O????E????C???@?A???WO_???W???A?O?A@????C???????__????????????A??????????A??????H?????G?a??C?????QC???????C??O????_A??CG??@???G?A?????????G??????GO???@??C?????A??CO???????????@???????A????????_A?_???C@G????AA?@??G???O?????A??O???_???@???????_??O?A@?P???_??@?@??????????@C_?????_?????C??A?????A??C????@_?G????????OCS????@A???C???????????????????A?????@???OOA???@O??_???C????S????D??G???????GO??G????K????????????oG??A???@???@????O??C??OA?????O?@@?G???@??????PO????O@?????_?A??A???A__@OG_C??C???G?????A?O??O??G?Q?????OO????_C????????????????????I????????C?????A?????a??????????A??A????O?????gO@C@?C????@_?@??????????????_????C@???????A????A???????G?A??,False,0.0062360764
~?@cg@_???_O??_??????@???_G???Co??H????A?@CAG?????????@?@???_???????C??@SAA?A????C????_??K????C???O?@_?C????C??C?A?D???@OO@????I???????O?????????A????c?_G??A?G????GKG??_?????????O??AA?G??@@?a??A???????OG?C?_?G?_????????O?????????????G???GG?C??@?o?GCH_a????@?A?O???_??????O_?_?GA????AO@?CKCGA???B???C???G_A@????@???oCg???@S?????????????????_????cG?@???@?????????_?????????????????_???G??_????????????????????????oCA??ODC_???????A?????_????A???O??????????O??????_?G?????????????O?@?????AO????????????D???????B??????????@?A@??_?????B?CA???__????OA??C?_@???_?????????CO@?O?_?????C?G??AC??@????????????@C???????????????G????C??O????A????A@??_?C??A????????O?E???????C???G??????C?????????@O?????C???O????????O?C??O????O???_?_???@???O?@@@?@???????????????????????????O?????????W???G????_??????_????G?AC???@_??_?a????A??A??????????@A?C??_,False,0.0042490959
~?@c?????@?@?????_???G??A?@??@C??K???A?A????_?????O???????????AC??G?_????OOO???P?????G?????C_?O`???@O?????@???????@O????????A??????????C?O?????????AC?????????????O??A??????????????_?T@???????A?C???O????K_???@?@OO?CA??????O????A??O???A???????_C?GG?_??@??@??????O????A????_????G?GG?@????????????C??????_?K?_????CA???@?????????C????_??@??C??E????P??Aa??????????C?????C???O?CG??O???OA?_?????_A???@`G@????_?_??@???????????G??CO?????A?O?????????A???CGC??aOC??????AO_???A??W?_?????C??OO?????C???O?_?G???A???A_??C????_??????O?G??C?_?G@_???@????????@?????Q??AK??????C?O?????A@?????C??????@g?A?A??A???A?_?OGG???@?A???????C_??I`???A??????????O??????A????????????????@???AG??????_?????????????EAg???A?C?????G??_?????__???@?_?????@O???O_C?@?CCOAC?G?????????????G??O????????G?????????O?O??????????C??H????@??@_???Q@?_???_?????????O?UO??A??_?O?,False,0.0044548512
~?@c_?@??_??_G??A???????????????DC???Ac??C?A?O@???O_?G_????G?_???????D???????????????C??????G?????O???????????C@??????????????@????????A?@????_??G??OG???O?????P?O?A?@????????G????????????????AG???O?O@??_?????A??A???O?_???????????????????A@G?_?A?????????????_????@???G??O???OOA??????A?M??ACO?@@?GG?????CAC?CC??????C??_??A@???_?????D@A@??GA??????GO?Q??????_?????C????????@?O???_?@????OO?????CO???B?C??C?OC?????G?????O????C????G?@???GA?O???_G?O??@C?GAQ?G??G?A???O?O?@??@?????S????????c?@?_?????????AA??_?_O?????????CG?????C??A???????A?????a?@??@??@_??_O?_OGG??W??????_???????????C????OA@????G???A?O???C?a??G???????@???O?G?C?_???????????????@I??@?_??@??c??????@???????????@??O?_A????_?????????CW`A?Q?G????????????O?_???????@??AO??@A??????A_????????????????????????_?????`@_???????g?GCD?g?A??A???A??_??G??G????_???A??C??O???????????O?,False,0.0049250126
~?@c???????CA????G??@E??_??????????????_?A???????_????????C????GO????@????@??_@????????A?CO?????G@??@????O_G???????????A??G??_??O?????_?@?????I?????????????????G@???C?OG?GO?_?_??O?_?KC???O??O??AC?????O_?????????C?????A??????A???????C?A??O??????O????O????@??GK@??A_GC????O????????@_AG??????C?????????G?G?G_?????A?A????A???????????_???????OGA?A@G??O?G?C??????W?????_?????O???gA???_?G?C??OC?????OG?O??????C_??__?a?????????????????PA?O?c???????????AA???@?????????????C????O_??_???C??????G???CO???_G?????O????@G?O??C?@OG??OA_GO????C?@?I@??????O?G???G???G???????A????_???????O?????A@?????G?????????????????A????_G???C?@????C@G?@_??`????????W??I?????????G?_??A????_????@?????????C???@?_????????????G?GA??@??_?_??????A_G@??????B?O???A??????????C_??????_????????QEEA?O?????????@?G?C??C??????G_???C?A@?????C_CO@?@???_??`?A?O???a?PC??@??O?S,False,0.0049362183
~?@c??AA???C???????????@?C????????A_??AG@?D_????????A??????G???A????C????????OG?c?GC_??O???G??@??????????@?_G??????A??????ACC??O????@??A????_??????_?O?_?CO?CA???C??Q???CO??????????????_??O?????G@?AC????????G?G?A??AO???_?O????p?GG?????WA????A??????????CC?A??????????A????G?_?G??A@C_??_?O??????O????_???????????????G?O????????A?g?_?????????CC??????????P?A??OdQ???????GQ?G??G?A???O???OA?????A_???O?o??@???@?????????O?C?O??A??_??P???????A???SK??A????O?GG???A??A????????????C??????C?A@?O@???????????????G??_?@@HCQ??O???_????????????G???`??????_???C????c?????????????V??CAG_????????O?A@??I???????S??C?_@??`??????????G????OC??AA?????Q??A???????C@@???????@???@C??DO??_???O?????????????@??A???????????_???O?@?????????A@???OA?????????A???GC__G???????G?????????@?@?????C?A?@???G???????@?G???????CC????_???C??_@?@G???A??????????@?O???A????@K,False,0.004365921
~?@c????????GO??@?A?C????????@??????@??CO????????CG?????G????_????????@q?@@?C???O????O??@??O__?G@??O?E??????@?@??@?????cA????????@??C????????A???????H?_@??????O??????C_????O??????????@?AO?A??????O??????O?????_?????G?A????_??A???_?G????????????????g????A??AGD?????????????_??????????????C??????A?????OA@??A??O???C?@?@?C_????I?AI??????????A??A??O_?????????A??_S????@????A?O@C?C???P?????????A_???C??C???????C???????A?@@???????G????_?_????????G?G??G_??????A?C?G?OC???S????????????O?S???@@?E?????A_?A???C???`?????C_??G???A???????@?`O?_?HG???C???_???@@??C???W?G????Q?@D?????????C????????????AACD?C??o???_GP???????????????A??C?????@_?G@????C??OG@?CG??A???A?????O??_??????_O?????D??C??_OCC?????G?@????????@GO?????g@?G?A?????@O??????A???C???OO??????A`?????????C????C@??????H?????????????OO????????????O??????g????I????????C?__???@G@??a?O?,False,0.0043950081
~?@c??O??G????H??R?_A@?????G?A?C??GGC???O????_????????????????A?G_G???O??_????@?AC?WC?????KC????????P??????@???A?G????????C??????cC???????@C?b????G??O??CGC?A???_?C??C_???C_?@??????G??????????????_???_????C??CG??_?????C??C?_????GO??????C??????_???OG???????_??????????????_?AOG???a???????`?@????????????G?????O???_C?????A??O??C??G?C@???_?????`??_@G?????_?????G?@?????G????????????A?G???_?_???C?@G?A?A?G??CC??_??????O??@??A?O??????@?????A?A???O?@A??C?_??????????????????????@?O???_??????__??G??@???O??@?CG???C???_????O??????????h?_????_???C?A?A????O?O@??O?G?CDCC??@???????A???i??????GG@CG???????@??g??AD???@????_???????A?A?O??P????G_?A????c?a?????????_???O_@???O???????G???????_????c??_?C???@????@??_?????O@C?A?GG??A???A?????C????G??????O????CG????_??????????????_?G???a??????????C??@O????O??A?G?_??_???C?_?_???C????????????OG?????C,False,0.0045101643
~?@c??_?@W?H????@??O??_O?_??@?A?????_????????????????C??C???@?????A????PC???A????G??@??A_???@???`??@???_????G??_???GC??_????A??_?O?G??G???C?@???A?@??????O???B???O?G????@????_?A??????????A?Ca?CO????????G????O????G?G???????C??G?C?C?AGO?????????QC??CO?A_@????????C???AG?????????????C?C@?????G??A????@?OA?????Q?@???O??G?????A?????G@?????????????OG??C?????@?????????D???Q???@??OC???O???O?C??A?????@?A?aG???A??@?O???G?CAO_??????????_??c???_???????????OG???????C????@_??????????G?_????C????????????????O??CA?@??@??C???????????O???P?_A??G???????????@??????C??G???D??o?__??O??????O???C?B@?@O?@@???????__C_????@??????_?_CO????O??A?c?O????@?????CA?O@????C????@??????G?OCC?????G?????????A???O?@A??G????_????@??Y@???????????C?@A?O??????_GA?A?_O?C?_?O???_C?????O@_?????@?????C?CH??????????@?C???E?G???????????G??A??O???_??AO????_??????????????,False,0.0044579506
~?@c????GGG??????@???????????????W??????O_??A??@G??OC?@G???????O?AOC`?????????H???O?????G????C????????_??????_??_O????A???G??????????C?G????C???OO???C??????AO??????@??_?_X_???G??G?O?C???AC????C???????_?O?oG???A?i??????_???@C??????C?????KO???G?????@?????????A?GCG??OA????C??????O????_?????@???????G????G??A?A??????_g?????????G???O???????????O@?????@??_???A??????G???C?C?????@???A???Gc??`?@??_G????C?????O???C??AGW????A????GA??_????W@HB????_??S????????AC???a?O???A???P?????????????_?@G?????_??I??B?????O?????G?C?????????????@??O_??A_O??????????C?C?????_???CG??@????A??????_???@?????@???C??A?????????_C???OC?????C???@???_c????HD????A??????Q????????OC??C????C???S?_?C????C?????GG?S?WC??G??_A???C?@?A????@O????a????Q??Aa?????GC????@??@????O????@??????????C??EC?G???A?P_?G?_????????@@???@??_???????????????O?G???AGA????????????????????,False,0.005095005
~?@cS@_??????C@C??@?@A????????@???@?????G???@???_??????O??@C?S??Q?????Q?AO???K??G???K?@?c?A?????CC@??G??@????????_??G?C??@A??????????OC?O??@C????????@G??????A??P???G?O?K????o???????????????????_A?A?ODC????@???@???@??C???????_?@??C??HO???OgW?_?????c??A??????O?A??A_G???OA??????????W??????????_?@A?????G???G???????A_??S???O????A??O@OG???G??@???C?????C??????_????_??????o???P?A??CI??@?????_G???_S??G?A???????O?G????????G??@?AGO???@?_??O????G?????GG?G?_???G_???OO??oH?????@G???O?????@O@G??????????????_?????_?????@??????GG????????A??_?????????@???S????@???????????O?????@?A?C??O??C????_???????_??_??C??C????Q????@??A?????A??A_G?????@???????@???A?@G??????G@_???AC??????@???_??????G????A????_??????G?????Q???@OC??A?????????????????????D?????????O?????@?@K???????g???????????_???????GA_K?????A_?O?A_???????????????A??@????C??A??_???????,False,0.0050652027
~?@c??G???????O?OA_?_????????@?H???O???_????_O?????_???O???O?A?????D??????AG????C?G?G?I????????S??A???O???G????G????OA@AC??@?C?????@@???@??H???_@????A???_???@??O??G?A??O?????O????@?A??????A_?????a????????OOG??A???C??GAO??C????O?a???G??G?????A?C?????C????@????_?OQ??O????????A????C????AGO???????@?_?_????O?????????S??_?_??G??G??G????O??G??????O???@????????????G?C???O@?@???@??_?@???G@GA???OC????A??GO??AG???????@??????????@?O??A?OAA????A?AC?????_????C@??A@@??????O?????@??????O??_??????OGD???A?K@_??G??????C??????????_??@??????C????HC_?G?G?A?G???@????A??C?O_????AA???????????A???@?O????C?@O?????_???_?S??@??_??????E??A????@?C_G??G?????@??C??????@????C?@????@O?O?K??????????A??A????_?_??_?C?????????CA?O????@?C????????A??????G??@?_?????????CCC??O???????S?????H_?C????????????????????_?C_???????I??????@?@????@GA???????__??C??O?????,False,0.0053739548
~?@cA????????????OC?__????????@_??C??????_???@?__????CG?????g??????O?????A????A????????G?????????G@???????C_??O???C??@H??O????C??????OK?GG?????OAo?CC???@??_?????????g?C_O?@?????A???@OC?????G???A???????A???G?@?????????????????@?G???O??GA????`??????@????C???CA?_???W?A?????C?C?_?????????A?_???????_????????????A_?????????C?C_??@??_????@??????`A?C??O_???O??O????O@????????O??G?G?O???????_????????????_???????G???C?_@?????????A?@???????@`?G??@?????G??H?????O?????@?????@??????@??????g???????A????O?_????G????GG????G???????O?GA?O?C????C???G?G???O??A@?o??AO????????_???_C?A??G?A???OI???G???O???C??????????_????@???_O????????P??E??????OO????QGA?????HA?????O?AO??A????G????O?a??????C????OA?`I?_O??????????????CD????OA??_??_??o_@A?O?K????@????????O????????????????O????HG???`?_@?@?`?????????_?@A?O?????_@???O???C????H??A??Ck??_?GW@???????,False,0.0053420067
~?@c??????A????_???A???_???@??aP_O??O?[AA?????C????`o??????@?C@????a??A?ACO???C_O?O??@??_???@???H??????G??W???a??G?O???GA?????????G?GG?????????_A??CCA???@????G?O??A@???GO?????????????_?GO?O??O???Ac?@@?????_????O????@O???C?????????G????@O????????__??C?????OG????????O???C?@????A?????o??G?CC???A??????P???C???????????????????_C_?CA?????????O?C??????C?G??Cc???@????_??????????O??_??@?C?????????Cg??@??A???QA?????__?GC@?Cc?G??O??C?@@??????????_?????O???????BA??C????@A?G????@??????????????G?_@CG_???_???????_?????G?_???A_O????????C@?AG??????_?????C_??C?O????@?Q????????_???_?????C???AC??G_??@????????E???O?????G?????A??????@OG?????@????@??@???????@???????????@???_??????E???????@OGG???_???????????_?????O???o??Oa_??A?G??H????C????????????C???@??????G??@?C??????_??????CC???A?????G?O????O?@G?@???G???????????????AC???A???O?????@a????G,False,0.0050861835
~?@c?o?????O???????G?????????????C?????????????_??C?????_??C?AG?????????COC????@?`???O`OC?@???????G?O??O???????????O?????A???????O_G??@???????A????????G?@?C?G?????????GG@???@???????????O_?O??C?????A_???G_?C??_?_???B??KG?G???O??????G??G_?O?????????????O?????O??_?@gG???O?G@?a??C???@??O?????_??C?????_???O???OG???????????????????ACGC?C?_A???@????OC?????????_?O???_??@???GE???Gd??O?????G?C????????_???????@??GG??O??????FA??H??????O????G???????O???_A@?????????C??C??????@????????????????????o@?@???????CG??????g?CO?@C??C?_?PC??AO??C???_??B???_??Q??????????C??_g?B_????_???????G???GKC@??L?O?????????@_??C?O_G??G??A?AO?A?G?_@?????C???????@????A?_?????????@?_?@???A?O????A????????????G????A???OA????@????A?A??G?????G?GI???GO??C@???????????_?G????_?A??????A??A????????????@??????G?D???A???G??A??_????c?????O_CA????O?????????????`O`??C??A,False,0.0044848919
~?@c?????_??????????G???@?????C??_?A???_?????A?Q_C??@A?@??????A??aC??A??__G@????C???@????_?????G??A??C???A?????G??@??G???GC??CAO??@C???????????A?????????????G?????W@OA?????_????C?????@C?C???C???????????C????@@??????G??C??????????A??_????????G??`?_???g????@???CO???`?__????????????O??c????????G???A????????????@???????I?C?G???_C?@???@???_???????G????????M?_?????_???????A????????????A?O?_O??A?C?G?????????_C?O?OG?????C?C??G?`?A?C?O??????A???C?@CO??????O_?????D??g??@????GOC???????O_???A???A??????C?@?_??O??_???PH??O?_????G??@?G??????????????BO?????G???_?G????????_E?CO_???OO????????@???????GG????O?A???K?K?O?????G??????????C?G?CG?A????C?_????@?AG???O???_??????OG???A???GC???GO????C?A???????K??C?D??I???C????????A?O?C?A?_??ACO???@C?IA??O??????J???A????W????????@????A????????C??_A??G_?????@?????W?AG??????G???O??????@???A????O?????,False,0.0044958591
~?@cC??Q??????_?????_C?C??CG?G????????G?aH?B??@?????O??GB?????A??P??????G???????G?A??@??@????A?????_G??_??O???????@???????????G?????CG???OEA???OG??????_?a???A??A????G????@?G_@AO?C???????????????O???????????G???OC?c?????G@??G?????G_?H?CG?A???????A@C???O`?_????_??@E??????C?A?????o???????????????????A??GA?????G??_?G?C???OGC????G?C??COg??C?A??????_?_?_???????G?C??????O????C??O???????????_???O_?HG???G????OI????CG???????G????_??_??????_?O???O?C?o????@??ACC??????AG?G??AG???????GC???G??_??OaD???G???C???????A???b????????@??GOC?????_??A???????O?G???CC?@???????@_???AO??????AO?????????????GO??A?_??A???O??????????`?????C???????_???E?_?`????S???O?@???HS?A????????O?O??OG??O?????C???_????O?_???????C?@?O?OG?????C??O?@G?OC?????????????G??????????????_@???GS??????????O??A????G????????A???????O??_??????????????@???H?C????GA??????????G???,False,0.0045721531
~?@cC?@?Aa???G?????????????????????G?A?????_????_@????????O????O????C??G_?_?C????W??A???????_I?O?OGO??O?G???SAc???H??????O???@??@C?@??O??????S?????A???W?????@???D?_????????W???????????_GO????C???AA_???????@??D?@?S?????@_?`??CG?????????????H_O?@????????????????????@_?G??????_????_?G??@Q???????????OG@???_????C?????C??_?O?C?????S??????AC?????_?@??????C??????????????AC??C???O?A?A??A?_?G???A?I??C?????????_?????g??_?????Q??_????????????AOA???????G@C?@??????G?G?G??G??O???C????H?G????C???C?O??HE???_???@_????????O????C????????A?C???_O?_????????_C?A?E???A????G??C???????H?????A??C???????_???C___?????K????????_?G??C?_?????????A??@????A??????????O??@????B???????????C?a???O????`??????C??A???O_??OACA??????C??C??O??????AG?C?????_@?????C????C???G????????A??_?O???AO???AG??_??DQ???????O?C_?????A??????_??_??O_?_????GO??@??C?`???C????O???,False,0.0055480003
~?@c??_???_??C???????????@?????AG_???O?g????@OA??G___O????????A?????A_????????????O??_??????????A?C???????A_?????????@@?D?G??G???????_????K??O????O???_??@???????C????@@A?G?????????O????FD???_A?C???????????A???????g?@??A??@????GC??????OC?@@????@??G?G??_O?AO???O????C?A??C????_?OQ???????????_?????????????@G????_?????????C?O?_????@?@???A?????GG???A?@?H???????C_?G??O????_?????G????O@??IG??CO??O???_???`A???C?_?G?????_??Q??G???????????????????@?O???C??O??????A???OH??A?????????OA??????O????A????G?????_????o??C?????????????O?o???????D??G@??_???O???CA?K??_A?A??????_?CO?OC?????G?O?????C?????@?@???@?????AC???S????G???C???OG????I???????????A?C?????A??W??O??c?????_?G?@CC@???_????????????O@?`??C_?G???????????_???A????O?@??G???????G?O@???C?C?O????A??????A__?G??O?E?G?????CG`?C?O????????A???@??C???G???H??_????C????C????o????C??G?????__,False,0.0052809715
~?@c??S??????????????A@_??CG??A????????????K?????W?????O?A@?AG?C??????O?PC?????@O@?_A??e?C_????Q?A?G?D???__?O??O??@??_?????Ec????????_`?G@?@???????????????@A??????????K?A???@@?G?????????OO???C?????g???????OA????????????????E??O_????????O?O???_???A?A?????@?G????C?????g????@?????????????@???O???G????A???_???????_?@?OD??G???????????????O??g??????OG???_??????B????GPA?_???O???????CO??D???????_O?_O??A?_?G?G@??O?_????????_????G??????CG???G????H???A?????O????GO???E?G???????A???C???????@GC????G???????????@??A?A??CO??o_?O??????G????@???OP?????????C?OH??????Q?O?O??CO?_??????@?_??CO?OG??A_?O?????S?GOG@T?O?A??A????????C????O?_?????????O????A??????O?????????????@?@C???????OG?O???????????????G???????_?@??????@???H??????????COO?A????AO???c??@?????A??O?????A?G?CO?G_????C????@?????G??????CA?_?A?????CC???????????????_A??A????A??C?????A?,False,0.0052609444
~?@c@?O?A????O?O??P??????GAA?G????@?@?g?C?CC?@???????G????A?????OG????@OO??_????????O????A_??O?@_???????????C??????????????A??GA???O???????A???????@_O??C????????????A?O????????????????I?@?O??????????????????????A??GC???A????C??????_???A_????C????????????@????C?A?A?????G???????A???O???@??????????A????A@??O?A?OKAO?A???A????_??_?PC???C???OCW???G_?O??O????????@C??O?oO??G???????????A??c??????O?K?????Q?O????_?A????????????A???????????G???O?_?????IBGGC?????OAO_??_??A?G????????GO?????????@????????G??G????OGL?????G??EA?_???B?CO?????A????G?@????@??C?O??_????????G??????????????????O????c@??O?A???AA?C???Ac??_O?????????????O??????????K???C??_??GG??A@?B_?????C?W???G?G???OA??????A?O?@A????C??????_B@?O?C????_?O??????????_A?C????????G????AO???@E??@?`D?A??????????@??c?B??_????C????A???A??O??O??C?????????O??C_??R???OA????????_??A??_??O?,False,0.0045220852
~?@c?????????O??@?_C?@???C??????????????_???@_??A?????????????GA??@??SA???O????????C??@?_?????OA?C?A??G??_??????KA?oA???????????????@C?A@?CC??????O?????O?OoC_?A?C???????????OI???_?????Oo_?G?A?????GA??G???CO???????SO?????G????@?_??C?G?O????G?????_??`?????????????_@??W?A??C?????Q????????C????O??C??GC?????_AC?__G_????_??????C@??_GC??????_?@C????A??GG??_??????A???@?????C????G????????????C????@A@?O?GO??A??@???????COO??A?????_?A???@?????CWi??O????C?G???????c??AGG????C?????????????G???????????G???????????_?????????C?A?_???????????H???@GO????????G?C?G??????@??_???@??C??????????C??@???????CO?C?????A???G?????????_??????C?????P????_???????GO????GG????S???????????O@__???H????@??????A??GO?????O??W??O?????????GO??`_??????@????????????GC???????O?_??????A??j@????@G??@C????????_?o????????_@????A@OOF?P@?C????GO?GG?C?_O????G????CA??O???,False,0.0050070286
~?@cO?GG??@?_O???_@CO???_?????O??CA???k_?A???O?C??????????@??C???`?G@@?????O@?A????CCA???O?G?????????G???A???????G?C@???AA?A??C??C??CC?O?????aA?G??????G?@?????G?????????????_???????_O??A??C??????O????????@??@@O??GO@???????????@????_??@C???_?G??????G????G????????O??????????????C??C??_??????G_A??O???_?_???C???_C??G??G?????A???O???`??????e?C?A????O@???????@??G?_?????C?K?????_?A??????????_CGA?????????????O?__???A?Og_????`??OO????????A??????A???`??????O@???A?O?O????????_???_???????????G?O??????G@A??C????A??KA??OA??O??C???????????????????????????????C?CO?????G???AO????????GO??????G_???_??????G??O?????G???????_???????????C??_??????????S??A_Q??????c????_?C?????A?G????GQ??C???G???O??G@?A?C???@?????@???_??G?O???CC@?????CACAA_??C?C??AO?_A????A?G????O????CC?????????_??O?????CB?????G@@T@?G???AO????@??a???????C??O????C?G?????G????A,False,0.0045230389
~?@c@G????????a????????????O????????G?????@????????@??@C?@A?????EO?????????C?O?_??????_???AA???????@A?????@?CG_??????I?_???AO??C?????O????O???_?A?A?_??C???@???CC??????I?C??????@?H@???c?????BCC_O???G@_?????@@O???_@?O??G_??????@???_??????P??C?@???C???????@?????G?????????C??????AC??????AO??????OO?@???_??CG?AE???G??G????O?A???G????G???????G???C@?????????????C?O??@????G?G???a???????O??????C????????AG?????_?G?????G?S???O???C???????_??P??G?????????`????O???O?????O??C_A?OC???A??a???_?@??@??????????Qc????_A??G?C?_O???G??O@??OB?????@?A??_?@???????O?C?A??????A?@A???????????G???EOO??C??@??OOC?????GC??C??_????C???_?A????????O?Q?????????_??_A???A??G?@????@?????????????C????g???@?????o???????????????????D??@?@?E??OG?PG??_??O??Q?????O???AI@?@H????_C??????????GA??CA???O?????O????@????????O????????CO??_???WA????A???A?????????C?????????,False,0.0044469833
~?@c??????A??AA??A?O??@?A??o?o???A?_OG?????@?Wc????A??????A???C?????@????????GA????C???????????H?????C???C???????GA???_??????W??G??????C?C????_?A???????_C??A?QG@??????CG????A??????????????G???????H???_????@O????BA??????_C@???????O???A??????????????CA???????e???C???_A???A@?????CG?????DO?@???????????K??CA?GA?????????O???C?????????????ACOC??GG_G???_????C?@G??C?A?????AA??@?S??????????????AG??????_?G??_????B?O????????_???CS?????O????A???????@?????????????_??A_A??_??_A????_??????_????????_?????????@???A?G?GOC??????G??O?????@????_O?????@Ap???O????????H??????P@?A??C?????A????O???C?????E@?C???????A?A???????@????_??@@GCO?????W???A?D?????O?@?O??A?_?C?????A???G?????P?G?????????AO?@??G?@CCCO_???_?C???????O???????O???A_?O??O?????O????O_?????O????c??????????A?CO??G???S_????C???O???G_?G??????????P???OCA???__C?????H???O????_??????BG??,False,0.0044701099
~?@c?????eC???????@G?@???G???E?????OAOGC?CG?????A??OO?A????A???O??????????@???CGC@O@C??CG??????@C??AG__@????C???????????G@???????G???_O??C?????GO_?G??????????O???GK???G???????O???????????_?_O?A?G???cI?@???@?A????????C?@????_@??@??G_c??CC?C_??_?????A?@???????????????????C??G??????G?????O??O?CoG??????O@C??C????A???_?C???@?????????G??O????s???G?A??????@????@??????????C???G??@??G????@??CA?K???????O?`?O?????????G??????_??????@?G????A????_??C?????@OAG??????O????@????????G?CO?_??A?????O????????????G@?oO???C????@?C?????G?KO@???_????@??????G?G@?????oC?G????????AOCG??W???A???????_??????????_??O???_?????????G????????@_??G???????????_???AH@@@????????CA??OG????????????A?O??_?????????@?????????????G???????@C?@????P?OA??_????_??C????AA??C?_@?_S???@?????????CC???C??_G?C??@C?OG@_???@????_???C??C???O???????O??O???@???G@??_????O?G??????,False,0.0047938824
~?@c??O@?GO??G????C????D?????????A?_A?G?????????????????????C??G????????@???A?????@O????CAO????_??????KQ`?????????O?_???@????????S??@A??@??O???O@?G?`?????????GO??????G????O????C??_??????@SG??????????????????@?G?C???C?????????C??@POGg????@????????__?????????A?ABA?@?????C??????A??A??????????O@G????A???????C?????C?????C?A??????c???????????????C???@C?_??cA???????O????????`G??_?A???@_?????@???????????????O?????????_????G????A??@C?A?p??????CO???C??_?@???@C??C???GO????A??G?????G?????_GA?_?B?????????A????O??G?DW_??????C??G??A@??o???G?@_???A@?????????O?c????????@C??aO???AG??????C???O_??A??C?@@????_??@@??C???@`?????G?O????C????C???G??@?????????????O?@A?@O????_???i?G????C???G???????_???????A???_?G@????G???G???C@C???????????_?A???C?O?A?G??OO???????G??????????????k?????????????G@_?@O?C??@_?@??C??_G??????????F??@O????Q??s?C?@G???G?,False,0.0041821003
~?@c?A??????????????????GO???O???????????????O?OA??G???????G???P?????@?_?_GC??@???G??????????G???????@????_???????AC@???p?c?COC?????????????????????A???GO??????????G_O?????E??_GC?a?G??C??@?????????????????????????_?@????????a????C??????A??????????????KA???????????A_?????`?G??????G?D??A??_?O???O?_?????W???O?D??GC_O???_G??A??GA@?????Ob??????C????G??????????????@???@A_?O????????A???G??@A??@?G?O???O?????i?????cWs?A?K@?@?O??????????O@C?__?G????G??_?C?O??????B????C?C@_?O???_??A?G?????G??_?@A??????????@@????_@????B?A???O?GD???A????O?C??O??_??P?????????A???????C_???A?@?O??????@?????O?O??????????C?O???@???????????@A?O????@A???????????_?????O??_?_???Ac???????A?????@???????G?O??A@G??????O?????CAA@C_@????C?_G???C??G_?O??A??@?C__?????????A?_@?????C?????C?B????@???????????C?g????_?OO??@CO????????????I??????_G?A??A?G????_????A???_??,False,0.0044000149
~?@c???_G?I????_??A??@??A?D?@O?GA??_?I????????A????_?????A???O???_C????@????????????????????_?OQ?C????_???_?`OG???@OC????G??????????????C?IG?C??????O??GCCG????@??_???C[?????`????@??????CGA?@O??OG?C????C?G??????????C???_??c?__??????OC?????_?D?????_????C??_???_??C????P?c???W???????????@G?????O_???????????A?G??A??@?????_???????g?@????C?C?O????A@??O?????CB???A?A??@?????????????O?E??????@?C???_?????B??????C???A?@??A??????????????????????__??_???G???????C???A?????@???O_???B?@?@G?????G?_?????????_A?c??AAO???C??_?????@?_???????BC??@???OC@?E????????AO??C?X?_A??????C?@??@????_???O??A_?@?????????C?A???A?????A????????????O?????UA????????P??????A?_????O????O????AC????????????@????????C??_???????????????A??G?_??_??_???GO????G??G?_????C??B?O???_?_????K??????@??KC???W????G_?@@_?Q???@??C?G????O??????????_??O??A????G??????????O????__??,False,0.0045719147
~?@cCq?????????cE???G?`?C??O?O??B?H?????????C????G????????????????O?????K???????O?????????A????????SC?_G??????C?C?_????????ICC????????Oa????_??????C??A????G?G??@?OO???_?G@??O??G?????_??GG?C?P?????????OOG?A?_???O??O??O?????GO??G???G??O?????GG??????????a@O???C?A?G???O?????C???C?O?A??G???A????@G?_C???H?????_??_???I????????C????Oa???_?????????_?_??CO`?G???????????G?@?H??A??C?OA????@G?EQ?????B?A???????C??G??????????????A??Ag`?O??????I???????_??O????A?????aA???O???_??????C??@??O?O?_O?@?????????A????a_?????G?o??????OC@???O???@???_????????GG?????S???A???????g_??????????????C??@?@?????G????C?????S?????????CO???A?????W????????????@C??C??????@O?G????_?????????C??G??G??@??C?????@??_C?????_??????C?????C?????????c????A????_?C?O??_?P????????A?O?O?????????????????_??@A??_????@??K?G???@G??_??????C?___??@?G??O????????@??_?G???????????Y,False,0.0055608749
~?@c??G??_@?O???K?????A???????@?_????A????A??G?OC?????@?????????@??C?????_?O??????_??????@??@@????@???A?O?A????C???@_???@?O???@?????????C?`?@???A@????CcCG?OC?????P_??B??S_?C?K??C?O??_????I???????_??_??GgA???????????????????@K?????????????G???_???A?O?????????P?OG?O?????????@O??CC?????@c??@??O`??C??O?H_??????O?????????????_@?????O???????O???ACA?????A???_??O????????_O?A?????????????????G???O????AA????o??????A?_?CO?_??Oa?O??q???_E????O???_????????@C?????????CO?D??G?_?????????O@?????????_@????????A??????????a??GA?O?????????G??????????A?_????HGa??GO??????C??P??__??????????????????_@@@G?G?O?????G????@?A??_????@??G_???_?`????????@?B??_???????O??????OI?????_??G?C@OO?G??????B????????????O????C@?????????_?G????????a??????????????A??O@G?O???_@@?A??_???OG????C?@??O?@???GOA?G?????@?_?G??G??O???????????A???G?A???????A??_?@?????@???_,False,0.0046508312
~?@c???????????AG??GC?_?????G????AGO????????H???????_?GGOC_???@????Q??O?@??????@??????????_O????cC?O??????@?CO?????c???A?_?_??aC???????GC??????_?????_?????CA????H@?????C??????G??@?A?????C?@???_????A?_??????@?A???C??O????????_o????_?O?OC???????_?????C??A????Ac?G??????G???????AAGA`_?????????O?@??????????????????G???A?@@?AG?Oa_G?A??_???C????_????????B?????c???@??@A????AAH???G??H??A?????@????G???g@??GA??????????A?O?_@??@?C?C???????@??????A????@?A?????A????GG?????@???@_?????G?????A????CAC@AC`???????????????CC??????G????_?G`?_?O?C?????@C????A???????G??_??????_?E???C????G????G@?????B??????G_?C??????O?@???????????@C??_?@???A???????H@A??????W???????O?@?@???_?????cAO???@O_??O_?A@?O?O????G??@?A????G?@????A???_???D??A??????????????????G??A??C?_@????????@???????C???????@c???O???G@????????O????G?????????G?????@??????P??B?????@?O???,False,0.0052878857
~?@c????a????A?E?_??A??_?_??G@A??????_O?C????@???[??????@???C?????????????gWA_?????P??????H????@?O?G????G????OE?O@???D?????@???AO?OGG@_@C????D??????????????????????????_??OG?_???????????????????_????G?????????_?A?_???C??????????I??????G??????O???A?????????????O???Q?C??A?????K?@??????G?@?@@???D??O?????A???????????O?O????A???????C?_@???GO????AG???O@???_G??_????_??C??AO?_?????G???ACO??P?????G??????O??_???????O????C?G?_?O????C??????????G???O?????????????????_?A?@???????G???GOA????OG????????@?O????????GA__????GO????_?G????O????_????C??????????_A???????????A?C??G????????C?_OO??O??O????C?A???????_CA????S??AC@@O?A????????AA@?G??C????????????A?O?_????GG??@???`o?k??_??????C@??@??????C?G????G???A???????A????QC?GO_??A????????O?_A?????????O?GGO?O?????C?A_?_G?A??@????@??????g????????_OO?Q??A?@????????_?????????OOCGA?C??G?OO?O??A?O?,False,0.0046930313
~?@c??????@O??????_??@A_???Q??GC????A?????O???????G?K??__C?????O???gG?A??C?????@?_?O?????_????????G????G?????E????????????@?_??????C_????GA????????_A???O?????A????__????g??_??@@?G???????A?_???C_???@??????GA?O??_@????GA??????C?????A????_O?AC?A??G?@??????@S????@C?@?GOD???????@???OO???G?G?????O?G@???O?????CG???????C??????CCA???????A????_?OO???????????C??_???@?????A???G????????_???????A???????C??A?????C?A????A??_??AAT??G@C?????C????????A_???C?????????D?O????O??_???_???O??O?CG??@a?W???O???AO?O?????????????CGG????????A???????????????PG??????????????A??????G?C?@?H??@????C?S?_???Q??A???????????HA??????A?O?Q_@??GOG???????E???C????_??C?????@???O@????b?_?E?W?????A??O???????WA?@????`??I???A????G????@????@?_???????O@????A??G??G?????O??c???C???????????????oA???A?A????????O???????????G???????HA_?@?A?@?????Ag?_?g??????????????A@???O?,False,0.0047130585
~?@c???????O?????@AO?g???????A@?O?G?O????G???????C???CA???@?C??G??OA@?????G??A????GG?????????_?@G??????????_?????O?????????_C?O???O?????A?????G?OZ???G???O_?O_??C??????_?????O?????_@M??OG???@Oa???????G?p?????o???C?_O?????G??????@??????????O??A?O????????G???????_????K??_??A??????????A????A???????_?????G??@?O_?G??O?????O??G????O?`A?O@??c?C???????Ig???_????????H??AA@???C???Ab??G???AA???G??C??????AC???A??C??????C_C????????IO????G?_?@?O????@C??C???A????C???@?_?A???C?????G?@???A?C???C_???????A??`?????_????A??AO?G?G?@?????O??????A@????????????_????C?????G??????A??????????G?????C????????????G????_?@????????????????B_????C???????AA?O??G???????@H???OO?@????@O???????????@????GG?????????????C?????CG???G?????_??OW?????O??o@G_??CA?X??A@?CO???@O?C???????A?@???O?P?A?O??OOG????????O??????c?G?G?@?????G????????????????????@?G@_???A?a????,False,0.006734848
~?@c???O?O??_?_??C?????@?CD????_?@O?A???C?????????CS?????????????@?????g???C??D?C????C??????@????C?O???????@?_???A????????O?G??__?A_??G??????A?_??C??_@OC??A?A??_?G?????????Oa??_C?????????_?@????G????@A@A???C@?O?G???_?????????????A???C???_?_??@E?@???????????????????C?G?OA?@?GA????????A_?GO?A??@C???G?A???a?_??????A??????G?????????????I????@???????O?A??A@??_???????HAg?????G????A?@???Q?AA?????????_G?@?????C?C?OG??A??W???AC???_??O?A???????_????O????????G?????????@??aO??O??????C???oC??????O?_?D??????O????????OA?_???G?C???O??O_BO_?????I??_??????G????????????????G@??A???OA????@??AC????__CA_?A????_??O???AA?G???????????OA`???C????_????P?B?O@???@???OC??@?O@?????????_?G??GO???_G??O?????O????????@?Cg?C??O???????P?????????O??????@??????GO?A??????g???????????????A??????????_G?????C@??A????A??????G???C?_????B???_??_???????@C???A?????,False,0.0047421455
~?@c?@????????????G_A?????G?O?O?_?E???`??G????@?C?A?????????@?@?_?????_`????@???????_O??A??????OG???????A??O?C???@??_@???_?????G?????A???_???????_?????????O???GO????????O??O??@??G??@???A???WG?O????G?K?G?O@?@????G??????G?O?????????@???_????OO??????????@??_O_?C??P????O?Ga?????????????@?????GG??????D?@????????C???????????AG?_G????O???C????@?GOG????????????A??????@O?????A????C?AG?_??????????C?@???@_??A???G???C?_??????C??_?@??????@????A???_?????????????@???C?aO?????_????G????Q???????A?CI??`???????????_??OC?C??????C??G???????????@C?????C?G??@??CK@G??G??????G??c???????Q???@???O????gB?A?A??_???A?`????@????????@O?????O???O?AO???A@??B?@?G????????_?_???????`OG?G?A?__?????????OC??B??????O??CA????C???QD?O?????????@_?????C???????h??_???????????C??????G?B?_?@???A?O?AAG?A???A?O?O?_O?A?`?B?O????_????????O??????_?????????G?D??@?????C?O,False,0.0044209957
~?@c?????????_???O?GOA??G?G?G?????????G??[????????AA??P???????????????Y?????????OG??????????@??_?????G????`G__?@?????O???C?????A????O?O??@????????????A???C????????????O?A??A?@??OG???OCCG_??_c??O????C????@???_??C??????C?PC????????_?????A?C????C?@??????????G?????_??O?_?????C@?H??????????@??Q@?a?A???G?A???????Q?????G???A?_???G?????????KC??????_????O?G?????G????@_G?@CCG_@???_?@?C??????D????@??????????????g?g???????@?GO@????O????@??????????C?????????????????O???C_?_cC??O?@????O?????G???A???@??@C??????_??A?OG?A?????OA???COC???_???_??G?GE?????I????????_?O????????a?@?_??G???????G???????????_O?G???????????????????G????o?G??O????CC????A?????AG_GC????????O_??????C?@????AG???@?@?C???O?CP???????????G?_?G????A??_@O????C??????????????_@?O????ACO?@??@????@?A?C@?G???G???M???C?????O??a?@??_????A??S??G?C????_@O?@??OG?@???Q???G?A????_???,False,0.004912138
~?@c??E??A???Cc@???@GG?G?????????O????O_?`AA????????@???????@??????????????@???O??A???_?G???O??@O?????A???????????_?C????????@@????GG??????O?O??_?O???O??CC?O_??_O?????S??C?G??A?@OC????????????A????C????_???CG????????C?CG???A?AC????OO?_??k?A????O?????AGOCA`??C_?@_??_G???g????_?????????KAb???A?C?G?A????G?O?AOO@?o_??????A?C??????O????@?????G??????A??G???_@???G??????C?@?@_?O?????????O????_I??????????G?O????G???A?????????????@???C??????????????????????????A_O?????A??G??@?@??O??????????A????A???????????A????????C??????????????@O?O_G?????O???????????????@O?_??G??A_????_?O??A?G?G??C??G?AG?????S?C?A??????PG???_?@C?O??S?C?C??_A??@????@BA????EG?????????G??L???GC???AI????O??CO?O??????CC???CO????C???C??@???O?A?_@C?G???????????????G?@?Q?????O?????????_?_?C?????@??C??????_??G???C???A??C????????????_????A?H??C???O??C?????????????O???,False,0.0043890476
~?@c????_??G?????????C?O????C??@??@??O??O@?@???????`??IOC????O?O?G??GO???A??????DIC??????O@?@??????C??G@?????_?A?????????_?????_??A?????O????????????_A?C??C????A?G@??O??_???C??????G?CC??@?C????????????????????A??C??@??O??????@????C@G???O?O??????G?????HC?A??@????@?_??????_??G?????????A??G????A?????@??@????????A???C?G?????????G??AI?????O???o?A??C??O?????O????G?A??@?????_??P?C?_?????A`??@????C?GG???????????C????_????????????????K???D???_?????@??H?????CG??@?C???????A?_????O??????A_????????????_?a?@???????O????GC?????OS??s?????_?????A?????@???a_???A???O??@??A???c?D??????????_?@?A??G??????O?O?????GQ??A??A???@??U@??S?H???????????????`C?G????O???H?@??????????C???????@C??????@O??????_?GGC@?@?C_?C??C???????A???C????O_?????C?????_??O???????????_??A???O_?GAGIK?E?A????C????????????G??S???I?_??_C???????_@?@??GO???G??C????C?A???O?GO,False,0.0044288635
~?@c??C???_???CG?O?_?????K????C????O?A??@OO_A????_???CO?C?????????C???_???????????@????????_??G?????G@????????@?_???????A??@????????G?CI??????C@?????????GC?????????a?_??????G???cO??A_O???WG?????H?A?????????C?C?_G?????O????????_?A?G?????????G?????O???@???G??A????????????G_????G?B??????AC????????C?G??c???@C???O`??A??C_??????????????C@?C?O????O??O?????_?@????O?@_?O???????AK????????A??????????????O?A?GG?????OA???O???????D????_?G??????????P?Q??O????O?o??o??G?C????O????A????A??G??A_???aC@??????@????_?C???????OC??A?????????C?A???ACG??O?C?G?GC????O?????????G?A??G?O?c?G???_??IA??????????C?????_G????A?A??@?_A?_???????A??O?A?_?@?Q_??????AA???C??????@???i?a????????WG????@????C?AO??????@???_???_???O??`?G?A??O????????A_?@??@???????????G_????G??GG?????????G???CE???@???G???O?G?????_????@?C?O???GA????_G???G??O??G??c???O???????_????AO?,False,0.0044031143
~?@cA??G???C?????@??a??G?QO???????@???A?_???_???_?IC????O????????g??OA????@?O????C??K???@?OO????????C???_A??????C????A???????@?_???????CA???O?@?_G??????aG?????????_C?????_??G????????EC?@???G????K?@????G????????D???O???P?????K???????A?????????????_?_??A????_O?????????????_?C???????O??????????????????O???DC@?????????Q_?G_A??U?O??A???AG??CC?O??????_?????????A?C@????_??????????_C??G??_C?o????OA????@G?O@C????C??D??C??@???????@?G??????_?_P???????O??????c???G??????????O??p????????C?A@?????O?????GA?_@_??????C?????C????????E????????@??????????OA????????G?C?????Cc????O?p??G????gC?@????`???G??@??????B?G????????_?C???????o?C??O?_????C????@@???????????????O????????@?C?GGA?C??????C?@??_?O_???????C????A_????_SGK????@?????????A????G?????????????G?@??C??CG??????AA?A????_????@?????@_??S??G????H???_A?O??K???@OA??@?C??????C????_C?GI@????,False,0.0043740273
~?@c???A????O???@?_????C??????G???G??A??O?C?????A?????A?@??_???????????_????_?????C?????@?O???????????Q????????A????_???C?CO?_??D?g?C_??_???@A????@?????????_??A?????_?????_???????C??__?????C_?????O??@??@_???G??????????????@_?G?????_@?????G@?O???A?????CO?????A?????A?????GO@C?c?A???C??I????G?@??Q????_???_???CGO??????????O?O????O??@??G?C??????????W?_?G??H???????_?O???@H?C???B_gG??_????C?O????????C??A???O??_???O?_???_G??GG?_??O?@???????G??G???G?GC???????????????C@?@???A?O?????????????????C??????????_C???A?O???????A???_?OC??G???????G????GS??_g????????OA?????G???C_??????C??g?????@??@??A???????C?P_?C?A?????????C??@IO???O_?_????????AOE?A???????G??W??__?H?????????_??C????_A??C@??????G?????????????_O???????????????????@O?O?G_???__AG?A?????_???c_????CC??C??C?B??ACD?????????Q??AG????CE?_C????G@??GC???C?????@????GA?????????g???@??,False,0.0043640137
~?@c??????_??_??@C??????O?????OB_???????_??G??GO?O????????@G?????A????????????G???@??O???A?O??????_??P????ODK?G???G???????CO????????A?????AG??G???A??g???G????O????????A?????O?????OGO????????????C????O??@???????????_??A??A@G??C??_???_C??????????????????@??????????????????C??_I?@??aC?????CA????e?_?@??C@????c?C??????_???O???A?????_@?????AC????@??????K?????C???GA????@p?C_?CC@AI??`????C?G????A???@?????????????@`?G?C???O??g??G_?????????@O??????@C????G_OC???a??????????@????A???@???A_?@???G?????????A??A?A?CDS?O??????O?OA?_?????_??CG??O???_??C??C??@?AGP????????B???????O?G????????@AG?_??@?C?????`cC?@??????@?????@????_???????OA????@?????C@???_C???????????GC????__????A?A???G?Ca_??a?C?G???????Q?A??????OO@?????A??_?CAG????????????????O???@???????O?D?G????G??????????????A?_??OA?_A??A?A????????????@??@???_???_?????????G???`?????C?A??,False,0.0043849945
~?@c@?G?????C??CC@??Q?G?A?????????A_C???G???A??????????????@???@?@@?C?AAG??_B?C?_O???C?????????O??????A????C?OG???@???????@O?A????@????????WC_?@?@??G??????O??G??@???A?C?O?????G?A?@QC???D?????O???_??????GC????@??__??NP?O???????_??C?????_???O????????_?O?_?O?@?G??????C??G_?????G_O????@?C????????O?@??????C_?A??@???C????C?C??O??????O?????K?@?AG???A????A?C?@????G?_???????_A?C?G??????W?@?????A??_o?????G?????????CA??_???_?GC?G???????A??????????C?@?????@?????`?????????@?C????A???A???@?P??C????G??_?CA??G???????????@??????A??A?????B???????????_???G????O????C__??@??C???_??_??A??A@???O?G????A????????_?_G???C????C?_??????????G??????A????O???@?_A?G?O??????_?????_????G????O????????????AW???@??????????O?????@???????c?????O???G??_??@D???????A?_COO??_G?O??G???????G??c????A?A????A?G??G??@???O????????@???C??_?O??C???O?@?G???A?O?_C@Q??????,False,0.0044059753
~?@cG?O??@????c???__?A???O?????DOS????????O?????????C@??O????????A?_?A??CC_???D?????????@???????????????CC??O???@?_O?O??O??C???????_??_??dG??????????????@?O?K?A@OGC?@????O?????C????A????????????????????_?`@?????G?HA??_?Q??C?O?C???O????C??A?????@?O?G???O???????G?`oA?Q?c_?C?A???I?A???_O?A????C??G?O??????????@??CA??__?W?C?@?CO??OS??????G??EA??????SG????@??????@G?O???????????OOA????O?@?C?????_?_???????C???K??C??????????O??C????G????G??C????_?A?O?C???_??G???_?G???????O@???????A??@????????A?O?O??GGAQ??@???????G???@??A???????????OC???????@???????_?c??????????????O?G??????W???@_??_@?C??_???????G??C?????G??C??????@???????????@c????Q?C?????A????_????@????a_????????????????W??G?????G??@????????G????????C?????????@?????G?????????O???A??A??G??A?o???_?G????????????O????GA?O@???AO????I?@?o??????O?????_G???@????G????_B?@?@??????O?@?C,False,0.0043261051
