g6,attribute,time,total - 0.85219
g6,isEdgeTransitive
~?@cA`cIoLG?bl\L^?EMcwK?|Ivw?q?ScOKA@mi`aq_dpiOACoBf?gY??`k@DPL?qoWS??de?_gK?GA?kQ_N@hKp[xOWPMRegcbVoP?o?XG@HEEUhrO@BPJGIOy]x\GeqPpkCe?f`CdmSQMmj?TCWEJy@kgSCUovAPQ}QIgsMAWwF?@o_UCQcGoeGwaM|GC?zcXKKMGGWCQ?DHG@@BW{AptKAuaUcWwy~YokGDr[aZMcCoJOOyLTO@Eh_pjHOWJh[BCLXK_qLtWSaaM?QcT{NF`WGSedDJAG\Jf?PaocWogBYGCpEoWLW@``uBJjvDXQODz@qYa@F^OozoqKO?aOIsBOGgDp`I__rpN@VOKrnIEKO@C`@i{GcBkcSbkOAp[H?G`?gSIAdSG_Gsk_dUa?YIDIsoU?Ua?AKgG]bwteKcGqexlXcRRWp@KGoQgB`?muAWh`SGc?@rO@B?PPQX@CQjSLCxegk`Ps_K@dG?GsKcQ\r?P@_t_okfWoY?Sgg|GIKGZ@QSWIeQGBCbcsGHRGVW@Fcbw_@]S?BBioAIgH`\@QHGWP\q_UGz_OOQ?GvCZALOaAZbxDkTJgAkhIEAKW_AuWZAdQYEGMuBqiMLAN`_K{]LOjWc?PiEriMRJgVASU?g}_gBfA`ikK@PYbGBAJKeGAHpGgBtBJE@hCoPHj]Bp`caDageRIqvHPAK?_PI@k{Y?]?_XU?AiGAOLZI{asX?x@WW@cBCTYJ`C`PO?DQCh_fK_oQoo[gBGEQOAcNWhs{U@aRGbQL_hPAc@iG?m`OFkYEoAA@hwfLAne@WH[uOPTOHdJY_q?siaR[@_gj,False,0.18283391
~?@c[AhEY?oGsjo?@HpoHXM?rB?SGFJHCEcjg_p@MCJ{AGtCkyR?AsgjoJC??TG_?@@R`mEACUOrKQgY?YDyIgDTLu|p[B`IBg??`|or|GG^iMELGc_hVAD@swC_Bti@WLcHOdCBLPF}GdsLANKPPhDaqOCXGrs?Aa?hae^AboM@qrG?A]`_WSEoaWhnUL_laO?aFL?oqIce\KdKzsHAQiES_?qC@VK?@oCBQGFWl?_BIqRF`CoQVCFTA?UEQifwgk?UrYRgdUf~HaZ??CdADzKBifO_EA?GA\`Lgn?fgO?khL]@?Sb~?ptD_OD@acRHAO_[iARowG@ofB?UhsATs?TG@JKbCiRRNZ\jRGC`AQD?_p@[Dhf\aH@Ag?A_G_s@fprTGLJ?jajhVGy?Lk@PBOY@_cF_gGaXpOHKuP@qQ@[AQKECGipWCCgMlZ_occoB\@J[Gza^`?_GOAQbVcjl`ATncc~_k??\`oxB?g?H`WEDBG?KBCfiG?To@W_R^bc@_`LqPIo?QE`OsAFD`oKgQIMgVSPg@cRoVa?GUGsdj\qCdYn?@SsABoGI_{GIHkKzoT{ACACEHPhX_@SzSBO[MdABToedYFW?d@?VxJCQDaGElojkco`}c_rgcAh?D_?IaZChlE|my_?yG@Kwed@~IMPwA`ckCGgK?G?Cr@V^r\c_i?^KmysYWHIHdI[SIKjS_jNg_?saoqADHkAS?g?GeeGa_GQOkAAXMPg?]_Dg_`eJGKvzOl]?MkVpH?hWDHYGKp_I{hhQooDOHx?WWQScIOnhuAR@__CgoGAaXuSca?o??KKBagoVOLMPKaiGp,False,0.0090360641
~?@cIOksTJWQC_MRZKG?Sbw?I[B{DO@MCGs?rSy_qGT@G?|YBekKWa@kAiIAT\IXQ?aKFSaO_?Snn?UKy[PoIaO_aGE`IH?{ChO[XBHU_?nTOEo`aGc[}KD]oKcQHGTZqAow}GTrD`P_fpqHdqnCVKCEo@IGBKG`YA{?cD}Hp?h_dXFhqCbQTSa_rCCSGPHB@@be?egowWKpG_S[MGIFOqm_T[CI?LA`QO__oqwHOEbpsFYB@UYCEPcjE?aoWs?`@IpIDcC@sAiElO[[d?]BaC_J?_S@LN@MrfoA^\qgdEJCCQoeDE?M_[\GuG@aGHgNAXHIaGoWWUqpXoHG`CuA?A?QKtJHkN@?UOu??MD@rmmJ^WE@UACoBYOaAaAlhN_bAqBofLLHOeQ~IE[?O_`uiGoGkW_IbM_GU@zjGW@r@WF[?Cg@@`CAUAMOJLk?CqDgx`?@ialwOkgq?aAQicxz`c]?CmrndJ?|_CQEMGWTHax`}DIwUe?c[zS}oFgQSDO`GoaCCPGju\gw@apzYGNWGmNX}SeAOrGA?CGOOKELWPCiDG?kP?WlXaU@dQA]oOSBEm?Hq_aAeydaKhOCeDs^U_tYm?NC`WISA?qLN_GChO`uFSJHOGIBKR_QdNE_Uo]xsOKWSWMEz`}ZCgBQLGlGG?gT_g]?CEsDGSXLA\BRwIEH??\wJoPOsOOc|EJQpMxBoB@a?\??`gn?xcCIAAGc?`YJ?EddCAC?LaA_KPykOtjPd?@Os[WoSQmSAXkL?@gTBt?eMeh_DICox`AiKE}LMwUD__S?jy{aFSEt?QcvMk?FK`a[_Q@dIcg_SFDPE,False,0.0072040558
~?@cniSW_O|ICUjgkcBR@nVG_xTDP[gALI~QPYAWc^KuCRGDT{CX@GcPwf]K@SaSMhEPI?OgpZV^GOSYi`@JoMMYAWDGTpWoKM@cpIN?sO?KICM?g?O@S_^?hXmBPyBJWWY[UQ@c_q_@?HfPwTPHQUbL`Ccr_AQAaC_SDmSJbYGO?TIeoAzgRQ?[lOODCbCpiHOsMkK@GAXjEOAG`P{xQUMQBGgw@@?[@HAE?^Cc_W_P@gK[g@A_aguoSBZLDG@a^JKdDkBxyYR?PDCBsgw`Je?@?Ki@sv?PgsQGGGBE?@u_AKH`BweidPoFK?sOcOP?cj?RHETCGgBSEuA@Wu@GUl@?qooCAlUb[L@W_JBs_hj?Akc?gORw`GVxoKoZ{swgtREC`?c]s[I{DiqPX\bVU?nGyClGssucWc??E??SM?QKoKV]`N}wcOACF{WPiO?|ABtn}KXPQfIT?M@USsg_KOWw?Y_boAlF@A]@WryjXHYKCW?B?TS_DRGBq@GLaG`Ch_kupCt@?jqG]_dKIqWM??@YGODhdYAAD`cngndPRG?RPOCaCEI{a]osaC``GCaH]L?htOpWgL@CSjR?C_OKOGhsCfq{sDFb`Zl_kGHS@@EAhZ`TYgKMg|_W{Gpm?EFR@HYI?APd{?Idp_B|IddQC?PQo`a_oOagkSEGQeOJ@W?HoWw@KB_`??B\sJGO?ajCa@C?HE[XpOMInsaYOVOj@oqG_[IY@RF?S\GCGGMaJqDUHp@_pQOEh?K}POU^kuNNQFIueo@I@CqpCaUTX^CCBkO[ah\JFCQICVG@HICAZoXbnOTP?qW_rDHAG[gHu,False,0.0070738792
~?@ciKSDCvaKmCk@bOMUKgoAO@wEs_]@_EoClOom_GP@EuNG?DoGAFJ?g_KewakaWOi?sX?ZpyChhJvUJHLO`rO?eHsHOUeTrdGgyI_WiCNc[`}wACWOaOE?MGsqL?plGGTKB?JAG?RIWGGK`Cb]AO@q`DKp\eDLGS{oGPL??D?KJiQFacOQ??TcBhCGO]BADcGIGAAIAIN[pHEteOoEBGKab?[}cBo?dOrMQFPYr@aDtiO\YBEQDk^GBOaCD?GBK`Q??NWNKOP_ar_OCDhXkeC_p@R@lGLdQgWKhC_@eXoATKddPQJ_BAYIidAJhwC[?G@@[bbBwGAWR?CnaoAWETe\aYCj?kyzGXSPcMW{at[_OKOIGYAAsW?CG?qDOXsD@~qiIrkUh@_Oy]FD?BaguN_QSahIeC]gP_V?B?Ig_LWCQ_tHICfyRKqHTJgRqkBhoKRGaN[NBV_oCU\_]_Qex?k?AHY[GeB`tbJ?AQuIfrbEBPzMA]MMCWz@uo?_E\d?WpgaJkDwSOaR]G`CJOwiLxk?c?KGuDwqN_EPp?bKU]eAdI`af?kD[FxtWGjAguGOXLoeRBK?@L_@qOo?CACbK?cCTX?iw_Op_x@zkR\zogK_PBAcE?KYC@C@U_HseVcRMNw]NoXAKEF_DAcOI@Gk_FcdGr?@ICGHKoc?hxS[g@CA`?barQLKghrRTB`OJRw[aOCWkJ]|ocFBBcSM`J}?OdxG_\gDPR?PHo]j?VhWJqWqC`?KG}CA??IgOatk`_s__KLs\H`djEI@??kI_eksFmGrWS?AHGJRCAyALAMIXHO[nC?rVsSqCgALZBa?~,False,0.0070800781
~?@cPPPc\@H?M?NG?wmNTFU?SGGLFOEZF]oESm}qD{z`{dQAIWcs?I?ONlQ?_@OgKPFxL_W^h?y{FVBPEcH?p{``f@_HIK?XYYB_gkXhc?AccavhQhh]YcI?idKKjgOj\}BOACOPEt\Av[IoBoCYSMbCq`wRLY[fG?Yv?l?SS@LA_IbK}AHqa?D]UJD[Wc_GpG?jQ\hCmqBD@?aQ?`cMS_g?C@EoBgKxGpWCHQGiG?Ok__CaiPCle`Vzkne?CZAGUzF@lOHAWC?cSoE\}Q?QxxckIBpFBUaCp?dRA`c@D?Oy?xASgKXw]@_hnKb}PC`IKAeF?QhK?Bln_oOC@FCA[?@SCZdK?h?QGVP?_kmcip@e^GAkPVohEbVeOAY_?JD_?TpAsGe[@Fp?EMov]BCkHyqnR@@WLGF@GStCP@DDKflMdk`i?h@HcTTHpE_bCkW?raBCH@CDfPGU_QJ@TGUiDIG[ZQ|QJ_SPAa_AyHe?uQQ_AooaCAtOh_NGACH?H_g?OLWTIHEPZsZJIhcBYJQGwCzoHAUTb[lx?FoGdcOpUmSOo@o`SOh?S@OOhTy?@@iqaLUHIKeGTcAgyyWqiHOAbgDFFF[jOMTkal_gdbOGNRSoCACU?kA@aBwXeKB@_?O@II_WIQ?SQTo_K?`I_joAagEEF@IEwSXzqQPpbrf?q_AO@Vykk{gZTWgBIRrOJH@G^cABHHECC?`?W_oXAgxMIENKDM@gbo`_pv?ENFJ?faAP_qAlGOGGFEhPNPPyhTQOTdGG@QYuHUW?Gk@GGTCKDQFAWq_dKGmHsx@idlDCCYIfwHKfPB@?XP?bPgGW_,False,0.0070672035
~?@c_YgngSGOYG?\PtqhhJ|JhhA??Gdp^`ZHLWWbW\qGHleiKZIBXOf@uSgYgccA]_?CXTkkksQ__GXZQ@[tY@QtAJ`FfGG]Gec?Z?JEcO|AK@cGtU_S~Oz@T?CK?euObiBE?QkGsHCh@OO}@eTnKc?O?f|g?zEkg^QDp\yqIkdEEBn_YdBG_PNFJWQ@@lIavK_qw_@?l\BqAAHF\dSnOCkGSDoPaAE?g??LSH@@Op?{gx_?B?@FigolDI_cIEE?eA?GRGOaKp`RLTofgl_FIBq\ZG_Q?BQOGUErh[LnrFHJXDgPGpk@AMgrqOAgPUhSfGkK_VG?KVdO`?gwa}J[MIA?C_@E`?mCIDc@`P@``Bci?GNPWI@gUGqCeGQZoEDAYKoFcgO`lq?AIS?uhf_GkJY@QCEmUrqQdOEc_jO`skSGCjqPfY?FEPA`KH?frCkQa@FsrtCiWdKO@}WSeihNg`]CAaUOh?EvcA]oIAXEO`TaUd?pR?swEoPJ_OeGPpcci`q|F{aCAPHNKPA?CFJV?@PaW@IAWbPsc__WjQWzCIBy?cCtX?SIgE@EqAAwFCADw{jHBCDE?O[oOS\okoChki?x@BMcVN?@BQ?G_UDIEMI?vtZoUHqqCAGO?F`W{@aWdSWWBFCKOXLI@ajV_@HIwGA@jeMOcXRF?IAqeyQIgB[Ca_Lac~O?CNSA?@@Ct??ogoK@FIks?OC`LJQuGkCQ_aITBPAC``iQggjGG_AVACOlBSdo}IAgs`FTBCFxk`@BkBPi@D@GWWeL__\`NIBO_ZaC_o?lGkToha`sPGa{iaYp]\SPB_dbx?_KHKDus,False,0.0070090294
~?@cw?dH[mEsTc?`XI{EcObCGW?@UE_sMNXAUYFwDBsSQ|ha]rHdSa?X?CW_pgBVqDAeQMIKA?wLVCg@CHd@oObcp?|IKGYXGIdCGS?k@?G?p_CAAhsMGT?CRJWwQ\GOWU@?oSGxN@`@OC{Ak@_YJO`?jgdPp^wO?XSaMUORmCOCd?`AgCBeNlanHJXL[O`@AhOWOGGUCp\jJS?MdUOECWAjx?[twaEBgLI?tJOvk[rA?FeS`RKeAFlCGWSS]`@eiQI?KO?I\ogU?V``CGnaqJgP^O@__QuOoRh`@xH@Ym?TwsLGuHKEK?XWO@mqu_C`@DdFeGsh^SWQcjPsoCOb_g@QTPK[[OEXya?aotUPhHW_gDGQ[BO?oc`PosJrG?faC]?A??X@kPpaWK[Os?hTK@hp_kBqbQDqp_@qEZjBDSDWAC?_sBPJeoQItIqwW?pWG?E|Pe?op_B`Y_@NoCJbkEaikLLsBT@vD{CARCu[X?ebOHUz?_B`_RACA`[NEBm?oJ{[gQg^?{k]aH\t@BCcoUo@@IKJc[i`@PGBsUTJTIQwgOAS\xG?JH?fD@RxX@V@M?iX@pGCNbWQDLa?@_toAAW@pIfAfVKheBXWoToGTD@YA_u??YCJoXq\G`PWQw?gVEM@NwEGj?KvAGDd~asa|AFa@Po_@CpeTwMOFEa_SG[b?j_~Pk{W@VHc?A?@I[EEW}WdEEMDDWFRo`PdAHD_a?X_FDXIPYL@Ow?e?OgOXoiJH`VCGTA_Lc@Cg\G??QYG?wAPrW_?GR^WCOOLKl_cskp??AJkxq_~?dYSfIzEH]o[rAcoocNieoOKbvNhw,False,0.0070359707
~?@cLGGDEEBbe_rSzUxHEICPAaGIAiICGg?tRAD?_\?QqUt?C?bUuMc\EC@_?WS?jSSfakgAoxAfm|[qCIAJqHc?GPZnLC_PxeA?em_aQgXS_K_w\GTBvJ@|?pbbbJ@@aAGNh_PDWIG]GKQHCDnQ[f?]zj`H?KDUAQnXpcFMtcGB?o@KPgb?gcqqAUnOCH`QU@iOGAiTWyHA`?aIV]Pb?MhE?CjGK_q\@O?OPaT@ocgx_Q?GqxJBfI}`SDpv[g}aDGcVeWEHIwuOuCBJOY?ARrgCtAi`GuA?p_@_G_SEbHIWSkCg@er?k`B@E@GFGLCnBC?Eq`ecCGY_[?cONQcD?wUJVDDTasSCEAaQ?aDgBSb\F[gIUPsoopK`OdGPdcWKO?RFGZ?PgABG@hEHQCQCU~mwwb?IcLr\WPw?dduG?|Qc@GHWLO?OUwUm?a\?gSOdXHVAhSOWB@AP?PlGX[_OPGkAVBV_Hy{}Df`WeOgAPEg[zG@P`QI?geKQCkGCkGB[{[YLxP`^ZaQhOa_??oAHTAafdDOOyEGqAbENXCRWQbE?WCeGS[D`zKS@GB@WGb_C}AhTY`bsPkpFQc|RLQ?d?k_fHGwAdOVGWpT?iRFYwziCTi}?Sb`ToK@c_lJje[x?oGAcCeoK{Qxn_SH}D?dBZoPOW]gEHWiIk?DKdWiGaS?^t{?QQNuECiP_wGHPCEOPKcDAt[iD?b?E`WHEJHSUpFR_KC?J?PV`ZhOp_HGtn@@EPqdDGZIbj@oA@?r__saHO[MhaE@Ii?cOCBD^oO?USDAF]HaDuk?bZHOOcawBcgJ?\Ak_DVHIEhqq]?P?W,False,0.0070371628
~?@c?i@Iq@IlOG`?AH?cIGtKRdCtD?iP?ABXa`_EGfQ@eRQGHM?iCKA?_]edOPHgyS?ICnL@QuFUIXuuAoCMCK?RHqAJvBwT?OEUq`oIGO`Om?kSwGAxJOoc??LTcBA?CI`aLgLp?b?`GXBsCq_MQWHjyfTBGAzBeEKQIoA_cgqg@?VX`?k@sbcGo?osOIAQQ@yQ[U_D_Zk{UIQO{cHKKGWDxk@BjCHQe`UmJSBgAUQJAZ_HcKkIyAO?X@o[KwI`]@DGEsTCPSMuhKG?aR]_YTIFhX@GgGKmADarPWg]WIQwAgd`rQ]NikaStDtJKKVgLC^ROE?GgLiH_AhuJlLWI_UBje?bB_[K[G@GxKOZMJDprH?IOE{FOegipwYHsH]u_oyXO@a@CwC_KF_gfWkAa@rcR^KY?BOw[dMtX`c@?[U\O?GopeXOOTcNuP??PKoICLksl?BG`wCXjY?NOeyDh_EmYi?gi?WfVOQk^VK?MPYA[cRQBWRD`O_WYc?Enlccg\mIAt?CpETGPC?Y?_{PQMmf[AQ_O@\KHWID`{ACTQpo?_G}BgA`QPLG@DbDoIpIjDar?rFcHrGa?kGOzJX`_BC_Cp_rOMKp?_FRgAwYRP_QDTP@MW_Y@OEOHc_yWpKCcOkCJQixcdOCyACA@SsgsOKnGAqMTACEZ?GG?~??YXPYAiBQOFoSDaEOaTRQu??CAsGnY?MPLiNS^?i@pPU@CGjy`S`EiiHi_iMUjo`mH_BEDG[?Ab`oAtD_Q_b{OsT`GF}F[SB?BRLp]Ya?ONDFrPahGQwI_C[]O?C_Y`pgcolO?HfGZow^U|mM@@CYA,False,0.0071508884
~?@cB|A_D_RmVKwCHlyFsg@@{OhnIXiZC?WVGVQO_gPKg@LCEN[AyNfV`C`I_?Uycq~@LR?D?XL?OBScRmGC?o?QOpPixHP{?mHsPqTxp@SEdG@gW@dQJwoH?KeqOhbGWaeW?gHGa?A@\_OO?cZ@@wy?WMbp??gEOp_qasAQ@FaTiKa?ZQC~absGhAWdAR?l?YLHqGQkycRQDmo?LYBBqVPGHDbQ?~QAAE@kGHFIpFQbOsGOZOiCOBK`rOPq@rdGo[b?OQB@sR?_o_AMq?CluUcGZdbU??FEOiWIO?C\o`CLI@oCLjPDY`quBXeCw@CaD?PSNuAbAX_gYeFXagIKOu|ZDO]WIBG?`uQc_q?b[aRssPk[HFTBKIA?wrGQCG`xOscCmO?WfZCqKpBCCKnsqB\dDHvEB@HN@|j??p@@~AB?P[S[qHO[bS_pt_QnX?QOpS`JB_gOkkG_BPOkGG?DBAIkT[DCBk`v[O`WDgbgYOSOOeA@EwGTo@NFGOOEAw`GmCdGBLGcOit``I?yAGSCRi_O@hGFt[v?`KmCNAnxXMXZVOAGvlDp_FUFOogAgCAQHskApSCP{_IE_@GZSOAI[f?OL?iKOLKQwxRo@\_SBMiS?MYHKcpDooEhmgQ_O?LOYH?l?A{@@GCuQKAhc_c?ScbXQq@DeDoTcS@dOSljgCulnEeGp_?^mEhQ?@DZFG@oU?OGAbTngK?SaZUWDDgkoTOJoeiP_V@kDD?U?^WeQqd~ACGdOV??_EcWJ@yrD@[rAPSwO?ytaimuOAbAPOFLq[@I@HlIBC_BP_maUzGyGP[K{Zgc?CxXeMQeL]WcD,False,0.0071120262
~?@cUKtV?eJHc_QPIESpDi?]EcfUR??CpOAPzyJS@G@w_?_TcDrh?@cSWqG@PocbRoAb?BwXwlHkUHw@O?or??I\ok?KaLI_GgF?xWGD@W?eIWUoeCCICl?|ELGGHKCQ`@LEoOcEgqgLaxOe[hCgzgog`JoD?sOTCRhIar_{A`PNUG[WA@FQohHxezISCfSuE@Co|yvbRPGBId\t\HSAbyGP?CC?jS?A_qy@POU?lmEGggbR?bEego?`iOKDG_kNofKC\GsBAM??`@?aBjODEWJH_GOoHo_PY?gRmWK`QTs?_o_oEW{DS[X@LX?Zx{RGXOj_eraGP\gWJYgRHeCHViDUBANDEJ@DH_CDoC_CA_Ce?HEM_uurB_gZ^Y[OqT?cKDAI?EEEC?U{MERbKJpiBHz`GCOG@LW@aKIbJIB?S?VHEIxPCfS?X?MCAHyWPZ@o?axQL`L?c@XamQhBSmGDqsvXKGySWZ?zOM_cuVRQMaOMBst_[hQgPdK}A\QfOQSwS?cEoHThSy@pa?OQHZ_Qok?TjIPK\K?o[sCQumCsbA@HOxkZBa@@hOpeO@cOqqqaKCdkJyjIm@R^Ws_A?S?Qsa??xIY[IYH}AZEBgBK[SlBSgwMs?YAROKLgPaERKID?VnTC]Oes?p[WB@AaAgTgAr?s_AJF^?_ATPABHCQox_]ohOBg_GEI?ACgoLOr?Dom@ScO@WRh`NaiSGHGOkaifGw_rQ_CCSP_EA`Qw^u?`CAOAC_TMDG_wDswq[p`?jMXAUPbUodEKKTbwCvnoMk`UhXhSn_gF{?}?`_B`Xw@QSoN_ksS}`CMoepG?XYYG,False,0.0071139336
~?@cS\AZELIgkQdEEd@_]XSCogGHH?UE_?w?OAAN@\bFe_Ufo?gS?B`PAcVVW[ArVLP@EAW@?CZo@L?sYFc??KkKv?Ggc}?QCcFG]AROOK?GHH^UAAtP??N@Q?N@AQrTZ]I?GAgyBHM|ikAY?by@qGC\HnsAwMnoHaIISQBC_GuIOwGOCkWejAUrXOX_tSy`oV^PG~mQwAGSwwCXqSUplCSHOPi?_bSnGWm?@P?b?Olq?zDKbQaAZ_JCgoJ?XAG`[rIOotC__wDDTBbtfsOkCD??p`]?b_OBAApG?LftPF}dsGUcZhZWguON@lAuboM__[L?bHQaRCK?BSGjXEcHgD?vdCQJ\E?X[q[ABaD[L?PoEPEbLa?pLHCRr{fg[cTZ_BfJKO_?BphAAk?[XiWGKH?}?NCp@kA@Da`HRGq@mJ@?GOSAslt{?WuJG@{LbE?AK_mosbEQ?RcMA@TrI@}XWDu@\wYwuegRkDyIR_`QWXqAu?H_{H?_rIMPDDJH?wQHaH`PpGOeQQiUMDuWCtg?gBSOz?|CD_Gp?Q?GHGO{a?RXk?`PRc?AbTJ@EUOW_SgRGQY{FMMpAODQ_QgQ\?DIa?KeGYPZSO?]y?ACUMaQFG_AUTZS_cgWkWucl??hlBKQ?EgMMeS@ka_oA@CKeF?jn]`cSgbI_Hrs_OwTsb@T?PpCowRiTPMTOA?_I_aM{NoUOm_k?eEPpQGiOkDH?`DkUUiaAA?T\aiOXh@`a_xMOGi`B?gXE_aC?Rseli}??pY{HuGolTDGa~NSQX_SHM_GpT_A@uU?_q`GZO_acdRTyFsaUZWRGAQEcddv_?bCu,False,0.0071229935
~?@cEG_[GW?C}cDAMYColab]kgLapR?gxLh_OWq_llVIbCaPybGia?Iy`caMd?ib[OGgDJ_P[AdeOQG?EACsFGF`X?CGb_hDiZZHrKE@qCXOjU|GPS}EucOjaB@SwF?RK?anGhb?^XA\S]@bw?S`?bCk?{NJOd@wP?_WYGKcO@CESAw`p?SPatK_HzvsKSqEI`KTIwE_KOT?LIUJ_?RHiHtAKOO@gD@k?QPCwI_oL@JG_?tAaC[HxmsOkbVkLHcg}EU?d@??]OPgZLXe|YK@cq@@dqeo?r_G?pKWGVRoGJWNiQCW@BuISb?wN?ARMuxx]ieGM`_Bv`?CKBEo?WCAmX@IXCETP@cKDSE?TCNCW?eBCp?KNcuSYDKEaC@BeJKCAWYG_ADGagXdXUGGkF]^tqMY{I]]?@`a`qWGWW@MK`[b?`NFHE@@`g@\N{{?[?kbSECEIogKaEw?UFJUAWz`OAC`TGcFC`QSQDOtKPCZb@Z??EXcpSyAaO___YW?CWgOiSIQXc?OH_?S[a|NgT[?IGBi{Xo{OGCHyIaCsQBc^GSV]?V?HoaaMPYFkh?G`dI\Ak?AM|_@cliB]DolL?WAsgJbP??gs}aXcopA@_?IiWyFQP?cQWQOa_]{ZC]YmIEbk\AA?DIXGCQa@GWWCD?mtJdI`GcK`R?OAGArpCo`LyDyU`LYwADBbqVmGQWBOGGOC@MwECC[JD?G?cagqWRRPgpR?acQIO_VmPxEe`HgXMFVdrsO_BCGvFaJk[lPA?iAAQGX?ElgGAnLwIHPHLwhK[QhSBdRCP?pddFlQVOqt_wQ|QH?cPsZ?H}WeY_GL,False,0.0068058968
~?@chr|P{OL??gBIpqOC?bScRapOU`jozhrhTIAE_HaPi~EAEeZ?g?KAP{g@HAHTQ?CFCDBSYCo_oAAdGIWDP@wtKlAg?pEQJOQdCC_hEiBV_Ege??O^_UHzSy@?AniEXpgGKCU\TMUfcWLH@oCWQkXdwh[HcCgadA_A``qQAb\o_EPDq[MG?IW`lIc_CgCSqL@yAQRqIAqghIddcg_J`[x?@GJoG_]fLG@?_uJctHKaFTCYO?pWnk?_GGschSKR@pFTgJeeIGkICFI`MoGUWG}vSrC@i[abI@^xiGL`_OC?iG\tQ?aAlE?aEmPu__wG_?EDjjVCVRHAHP?`swlOOWJEG?J]ob_a?EQMgCEopC@KohPOrZ@@WCOAaFRbYoTO\qGRGcR@KAiXo`lEbl]yYCcj]?cPA_C?@R?dWcJkOiOCW_`ahwg^JOtXGog_?JoB?QEYccRXM?EPjUcQAC@_]S?YHRy^f?V?bQaKMKEBzk?uaYw@AG?e?WAg_dG{Po?ECEQOJYGKTY?IxExtK?giGSmQGI\pOKAOANAL?X|AVhHxGQCqEPpOu_v@]O?CfrTJXIw_ZWo[?PWAaSHVqc`pZOZjOhRf[Lp`QTADwo?rjfaSpUED[DUAOSa?DuD?k]EUScMbiIlYAGEWbQbG?K`OdYRCJBu_OhCSbSOQEKKs`XCHpD`IqZGHUDbVrbYD_KoA{RAS\H?xOPOQkIG_CFpC?i@`]Ka{G?uQS{X@^TTAHA^`AJ@aFOc`GbEK_aUAhgDSP@EK_ibGP?@_?EPwAH\o{dKQPT?`OAwI?SoU]rc@G`eeO@?]`?UI{``}[khAM,False,0.0069971085
~?@c@owoOGSIKEPS?sH?[gvX@uDScmkKAGDwCGISHW?ZBEH|Qj?@ChDP@GIaRW`We_CHgwvnHhI?HiAxGQ{kJ?bjggneWbJd|KGlEx{DDpKSwmQG?ZoDroHBCLoEtc_M?e?kIoNGeMQcHULIGC?S?_zHmgRtdUjvcAHPr}d`gWzc_A?@BakRxcvdw?MBAx@G@gcgDTCgC}C?OHsoZg@_@?v?axPy\HKT@HKGXp_@?@OQR`TP?GOT_SS]PGC{G\S@ok@iBAsSOJ_B??xQSOh@P@eGiPnAO?AFAK[OlD`?Eoy?X\PI`Xir@OFSJDo`EAlIIQYDTSS_ongOrj_RFe_dGIBCl_OPAZ?_?PD?@AEwA?oSB`O@@KOg@DSAQeOLPc}_Lc@B^@PSgPoIsOC@HAvrK_PQ`pgOOa?_M@DWVACCBJL?SQ_?@PPwXsqOCCmb`GIhalYeYmB\t]qA`CAKCG@?S@OGPj?kaJ_LDWU[iChB_A_gc`EY@SQVdOXoAAAIOCgNdT|WACNG?@O@]`uKQD?UCJE`@\]ncghIi@|QRkQ^_GEO?FgWIByHD@AJzWbTvK|BFIwAhCADBaDpcP{?ccr_cCjgVkdkSOM?PqOFIGCaAdOcsSJSUQxpG{~d_@F|iFWo?RKMu{dc@EKpDVCpEWsXgUB`tO`UZAxDC?EWeO_kBALUp?awj_oEqzbdF`_Ves]CKA\Eb_?VyGOQL?hPfACVFN?PaFXLe?QTQ@StnS?UDYIg`?HAwEIPK_@`_u^pGLu^seUUE_sJi?AC]HoAi[EQFkBSeVSB@cW@GwGSHi[}A?Tk{cD_Kox_G?OLAoUQS,False,0.0070171356
~?@c?zjBO|aFA`U|{zxo@V??JMCcSWAj?G?`@ILHjPXwd?wKo?S}`oqI[BfOL_LKGZjYOpSEomLK?___HOxJZ@MEY]?A_TLLEcnHcXaC_?@nd?wqlglBhC??GGj_aaPJ@_ZTAGOgEcjD?q@BKQOIpe]K?@_~o[@qc@LC_TPOBY_F?U?Z`degFpxGj?Cl_H@PgOG^Koa?_G[KhaIV\ygpgp@?kk|[`W}e?edubPRRKQoCb@CQWrBrorTgVk`@xSCgaIaYG_{iP?KH??wk@EHGpEO@?Clw@g]PzSdkwG_@?_c_[@OD_`rAK_qO@?uAT_hHgKooApo`CCQDnSOEpT?iECGCK?yHPOE[\Cl?v@WGSyQHAAHOGKG_M@GjG]yK@Wqda?xlOvcQaI?UCHoUpK_dCcsR@P?wAVGo?wpMGGW_o?@lRRl?OcQ@gYDQwOehNOJABSntYP`iOJwWQE_HBUbQSqJEy{AaUX@cQ?E?RlCySA?KOcRYG@jO_e?OvEQe|Dj_@CG_BAgR{Cd~POQTgOCYiGPrHt`xwqg_JB?NiAw?W]H|?k_Y_DDEOHW?aWK?_AHORAp`UyHgg|w`?F[A}Ao]?eWIH{WygFeqfgT@_?j[QC?tPdHYAKawa}Vo[PZACtBQo}BQOIBSmsH`hQT_aQwp@rGIoGa`[pTeGH?]{LZccET@qeD?Go?MPTpAIOJKAqAOhpaQVDfOHCQXdGKYUhKMBCFJW@bq`ZNP?_?`bLsBToEwBQOkI_bvK[cdcChfX_QAELiJ[kI__DAik]`EE@P?xOcQadNPAXgG?RugoUP_`ejF_EQbPVghS_MAL?h?I,False,0.0070109367
~?@c_RzGiRIwDGGm?SC]ADsqp\?GGI?[hB@\Dn[SV?kseGOCr@?Eg}kB?Hz?oScuPOXFN?@fUEKoAhwM_OoGaQ_AAuN]C[Uc`OHc|EKN@?CHD?D?HyiGYNHGo@cCCKV[EuAA?hIPQ_UaGb?tkq_OAs`I_LGGPqCAMp[B?oiO_`^C?GN[?OdGRVO{F?CUgoZcPowEGQQDO?IMYWc_u@In`OhaEdvdP??BhhYTOAW]L\DDekcbDIOGWAW]SUa?GOQIbm?hZCGIG_kDq_@GAGmEP?[lO?PDlQ_Qdm`tBfHeI?t\tDgpg~K`SBOTt|OObl?gmFGiG?YQBW[[IQ{ynaE^?EfUlbCPW@ASEGkClQFeqQEO?`pWGWNRLPC\eUr}@eixiClPTeGjwSW_E_?OcPscSv@JTwx_DAzcSQCC`[gKmoPCvfQDKzfLAo`T@qYp_OdQiXaEJ?eOHQaS?KhOLxQ{?Hckcx?asBo@cCW?bVU[dgo`?G\WDIW_MqDyQ_Potc_LAP?h|GFaCOCSAjWSAOCQCCgOCiOeCoSB?XcPoQ[ZICqE?fXhzI_eDbOaG_`@TgMxOPK_[O?IIgsO?QF_bgjbQgN]`gEEw@|aosAhi`h??SSXgoESeA?SKSoBHQ@Oo@vKKcSsXYVtiRMHCLC`IHN^CATC^`_`g`O\LlOdRD?@CsGEMbgHWK?`?wD@P_BP`EEtt?CGWdml_oOIhd?qYSNQJE_OrPiQ_kCh@?oZnSS@zx@^GkGLQx\?a@DgqsDG?AYaGS?WDfVYiRAgYHDDp?aeGfPfGw?A?EGucSOIugBDq?_j?bIPKtDw?zo\_Iqae,False,0.007101059
~?@ctcKZYs?iAqR@MK`_RtPE`AFYC@Pg@B_`Ug~QDcg@gNOpIEG@YGtCOFDCb@YKAIQiMUjQYIQ?hCJGIrlGC@EBowF_whgcXA[KbHG??kDBMAOB`S?AA_LoHICPAhr`HcMHdSsaaCIC@tpo_Tg[O`GA|CC]IJSqhICEPO]?@jola@g_BLFAkrkFdauGC?Ho@aA_DkED@bSbOBdjqOB_DsaaB\DERQ_VMwqCb[g|dCCXZ?LOJE_GCj@p?avPk`wsXabMABTA@BT@BsSdcEe_Ib?YOh??Pko?W@msR{k`b@UFIGOINhaCHKPPyWaXHqhYPO?g@O_mW`bzA_?PjC|||?YIaAUdQC`AbdqPHBxBo@Q_lhWO?MHHOTRrI_GvaxP@GEE_PPaSgQANjMIXs?`clFCzLB?GI@TeF`G{xGpZFbKBO?DooaBt@TCWmOZBmy@So_QAEcYew^eHZXDPD@AKbe?BRjaECHCp``LVaaokOJLpaGH@Am]Sgqpy_bUTszKgALcsEo\IM]A_Esx[@FowgYC_@pldTRW?IWXLWiCEOA~ED?@FjOGgbAA[r_TI?aKFWAC__gIJc?tA@sH?E]bPGQ_S_CdaqE?F_ET?CmuKUbQoDA?ODGASIKH`]JNvRS@VfBjWs?_mojX@oGxYd^?|}Q`_`bbSgJuDkL?ARRoMa`?aEdD^hKNv?@u_AOhGBFG}IGgJPAS?GG[?b@?MGHm`kcD_OPGQDwkGKDgXpGsEC\V`wKKBYEDAeiEC?t??QGMd?\PQaHWaEHcaoBI?cEvqiK?|PD?G?QdBcO?xPBMEOLLwGI?_BBTSc?ZB@w|Gm,False,0.0070619583
~?@c{a@g?\OPGd@@OSIUGNAPIOCDI@kalQSVj?IF?dDwUPWY?SGfH?OOJ@POD?pKSV`wWIXmUKQbceYCcWJO]MPOmiGtfE`dObqNGCbdaF_QS@LaoPd?MAAhYOCPmyhiyYEZpVUaGEyWxP~y]jPA?sV@aGabSET@_seR?_~OO?CHWGXNS?If]?_Ac[z`c_tCXcVCKks[EAU`BGIG?iJeEiZSLUEZcWE_gIBjGY@zgC?OSoFg_pZcZOYiEEG?_ccHGRRQwdyRCO}ACa{G~zr@wE}zOsxIHFWkC@Boi_I@KELXYUGZUqO`LswcSa?\@CkQrO??OP_A@NaD??GPDZU_TMCp`NOMjtIbT`_tY@]bSoig]GJK{`eGoWHz_@EhWdCl[A?CSoDJ[?dqkohh?jBHgXEoGLTX?[CQGsq@O?_DtEeCDAosM?cB__NssWW_ifGrDGvUn_OKEUcQG@|?Z@c?QU?GC?raACDrCiFDoKoIpH?RchGJRxC`UGGG\??SSC@HV?GSPO?An`RG[Cpi[eHgcHXaTHUT?elUwe_Q\aROCt?GBD?b[gPT|KP`dvF]J@T{F?cF`_x@CvOeEOUWqCZssC?_eA__Oai`AGw?Hso?a??GJn`H@RsLkwCELkAwDEpI_KGqGGL?GsqfK[CaxO@Q\kWF?g]`b@@Zq_mO_AoCdMoA@x_[aEyY]DAy@Ow@HKAaroAWQCiaOOCEgg?[mh`@?WjAaeAaa??HUKi\D{E`ATB`eSiw?hboaI?OnAx^[CPS?iAhQDb@AS??|`kZHCfAP[C?EYtl?TwHDHWW_TqiwuoPgMGCL|IF_cSYTOCG?,False,0.0073230267
~?@ccoeIjHokIQeKCaia?aDOS?OGSL?GbtqWRO`_?AxIo?[[YCWY]RQlqCkONimKwOCLICP~Q?IGb?DFLlaOh?bhWS_OQK`WGO_sIYw??_W?@[k??@?]tCIO~DXW?rWMAAA?c?dFjCAKsceOGIKPIXQCXQQx_CsIIaqH{t?SfGPUj?u??dFZTcK@?DOIm@{YMqy?_?Ct@PEnsF?UFVp@GCU[J@bB?C?hc{YHNlgAc^ypKQE]SG?|XHOjK`J\FQ?gQPFOlH`?WAQBBQfgAC}YbWOjbPQ`OECCOB_bGS]?gjOGT_EiAHaqB`CAIhPFSKHX`JCCC{CQ?F?dfAXJcwAK@}A?yuVRAVORgsiA[Sdb}YEQ{YcK`fG_ydzJQTT]HT@CG?OGTiGc?hAqakk]{C?{vI^UQAKM?UDUdwashNcGDBmcX[qYAIdaJiXBKK_YOSjcUhIgk?@AjKcoha@EQW@@_O?DSwe|dA?`LVTl?KQELiuGPHAR?zj[NWGoVGSO^QoKA_CYaGJGIq}FPrJXCBnKGH_?dbzwoWBGSGaUD{sjqKUHQ_ZHJuYLCECedn?M?CRWGonQ@QDMcA?|jHaU?WE?w_?UAbBAaUXSzHPLoGBEIACCGbgI?a?MhEEuK`IQDmo?jW?xNBGT_QkD`BT\REjOOC\C_GSWq_@gmN?RDCRKBE|C@@DhaAd^EmDOw`e{Lg_D@yHwGo@wR?nB?toPYdATn`bTOro_cqaABYWW[I|gYB_HEsnPfBHH_x@?]SReYfSC[OKeOCWG_a`jsSYQ?KWCAwDo?TaC@WYW@QoR@OIO\oKYMXOCC?G?G@A_YlIaC,False,0.0071160793
~?@cJE@XBi?RAhWEOH`{aWRC_kTkn@KKl_TTf_WsKEk_???Bjq_AIh]W?AAWREoGPe{Xk_?]?WgmcGldYQ_xyMXh@XBMpV?bD[kB_QI@}SG?BXG_?sBLGW_QR@SSSAQjBGOOOGWyJPFKfg@ROy?ABDKjAq@__KFOD``@AFRoFAHUG\qBCS\OYECD@Kcc{?Da?HdCZ[aO[QQdg_aGeu??FiolGgA@M{CEpOsu@GbCsR]DHE\CRAaiRnOmPSAPI`J{?Wb@Al??_A?adMfi@[QJ?DLdC?|KKb`GQMKEqkmy^`SADBuBUc@EZaQwFCGWEHkWwscGpB[dk?GOAAHpuGPgjzJaOpwbSd`CCGGoAsD_QI|cp_s_`F?CyPiYpYWcSsQ?PSZ?OtAKNQO?DkAEmPkAWRY[zdDoAp_F|YNN[B?O_JCa@TA@Dk@O]bb`OqSQ?TJPo_lou?SiGAMu?KZCm?Wdt[kcXCuyKsBoIsY??DFHJJQHn??P??Gk_@GgGECa[`q?OwczPtNNGB?D[@U`GgIE??DJO\NhWXLb?QOqPGaGicMGUhiH??RfPp@dTFYrB`MIO{fOj@hQ?gS]CrXkLO?TCCdw^|?c|@cnk?Iy?I|OXDDnCFjjNATjKazQ??@K`cv_FtancoFp|SEc`rBQI`eq}NCMwAY\pP?VjoOGK@cjoOaFxVAGXpQRo[Y@DAco?dj}dD^e_BKBM@CE@hRg?eKMIQ]cU}_?_gt?W[f^aAOGJScKidF?T?O?qDF?OcGWI[oGCAOc[iVFCG_R?aIBbWpk?oPWo@dKGCsGGS[FQCPDO???cJJ_ANAYhPgJLCoo_,False,0.0064918995
~?@c_`?Ih~dc_PP?SQsc?hqupLP?M?_CYPsSERAT\_Ko[AgcQ_HC?x@C@AOIn?cAyBvQakWOhX_GCv_pbcBcRiegIEcq_WpRt?YWPKCc_sOX?A`beamkiNBC?}_DE\CamZVEoAJGqg[a`aPJd}\BOatdwKKP?dcSEMGsA?PYQAAkpg|NS~[i?QUi?xLJO?WA@TCtDPWtLgFA`E\AQLa?CCP`Dxa@nmJGC_?PlJRIaLCK?}R__rEXCUu@UTpe_|po?N?}?IHeqApOMZazCFVdm_IXca__ckOL@?IEwjOJmiOrOyyODb?U}?WCKiRHcSImvQzP@_V}?GPEGKKXQUu@S?cAAiUo?QAZeQaHpnkBCCO?`Hag{wu`AcoQ?rhF[[@iVubdOEqOtHDE@GFdO{Y\_`WdIC\cIOKwC_WaDkPCD?RV@gpQG_rCQCGP[OiDFWIGWGh_wKSK_D???y@?I_CaUoigkNK?C?DEkTEk@P?ykQKUczCOOFkg[GCQDOCgRs@W[BKG_?GaCqc?cOQA_qbAPlsAA?_WGHh@}HEoD@cKWcHcKHhTS\AOo`SG?yOupkA_EaOJ?@ZPCDI_Og\eEcc]AbGGM?dCPQ@{ilEjoNcWPb?IGFgfAQScAhGQc_HBDqAZqbJf`d`CUeN\A??P_?@dGiZEVc?CgLAdGyODOm?_iDBCLrge@?E@_?WSQdGAII^cQCWtCxAq@?krYYktXOs`ODDdsRJNCKgECPOjY|\RBiWyx|oCIReY?fSGAFBSUgugp_OAIwAapZJU?[AE?BbgkqoBXL@EHOTCHeGgnQlBZ@[hs{RBIQRyR?rcCzHno,False,0.0068888664
~?@cLdu?TFGCbRDHP?AXXKkC?_PGJGGbi@gGwJca`kCw?zR`^e`e?yTGD^dE\HFE@y\O?CFSTGC@@@epe@]KHPFSpo?eVc}ShCN?HTCxeCgwZ@@`wWDLDV`CQLQcR_wwXogC?jOA]pmHCa?uKa@@Ja??hQBAJTKD?tXC?kJUOL@OGCpeCLLwY`HAoKCXWO_BWYDigxeLaOjOD^Y?eS_D\?SmDApajGaNcuMc?ICgCR_QwqitOOiBKOAAkBmS_oCRBlvTg@AtV@H@?@a`O]@HBRWZRaYSAAAghCUclpq?AAJAShXTSLMVpEx{rmoV[p_?s?_EcEYOb]{?CE@IAMSAlEeG\I[g~?XyO`K?oMHKJsB?kk^aGGkCWBK_bancW_Z__Nh[cbQC]?I?g_CSAQzy~[KaqGrPxGpakVGDG@AuS_gmFaHHOcgg?aMGjtBIVOQr@_YBSHDg[uWWWA_?ApUrImQS`Tgnw?wQ?GDACea_W{jHjMG?JCA_@caTMJ_gDo@ugn_mWAI[{MA@lgt[b?_GCAU?OCKQB@@C_@SSi|dSC?wpwpu__pwPW?}?FiaHB_AN_GWUXTMbXuMgUP?_di?tLRbQIo^IvbO@i?I?AJ[?BpDsPhKQ?u\BgQC_@h?Zo@B@B_c`ghAAS?\HOOsC?aqO?KaCHXOFtcCp@cB?CGH@miCDK?uWP?Fpg^WM`uMLEhO`Hg[BxZGgFqTM`OoIWo?RkIOwoWaSPKpxOWET?JfuOEeWoIG`Hdo@LDMQPlb[XCa@HgCASuADNHUUStyG??^hGPZOKEadF[_D_FOEcgHgK?_GuUB_dy?aI\yILhXAZ,False,0.007032156
~?@cPC@EeCOYSZAf?ZKEJGL?_?sAAVCGgwCE?@a?GY\Oolol@@c^xvds\XHGt[s`PECXws?gCHFwHXNG\SOu@KPP?onPW\Q`psvK@d@WJz?o?XGGjwBjYdC@GGk?BB?``cA`AGR`Q??API@oURoRo?gCOdoi@ADBIObASIzScISFMGF??kSXcfiBNMAGCgO\DEr\OqEU__D_CabpLJCo_Np?YXEAXgsHPW`D@Bra?OW_IThcWSwbDCISJ??POACPCCM@T?RmTSURWA?SS_EdWG?e?GhG@Z~DO[ItUyDGkASiG?oib@OiJSthSOhYp?Aec_H\aqhXDwb`rcBjDXACKjGkF?T?T{Tk_wJ?]kJ?IGBH?O\c?t}@`xA@jY@gXBFPO?gIKLE?HC?Jm[kDIGwG?SbKgS`V?OPHatAKHtMJ?C@C@Et[gD[xEaTxMXUZO]_iNIAL?@?{KaSoOZ@sKsLeghwKr?AKAOaIIH_I{w[@ijIsECa]?OtA[_DgwQvAiI?HbojWzPglc_@?@nHA@sp_m?B?sANOgPqa|VdAFcQgGKRE|Kc{k`TlOs@cA_MAlijjwWGBH?]?V\@E@?UHDAdOU`ZVZqyGQHSetGCoEVcYrbwaLJgCOawD@GRdka?TopEbE[uOcUQOaawVHOmW]QpCcQsWuo@??pIXT?HSF`[BDG?B@dCZhAiGdAMOaemtOJ@Z|LCCIPUGHbUQHhUoKSE~ODPg}mqj]WRADCS[PAKg_?Camb{IOKMiCl@XGOxCQQP[GyUIeCI[?ZFG?IO_trd{OiCi?MlEfzC@Dh?BMN@aOR?OsfdoaGR?W\oHDAAMo,False,0.0066320896
~?@cCPi_P_gGwKEGCXZNTp_gDFQ`LKW?a@\g?kW?opG?spPSBVGcbEikQ?H@Wfam?V_WWErAdDd_@?FDl_yeT[oCWA?OCJLgLW`s_IpigKial[SDaAGAW?@oY`~?QmL{CVKviRP]?M?_SDcCyw@Cqbl@`w]JXgfHaaX?ceGVzq_vCq?h_Op?k[LGOgO?IX_?KK]o[CVZSOKG_P?eSBzqKzTw@avoq@ABLsKs?b[wKdBRTgiX{TuVUBW_rJt[J_?D_`I{oCuZm@I[Q?SABBQg@]xWb@aEinKdEGIabiS[HaazO?XaowAGhy?Cp_KEGwDY{iCFOkByxc}[GhPY??OEb@Dd`Q?ASZ@x?ZoQOGRBk{oveA?Wsh?ok\[gT}QH|?e?IaCG\A~NSLB[CcGEWQyA?I@@kXAv@YO{QU[_K\?M?CPTQRP?hKNVcPWHbFCRIElHe?LWIE@qV___IM@Y?Oc_ZDCV`_A]l`T?APYiymOEeXdU@bAA@AgHosKlKgOG_VV?odhH?O`GTDA_wUbY_CSb^sCigOLRXwQ@ODEDs_o@KyCgHxPIiOEipbJ@{AqzOP?JX`KRa_C[hDD?C?D@ocK{?CBAWWQQC[JS`pLoC]?RmcEnSSg?`_vJHs`PEORiOrKAO?`?Qcri{xGOIG_BGmzgFLdPhE{o_?jkJ?JIkW_hA_kC@?S?fFO??iPZOH`?_OuaA^U`_@nGK`XOAi_haADY?zueUAFErcwg@GHTFoUIZGZHRU\vPIcCnkK[SOBGcBcqB`r_AtG@A[jq]OO?scoDsOf?RHPXPKFOOOPAS`QAopGPuGiKAC_GP@``B?oGO,False,0.0069608688
~?@cTo[G?CB_aFpFBaPKCK?MfWkw?IfzG?_BYQODgGbGrnfd_RICOtKe??Tb`[DTWhTTv?}gNS?_fXc?epHCMGLci@S?BHZYnMfUNiHeGciSAm@odAQXoiG`iKBgcJWcXdbGe[@wx|lYBDTcddNGeAHFTCWQ@dGKxNxFX?Y?FHYASNosDOKAH{ZgH[Kcjqy_gPJ|Of_zG?WJ@Vb?kHBCyF?[QzF{CbQNC{w?iewgY_C_EsiqOUCwcC??^?M_lAd__F@Goghl?M_oFT\g?MGVGPHFYGW\_YXRaGDWlYIQgKYcp@X_KGeFWPYbQ@b`gBeiP?v?~KKQJ_P_??hCcS[TPCFw?BW@UCTYEC@AO@@LtA`?eOJwfQZ?fMICDATWXcA?AI@A?GDGOXL_?cBed?AORbq?gC?Gb_^iP_\kJIG`oTW_?|T`Wsz`ADAkBYWYDsd]IGgd`CIPeKH@?d_A_k?A_iE@I_EgOXGQ@U\UUafIceEOBgECRUcE?[KFoORoGisC??mjrOKrKOjAA{quyH[C`T@K\pK?kO@h?ODgOqBAHGUDENSKBC@HMDQrRCaGQjYGMWbo[@?^WG_sUrRpy`@S@QeHCPAEVe??Y^iaU?qLQiXCODCKbkJW?RPSdNQUq@RGKO_@?pTg}A@pvaG[MSCQ[xgGKczl@OSGA{ExO@OMCAl?p^tPTgKecC`EO?rwAKbQ\TbOLBDcAY?fAOd?yDHPRgM`D_`PCQWydbeoDdS@ehH@IlC@a?_KKs_@HVegUqBfJgCKEDC@QVIC_Y?_@bwHUxiQAoXmoPE\?O_@iUMhDOaScG_wG@G\AB_XlMoq{,False,0.0065639019
~?@cP_`PYAMdBOL]W?IKEecGjW?OQ@PoSc@K`WE\CNX?KlJqcKgbQqSbq{`A@_FeGS?|kdSGMIGiaseCDWeFL?SgpQv?Qx?crT?QIOAPxB{PDOo?CScuCPkxOIR@@lSsE@[pChOOphZG?a?rqgzT@GhCBnrHIG?yBsOc@aBCoA^bARZC@^qs`HA@OOA?VeECDQ[pqdy?cX??uV?boTKOU@Oe?`clkALGoF`QB{Aad@pAQ?GsJcK?nPQp[?@b_[II?MWGmB?_o`XDKuEHAAdOruqlS`DZ`A^Yrw|AKoCSWICYigGFrH[KCIFgihHODBIcgIO?udApPI_AWAOR`KcO?xBEZvErjCkQU?cHJdYAQ`?lWgyQXFOC@Bc?o{_ayYRCeH_qGHA}L\?KHO?V`QQ@mRZEQOCO_RYa{lC]Gd?rTgvFVO_GeGk_JZnA@]K?X[\KAOUoDoBF@EaROKhVWX@pcccNQ?y}G@OEQ_uRYo_J@pueojQEIgK{OMowHcDZJjd\gAE`a_Amb?ZaSl@rdMKt`DaYgRG?Y?wYvcVXRCCCC~OFFFBAn@aTWMLOw`oAMOwICHSH`hla[]^HS?_G`WAkGJPg_GwkTSFgRCDaJq[Ku_aG?QwrIzSg?V@@FF?E?DOOkc||Qof|dhKO?JjMB?A@_]`Q_JyVPzhOK@NO\CBQ@kATPg?WQ?r_aX_W_ao?p_rT?uXUgGAiOAhPAGxSIT?_F\U?S_WaBJ?@@I`YtkBA_WlbeG?C?Oo_H]H@oOQ@IMMSDo@?SuITgCBIH`ddr?A?QasEWEiECOy~kKCP@YBTcbr@u??qp_W?@UxoGWsIC,False,0.006706953
~?@cjbS_G?skw?oFDQLKD`gHF@GAAKW@oCCCcb^QB[N@qbk?RsGLH_EgFf{TI@doEoLoGX@XWCY@EKeUYWokaU?dDGOZAJSO`K_R@uiZCumP]WJC?OJgQw_KauGgBTa{AceMgJcOI@SgDIBAdpC_CiGAK?_G[D?Vd[BHbFDLCC_jMsHyoSA?aZZ?ACPDCX_Pg`^X?GITOTyQOpix{hEW@EHoccfB`?GCoOc_eSo_QqMRYCA^w`?D_~zoQqiQAb@abGuoXsCOP{ICwiAa`ytqwSaGo^`AO_GFdyEJ_qEmesCpLHDcLhuGAvqFw{V`YJxKJgRcCHAkuEYcSBWzgqXeEP{{CSkPDPGLHHcAHZvpRM?CCQ`v[GyaMs?SDgMd_RcS\OHAs?ChHG`@f`sbwAI`DboUJJ\qrqC??GoGHJARsCAfp?bcZ?UJRF?oXANfLkRLcDFqNG@L@T?V_@OT?T?DRNGueEIW???{DA?_GCGARA`axMaEbFOwFUXbhCkBPE`RMVa\PBBCCOdYsT_OCIDPIJCE]CZ^o@QK?jKAePP?fcC`iHXkAPOKd|c[?OR?Wh_QAq?AzOXql@?U?jRUAO?mOJwCAM@CCsbIPSR_FPEtpcCMD_ZSTD@I?cPlB?VOAOB?cO`A_D@Ufabg?rQAGuY[D{ABCQ_@@O[e_Wpc_goK?O?]LC~BgP?Qg_We_\GOYSgWFJxeLdXa?pgG\GADCrKWo?\U_i?[Sq[UOuia@b_Gz@fAwb\@HPo_d`JHMH_g_b@tOZ@ACTiMYCdgTAOpPOQdA?@XQZVceGnkEcLKiAe?AXmGa_GHPcDGY^Sajau_c,False,0.0069060326
~?@cUPoU?u?G?scaf?_baFodgWUKIeGpOI{d_IGHRY_d?A@?{MIbAw?aIKP][kgnrA?rLCLWKWCm{yzG?A}_FICAP?SGFC?X`A_LjKfR?@cVdC@W_Z??H?aLED?O_AOA?`?PPMeh_?y_CFA@KXP[AmI_YEQmD@_CBHAWx}KITWESXWOAsNsAVpugCZgDDW?ThC`gyBJ`xrAbpwROpBagNn_JKkEPgWc{O_HAwc?oGSKA_AGDqoyGQiaL_o\EpwvUBucISwUZURGqWkDocoiEDAq_K@E?ACwQSO\_^]Fpp?Dblpq@EKaKQpEHi_GK^CMARGOLgCo?Z@_Oco?FgOpahoSaaccIu?XIgCJxPSOb_ttChyEsM_gAgt?[oCK[S_I@AKQXdS[MTKWwOpM}h@wAZECa_qoRcjGO^?r?DoCHAN?GI[HcP@Gs}aKtpMWmGk?K?\SD_@wDA{RB[QOEOSN??K^C[kSik`Y?lQ[lSoGOohMiXHdBPUYKPAxEL`gbWaldS_BJhO?CqW_{^EG`@K`DKoWFDKXKBe@_OAQKTqGkWaPD_f`WAA?oKcacTyAaCBAkmUK_AiM?l{as`mCIHNQOgAg`oC_`?vKGQ?UMzLEL\F}M?rKOncG[`{?NI_zWmJDWo]b{M[\?W@H?ASFc?@sIsHiQfW[PPOOkaPaQGVICwpdBM[hLleChiw?QamiO?Sy}MZsxGSgGFuiGKt?@QPOrC[emGGIPEFMBD?EKOhuTA_EQanvu|?@AdgO?cjL@`?g@BAY?Ao`jaWbHHF{aLRCHLCB?cTex_p@na@KcsjuAaEk_QR?aA?`yHP`iDB@?C,False,0.0065162182
~?@cOvhP?`ttG@tO@GQWRXi`oSaGPQYgdJZIQOsEqEj@`CkUbm?O_[JKUK@PrRiB\bhw@d?\ArGFCl[cWFKC_CIPFECSSX{rjpgSOoX?E[PPSoCEUr_a?S`ogOQVuK}_B@hOAaQGOi[_L|HpBAiQ{jWO_K?I_@VPw@JavOAT?OP]?Cz@J_Q_gfA_PHG}D~kOO@WKoHO_rbXYLem[AEw?i@v?QJa?wP?_lA_P_O\~GWGi@witbIWjXG[O?PHLGOE_CrC`jIRGwoMoWGbbLEp`x`gD?BFY@aOCoWY@OyODS_ZA\o@?@{WKidKKuYBp`vTPCf?h_U?i@eOBoGg?OG][bPc\eQPWrsd?{?`YOcw_CDv`U?P?O@AgHS_[`zWASrCyoaia@GBKebHG@@D_dRw@_sG[Y?HeAgaYwM@CsAK_LxghXCg@m?_xIB]FMHvVa[a}NLhgC[}X?iH\LjNaOICDNTb?iWJx?vPGPEi?RHwKHOOwfW@MqaJjONa?WCtC@CEf@_qaPoAeNWL??kpIFGPg[P_]C?UHAIh`gq@{XOOhSO_npS`IFId`p_j@gKoQ}@@COEEO?TsBGH@eCIOYfqcQ?ApkCeGIKaR[KC[oG_?bQxEO_??o[mNq@KZBG^p?O@bKIWhaGCZ?cDpIS?_oOCLLKno___c@VJaHwLaHcCC?H{mo@ob`VUo_?o?lptG?bLG?WPv?KNlc^BCQCYG?MA?hChgI_U@LfNgSK_?dWwgymMD@bIDDRMPx?lghjAxBphH@jAa_f_UWSTZOCWfDksj__EbC]APVU@KoCQcBtmM?hCTokVqoCtAKSZdJ@oE?o,False,0.0065970421
~?@c`QzE@cQ?EpILCaXcHCWQ@KC_Kh\WeO]?I@OuUAk?gg`Ad`UkR?HtXnBS?n_@hd?IDWEaaelOxVe@]aGHGHCFMkbsJgCSmILpxRQCP]WmyP}Jl?[Y\x_WGMEl`buQaWG?bbwwSNwaMvHd@?DFOaxo\@Ts_H?iCVOsgSfkgZs}gOwR_?AEsUD|gChJTr?SmAbQ_GP_NaDE?G?A`kyGMitOjhCd_cUQCBGGOVR_wOgQ_POC[L[wo|WRZaWcgeq@Wtq`GqMAa?e`S{V?AK_r{ABETS`cP@{?wlV_XTUSTn?\EUF?\~GIPoO@b?`HG@OLX@A?S`_HO`oKQCa\SGgO?_SDVod_BAKPaUt@{hR_ab[?W_hgHKDhRhE?}\IEC`crLW\?@OYC?yGG?MHYFheuDIUeakEUQ{[xCQ@y^oLHBXsXAts`SQAOhDaIOR~C?OD??RGACSBVGqvKoC??WWHt@]?QOl_?Yg_fPDrX?V_KG@Oih@SRs@ioE?OYdg]_HDa`spJ`a?yE__gRpgoZga?aT@`giGOAiRW?d@qtGENEuE|?G_GgL@wOad@qZq?kDIYa?D?i@?aEOrCAcW@Usq_`oP?ACbMO_A@@gJWgAUfC?_wAGB?Kacwl?fUDWGELHGPO[?Y?oWp?[O`jBhRK_zsX_VowHC@?QScI`{IoFND_^EUEGatZ?cEI@jiWKPg_gQVE|O_BTdo\bLKqC]?SWgwiACGTiNzPhgosBC?KGKLAeOSOP?{wLPYeHTt@ETRLt`G?EbOmAP^J`RL^UcPS`?WtKO}QTS`}@cKZKOQxPhBWWAAA?c@gHDG@EIMI[D@cS,False,0.0065569878
~?@cAj@c_ROq?Q_M__BknwsccUD_}_ZLnOx?a_O@J@sDoKWKDddor_FhqP[SDQGDg_?@HCpAJJwDCfbOKR_?I@L@SGYSDaV@LC`GUcnexpBfUkq@MkMEogEi???HK_pq[QADhr_\YG?B?nF?Xb@?@@KBBAm_r_SIKDJX?OiMv?C]{CHsdewQ`@EXzOOUR_HO\pIGKH?gaO}CgGf?NCjQIe?{__OFaS@OpvM@cEJ?NoEIGCsgh[FsohCOP_BpU?wKJCoLyS_AEqbkWGTGC?WhStA{VGWMIer??H@_`UAFp`ROFGuUKOK`kTvmTM?OMpPI?SKSCqPcoHMrqeFccgCIoJEOA@SRPJBIBch_khegmOC}PqbCpCfMg\PAJ_kL?SkzTKIjemabU}o?JDH@OYe?AQE?OJeHbx?@CKkUel@KM|_CW_G@o?Gst_AGf@@CXBEY_DK@}OGc]WGGGgSPTIGFsCK?PSUgRCa_m@M[BagdMdWmhAaOINaoO`FAPcAgT@EhHFPoB_IOa~OX@UGRYpIpA_IOD_O{FPMaOsM?HpPy?Q_xoiK@_WEtFe?D_CBpOG?BOM@GGDhhO?R[Xcvd@eu{wO|EoKQuN?IiUAEP[OKAtG|Y?_]QS``?BaHCJEAILRpHWBcg_Ll^[ryzOQoocc?BJeQ@xQ@l`j?EmsUG?GkuqhAVGSCCH@?JgLPAT?l?HKBOnGSo{WYU?m`saFqmRfD@oQAP`IpBBaOsbULl?RGEKha?hqw@gX_wNPRQ_iSQ~wpknWGDg?Pg[?KWEBe_bf?WiDoXQsp_wou@ENGDCCCAhbU{?gIBZj?_gNXYesQE_,False,0.0065820217
~?@cKBECa[A?qSHjYA|WqiRXgP\G?EA[BX@_CsupTO[RDIqHIBuCcRPWc?S[Sk?`g{MWh_F?B`DBTMDxAcSCHCOg`\G`ObWZOEL^?xggJ@Ih?[{o_o[k[FcggmYEbJe?AucFMAiCBaySP?PgAcOfrwO?C@HWm{i?i@I?C?tZcs_WwS`kD`jIoLHXaGsoIiqCKNwHRD?x]b|OA?jFGP?[IZqQC@gLJ_nXTYBFWQ@KnG_ESAUGDKiPPIGdqCHwFQib]VgA@a?GoPaotH[[EVS?jcaPWpa_I@_jMw`EKHSUZYAGDOVUsgHxECgp_HcsSDGC@D_AY@|JJQF?`@jGIC_oOG?AKNiE[?xFECCP[aWC`WpUwQAKH?TAhCSlG|W{eHqKfQD@KOBu@iSPDJcSh@aPGGQFhCBne?]oCohJS_ltOGOTCJDQ?IO[QQPGL?QDOsogX{[SBeBouABKQkH]rO_Uk`qxzC_AaH]RhB_CWpSE@wudcgCaAA?@OSgtWZF@G{AOImAr_?C_ccE?s_{rE_DdzGccIQIQH`KpPGsGUgS_sOgG@CCYB??KaOq@gaiWC_NQE[Irfcod?CCae_F@?QKF?}l@XW}aa@Fc_CTCOADeu@@{@T_Ks}\Pge?Q[YTiYFYkBMXCPGCGYs]cGbss{I?`Q[QEJFkKUVKHIDDLOF?l?uOW_K?^y@IBt@TJHtUXs?PDDC_T|EqYKXcmHMRyXKDB?P_ojE~[CE`f??Q_AGHK^_?HKX_poIWwFA?\SADPAYYHYO@CVcdFT_YE_DRFATmAGZaDd[IOoPiOANWa}j_DWOGy^A?REOf?oQPEcGZ_k,False,0.0065588951
~?@c@xEKPACD??Fq?TcWEK?S?fogE~@@AwOSCQpEDI@`cSUfOO?}n@r`M??JgAcIk\qmiI?goTEL_yLLAU_?tspxE_gDL`dAdsdCJDP[Gi@|W?rmRGjCBElADHCJ~?SATuXZ?iZh[aG`ccH?@fDEDWFPO?KCPgkUacHod^H^Q|MeFckIP_aAKUDcf^JHIsBJOUBOI__ca_ED]aIjo@KDOHC@?Xy?_@?EfbgswigF`_kbCSgs?tfYYSacAI?PM?GlCPKECMLBtzQPV_@x_OeDAU`EsUaa@JohwLQlATpeKQH?pmOcOGs?HhowOkETJcSAK?t`_IGA~`CO?`hOMHEEKtFSBMjPfDcOd@a`iPrkbuFAIzoAAiIb`dCCDgai_ODt[e_oo@Jf{pXSKBDq~B___?OPPmgLM@qecCcCfAO\ipmB?ba`WOfBQhUvi\G@uTOI?hOEhPo@?^cO@C^C?]_W]IjcOwECM@LrR?]UIXLiAjGcLoBCGuVGawKM_TQ__QXEUboSQwg_^EQ\wclcs\`wyMpWScq|U_@QwDog@Hzf~G}S[H_ACySCD\KVc??AAgDPLcWSR_Ok@A~d_K@Y?Gdw?l{C??GQd}A_eM??E?hWreUDY]g?Ee`@PI?g`Tq@@B@?cO_o@Q_wWLpYjWBc?eGOC_?KdOB?cLfSYCOaANDJcqODpgOHT`L_UPL?g?EHBaWE@A?ObDDRCaGSF@wOwk?ggc[`kZoEaVe??ICSYBAHGD?ABFrTAO[EP@QObTRuu?W?mP`Bbhc{ACCHgDExHPgOkpYtTPZdF[OAxgiavbDRckVCcpG?B`GU_A?mMNOQ?,False,0.0065908432
~?@cGWGY?`SH?t?GD^Fvck~HAEG_`b@RadXlGAmOIBjA?W?CDM?yAOWC?fHtgoR]YGM??UWEA?]e]|?D?FProEgheiC`IuPEGrgBgG[IAqEDWUv\IdID@KLoGOTRP_WcU@?FycY_fW?cOcC@?PA@IQGBwKc?J?es_VqQbdaau_ZITWdEWdCLuw]M?AGeOPOIqaXSoIB`[tDYmBYW[IIDj`S|kG]SGA?ATd_LIQlYBcA?GkT`dbHaVH@ITCsy}CL`OtC\T^MCdKObKd?Co?gA?hf}GAS_AIGRBJR_rAEyFl@`aMOTQXI?SZ`hDBdf?xOQaGe?Eagz?{oLDkkdwKlHjA`l@S?Eyubt`?]EIs?m_jwW?@cZryOC_XO_^vEKGHCKOkMMXkKCmbB?QaWT_?GQC`?G??DCCN^ofFcaAS[UJfAMigtL@cOToOYL?OG@BMGMJQI@FS?G?jEkIGv~Ah]Mi[RculW@DoQ@OIYfXK_[yNQB_MHRWCbqhP_@KkCCGGqCQV@oBQf_DH[CPXVHBMoOKgucgOgRKdTCPR@p@?McBdRh?Q_kAR]?B_@iAco|ODYqZ?DEC?k{IA@\CFBBRGA?vH?]DHFcQfKSKLER_mgBUa?BRWSuipReBADuJGaBoDQaa`SOtlV]tV_AyBH?xZ?oxWUuGcC?Ql`GH_F?EJoSPcC{REPJAlWGkIs@?GD]_A@Ko}_RPsAkBJM`JHR@WeJ[G?[SDIuyH?@pOUY_iO?_[?@?Upgs@_@?@?jGTG@vEgS[|Pai`gkS[GfAgnGpdT??HYI_@OHHQ@jwoIoopC_[irAKAcT?G?oDvPhdkoWdc,False,0.006537199
~?@cs]?iGAbGhxFG?OXX_@|pM@pHKOoTAJGCHc@OKMThGp_HYWQc_?TGB`BQD?boydAg@AOGYakF_SCWGh@DUCSPBAWNCqbFhSKac{qjJK@kcWmctc\Gc@cQPoKEbkg?pHc`S[_?V?AL~YPiZcQ@Dj\`?i]L?DEKcJ?DOAA\Gl?_@?yoGRV@aAPhDB`kGROPGxJHexBQOI]XaKoG]C_P}qX@I?@oNGDYAE@?Eo?SGsHOQDEEA?I\\OMwRPREjqVJG[U@dpHW?sKFO?{cbGxOBNB^JlZEsTd_MSZY??L[HOHDDGaMGOmRC[@|oQ``[_@QBcIk?cp?UylBDNA?m`YDm?Cs?]AcACdSXWAOM{@oSG??A_SIK{zOd@DG`AIAsQK?BF?@qbcQwGGLGL@``iOrso_[?_twAoalYDLI??kkWo_caksM?C?pCeyhT_@TOhjQifp_Y_EDBePGGJRcpoBtPhPahVKaJdKFBx@y?kdJGOJF\hAa@Q@?JDzm]KBlwgC\R[fYk[hDohNi_w?R_CMg}|AOXG?]_gIwIuAsBc`SpSTf@]ADe~Ox?HgpQhLDXi?@_asJeEZ?HM}Bc@?[??Q^AIgbeOggSICw@C[CRc__gPo[a?CSgAAVLiG?l?W?He?HbX@MK@Ceur?XWSUmGK}XeGE@jCXLStKQCS\SBLEGAPb??QOhegYecVkBHS|g]TgKch?YOkxSGubCK@FA_kaAWc`IJ_`@ATBC?PN?`hhtIDlx~iMGh?w\jglK?c?WYuWPWkgGqKodAEH@ABCiFDbABTOTpPrueQQYHQMEDfAIJScSNBGlOmpG?CGgb_RBV,False,0.0066080093
~?@cK_jIaTLDBkxqgC_WC?ooBiP?bf]GKq`P_di@FCUYWAOAY?k`cShohwQCcGEOwA@TB@ss`f_YETGl@wNKEo?OKMB?ZQa?RJc`LipiWphWcmW__oKcKewaj_SlaWTY?rq?`SFw_Hdd\AIQlGiCGerIOTGiodCQ?bl_DSDGj`_GKj_@AGcaSI`HB_CWHPIQgPDjGCA_NmS[G?GK`Gfa`L?AI?OVqbqo`fBSJeePaB@eobkh}E@xPCf~KQ[RMJ?\EEq|]r\UxI@sPOioqEgd_JDRj^SaK_YwZCHj\GK?s_E^?hA}mbAOCg?SrKqR_w?WQGZ?GkKIASA?QECbTGHP?Q_IWAcFOq_QQb`EZACsFoiAUO|IcO@@?lEQz?g?XWW_?|yt_UQTh_?cce]BhHFTAS`?GUROeCgH_CB`_D_~OGcdQ{CG~lSRARjo@LS_EWg[uRWAK_XELohQuGbNPkIOP\ST^CEKyJgZ??oY_@?[YMP[Z?jL`IgeXImDBWf???QoZRqFVqEFbcJAqWP?CIgi{rERBETAxmOE}MfbWQC_uA_OX?YYA?i@WK?gWoVfDD?CGxg??syPDbDC\KgArCWKCAk?CTYcWIOgH_^IoCC{Y[^QCvdWqPKE?g]c`d?{OqBPS_H`KIJQTFoCNBF}U{@ea`uOTBAy[E_H@Gi?C@kW@OK@_`WwU|CaTDAFMk?N?JsD?TOYwbOB@ivQxR[WEJGtBH?ESh@?_?CAB?apG@o{LcQUBGwSGG]ULSoWLOiKw?gAQh?OGSqCcFO`CXW`LaInLOc\mSK_MZsNk@]@qCGvTqMg`QzO?d?AQ?FKC?A@H,False,0.0065178871
~?@cQQPFy_[[LcEP{AGWTSai[HdS@tMPuS@fkI?|lENOHOu?E@zN?otTB@Q??OsX?DWKYlgJdSACWHuHtgLEZO[?D@fQe}Y_FMAH_GcWKYDRIDLU_PwCQvK@QhS`NlLGrXAL?e_M`@opAbEbAWDg?gE?x?DE_PBP?_lP[kheHbge?nwGCmDW_E_GIGRwSdo_RH]CO?KHl@AdGAoREoEaaCiCDpa?Yf?AO`CR@ACEL?QX?YwLgQLd_EFbbmMRw{PN@CnKMC@LgOrVpA?tCGOsWOoO_Au@hjCIVwtC@DkCO[OSECFIwK?W}UwpEo?ZkTRI`[@JIGl_Cjwq@cT?Mb?qOEWBW`YO[JgWaE?F`b@YSDjACaKPCvKaSPkxWHg`@Hx|qcAF?[Gwyc@Y?S?Wo`VODs@ah_pUTRqAMD?Ou_CAGMVT_gCgIK?@R^GdF`TdGEx?ocQG?`C|B{rDmNMYAW`QwHc`NBRVjo_[Rk?[[`W@cOkOAQ{KPGHA`B}DdgQDDRp?@BwCrzIQbGAYbGWZreC?k@aAs`\uS@?xGAaZERlA_PaaW_ds?Mp@{?tgWHToYCccA_y?C@@_QcrC?TyfD??GEs?qdqIIKOEdhwg@ZevoaGCEC?jm?`QupBv{j?RKWa?WfPBUgGHGBBG]PPWcTMeNwEDDWW?eG{wFW?@LCKEOglDFAZF]KKDc@q?PJO?B`_G]BOCEKIHZ`Q{uDiTSDhiiyG?v`_CG@WL_OJPd@KJxg@Oc@HjcGw?@`FA?SLND_ssG?_?G}HfcfgPPBxYA`OYWGG?l?NJqbo`^@E?SGNZs?TOFUoDg]t_gdatAuq`X^,False,0.0065140724
~?@cc_HlCwkcOW]c?`J[v`jcuIK@?rItPiFSBasQHEoWG[WYYJOWOM_CiOoaGC?JgSM@axjEAOK?~C?cQB?BAKccYCoUHDG?K?@xH?`?A[AOV{mfs_WH?`]cmepO_dPA`caYE[EBIpLoCB_[fGPHXIAS\Hgt?@SUWIC?[@`fCgjaSUSqWobq@?u???DVGMkdCP?a?BZMSdxPC@rFKHH?aDPOP^gpUkls`ODILsqMY?_ABGG@Az|X?[CLGLUHARvoW|VAWUQ?aBOC_Bs_QFcEcAfi|C_f^HcI?DdD@gKwanTdwgi?zdV[AmG@S?aOGFjDJAbGJWKWX`@qFGKPHOHDNfbCwRPECOThGKnhAEK_v][SyPGKd@yFCW?HPWzlSxG?WOJcX[?ePWdCCac?sccV_sYt}gZLJ[iC|LcEGlA??_ADHj`_OFk?o@JCEUadaYWNA?fJaCAQG?FIDm?J?GlGaGQXMlAcCIINydA?Bo@bME???vmPWPAeo?FaXEKGAgLdShwU?MDBGiACcs`@R@YIKcdXoJI}B`anSjb}?R@Cu?MjArKKFSOs?HBE@AQ}cJAUAoAHUlm@p_OIZgEHJ?HCIHGCOO@iHB]D@`lGW{eF?]B\Ajwh?AMDaO@ZjJu_@f@O[SFw?ARkH?KC]Xg_b_cg_KeFowkNC_cQsPceO_XHW\Lk@?b?Fp|aUcmGLW{I?o?r@_GA]Wq@[GsSGH[P?GC`FIDOSkSAx?~aBOgsKKYP@_TkOM`BTJt^ce@C`[HHLltiGMt`uIA`?_OiOSnKQDTMOIIodsqZyG`kidSYBQ@AOR`x??Sqi}JAtF?XAxOIb,False,0.0065591335
~?@cp?DSQOBV_gA?G{GqDL@psJCj?dq?M_dDhYG`jtCAcox?CQPib?cYAEMK?fAB}@?ACd?es{CPsq?tWgW[XURXWOCsqQA@ZDV@ZP??D`wbeI[KkAL`oCMS_cspKALA`?A]WCwwOE_IsOB\O?qYC\As?YgCmBQdg_C?WW_bS\VHFGKIXC_KAw?kG{WSGOp`??YYD_PAm@cFw?p@sahG`i?WFwCaHaE_A?Aa{rzWcrCFYs_U@K_ANJGt[P{osBG`FKCBDoGBgA_A@|HMR{]IEcSd?e?wWtRSQKpWeG?_]?IPQheW_aF~PFAS]A]PBsa{EgRdAK{~cgeY?PXroOW@Op?{egjIuF\aqRDxBCMTsIWS]OOMegGOEFuKopQe^?gw`HOcSEsBrP@??j{BpPQSfOOEKg_NwGg_HqSdy@CKdAo@uKmW@@G@CrAP@cXKhl@AdTO_IgDMBXHCF?_O{nOCIx_PT`CDKONI?DBSOATBWhC[aT?sQS@OqCt?oQASpsR[QC?d`_GiW[`G??C_LQ@AXGWFdBkDNf?Q__CsR[_poEr?SP\DDmLDbW\vQBl@vDZuNK`PRbH_CgQ_OAfr[ZNvH_MIIGUyOqP`yTVObDv?C?m[Goc@fGpEkDQ\jqU?WG?OorSkaHMFq?NIz`PDgBgQ?EEEcAXUGpm_M?PStD?YO}?_Oq?`?CHh[XSfOr?WMOcqAL?CV_mV?Mbedg?YgrR??_WA\t`F@EKGgqPiNcaOrWQpJlGUSDdk?GBEdo@PTEeCDmIXdt?rsgmDDMm`DbeP[cMTUAaWh@YqYpcJQ_C?EYGw_gQdA]Or_bjBQSCxF,False,0.0066668987
~?@chZesShZp@L_D_O?uyLX?JgCQbeAJYg_cNUaHKYgQUEEksHD?@prg?CwB?ocOsa{?sR_AGYkYEDqZk?GHHseqPola?CxAywHUEitsiC@B_J??EC_bR?|KOpUAI]WCVawWCIK`p@BDkA__OGCqQ?wo@qBW?OTDS_R`FzDKBH_kY}p?@GK]TGGpcGg@BFK`tKwab?fH?o@Q{?CBSHB{CiBb?iEI@DDevP@~UeBOEWHadGUG`CIy@JAfcIQVMp[OzO?mWGGQM?SoDCIsu`?TCH@_^WaCFDoGF_C@H\cAd_J|fGLPBYI\jpIp_IDjWTj[NoeGet?EJR`@w`HfPgghBDC@R?gEDcg@U]CaLRIV?O_qlI`?HIOWAFKrPWC``DDBE@iJY?PBdYGisPTiE?J`@KoUsUeBGWQE?SO_A`?gI?BCssx?Tp?pFGoB?@ELiE\q`Ag@GX?S_fPsof?[FWG_@fSHeCNQQwVqD?xCbYGGCUagaIczafHc[GIJ@CNCfMGi[?WUt~SJGl}]BQiKfIO@C_]IF`jqQADbYwKGu?cTHg}QLFGpePcb^FzAqOSFEJrBEHhASD_FzQSO{A@BOC~znjGQNaKCnC~SfBAetFWbOGABHtz`?ABwoWL_S`_^w?@iPs?AGIGTw?DaGG_?_EG?OI@d@epLWJtCA?hSHLIDUGjhBghWaW_b_CC?gDOOOkTa@V@IC?LWNAe@^_dPd@GA\?_quujO_I?UpoBikTmtpT?tiDHTgADDos?gEccW?BEPsmHhN_gBO]UA_HQVHCYEcHhXcpHB`c?Fs?kemykSgtQ@FeW_GP_ACVKXQEAWG,False,0.0066020489
~?@cEMqA_MuHRSK?KEABCM@}@`O?mA_ABc@bIc?POpR|?tej?GAPhAF?c@it?_?aU`cBCaATG?gSeQ{pECKC?m}BBl?ZCgXUIGOqs?dU_LLOIcROcqx?Ico?GxPQ?f?KyEB`szD@VAOCA{KibOc?BCKOyWG}GlRNdM_O??GIp@A]dfdpOcN@wGJ_teAUnY?Ch`GRaJUGRjSOKN@kwETJUW_J?AK@EA_e_MRVMhasbaM_GD@WYvVVCHt?\EasHO_OaC@rgM]e@`POj_IHeE_^tGDOSAaC^J_Z@@ZC?OOGNZwydZD@kcDUMrCiw?OUW__vhK?cHF?WSr_sCLA{@WDMSWgWcTGC?JK?GcWDcGcQ@O`BXyCgSGM_gIWKcAPO}hP?R[C\OP`CPCA{gSa[HOA}w@U_[vOQIOT^ez{e_?ZZ?A?s@n_??v}qqGMGMk@XaqwxOco@PCicY]KDQ\C}Gp`CBMDIEOzF[aDGBEfR__@OeNDPASD]RPTlFIls`pRoSUgFTblXA??_G^dB_S?NWp@OGIqISXEVft?EAQBFl[l?E?@wjN?@_yGHAN]FaO_L{_CeyDHhcghgAPCT@QWdUqNEDCBaMz?KYG_b`\Q`GQGqMQwYG_tLK?@TzSaC?YwSE_xYkQnEL\qA}d_TYECAxAP]g\O@A?KGC|T]KO_B{QXrGp`SgE{Q?@tO^soC?UBEXTSPHEgPYyh_aK@APL\QbDgGvdSoaBDzOdWCOaWzCq_cvmg?HTWhCbM@DEdWL@Dg_?AC@CABeJiFBOCWIX@I?am?pYVBkKF\CLi@QIigB[IaO?ORI?BH`?lhX^AKEKcAC,False,0.0069727898
~?@cWdIVG?WCk_Dgg[]OAQSKl?HG]GV?CmDS`evPzPLSL?GJP@[AqI?CIQGCB?_?Ph[IoEAsclw\Ahh`??L_^`@_Gk??vec{_`kwjl_DrGcoTOGsjFKeL?u?OaC?CGUBOO]ACb`c?IgOp\WEqaMfThGwYKO@?WgbS@?AON__E?{@v?EcaqXaWeAJVCTg?GGhohupUoS`@MQ??rLHUiJiRFEkeAq?ucaQ@@{A?cKlA~UO?a@G?AB@gchfCkLUrTMW_@?aAPcYIUDOQ?_`qYQBOa_MypMIEdmAiD|TuYlo_oPKl?laOOHJGsEEEb`?}Ca_?G_dF`@@Ar}@HKvheG?HuLa_sDOoR@i@NQev[M@jIoYK?[@CakgvQQhC?c_RDQODTbdJA@GB@acN[K?WCcagS?oSoPoxAHVaGEwHc@qVMCfKnWgJMW?coS~ebQVD`{_}DGhG`xRaQkfZ?GBETNRpSya`DC??`EcP?PbcwDspnih`OKo?DBCb@EL`AdPC?okW?[mk@@XIi\T{wEgPXv`GdibimEWc@EAwW_kCAfIgw?ZFQyJOzCcpO}j_{?cH`_QdFyaJh@D_bOgqD?WBwcrOhOwMLKQCG[Gv?O?DTB?@W@OPGo_G}RPbMUk@mBXp?|y@xNDEk@?CUsTHQYQAyUMFyWOASiJYGq{cgQYR_RYgQ_pYGdhoJ\eXg@LYzQmDaJkJ?E?CCiQLIEEW[G{?bAjdVU`i[?SFHi`g@jGgB_faaCuPh[AC[Yo?A{o|WoPQA`C`EX?PAD]ANxWcG_WNAA_nQqa?QR[jJSCH`GSLo@BiSQY@@@@TA@PO`?MpIoTXG,False,0.0065817833
~?@cPpS_aGCQ?V@oPGUBWkx_Z?YiMAzlKcAHfPG[lQH_KxU?CJPIHOSFWAqeWMOGmZHW_MKgez_OXPNXLQ?@WGCCa_GgGgQOwMH?OS_B?sdk_xBE\q]TGJUd?gPcwcOGH`SBuXDaj^Y]cSYmbyg@SAXWW_BPxp`WETAwCiSSC}p?fGkXPCYXEC?[swSL[???j[q`SPJ?@AUeRZO[]ZKIQwOINUw?CycuOYXDWEpEC?AHBIyHKJG]GPaEsg`@dhSVSPnHGhL`vj?[UWObQmwab?@eK?La@~TD?cca@rsuYE`e`QT?aD?_GSKpWqb@?TGGLEEGDugUnCaPPEzP?uAG_aauq@CVLGBC_AQlvzv`PaHCA?OCGCbtmcaBcGDHnBCHeCNAFJO?]BFC]D@Do]z?GiGZ@?q?LG@??_oLBC?T@ocZ?Dw`F?KG_@a?D@DGCh?RxNhqH@OHYB?WMdFCAcNGGeJC{I_D`joLX?vpFYogjfk?@IF?\WAQKRWQb^UHCGXA?z_ZY@EegPIOK@O_s{?_GAcZ?CJoIO[oEyuBt\DAQ@ITTktGaWL_JAk@__lVFLscI_ahKQNDVAgE_G`{Eo[]@OSL_]\A?t??QAbao@zEoO?]@QSN?SIacbFKCEgY_c`Dfqz@?aI]OAcHaBkHF?gPQUaKscUCR?[_?OoHQSO@K?FDa@qLbOX\gkwC@`[K_U?GS]at?_ig_\BTs\SaBJASEpBFFaPKW`LORs\`O?HsqHKVUXIiJ_kOLEkH@f?w_dHyCHUguGCQ[OHPoG\roqjaYXs@MgcRoEsvppYBg@Ao_A__mYM|G`BvFN`tS_UC`,False,0.0065999031
~?@c@D_GRScfCC?Oea@Z_C@RHmeDoHBKJIGIC?LHB{ogAB?@`aqQX?F?DoBj?KlpK?[pW\BZC@?wF?^tAKWqSH?K{CKOR@JKTBIgIOpTM@FOZeieBF]NLFucC\OgOSPVDqa[O?_aYSASIo_rfGOClAIshgg`vB@W??lvBOyVJQBgq}OPaU[_LIa@ODFhUeBTBIqROhz_HPBSqBC?sGT|pWCwTntEAPwECb\HSGbIwf`]oMbPHtm~pT?@FEFSa_ceSODHI?]]a?AR_AcK_fPE_@_tow_ea?ZOYuAP}JP_K\tQxPcDPf\PiRxhEA?hxsiDYqG}dgggOGiBkPKirJEOofMmgAaiQhVhDEoBx]`??Fjcat[_p_PqiK@|S?`cTSkadcK_iAiqG_gEACqRGp[PcD_sKykCo`IXgUHJ`TpVImQTM@GF~RiaPG?GA_TcOHCVMUo_BSuW?H`Pj?Bj?Bc`KEOdjOF{XL_?IAopLDbGVDNhocWAR?oCAAD@lCD@ADTsCwGC_Lwt\PFCB?SjDc~h@hYC_K_SMwp_CMFBCcAAHEL[AycICVBWEQwUCGQUGqSc_JKkORAQg@eW_?cdoAO`CAgoI~dDeTSaYc_AQ_OGkBElg?_`s?IPIQ@@fFc?[Oo?WEdTYGOFp}i?AIcHqc?vADEaDWHPAlQxCDSOu_?a`OwWc@cU^vGBOBii`yPfyOy?TCB?X_aXnEq[^PAo^MQWa?a?HBio{gE?]?@P@PAJOowpdLG`uCES@OoGg@I?C@o`PxBA[@gUHoWeCKeCHD_L_?CJkmyRCj?EIaKK?mL[bDhH_?KCz?`?wI?cHgCK[,False,0.0066311359
~?@cCfCX{JO`[gBOD?DSWmG_?i`RYs_tT_NE]HbpxAK_?kH?OC\DWbJfa@jIAqiaIKO__eHHCKrlG?GP|Ekw@PBYllCRQLbtgBMtaEI{]AmcHldI?LiPcwKPCH_@YSHo@IiUDrGNHA?L{gGPHPAqa?QRSecLIKoaL?\EQH?OCq_EavRBAhRcbG@WOdql?COc?o?yKg?Vi_FBPiPhd\cCUbccNCn_|RHr_dWOGxTdG`HI?@ScCFAA_OMM_A_oQy@Qh?KkcA?sOyKA@_CqAG?EZ_pHGh\BGKA__ayEfBSqHPol@vVkdTAwmhpVQQRc_a\V^D_CsDcR?q{`GBydoA_cBVGPCC_`PwgIn??RScJD?pOhimRoGEnpCxg?jNQtES{D?bM_[AA[gaf_aWM@FC_?OoWb`?bzOe\?SYaq?G^slLS?oTKb@[[GYHPIA?MS]`@wGoEhBbZLIkoX_DySNMC@R?ERA]AF_Mo`IyCRKmMAw@UoT_pAAJd@PaZQLgxt`sDoWhGPDikKer|GqVEIg_oSHs{E@q?XOC?SB_tA\@BGkaCHAKM?d`pEAGYrkQKCA_@QsFP[DuzcOGnOE^aLOgGDOBH?C@khGBOEd@`?JKCrGC?AeJP?CxiFPIA??AdP_po_dgpA@|RJ?m`oAQGjp|_GKa}js_eYJbfdWcmCb|[U?TT??`wUWda\KqM^f`P|_gDQwsQpOL?aKw_ASc?N?sWC_PXxGJDqnBP`QhaD{AA@p|K?CWg?M{GOsO?cAHOTi_oQaqoRCuuOnOGbKCkRG??Paoz@SCQBm@dMg?SDQKfO[AMeh?GUycHa?hP?KaKd@,False,0.0065848827
~?@cq?mAPADtJGhCtEWF[CAC?k@@\FBgQ`@LSIX?_Z@?WHGJGABPGzWHFa`MSgQEDOSOY[Osmc?EAEOGIPrSMoA`@mPAB@@PS?X[pStzB{V}OjMJBXaGE_?|yCcB_s`g?GqZU?qKGKfpSD_qFrKKGQW]?AqqE?cSB@^cOEDrAeG_A`pdHY_?_eXATYmfJMoR`dxwocq_Ej?_peCGHOgFWAkY__dQ?xfau?eCSYwMrkGOFFc`t?a_UC{?bK@HTheCKB_EW?`RGap@S_s?GI@UK@Co?oh^?EXyfZsiHo[lHAA_eOyk@AqR`mYrPOcEa?YaobHOQCwYBR@IUa~CRfN`?AN?WSg?@AC{oDbPDWFqk_gGoJfIJ[hi`bI]?H?GFcQ?SA|JqyJSSOP??u@xkW`Acv?SOoFqgvhMC{gP@K~kcIG_lWciKd_ZSRQGcAexK\kqaXFKaATDalArb}IKlcC^CBM?HJFSKi?wB_?RSK_GUIWFql@ANO{KrCHwH]g_JAOAOIAKL?C^RD?D_T?IGuqa]cfIl\g`w?iYPoQX?EwUgTcdkP?{AJEACGHo[xO\AGSCHqhih`iM?CZgU_hHAupcHVagoACSfLCg@LhKEmVZbGO@`kCZy?E@lOW`cRogwGMt@QH?CXaZOIiKVUDLCL?EE`KW?CAd?G}d_ouh@bLEOT{WxDQVaESCBSRpya]OK@GSOUcAUARWo[aSVagWRGmcwqelI?J`uEZpSbTMGkQAhCATOCK_O?@gbIH[H?bC_cTaOq_`?CEaBQgBgHq[XaiGd?BiEobTTbxcCasJ`@aa@?BU_BOAo@gDpAcRAxQkh,False,0.0065658092
~?@cY_OSIKFaT?bOl|mSfotaWO\utEg`ehwJMaOpAnKOFksAO_ODPyYGUps_tGGvS|QACD@aCg`LII?`wj@?`kp_DQ?GsVrQnJGJIA|O[?a]NGrYGrXpC_FYT?QcdLWi]P__CITY?cMI[cOQdI]EdOgR?B?FeUNBGC`yDnaGa_[a_i[ICF?iKO``I_OChAmWDAAGD@OuWShEsr`@aaDR}xGhwMMoR]A\OcQXNQc?o`GH|lanZGflH\GRCqKGFOO??P`fAlcndgOBbAZGOCEB|H_GDcwRmKxCdCUeH[_ocWOBMiqCQ?B_\IHg?Y?BgCPtSoh?G?l[LKDd}YH_k?j?lNE_V|NrEJtUCM?|Oo?AC@CcY\Rc@W??pboxQAOQ`gC|A@GE?rKozJBCyKO?_EnPDshGNpid@cEByBAoSM_B@MA_DhkqNxONCG`Wa`qsMiKb]IUCS?ENQH?gKv_Wa{Or?a?UO_aS}EISAcOoIJMt\?IGHg`RPwFCGSQiEQW?U?AEA^[CCQBiOeAsWAGs_@O_yAEC}?roasSMhf?bpqpHpQFp`i@s_?aBaKE?O}gOG[]IENcS@KkKM`hMWeoTokGWK?aCd@FPXql\CSOfWY}CdoKRIYhH@D??i@CA[dGdCS^?II@oDiISQbYCYgRYA@PIi?@oYR`j_RxOg_aNREHAEA?AH_PbrJ?QPhADs@qgmQoBAICSv?s@YIoEsbYKS\SHcLo{aO@LCCyW??SACIaMqgd@XGrA?CPOHGG?S?dXdOE@DETfhkA^@BIE@RAj_I`gb_KydKOcDtCAOqbUQ_K`ssbrt_M?DFOKAhqXQo_?I,False,0.0066161156
~?@cJfpAHmjwGKW?OEyB?C@tgyF_GPKOhhDdxGV_BK`SGgbGG_`@A_Q?|[UMO??CIbDI_K@wk`JG]`LBx{SKBS_ByMFIcUX\fS`SBcICScNfB@IBB?kOH[EAGvqeEaHBQpCpQB_H^?_NG`HWYA?OQcLMcQf`?hMAPX?ONcNaK@K?DqoSUOiCMcclQCaEnkICKGoIChd`dvaPDbh?b@^RtF@CYEYK@??QrSzU@gPOQGp?ae_HgWRqWVKcKA@g?@aWoWJMAA^Eg@cIaGC?kCoPBkfHaWAmg`WQQAAGGNgxCrqiBO{__Sec@w_XC\sf`KaXsZP{Pc]}YKGHBzpoMGfOKI[@iCSqub]AH`j`?SOa?uy[??@akY{sEIC_CPFoWCSpmEWJC@d@UCG{~SAlOfGu|PoAqJgMSAyFX_?QQOgbQ?ZT?OP_^?C}OGIbPwo@PJiE@XDjaO_X@WgL??qix?aDyV]BdCaGKhOW@W@HDSiBsrWt]K[owGmgcO@XlCoIB?KDy@@KZg~YIS_CpsggAcW?`O_bWtTsGeGg_fG?@BM@YOFSVCWyG]HEgO@B`QMR]_??CAvT`AYgMSk}qFw_`BHp`_KLW^}O@UmaMLIn?D]FP@GnR?KuATER?MPs\oDphLPDWCH`aDe_OHYWIE@I@cWiOcUyH?DoTO?mS?ucLaeO_~uK?rSS@GSOFiXHhXUatEcFPs]O?G@ivI?Qh?lpPCC_Q`HACc@uE@c?gbH?b}mMa?SkgGGDpg`oQMOfQ@hEGGFdkuUHkD?NAIkCkc?Dd@VU|?PC?MGKPzdNgAF@T_ERmKDGKA?@DOGnOHFUEEV@r,False,0.0092899799
~?@cKCBDqh?^wode`WwwKFk}@A?KohE?aAePoIg`ajCzI\\c?QYWgXONWoXEP|XpoTJBVwOOXWapxOZNa[Eoiw@K_PP_ASGKOBFwHRD??WS?JC@QSAZeaWEYfaBQo?@rgLBCJ?ILoEdDA`E[GZ?WwKde_KQI_N_kPAKccXCDXZAIC_cWSCGAGoYT@fWtlJ@w?aRcGJiGQdSXAs_mConIHAOOMq?P?@AfQGeaaO_rKvOuGa`oKKBng_hayYsUKhPbBWPFdbU?wHOWB_a?_l?GCHOQgCedMDo?`vZxCOKaHAvOnJW?LAAXGJfSvCJCOWAC?b`Sn_qB@@wcUZggUyb?`oWIn_PCGuDKgGptS??GBqL_fI?b@@bcHKY[o_GoBWhJEw]obDEFU`kqxxQ?MwGKAEngk@]\PPe?RfQ?HXoWJMgzOQkGs?hLMccH@O__B?GOJge^GafWpeWAcPLQ{RWI?R?VoCB_{@G_TaBA@fEwg?laWilmRDOSoGY]OiKRdGSYM}`CAo@Ds_?@DJ}_WZpea?AYaaSK[h?NoD_e?u?BGIAoAa@CCX^E_?OV?OHIOJ@BLDadfAosDx[g{EQO@YJ~cKMSQD@wewMWKiZ{sYMo??@SGYSL@HA?A?g@SEeyo{\DqC@_FDlDcG`At`FQKGYpDDAiGqCCfe}dki|KBmEHCW]{KBCdCY{cocAPKDEsB?o?psGCO??O_Rwh_YnA|?HqaggS?E?cG_?KG[_Dg@Z|PQIT?\_{CzCC_AaiE@?K~XauiJPHux{[IXSi`fI@Lb@BPJQoP?MGaZiSKJC?hdnD@KArAJOQ{XV[eoB~O_aAi,False,0.0063409805
~?@chwghYA?Cc??`igJKsN\OpEAo`JQzk[S`G?`A@o@BTIkhjMegZ_CHWkAwO`TIhsg??AHAcM_aaBEPvo?fUABpGO?CXC@LplIoEOMxSQJQQO_??LCAh?Jy^DARWPArcMGKBPGiag`~OvCi`zccjdQOcBJW\A}?rgcJO?QbCK`]gf{_@UGicSdcWO`OsAMoaQAt}_XC@KI?_[THDa?CxO@{hJZAPrSApdEhSKGSAEcw?A\GkYPg@caGB}zO_AgkAdI?ualkLKGGhGNbRfXHUA@auMpGesIghZ@?ZwcH^bgUJElOK@gDpXGBrRqhCGmaR?O?EEkB_DQg@CJgA?QIE@_SY@Qcv?C^?Sj@oEeB?CC@J[QQI]_VWD_?q_\QA?cAFDUaK?PADelQc_W?\dlf__a?pCGiwCrGSmIQAmAjh^I`?CmMcTSWVof?VvBOLgQIho?KgWG_]Of?jhP`MsfoEn_GcKT`GBPmd_JQ?PGa?p}Y?DNhAlWGG_q_u_tADX?IWT`ogsH?IsMe@lx\IWCOoao?cG``A_Hb?OhMQOYSyLsDhwQfpP`DDc{yMUGw@DwmANalm`qIOI`??OF?@gUHOVNoxYgYFqM@{oKDYKED?@?k?{u~NB|SOmw}iDaCv}gCGGbfRCC_fLcYcGcoWkgGCCX_IfSZKJ[gs}LozFQcFR?TdoVOC@ook?fYfTaQA?@HcSFD_cgEGIgZBOMNAG?O_Zoc@ccJ`@_V@wefQ@?QCGaHGjfaCe@CMgLGXQOsD?DyGG@OCnJ_xoUxClipbJ@OIAQ?SC?D`G??D[c~E??T?_SBX@zKKVbWASrD}DscX,False,0.0065221786
~?@ciO`DG@GTCa_AZ_qTIeEDjX?OPDCAMGXKJKOfGPBgGQDYDdayPq_R`JEScO@xkCAy@KcTHW_?QEKidPAvYsFa?e\i_`QqD[}wlBC@@Y[_CIH`ID@fVUQQcWOO@?HAAA?PFY?O_?_AhqAak[GYCQKT?lbb[CRY[`zGqAc`hPqEA@Gs_`k_G@OAaK[hB_CAYIPuDYUs@_AQS@`{GLqUs`c?[iX?BAJZ@LeEXyJL`bHcA]`KIggFCOBogkdAKsP^@vFkaiGodB~dHWCKQkPHZdVGEPsAlD`W_TqE@?goyQcGRwPc@abCO[|gCIw^`WawRJhwQXC[qW`ikYQOJsQOdx]FXld^gSEKaOhOc?_OfRReRaQNAQGrF?y^wi?T_OYv_iIsKHaCasNdXHYa@y@O?OqaWjS}eS@T?bUAi`CIBGcyBLUxCO@VjV@??APl~?QBcgrGGOWUl`@fSEqOOIPInpAGSD?IG`zULGiC??@@G@CDHDHfQ?BaOoTgWSCQsGpFcP@YKD@_BmW?lUn_USBgCP?OU]@eBl?KC?GJ`d`vD[e`rXAL|fZk\HXJK?]HG??_UAO?C[HfSrhe_zBK_gcRG[LOoISEEaIIr_`GpqWstCca~K``T?_wn??_Rs`Dy\W?po?U[Pj?lI_EQT@w?LQDI_LMbGsKCYu@@E?AluCBwL?zo\xAQxSm@CZ@^E?OJm@bW]_J@__QhEcGjid?CkCAhf?CG?coslFA`pCaecPyw?oCJX[S}oSAkGt?o?tLgGqgOE?Z?s?uERNC@hQAcL]`a_k]AbaI?SOSNAPqOOkoSmqPiaKADgvjSO`G_GWQB,False,0.0066008568
~?@cDCADADH?KFO?OsHxisxTVVOYmQNOa?j@aa?aS`iB`?FUFJVGKb_oC\QCrQV`e?wb?C`wLbl[OczPCO?eGOk_bhghSJBeTJ_fb[@N}yC`ZCPG?Ae@C[iCDkQ]_oAE{JEBA@@UFdRigmQS?PI?YAaRTKOPPjMtPhIkhxHI@@HE@pmaklg[W?_sibSWQEsXhOTKQC@gKTRLA_acMiQLII?WuRC?WGIQxpDssqk`aIP??EiGI??`CaLcncOGBL__a^vcRA?Fz@KovK@L_oHHBPCRBzHCGE_?sT@?MqwOePJ]IqM_Z_A?sjjJ[T{]A?gn?PK?qXIAvGQYqOF[DPKlPDAGk_@WyxA?smO[kauBYSK~OSAulhAk_ErGcY@gqUp?Lk|cFofBEp?i?ToBHyFGTCcGjQE??QWQC_G{AsDA@qCLLbDdcEO`C?cKGamKV`XHGuwMOqAoi_A?eAcGAfh@obhM?cG?PAtD_CkORpbM?ccQc?mBAqm@]O?BO_GUlOBe`?QQb_oGo_AHpw^G]iCIDpLcQEvHW_QEcOrBCsHFSoKOEC@f`GgSHfFPCcGAYW?UcxijRPCG?ECa}caCO_PBHSBDe?hOaA?JGJOqCbhD[gGNEyhmKqBR~AksUeK_BHIa`w[_CPCWxxMBOW`[@TeGU\sOWG}Aa_CkLOM@`pCUxbHokE?`\leM?b_Kr_BHQtCtQlB?@[SWFCSXE`o@RkgDwsVR~gS`O?A{HUzA^tPoROGAo@?OZoLbP`MGfIACOQAWIKe[JPDc}?D@CGASKokWnwy?gOQAOErWucOWCgt[_?CFbaUSWWbdVQYc?@zB@,False,0.0065090656
~?@c{A@AkNTQERWK]r`uAQA`IEP_@oy?E}@RPIAB?AWcBSMQlo_PW|e?EU`A[GN[S?NasOraIj[?@_IgAKql?peA`E]_kH|CYDsKXJGyJ?KM?SJA]ABKlKH?G_iOJoH_m_CCkPJbj`brA\gOS?VAVq]_aJppwSIWKPgP?GPSGavP]@G`OdqX`XqCePpfkaBT?ACaAG`QE@L`BFbgqGpM?LCXBG]HmoqWGPa@LUX`RZPKWoVG?@A@AkcXAka?I@HE{??OQCkNKgBogbIAcqPQH}?~T`_PGBKHS?BqIGW?X`Ogc??hJYCuKOcM?PEXP?EKbQtC`MAiIpX_gBPH^_aPSYRaakJo?GBF`D[bxdxta_CJUFw@ODG?pPRgXoPlNACCLz`e`E_`gC|uSwmhCzGvA@PAU@?OI@z_Re?a`@fTB?Ps_sGH@Aq_g_Aaa?CSKcWQPoDAEj][F`oCQ[?CnIBpbGasYsBEmbwWUM|_TSxwlfWC`wwGQ?oDhAyCXCCE_OC_D^cS^[FTdGC?XQBWRJOgr?VXoOSE?adcw?_THghA`TWYKcbIO|tjhCFCAJtWTM`?eQRCGU]wF@K?Mw@yWFca@{?QddWJCGD]SrCMC?^sw@XAs?@I_U?uq_\P}`cFOA?H]_BSAc@P?WHA_oGdF`D`QBGpAO?ai`xEsU{sagyCI\oXGckgnvqKLIpPH}etY}_acF_OC]QwBNCORoKB|yR_?GMCYQKCoDL_iCgTO`k@SS@EjAbL?dR_O?s_cBbEHy?AbCWEUSrGAXkH?TYMWOnRc}RWLHaFiwCOaBuG?Ulk_WB??ckO?bHHqBWPTAuVZ,False,0.0065090656
~?@cCWaG_OPa_aL?Ad@ku`]fMWaOMvEFlBEo_LAw@BFHajOEH?L{HDg[Oh?BM?SpWQTM_HgG?qSUUG@cirdoC?_@z?ssoRUjJr[J?i[E[WKzosoKV\?VRO?]i\SSl_mi@YaBrgGy?osGzZkksRXOO??OWSPb`MDG@NeB?@?}spIc_mFVD_GIKsWes?@@CW?[oDDBDBeSDCXktZ?gePCqbK`ad?UqhcGsY}Ey`}G{fcD??]W`O_[gG?|BAR@tO_?@?_MC?kAjH{oEyFrCkZa?iWKapBROCFi?|R@GiCmGF@Ct?Sk@AAWTn?OsLQOW?@ASJ\??CwcfK{ga@q_wdsSGNOEB@g?AodFXoE?qYGJ?mEc?DG_GmooOt?`KPke{@HbpLE?BgEAG@AD_OACG[AHA_[OC?mEGNUBcLACcAP?YO[^m]frFE@c[P\kpggMTTwE??kGGWKjK?CNGcPkOMM?HWJ`Dl?w`FGGLK_EA_pCH?T`CSiCOeGRcKCTdd??ZbwEk`Pvk`vfLAWgHJFSES@AsdDzi?hGXtObONMUXT_Y??[@gD^aiC_G`}ob?GEAJMFTESYPSh?OO[F?MErLIhJccnQE@e_EERxP?OUNjFA[MPqKzNCQajI@ICU?oAhGG_LXUKE|fB|CC?jcqsp_USW@ibkeO_Wai{P@o_ObyCvT`IDQw_~AHUS__sduKjx@AGXKAQgUDTWW?TPAoKbUabncTXpcEhAIDS_I}FD[PWdqYWBBxliINfHcwU??ZAWOO@[O?DiMA?PodDL|IDD_Ra?Ckru?LrVKdOW?utAA_BWHRMI??gf@WNLG?UGa?dgPPX,False,0.0065040588
~?@csCIMMWgiwoK?`@p?DY@\APmHC}bbDc_@QGZ[DgJZhwW@IxEP?AB@H_UHwpFoK@CHoK]EjCsQANP@bOO{J?tOI_MA?@zOcDIRCi__@hX_JmPHdEIWfP?@GEcpGYjuGwQNHA_jc_\GjYo?Pd^KcGiB@cFM`aEBsAiA_N@GiEYt@wDUWCgrjYVaDBWYfkOd{ODaPcaf???A}y?@K?D_iL@bDgIFw_AdUDEOFsCl_iRhcHh?Rp]__c?@\]AihSG_S_KgSRqq[DWGSDA\DoPOoBmP?tlxPsCpJ@ac?clA_WL_@C?`GC@hCRQG`IY@_MA?iDEG_SBYx_JK@WdG?@aC?WCOEochEr]cKQfFUsFK_IDiXOOAVooFByPeGIcUQ_zfW`t[SheEIFY^DtgAOGGoRPeeC\?qAFN?O^AK[XtSA`t_SkBsck`IlO^uC_Xj?kQPbPseSMeQsABCNdePQW?TkQGJEg`oq}CsUs{I_sM?dNE`iaqK?JL?YI@KVRCLRG?seQQLZhIc`_rGBbT[AYpPG_iEBkaKHoJ_qBKnd?bKH@XAdd_S?hTA\PdOW???SSMY^O@FxMiOwE_?SAHiY_S@K?ydD@XLQIwHP{qKcMe{XsFmib@mSTDQ?hgCCy?AsRzXXM`@eKKeeXA@cHCpIWqODc{XehGhCGaG_KkoAbD?c?hG`AO_QLWcv[Q\oaIAj[XCcCOBPcp}x_J|uuIPZWEegKDgQR?O?AKDq_LFC{TrgMMTPRSRL?T?RqgAgOKhHFai?_BaoecDg]OBkApIX?G??Wc?O?O?ibOMSxG?dQ?OLBe?fSByyG^AE`@C{DGSC,False,0.0064668655
~?@c?CLqRvXGIG_AMsa_WaX@HG?rHEPYQg?PSDLH`NWfbQKOUQIfCLYSW?@Ic_Xo}eEB`?oCcHgiQwQSU??Wu]OBHjT?IHQ}HtZ?d`QFZifKdQIcPhcH@aAOJRT{KapAr@@_a_T}OxONhichk@CFAVn{RKqkCKqQWd@KqlKRqsWP?a[PGG[HaJACrGGOHbsRA?AUQCMPD_QHQEDah`cGDgDxDBX_RJg@WpO`U??Odo?G@WHXb?uOOBcCKKFQ?Kg}[wGOWi[cW\XkscG@OCKQK__eFiq@@_ZQiSCgCNW}cBCs@CRcUCWEpS@wCbZHOWRXxOAg\`SK[RGSeZPTUh\MaXPILyXM[e@HCuSTP_KPaC_AHOoAtCAw@Pd?IM@`WqSW@kTOgaaMHSO@G?AKH`^f_m?HwGQQASWCEOJAJcbr`M_as@WeLD@GY?sMBMGdP[MOXhICA_IcbCs`MksI\@OON`hSHOB{W?[FSA{pGYCTaUSGkHmWOWrtsi@ON{rgKFRN`KO[oH?A_Rn?_oB_bRod_ROQQaJwBwGwDcPlgSeG?ISY_J?Hb@_THYp_q`@APlpKw?`oKaVECDC?R_}?zHJqODoJYo@e?_`aoxIlZh^S_Ijt`ves@_`JIy@?KGad?s@hBSi}YEPCHbH_Db@?PG?`WslXdOi@`GORoHWJDiAddGSS_{Hsd\W_k\eAhAjmwanlPn?CoYGTA{lH`CpoK@j@MP?Ul_s_@kA__kd@tqT}HGBHcS`O?GkOO{}AnqP@cCs?aOOAOuA_HS@]Pn@YV_R_OtPkB??Dl?PJPsXGD?yXMq?MubW?_{LyO`dVGHGck,False,0.0064539909
~?@cFYp[APN?v@hoNha_GGeOAarht`_|sWPzdH?Mg_oED`ELaULAO@A_HcQc@iLlG`CUr]XOHafHBKXASQcg?l_FnEYCc@KBH?}GTGBhQ`cCyfGSFW`AtaDE?_OHOgXPXEc_E?}A?d?pgid`UY`c?YGG_@MeAM?mYKTAd_SG?_REUH?IRO?UVPAXClC`APCNDaSdECdo_Bd@pCQQEASqq\OUTCREdh_wCOBXPp_V?WZ[kM_bKOGAcyBN?HCquRPDx|B`JLCw??WCce`vGf@_f?BoV^skPTbOODFUgkhmNmCEd@BgXCci[c_VTD{|xg?yqwG[oFeIODg?wD`_gAJN_AAgOVYgy}KIPAgcoYAAcCs@\_GctFCOOGIAsOH?WI@`lZWOhP?jONrnIHMc?WExH_fD?SHcKh?@w`Pg?b[AE@XPcd|J[|ki]pCWq?^_Z_BG@eqdCSaT_[XHaHslOBGDPDYa_s]XHapAUoP?O?ATBp?_SBYPyCFegDO??YBC?]C_g@C?GSUD?pOL_EkwHWRDEqFrMQL_HRYfpBiUSgqIsoBApZBdJ@D]MT@COeCrS@fasP_W?ASbg}O`YsC_O??_W@Q@mIoH[P_GmQDayGqNAE^NHKycsOY?OLAGC}QSpGiJdNR|GeCG[AasYZWhOkX@AOpjtga[W?`awyDe@GOHTJeQocpE_k[`?e?ET~`cSUgZabIs?aCOv`KdTSC`Aio]@P?OCXelFEKCAHX?BLM`@xiG@oAAOw_yXQv_IK]sMEaHGACTGsNMRh[A?UmDSGmr@UK`JREECS?IAc}GoEQOWoEuola?gIGBL[GA`ByEQ,False,0.0064589977
~?@cblKpidT_L_hMhyGrxYLRi_vgXtDbhgOApopK_kOOMPhHPsQPyEA_w{UtNz_EcvASEbV@S]bHgSU_S`L?AOwkjnSUS@AoWH?IA@_KXP`_VibdcAKdF}QJ`@OLGhYOM{gOvVQohES?WBkgLgoq?@AAcnPO_@[rkUEWhATe]srEJ@cD?_ibsqi~COXt?CHjqMC_JDdW@BAAKDboSAEaACVesQh_?@VYcHGh?H???ZQl``oUkd?^CwMG`?k_IEQvSOLAPKlW?ZIOgHWiK_K_akCdCPjdMX@AAmggg?cBHgg\GBNEa[QZzgkDO?s@U@FO_S`yvQLAOGKWO?JOAA?CgtrHalufxND?KHDGODTeFEDTbFGAECWg?a?OhQibKrSCgPQxGsQARhj`?e_`[MxE`?_eT@aHWKQCK`ugDlPoLoIPOXeCicAQW_iR`YIMp`OPTGakEAJp?dgH[H{~?ggaDlKgGRA?hasGCAyCOh`kBaxRG?D@_@YJ_nDAaI?sOcOA?QOP@?GFF?ZCRrIAPZ_CUOGISA]vA_b?i?Ha@{COOKECoAEKrAkO_TdWQ\_JOcQT?KjRH@OaI@swH_?`Ci?_WoOGiKGhUHER`A@Hm[?Hu?EG?PFEA?koFOXwQUb@QBa[WfAJJwLxgwgac`[Pd@uU?IdPTA[ShPdAycXy`DCESdH??ZpMgn@@?iR`?LOB?u??_OJMWGAry_I_tC_cQbB]s`GHxF@b_GzXwwPJgjlePoGkqP?GA_K\KTe\VDgAzF?@uCeJdt@oSA_`xbWVrH@??bQCu^FLCM_^AaAEWfg@G?sCllyoeH`F?[}tO@j}F,False,0.0063951015
~?@ca`oJXA?S_GALAoLc?_S?PPG`V@H?agKCCE_{CU??L`ITDQAZIITkUGhQCSbgl?QGQGbOZeOsKIu_JF?uPoEKAC`qNIucTCgdS?@MgDAG?kKQwG`oSPOgP?SkIhRWg_{R]LHrbPgeoq?CW?ZIicTgSgCECka?@VImAh?Gqhv}RH_CAryWDKN??aiSMpWPGNgOBwa@WcaE?B_?U?hGBc|KAABPSGBF]qiVDUGhiMXODC?wI`CI@oHI@QDcUdHCaPJACA|?`oT@`]tpUCHrStzXaaMyHZs[ZcB_pQOe?_KCSDCDo?Y^AdErakKGaT@F?oCEsidJKvP@?wrOEGAkVP}jMk?GIc@GW_O@IhAUVtT_Cgt?BQ_aiE\`CeA]O@XPX??wAYKAOk?bwt?WZ@WhcGazASUKGvBocaoI?AUK_Q[IF?GwXqW@hDnW[Xw_xa__RMAIOgIaatfTOubw_[pTiQSAU?Lv_AEcUw]BSqKoRKEhrE_WOWg@`D_dlGdPE}adA]PXE`DEetDVAkGJIWxgoF^]oD??KgA[aoxjOSGWXhoAH\IiJ?eRDwE`UDotgIHSLUPoAHmI?D~?SWKAabOCs?D`UyiCGWOUzh}CrFDO@@Caw~B\q_APga@BA?GA?LU_[_KPAD_sGYGcI@DjC_`sD?aqOea]PRH@_{FKrAgVyPEek_qeox?t?CvIOW_owRAW?JHGcAzbDDDWd?TYREpmDy]mNO|OAcVEPH?Ss[q\@bVeDoSwdCagKL[BiWOPgGA]SSCT_QUcD?U}q@``qS?ksXDsPgDWHNLBMWCa{_?KUCGyYr^_toPuc?D@sqATH,False,0.006428957
~?@ccGoTdYD_i`aQ^hAAo?L`R?_SsG?@u?_G{G@@yOh`sRD?kC\?SErGtt?AbH`JKSC@UX`A}?p[B@E`g?`iEpS?QK@?LsN_orMXFrMLWCo_@sTSoOes?GhzfS[F[?k`Eose?A_R`UI?{CB@?PoHd^IRiaGmhyDHGeBOpIscoC?AlX]@GS@{f|?XOKgUvs?_I@ZCIoTWsJP?AXTI_rt?wk@p_J?OgFerpGoWCyMC_]TAt@Ha`zBGrsC?DE}JBeEgBRtRGoY?hKCEsJc`?tONATD?HKJoOf_HV\Wb?cG@ehI?TxsOh??NQAXcpQAAb`dj@?axE`QGSaP{G@XGxQO?_uNw^CPmbcgg`Dx?m[g@dXxuQGrtjBoDpAoFgAJmqBcm@{f]pGQ_vAU?AC??g`R_bCbxdR?h?sEEpx_HKZHhPA|JWpsLzba@QODY|??WUQC?QPZ_EG|Ym\QLU_k]kS]gaRalJsMaH?wEVC?CdmXm`BAucEG@JGLQApCRC[JuqiOC@ccHkaB`At?S@OqF_[?k@jADGdO@EQvHM?l_j@?Cg?[o?AADwHLaT|Gk?Ls_CAAH`ku?MGp@gbCWH?QCN`mUSgs_gqATdE`ZPmAB?Mm[qD?qGAF@_ogP``F?Z?BT??d@FH@UAGA^PQ`Cg__DVGCjOGtYGsP\q_jDERCXg@_MV|OlUpokG_?gP_bB_o?QLb}A@CpMjlaC?KUOUq?KI_f{d?gwPD`NI_CEADeb\wTRbIrrODXGOlKOA_JcC?DnB@cIodQQPAD@A@R@cdda`GCGSEC\IQAzHwpPCA[zFaCgL[IUCK_QSCY[\_TTAT{w],False,0.0069379807
~?@c_?I`O^@o?CPX\X^aO_U\@]HPE??e__P?@bwenkWBH_bEb@YsPL_H[UgWhLK[zcs_uXQEmOOXddo]hCaTi@J@G_GJC~DKcP@FScs???pEsAei??WIMCAuGHCGF^gOjO]S`G?G~@h`??dWhcsEOdOA`GtUUVgOfkgAeA@}_?JS]vwXy]DARZcrxL_HgjCWyyg?PjTXYIfDcFWY\BABf@RMAbKBWcOH{og]OPQbKMWRgGQXhtCAdA[GdOgSTg@C?O`XcOGmgoVOC??RR@wbs@UtA]i??X?[Ow^w@\c[_`c{Bo`GVbBs_CIaXE@zADHL?SyXI?aa@WDcBsBSyeqQ_MYQT`dOwDiCD_wZ_GBO?IaOpOETGp_mSACa_IaYH?KAWB@LpQPclOOC|D?IyYiAlOOsc{qD[_Oc`BD]g?MCa?OZx@I?IAAAGhDIKQ?ED?_?cbP?M_mnARzBk?^?U?ILNaG_sACCDgCCAus@W_Da{@VHms|`_@jT@nZEjaWkKOt]RCz_R@?`^zMegyGZUkaDXgk{_DA?W@{QGHZd_CvaQ_AMrD@]gg_B\??mb]O_KJtanq|SOSmCt@jgZ?`gAbX?LaPBihqkY{TScGC_Se`aaOjC_eisfFK`_cQog}T?igOLE?Sub`Ao?AR?oOgH_@BMHGhPcGhPfsCapPGG?bgoCe_Q@Ick@PRYG?`P@hGCW@lTOhwCRhJCWXG_WBmaNOhy?oKAu?x@@RGPvCHLSSJKPRXNH@K?_cLcAGRkVm\SIspwFPMgtK`c?ThLaUo?OC?kr`RWRgqK?LPW`QCFM?b_OaRSaqqo?_KDEVEINbOiE,False,0.0070021152
~?@cONQ{ccSAcUhr`?@OKMIc@SCDjgteDaq_Q?ayGqGC{PX`DHgT{ycAi@?a`\VY`OCqtG]{?aWPyg?G{_I`CJP?qCOR\PoXgGMiiJoDP}PAebGO?iZfKWlBMUSbAPjiq?prWTAIBOORKAE@@SyB@yXbF_aC@__dgMOFcDGLTkg?dkcQODB\WaAQGBABMBzc_G?_saoIIGaJcGwMmb?P?XX@HZm_haAkypVOfOPnpoO_Sq\fS@KV{C|@F?B@@]fVRAVAAp_QaUlMGsS[eLTM|aPWGkccK`l?E?aLK?XBtFa]gEk_cWVWG?ko`YCWAhGOt?BD`FAkqEOTdfOQWhO|BrT@AK?TB_?FD?A{YBcRG?L@HohbBXOF@J[Oj`?yR[ShEWDO`x@\JdY|IEhnCpPPk@GGKpBP]uBoS\EOO`kej?D@AEhieGZdO?aXKF_@R@ajHi?CyUciWWQ?yCcC_f[`HogaPlXGgkORROCud_t?@ig_B@WwXC_ECui_IAASIUStvaRlIOGPcYtDyEyAZ_QEPGG`@FcWDvkskpCXPBX?JeFCgW`?WLWcGF|YL?c@_cEOtO_bw_SAAdc??{{hSACfG]LWgSO?RIGcLBaVqhOH@?oKIAXWKQwAZIxjWA`ooQw[`jHC`CWFFbAcCcO?IOcc_LSZBJRDKXeDLGQCZSDGZWWAFwkGk?K?G_oTB_BszpAFMIJdTdhwPwAKE@FgfNU_GnNO?_Q@?GEjEaDa_g_kGMkr[RhL?OAqkCCiSE@?s?[@?lC?kC_PFDGJ?DZrEbGxhD??y@?[e`d}K\dqBHPB[WO^RwZj_WKBoc_K???_G,False,0.0069749355
~?@c@tc?RTLAZ^sFPRkGFOH@aF_OoCdAcWa@``e?HKHCC?G@C`aOc?JySSEbOAEAOEGDL?i@sdoYLGWdko?_AHMHBSbMOWKWHvp_OKVIqAGJYK}Sk}W?L_MBDmg`H?PCAXBIGGOKX\GBiqbQJEX?TB`KObBESC[\_AaUSe`K`wlOxo_`C_OM@?SGOlG{KJAtAkDKviWzPaEjW\CloFG?zbzPD_Kyl?Wic@RqHFhags{@?qRWB\BlgGI`AApb?_CSbEPlgBY?CZLty?WEIS|ChcpiRPqdacC_u?@_jG@NG?lL[u_@?HJXF?\?xH?MpDXD_@QsNja`vXEQ?AGbaGIAsEQNa`gcBhXvp~hCG]Y@gb??tkSEA_oKZeBOBI_aaslHQ@c_OjG_J@`Ge@RUG`To|bhfYSH`uOKQHOEoEeAfsiP_a^JiR@E?@_\iTM{cBBf\B@}W_??dOKfsESMO?wB?sMONg_?VogAEGZ?IM?aZEx?T?OGwxYG``_HoYbI`DcqX?uJceAJ`ALvEYGEDceU\jaj_GGYCzJSAEPHG`DjIDC?Ex]ohUPzHS@K\WBXxSsMciIg?AGW@hS`cSUCg?XL@\UKXdi?@CJY_wR\gNC|cGHcw@PfQma@jVXlCCG`d`GOs@@gGAgf@MKkWPKMa@RC?aNCVPLA[MT}BD`\TQ_Ec__Q@_[G@IQWQGD?cQSoP|^IXS?QAApqslGTtEOgoe_\GG?OeJgJ[RAbN[IHq[fxYQHbf?I@@OuOkd@Ko???CAjOWS?`D]D{?oEKI?@o@pOoXGICr\@\?_WGGDSOMvsC[_bHOQS_pTldiCKGMy`{FF,False,0.006911993
~?@cpyWJee_HuoCEhCO?K|COl@X_DKMSaG[dPsHCQ_qD`AK?_SfQI_mWb_hF?}@GUQ?wAGTs@xCTBU@pOOI{gQHNQdA]M\_@vgsgZ[agFCQ_SDO_`baKYPLI@IgjZgAZ@aMrr_M_KpaCO?OPB?sW_P[@E?AOSOs_@cBGd@CQAB?[GVOPSqc`KLKHEH?OKQ_PB?QOBi?^tMZ?zfIGKKAR\DhCKObde_QJt`GBTkHh]_HCIGEnEGGA?DKM@CKEA_j@fPgEYpABLfmGVISzBWsQAEOsTaA`IWCBJI_?`UBBCQ?_k]IHGAge?DhFiamKGG[EM_qKKAlKSXNChpm{M?YP_x?E@??_A[IQTxIOiOEPI_UB``vcCID?phm@IXS`Xs{PPuZICaiWG?P@PqAQQ?fA?jiqq[gO`eIA`AJOwWq?Q``dMM]C?f\qRC?gSI?^GW?f??B[Y[]ICgC?@aC{Pxq{UBauxkFTZAe^`Y`AOFSpPzVaME[d]toBhpV@GPj@WYoRarcrQiC@ErJimMZGX?AS`SGOGaccoBoX?iSD?A[SBN@{AJACgJMhmEQCNSTCiRGHLTa{OSCP_QQC@lAiKTkv_yUdw?K_QKcc@M_eLAtqI?JfcOqOI@BFg?U`?Bbh\HiRE`JzSNNlT|o?isG?CQwTEEB??OTb[ac_VM_a?OOW[??@CCKOaAZIubBhd_AUG~Q`tc@_d@S_Y}lYo@q`cO{OomJC??SC?QP?hDXdIJ?n@wguhRaxHLQDSD]SEoE^cqPoaMXPGg_HdaPTvv`aKj?`KCbSzSoAOAVS@]Ia`sS{EOJ@jL_`}P?S_Apz[_PXW,False,0.0064649582
~?@c?AoW_kmGFk@QX@KHPAeTJQ@cCpAUJIc?qGP\?Rs?O[LRhqWh?VqgsN}l`EqVcWEOiAHeChcH?jCAzxMAKUI\?AOHcgBRB`@U?OA_MDO@RHG@QKcOm|LG\O}WGkXqSScUdgf[lcFB{e@iFG?OUpLJ@Y}ABOcI?urUJnVKlMbGwbhqOw@Q@KOdIaFBOpA?Ao`__STooG_qpBK@ey__OiG@pQ_Q_nXA{O`ziqPyCtfQdgCCks`{IAPOOeGGcm\SOtc_Se@_OUA`HyVeH?AJKCKKYFeeg`ah?cuKIAOWC??Cz?UXA?iGec?AEmw_gaQQgv@?}QOUTO{}?gRqkGiIOPwOExO@lgIh?qWCCBmgCi?X@O?GCGSJWFd@YKArfv@gJVUxk?OgATk[F@_\EGwN?_CIwhZ_O_GCwYZ{eLKIFXAdQU{tGG`BNBQ@Ra@mA?zu{o?QAtF?W`yyXsqdMaD?GKRYGocu__HfJ_[c_@C@gSO?tEOfSG?|h_koGbA_MFsa[IH@|?c@CAsWPKcicycSOCc\OwLuPSIIGLSiA?YczSGHFURXHGxGEGgpyEg@RCHWA~Gi?AxG?ocIPGGYQiRDlGIU~EL\haCBp?blchQXs@OCUdSW?ZCLBGqG@@k?F_e_?cgUAReJ?DScy?gGh^GKXm?NwC[@QcHiap]GIuqCeIpGKw?Ue?o`sE_e?K_OC?GvSa\pzYZOfT_XphPLosgpMeBWeSuR?WaT?GJCOKSJB_Q?Dl?gDsdIhHpaIRSA?TL?EKOGD@Fg_clcg@LgiSAON?rVamoXOTBcO^E[`W_I_AKkdPGfOUgF`OC^[iXoG,False,0.006483078
~?@cTmO]`DWBFxOOKggywl?AU@?WFu\AXEFarU@SGMShByKCuKFUKWsKCaO_p?g@XnTqOUGE_SkK[@_UgS_HRgv?W_??PXCg@ECfCVbaKaB_|IkdYDZB\aqc`mSdkUw?@OK`H_gOBIE`{aQCWLnCAd]`D?m@_p{cpEIoiHHq@OO?YKRwU_G`pByzEOruB@LhS`iN_?@`gXE?\fewAccJScXK?C_G?{UwfoIUcakuDDR@bGOKE?diRfGE@@`s?x_w{`CjRurFQMEI[Dg?_`GtGJog]CbG_?O]PSCTiVgC\r}?@_Bk[qLzBilwcscoo@WeK[lk???D@?B_prQOH@TE`TXaEHeVPHo^PWkqmo@?{D@GA`PWD{BMkglYgSapC?WZ?BDSYoSmCpQmEHMXeGAaIU?I{tg?dfOQ?Ic?QIaWzgX_@gEtGfBtmHCBEfOLCaCI]k{WnaCPhBqc_L{`DAAfQTr[BPOGpFRdW`QALSSEsTQuL@JFAhMAIpB?@g_B?VREmMGBq?lsaA@ekD_TVKHahA@Da_b?SXPIW`A?cLwo@oS?_?DgQkAmQ?bkFOr{y{A?LYKBCH_ePCSZSiKX{atvDCDNH??J@tOGqOOg]]toPIDTJCKTjCKC\OuKC@?JXqOKE@{oookQg`Ao@_UJ`_bkCdDIdk?CDzeS`OLYAIAa]B\kc_?W[C_Fg?HgAIcI?BnAR]gKcL{rgI?w@_QGcQ_bo?qfo?_KxOUQOMSppIBIBOTkMO@GENQxGOYEFra?KwC?H_V`hBAE@GcCEkcFA@oMGl_Q@GB?BtC@HQnACGW|xCCDk_dd[CPhCCRYSK`CG,False,0.0065472126
~?@cC?GwB`Oeet^SDQiWVi]CaC\weJecAksCpogvDc?Hc__DDb@EwCbw?DZhYPS{JICIo?GPSsefOT\FWC_lCHs@KaC?N[Bd[EuKgXCl{G]aaegOWOEGFPl\[c`Uu@M`dAHEi??{p@pWlHOOxKWWg@Pd?[y@giEpEOMgIkwaOpEQH?OiRPDsA`PAO_^?RPws?AfO?KlFc@GBZc?gQGgt|WAOAC?X_jF?iGxHN_}GSCGBqASqgVS?xt?t@HTbqOIzA_J_LX?OPdgPIuQQQaASC@_{AAqPSHrAGAfClG~Gt@cEDg`G?SEgmK^TGckW@AnCcPeA?cDaGACG]lRPHtJC^_H|HE|xaacqSaOOC]w@YGuOODKONPi@@I`QhG`vchYDFC?MnpduRPNg@FvxClhDccOxX?R?LWHPARctxAgaBDHEw@bLT~ilFWWAA?BT`\`WccTRegIwo@SIOAOgAoYOUZL@EZPmHG?wGCAMMEDO??LBGEBhsSGg?wHpHwE_BYsiTW`QeO_]IOMrGLciEBSS]_@`DHOOAb?a?a{cDqAdOeGXSdSQmTO~Nir`vA_Ai@O??V@?uD?GO_quPCbUAjSCefT?_CITgu_eclYS`_UOS?d@hkVeEZXBiRlhGapWiQ`OoQaQBEOAQAAc@?qb?aJaf]Q?[_|[AIugGDhGpGqRfbCeB`PSCMoCMrKAiCa@GuWPmBPQeP?EcRUO?_EG?@GhHQ]AsxQ?Ez`ooDCgqGaPH@EHUSBJAi?_{_`xJRpQwPYqiMkpAO_ToP?NDbCo|glI@SIS`Ii`hGOc_c_adGlQ@G\xYIVHOrB_OihDCOIGg,False,0.0064849854
~?@cEOr[dqWH?p__@X@SkfB?eehiAZIhRDuFQUK_?K?Gb@?S?lSkGzGQnG`HKGoD?KMSSAgECDhQ?oHU@rW_CGtD[dPaKCWib^?Fl__U`OERhhIAmAF@Y]?gOdACsAAOjF_GBpJJJiu_s_wBar?Haa{aMCE_S?AQPrBFiRa?GPAAsTJ?`K?SiXcC?@EfcPcAvQXTKM@EHDMvrCbD_ZrgEOr?KvLvWqEqQMdI?DjW}XA@_UMDJ_FQ|?cP?mO}_X?hCEGYLEe_?A@WX]IGA_^UCd_oCWCOyPOC@?UD?k?HYcEOAHtVYEoHMGP_CDZItJI}GYcSzSnECHCAuKHMc?AHcQwPlMl_?Oa\DkAg\Kkr?EKfuGBD`?WoMaZYNtO|BAGAHPo`E@aPCAOgY_@???Qr}CGpgM\UIwOHxqOXEjIVAOt?JSQFJJwbPVKHGce@T_X@HvCB_BkOj_I?kfI?AOIqAPAcCHFq_gPOODqq]GO?sVJBOGAOAhADHnoD~favSDBcK|m{MS`KgXGDKzDxiaTJAI_QIeCBu_U?tSOceQJaoqmA_aSeScrBytC\Wo`AWuP?lX@T?Vk@BsbsKy??UwS_MWI~C[S{Xq{hcaDBH?A[Iq`CG_`mNUD?k??O[D_J??O?Yxxo~YWKrbr@OMrO?BwDRKzaaWeEIsHBgEO__asJQ?XHGPGRGgKJr_`BgoWS[SYs`mDR`ToOaPJ`bO?IvCCiEbOIdrC?gREHI_\wQk`GkkAESbAeaAWfD_?DWPDLw?[Zo?H?Ka?CTOHocOcAbCW[RH[CoWixiqA_?R`kC`aG]CFIaX{Uwa?pTRg|q\Y[o,False,0.0064520836
~?@cUJ@ahacOJDqc??EYcCQ@?_AY@@QkHI@?GwPWacgyPIDBGboojWC[?o^?_dvEcQxMHXELFowasAECDM_ihC_ILJU_aOHWa@GBHjVFsPC?dxB\_oQ?pmEq??HWpgSOD_?Dmas@ycpYDlH_MqaOrDHtCI`VdCPho?@fi_dAKQdOt?YoMMkIvC`g`L~DAUG[?DmUGJaH_?QK?kIJaeKaU?hKrCFL@AEYd`Qc?Ic?xAc@?b@?E@MgAOoOSSYOp?sDZGgMDazOawAGTAIjWaOEsS@}TdYo?|yGotjTUA?fCks_BDe_MGy_KxDPAQOk?ACDpA?W[uHJ_EINWVPW?ICoV@?Afo_IKHT?yAiDHMPGq`AChOXBsagwipolL__ydHxS|c}eh^GOp}?ASkwXCIEc@DFA[MlQS?b`@OCRbQ}]|F_@A_?AQHBODDGsbGsqOdGchBOEP?vBf?MKCBZ?gAAqW__DXn_TEPfY@M?`BD?@r@Pg?HCP`A{CWJBrsdvCOQGQG_dB?IouGs[wGOnxhg[HW?VSAydOoegbGcPoT@Ad?DYYpKIb?K{_{~KFmIhSYID[??ncX{oES_IWha{EW??^OCc@gh@H_AqewkAMPT@mYuiQEH?bgGko??LQ?_JkCLdREJ@_mBACyZ?WbzSU`^e`J_`T]TQsVXgSH@UuYAShP[XxaLBoJtOW_hCGa?GBp{?nYPNyOAkyGfetTW?DA_R?wIC@cPd]WWAoOCGyF_H?U_G?RcQqGPa?CxNcDE[hWq_@?BMsfgBorSNZniIoPRd?CFUgUoaOCCB@G|wioxvJXSbGXFroE?ooK?gYIlJvd,False,0.0065219402
~?@c?C?@_?|yMAdR_GWScK|QJLDCoAiCBFDz@[@M?dyaaeQAdWOlqKgGmsS]NkUqOOF@oDdpIoIAKHTpGa?EWJWIULA`C_VnUIypc?`Ss@MVOKXp@Kh@xAp?gIfCsDi[?Bi_CoQfWNqc?kcEOGEbH_SFXZ??SLIqBOZW`_sBsMOraPCDDJAL`ECpaEK`oSb{_XjoH?enQ?MCwKauQl?`pecDVo[Bc@?|eXTzAuUWfkuBg?xLGS_WSzRMBre_ogVvXXOho@?@NJ_O_PLC?pfO`OAOQcGKl|E@ERHhO\ha?lLVK?HHCAtfOGUiVwSx}DGD_dyGkOUYWYAAp_EN[QS`bYIgH?Or``BC?aODQggphw[CJHbBrcGDG?ZqpwYV_@CSgPiEg_SChk]hBsGEgC?I_[HQHoOhABwGA]bCE_BvQ]FRIVS\_?o_FBJ`ODoHCCFaJdAASOG@M[WkAPQODAgUAamPRyP_AsWa_QbDBHk}uAjjE`iQ?IgeA]JqC|KGCpBPsKuEYhkCck_mSTGGppgCcPWTWmFaF?OS_K@A__\RPIgKIwO@?i?|SQBp?AN`TXG@aBPRqqGGg~X?YM?pGW??BI`OnneMRzDCO?CacUIeoh?Q?_AGAGY_P@TqmA_`ni_~KPLCCD@Y{tWSDOF_o?@Ag`m?I^PXK[OrHiAPBAPoE_bpidasEHNeTmfUcaC~hL?vQsW|AC_JG`_CAH@jC@gsWCEJIa@Q?O]jMPH}FHWoIqP?FI@aB?VdxgewPHODaP_pAkT_FNz?s[OA???QH`VSOS?CCQO?k[CBHtDPPMPI\qL]GGC@BsmD?SG_CAABX,False,0.006716013
~?@c[XGr@?le?p\J?ga@cs_LTR@Ad@?X?aHwOG?zkraWC??G@PAIBP?cXHOkOfcAL?Y[`SGnyDbHv@CDGDTTaRCU?Y?gFClIIF_m_EOGgiICOA?ZGCKtkP?F?`pKxC?FP@KTrBT_WPZdGDSMcyPRQcqH?_KgFCC?[hWKGKGSOAdlOhSJLJq?C?QM~[W@@I?QBcGZQLd@`jzifQao@jGP??andYC\@aPaPaNeOICeKh?^T_qgJp@Q?Kwr]wJX?J|MgK`G_[kKsyK`tAN@hDj?A?Us?rnA_AGcAMM[nca@gAQE?HGAAx@XMAONCc[kCa[QYSxM[oEb?B@`aYYMQ??D`YETH{IsUqg?dAgbWC^P?OuK[aataff`okC_Nso?P?`SXcS?WGZmb``RQt\WL{oolxZaLHp[GQa[c`kSQlQ?BBOC}lG@woG?o@lHDih\PBAKb?CGyC@DE?OZ_R`bD?PGSbO}WSOs?FuKYPABagy`_?E?gCO`?h_Ah?egDKC\f?`AREAyI_Sg[_?CUFcCDKsd__DWE\M?ONHwlDU]aNGEHEJQEvWD]c_vBoac?aYdGhGro@UiEc_HMZh[tX_HasOJOBQACPCesA`AFATEDEb{JFWoU_CD@e{??EegXgXP_o~I_X@wFsSOwWtc\@BOTq`pdDxW_?CT~`]?Ro\ogZI?JP@wo?AKcDIKjG{fgPcOGUEDGIGyJ_psISOac@IX?c{GXdQkLOC?BihdW[v`@paOJgWM`ysdVQ[[sRGZ?ISAKiCM{SRee@?LkCiwqTAIODsQ?MPV}}`?|KGW@fUD_mMIA}CxOHM`GAYEwXffRP?Cq,False,0.0072698593
~?@cDJaM~dGvC__XGHm?~C@acKWgyAA?AUhIE_oA?YT_Cmc@ASWkK`prOom@GQH|@aCoQAdkqtTG@BgJoqClWGJ[sElASkUR\?q`cJ?_OcToWXQNyhOGACGPWAFCUhRHZiHGH?kAI?dowWHWGrJKLGwOt_BqksdTaJQbAmBcJhk[wH_DZEGWpP@EO?\GYz@kWwS??DTbEFWSPwBcJlegt_ceXpcBWGP?CCL?O`BOjL@Q?u@to`c[BJKo?UEBI_CT@?EWr`cO}y@LoBQNjJOmdh_A\EOOH`O?QBk?Dwkt?OESqCSHV_KNhRQCq\scwGQubqLhHUK`KXHOLG_O?AOIcK[`RIT?CwAQs_U?NQqajeCPGJOC@eCO?]j[J@LS_EbhCC@Rco]ulPHiTMSZmC@g[Ws?HM^iQ?GdpO@TI{OFbW_z@QQAPo@q_cEgMSbCtCB{@dKDomO?cPgcRAT|SYgo?w@IcM?WbUGIAsN[B]uiezOEyQ?ZtSOCgOI_]FuXAsA`P[eUCTJOMOL_COC\MBCfQD?G`?GBe@HGQ?@OoIvOo?`WVc`C_[{@rGCgHTu__`o?[S_QMD|Du}uPkNSeCCRtKJAhigxGeObB??ZaOE_GS@s?gOa[?dpMcwFC@dHgjDkp{LMjCCVOKM_?qO|bPE?_[BhBKUwd@ccfbSreOYMaYa\gOLPDcBccjsqXJ??GOGPJPI]^sTUFYHC@I?uFVoX__`t_?][\HDp__yD@?DKsagUaeCLO`IHPxCX]aaVG`Mch?Gl@ctOO_whAWQaq?ak`SrOP_EO?HwmsGCEOUpOOOSqe`ID_YaHAFcKWcEDoZ,False,0.0065150261
~?@cXAZQqfDOLJBa_AOHgdkVBAgKp_DCaTQOExAoSy?iC?B_mISo?IoCgU_acUD?ECs_VoGR?QjA{ohRKKigPB?g|ARqYOPUL?G`AOKDcV_O_}wa@GB{WiO|jOMGmDS?BA@yc\wM?J?sTOfq_Zh?m\p?SjH`wXbDdv?aTaY}wo?_ciU@oEc`X]I[uGfp?|Dih_fCSPI[QjAKB_PiXARSeOEGgVHFoBePoOA@CuaP?@CacAAW?_?K@caaGOO@oRlcYt?O|sOGlR_I?M?IEBO[@HcM_@wV?o`OeoYX\JODMO_ersm@FbAKEp`?EMuruK@g]GuBww[gax@oWk_Zi@uCS?jSXHRfH@gqCfwYQtGOAowP`CoO_G?VEKcih`s?lUWcG?OShW_d\qAMcYeEWGcQeOM_`QOEvU?kSIC?qLlHPYZDk`EWR_JYOYRo?[cHjDCAPs_QxAIHPbC]YVEWAoPo`Ey?m_JE^EMhJ_jLkZcBbDyQK?CHHLCiCX]C?a@qOGCBA?BDIad\C?PcOYdkmSav?AAb@IBA@A?KArpCUQMh}CsE@ENBYPgxkbiVf?IOI?_G?Xpp@\EwaoGQ[Oka?ghkKCw@HO@kom`gLJT}ebB@wq_UoXH_EpsJWpuBH?I?UjRCkchOfcYJBzdcoSOyH\BYSL@DcaUIVA^^\[OhOT\a?SGeCU[p@YWG?C@ah]oKQGzxm{@dEqpbvSBOIQC_LCEHUEoxOaA@?Wo\ofg?gWECSFSc_aD@i}CCOc?|@CAZWeGCpZ?MOJm@gOahM_WDoPIJkdaJBI@foQ`_H?PAYWs}GRSC?QMUO?K?Y]bAo?WWh,False,0.0065031052
~?@ch_^IIAy`uOd`Wt_K@alO@YcA?aHlgl@GAHU]QU`eHEKc[doRgzKhWiqbADQCCYhAxY]qRG?qOCFoAcONoYAa?aOCSv`@RcL`q?`_UNF??WlIIkHjOkgTB?L_FrGcABF`L`ihGeIIR_YfDb[sORaqFK@XOYOBQ@NgkwBSaBcqosAUQFrB@H?o?DWb}ojgJWWa?ZDeCjKAfoHQUAB_HFWk_[`grNoU[TnaTDQiAMIWYIycgiObglIOIAmFWLsaYAmhi@VV?CagViFSw[@O?UFWa?adIc??sIg@BdYlEoCaThHufAAj?IgIx@y@_`}KDIWtILIE@fFg?uPFWLFpaT_FGEd?aOQ_h?LWc[fgGCT?U?UmoQA@HzGJCB_ACKO@?K`C_qCP`aE?cKrs?cSW[V_ODHC_`@aFq@RuBc?M?H@QIRkIGYWEFOaa_@QCghDTDgqO?E@U?WIGIod\C|GEPk]@awPBRDO_e?QOGcBE[{`c_KICjRZqAg[okMu?KH?g@@_\gFpG?MTGHHLLEdRzInbDUy?VhQqx`Ghs?Td]FNDIAXCQZICO?PG?egOdqENP?GRLRXqGvG?P^AGB}rB?YHAKOoQpLWHcEhCa@wGE\h^kyoS{gTJSc?DrKobhWakHg@WjQA?LOhEIQwSoqGBOpE`oCN`LTIB?GkHCQdDFoLICOhHJ_XoaOu_cWEWRAhRG]aPocjUx_QEPAHdm@]`a?I?RbG?kY@@B?yhC?JkT[LZAXA_xTGILRwg?ACBSd?YXF@?qbCHbSWCqO?@a]blOgoEcCQAk^ujHgShOAlScFUSGCdcsAWb?L?JrIAcx?,False,0.0065379143
~?@cha@Y@?lPQvbgc\?Hsbha`bG_CeP?VmBJadG?`CHdT?@@syLTac@hhbQ`wA`EIdQVD_`AOQP\BMSkhclap@OQo}a_?OCnSdOwGAhWGcaJNYJari?IGQxGOKFWbWRbK@@f~T?X@AfAksRN@U?HaMQKxiBS?EPiX@vIA^USG?LEZO^GIWrKHBwP?Vic`GPbBc_`LSz?UAWy?IsMw@XQ@se_cQCCFR_?_p@_G?T@eMQY_UegWwoQ@oP?SySxpV@TOIGAAGoK@AGgH?[S`_H`dOLMcxDXWd@kGoWjS?Zi]SP?RVIZ@keCGQvBGzRACUOBAUQOA?TbtleW??]_Au`_?xU?__\ZqfDGDPPdRM?tTSM_d`?rCWOGYR|QOIwzyE?@gXcgF`cx`?QQ{?y@qgapsNxg`oGAwJOSgWOWK^tB_??SBWvYPBgF?@???KeI[fx?CLdOsiuKa_QROgMCBPA__`Eyg[R_AC`CP@nh?PYPHWEKHg?UHDB?qoey?GREcbWKawZ@W?K?FaBuWCughiBdBGqOxL?ePEUOg_A_IATW?mf_JEoKxPDAL`[ie{HBDXU?o@hOQ?c^iPak?JHEWiKRI?oGo@dXsDPIz_@?_[}p_DXcRSG_U?@O|@DLvE__AjdA@dfSHuCODxDgRAiGgAS_MDUlcT]Q}@ToSqgmw`{W@|Ie?\wTBiw_hRDO|BBPI__cc`o?cg@ksQB@njkJHG?D{JCM@Q\?YjFgIlDiC@?RpCY_NMuwUWDFiEeaGGP``IC`r`IDoa@Ek??M`H_wh[HSqe~EHa[T?CJ?gDT?GHFGSAuzgDo}sYCZJ?Ch@[GpH,False,0.0069389343
~?@cr{PuE?LGgKgu?GSWObCH?@UILQE_Sp?GgweZE?QJ?_gBBuePH_eGRcZMGpP_SpGKePSK@WPdAk_GGkcPXDgGYR`{C_A?kIOO[B`COFQ??_H[d??}E~XQKTb?{KzIAcgWsMX_`DXzcqL?@SJB^UEuaqmgiHbRXxobS_ycQHHT_cCHU@wJtc?iyBoSWFSqKusKIY\??OHKHOcIpCy[]XGEBXX[JWf?WjPoOkSG?@ByKtp@_DICCiDqAPWx_VoIaBceGB_pWrUDI__BO^{Fkc[jOSDF|PgA@Rc?bLcdDQGKpDrJ@ku_CW?Q_CWCVH^AKO?gMI`TCC?OpNLsAeHIR]boIGH??EjdCSqiBsT?JFOqOpOCqA]@LW`zE@LBXcOEWDGECIiXI@oJSU}AAW??mKscBCCbZHA?wO@WgcE@S?OGG@Pig?OGGk]RrH?McCp?WOY?Hb_B@QqInDqS?C@ORD`QvWoi|TCHNbT@ib@WO@_H]^GqL?OcW_eWJrAeyUq?_D^BGc_B_Q@gG\XACRbtCsaznCIJ[K[I]R__i[fXbJY@@sN`CCuFoUhOrGUjTHwbR_?GEtoO?pMvO__c@U`[\OKOMgeOPKK@FDiQEODScW@gxTI[HhIEF_EW[uaLv{aIBWSAQ`wSJgaeJ_Cy?eQ{[BINA@ABBcB[uOG[HLWXd?cDCwg?`eOoCOVDQSssVWHk?pSongE?Xos@w@CnT?i@AvnHAe|IaGt_gsbcAA?AfCCC_HC?qaZDO@ZzTXe{HBJI`]gYIHA_OFj_[E?G@[Go`TkEPRhGJ[PVG\?KoFeKBawVdyr?QXOw`IHA@k`?L,False,0.006827116
~?@ceWAGCA__CSAq@OgGAv@haSpLQeCFlWFcPbCIISvPsBCDzaGCoghO_cP_SgpQOYpEPCaE?FOWZqUADagpSahOoIhF_hcWPGMsM?|J@lTOSLDaKgGqMCP@kO@YGfRFk_MCAa@\bDaPhH[O?HlBC[_cDUg_BKGXDW@C_xCi~c@Ps`FG`S\?K?JHGIs`dHoDH`fDCIKKKqp[UAGPoJGKKRqXdi@n|?k`ecL_KA\KG[}MBArFWErWIwBYD@o@CL?S?zDAZhd?AFE`@C@fKooBBdbq_B}\?A~nde]cW?GOCJbk@CAxeECj__gOLvgEcK?@`gRTxYjuvCuDKZ@WFIpbB@@_IEQCV?B?WiADDHEgXOZLEGIYQERDODk?FmaWoA?Y?clE?bp_ohfzcXIschpP_BPsAT|COBWyB_~?[BqQTf_XNOfOHOectQ`F^uMTsoT?`AWj[_jF?{GgDBHEFWU@?QRcMjKGY`RUPcxENEWsNjODCe?cq?AoG{@X_dPP`EB@a{??`qXVgdwZnA_@iA^AQX??QnV?OFg`?ZHTPNHAQ?iAOoIg@YJScocC@?{_TjGboCG?O@~C`{ChGCEsg_lD@NSHNO@CIBA`[K_WFoLHzKsh@gaTCghSDEfPem^HwSAOFWDCI?@`GdBKA}??uoaZe[?eA{`YBA{C_OwMkI?PgCgS?AbI?qHBECdAQaQMa@uRaCcSEqXCBgMSRSP@aIWJCGi@_B@ke_ccdme[OTkAcxFJG_PDY`RHb?kD[]EAOX[nbS]_}H_MJQ?UfgTM]UBG?WWmKDQ?sdCP`@Ipiowfdc?LKY?_oG?GP@{IboEFC,False,0.006483078
~?@c`}ju_N?uCVBdqw?S{ACcAXCMfi_APnqD?aAZHCkPKO[yaAIG??jhWlQaEJUZIZAcoCYFwYAOUK^x_A\YgTICAIp`Yz]CqPP]OlWRMbBieAS?[OKS?Qc?N[BeNaid[YdPGAfBcmcQQH@C`CWAAfS@??PCKEVWo_GSscHV?noa`@W?qsmd?CZKCsICGt\as_kPcAAI]k_Yh_KXo@cgOe?e_C|E?HaAse_Ci{BcpGJwWrcYIk_Kq~GrSBBBA@Vki?gCvWVOHHeWp?EpkO`A_s`n[_B_VB_LH_@jYCxQCPDXbSzE\VqEWD^?GC`IBUyBGWlaG|?a[BCwJWix`?e|?RQcmPIg^eIOl]hcBttcKCo?J?qHgW_QQd_WccwFfgGOb_[bB`GBIHOAG[t_e_M?CCOVGQ`]tsAwNOpxNpqQC@kOpaSqEW?cSaa`?D[ubo@?Z@BbXMCGDbIegEFeYAAJEccQDS@C_csA??z?ahtKCdC_LS`?bMBaOCD@hX_k`TLxxhFDTK_TB`YEcaSiWQ_OB[gEClIJ??_SMFtF@BSAc@LUoBpTdDAQhih?`Lkpr_AV_YW?@fAis?EFR?JJ@[Cd`HOjeQAStCZ_]`EBS`XA?HoQxdWcCCR?b?UG[Qq_A?pGo@@BGiegIkDCR]?qLo_iGaJuOAPdS_S?fQEijrXc?fybsB_?OHIehjN@dA?SAXTa?ULObCY?oaCJa_yH_DPG}GUBBKBh_OG?_NCbKw]JAGBBVP\_`M?C_P_OUh?hXBGGL?Go?@XaHHEAuA_@CtcPFJTovEhKNa]eu@HWdDpDQ`_jCWAG~MiJGD[_EFKgU,False,0.00649786
~?@cCe_aIX_W?I_LAFxHsK[^?m_FG?W}_KkBx_QOIp`H_@Q~?CxrGoCG?zGiKfIAC@DA_O\?FPXs@?MI?B`?jWCmNMfKQ?IQ]I[cOOEq_Dc`L_q_@@@gQOCk@Io@BDHlOozAOJCCPSLSv_U?nZgZEAWGF?^PWQn`Gw^nM]eKHR@aAac?YOs][GQ@g_uIctHQ@Jj_O_`vGYoq_gx]@SOPSWD?FgYl`Is?cJG?D][DKgCvFA_C_CXGWfQnC@gGcCbAOkcHiofPGOIi?|_GUD__Xy@ME?E_qaGb@kKIFW_OwHDCOC?aLQkof?JB?Qshh`@AQOdEGCnaohI^DwbCgtMYCb[lAVd?v?_F?KOQ@HxOIAU?O{X@?XWjwJvl_OMauADLB_xPZLicJVqDs\O@abqPIG_wDGdWGcA?ORBppCEoc?gb[a\v@@MLERIc_EWKCJhA@xWb_@A]G`sFAUQp[Fw?wq[KSwA_d?tisY?koxb`GOzcSBM__OIO][RC]K`I_JOpwHJg`_L`aK?ABpSIPIc\gJCwS`[BEHO|oJQD@@O?DH@cO@c`GHJTqfIAhwT_POoOtzP{AMz_WSF?_BqVMcHHoWs_CUQIu\poY?CKRO_Mi@oAQ`fFbT_`og?`XuhpQ?KCaCEAEfga\O_@pCqB}|Tj?jGAuPS?eSF`Oqba_Qprhb~OVe`KQYGYoQBc`ehRs`NCpOoO@csPpGg\gE_fJWsoYy@HC_becGTWGKRllTAzqiAGyucER_?oGgaCNGKKiGC\gUC?bJ?W_Row{pbQiG@I`Spo@xCbcOd@ePE@P[}KpL_`FEcApGjlESpv`QCaH,False,0.0065300465
~?@cP?AyoJCL@__E@[MV_OHS@ELMl_CK_ZInD`RrAOaguWcQQBdPQP@g?B^?h?I?GCNXLD_xgIyJh@JORYP[oacmU[qCJB???chHUKDsbtCkBHQKKch_qDXI?WgS??G[GS`itKc@b@lP`?sggc?HQAo_``GTUV[lQBtFKSAAbc_e[Hahc?cO?jp?lV?iU^n`IIeadK_AKgaC@fPKCwnFQIa]ZapvC_?K?@@h\W?}Ct{FoH`CPUSnioSYAHIZ_IV@A?sI?R@@agS`DA\[BU@b{DsOJ?]KkOcponO?QLMmMswvt?Ge@CPaD@pmQ_L`Id?L?{PY?~oYKEPCP@GpWWACYGMmE@Yoc@hiQX__Ac[n?a@bv\aKGDzgLdudPcZYwCW?`hcQ]?BHtAWJWcW{iiSnybpy_W\xuL?WgYw_D_SDNB`K?@aDOR?`q@C?CPsHIvUF_jYvQBhJQ_Io~{G?DpKOAlOSVvhuHqaSQeMGRKWp]Y_^SR]?VLYIbI`CXGM?y_GIXJJx@DsgKXRKS?fwSjjcoPOKgzxO_j|oK?c?D|OD@IM?[rFqCB?Q[`W?TKSY?ak_aV?GBCyD[Ci_X_\udoOCQY|BLUjyACAUAsOOA@?GtKkOgEJOCb?PKf_Obi}CIC`?HQA?GF??kEeBRFMAQB_?M_gKk?CRQNP?bgXWb?LA[?_HBJmgOIOgoLG]mOECPXGAGwORDa?|Q|AHwLWCMO`@?OiHfe_IpE_OE@ANCS~|EC@?P_?iL?uWQcB_lrPG@pG_TSeCmSF?@MSs|IIDdAOrk?Y?hsG?Th?G}gMG`JEoEZF@CuOI{Ao@OUwOAB[qo,False,0.0064959526
~?@cWK??{KiIji}iMbC?_d?FJVaKIAIOQwA?upnh?Koh]AGZOIYOEK@hI?@CP`K_[\x?y_]gDG@XCBTnR?SOCtOB_PLUGRS?Q|?GWdEAInSDAFU`ETO_QarJFcoHWUXgDDcwPRgCOIbVD]WegsG]SdSU?PAIPF{V_G|CX?BgHEgOilkBrk?s`BemhCEQtHR_scd_CNhXBMWqKfBUOHD_?GESe`Bn\F?halAcI`QqrAVGP@?pcGsUC_@CCZAbAToioAlgQK_A\CagcuW_W@_bPmO^ppyancC^BWESgW_pOTsyrwCD`?BA\??A@aCsKBDDPOEFCO`sE@pTrWWh?ePG@F{qqQaLG?Mc@LJKZaUCMAahs@cOc?aWbpqBc@GIxGKQ?cIHg@\CpT_PpmcI|?IqFGTZSa?WSkyKu?DGoswWY|opi@AaknYPM?GG}oKSisM`Ris`IBYTKPPiGQo`G@aJCV@bROV]bIoOAPDgws?CgegSPSKoy@a`aG_CaWAG?LbG?wLS@_PmCl_KKGQ____C`BSuHAMOXZMGFsWXXoDcnuhc@_OTUhQDPoGes_[C{ApteE@CgMsQGAAa?_?p}T^PHp_wd?fs_GDm?`GoXU[qqy_H`JqBaP?ScA\GCW\F?kB?D_BWO]qzth@o_?FagPMM_VGYODcYM?_fHU?wfHqS?QXq]OWwJn[gAGI?_CN_J@gi?cTkBOdHoPkgRvcOHa]U?gSck]MfDg?eTDHDPs`QKuM\A`ea@CLxEABHBMGgOOBiuQGCOG?gTmVkDoPrx\__fQwElqDOk]YpOAGgHK}@@kI?_fbLHSA_NG?_YoC?W,False,0.0065059662
~?@cBhOXAsy?[STpwQlqAaDhCbXOQPT~v`rhg[EQIHL`HHPN`qG_]nKyd_HAlUOMqWWXS?PBG{OXwBPyWdv@OwXw?B?_IAAoCRC?SaCHwCO@CG_@Do@BCBPA[?RgWYc?xMK@CAOGQO?RME?vbFKVFLpkA`ux^O?IH_{KQACCGXDCL?orQC?F?qfMhQAqIMGXE~`SD?_d@h_AHoDG@?amorLsWdo@geClOyeGa??rWy__daBZnVPDHGxq`XsG?I??@o?xFYW@azn?cR?ORoAbO_stISShY`_\PaIQMT?COGXHx{Aakp_BMEkQQ}PPexMRMC[cGCoGJW@Kts[I?pAHaoHQ@j_Uq?MSo@\@wAA?@OvO?eOOPL`GB@?Cd`G_@~Ap`kaAO[ZCkAFHqBRBgDeN?BLgWikeLBh]IksijARGIgMABowcEMaI@BAcrAHfG[DaH?YVU?\Bd?a_b\TiCFCl?PASG?GpoqkDdHBSVGA@_osj@BPycTCyB[DwSNMOdKWFCOT?r}CbOPThC@?DKE?{j?S_OAEASsufD}kcDGUQNQmg\OVsyooPog?FabdY`w}W_[ogh?{J@hgI_?YOkqCSgPC?\j?`iGDZDGCTyfOohkPhOAo`Ls}PPHCPS?Ks{xAOOA_uQ?x?WsMMSA_ooSGfH?OW`\lqIXiZ_@C_DSYUgiK@PL?QdTYz@JSSjG[WP?ploVHB?LEtGO_AYkZSXSfjJuHfsoyECoBsIC?HewpdSsk?KG@cIO?`AFzjKD]iHGNgjE@G{sTkGAG?GGoHT]??bG`[paX[Az{FdawwCMWAe?`a}PCCSw_@GoCYXQXcg,False,0.0065050125
~?@cPo@RMW^A_oL@B]gf@`c??UJi@NiYKLFsQGGFS?sSsJSqHlc@C\Va@YWgOtHKlSGPU@UPPCPcEIwP_DWOPe_ocF?Af?E@ApGGESwJEEEi@gcQWTvZAAFD_WGC_mMOw?]W^PcIEUrCr?IA[H@XASg\QMACTGo?Oa@KgH@OIQP_RGIc_Pw~hjCaxOSlH{Ck?iI__uWePI??dnbcOWK?`AH{hMhg_JOcEVCArGpC`R}?_Lqd?qA?D@aF?@o_S?CK?cPHB?MqDIJ]EHO@?ceBKY_U[GTA}LYvcpG[gX?IECSWXWMr?{KFdBC[mXSPhnCbd@MKJ?xc_yQMgQJCikiS?_LA?M_O@vMs[?siyj[_Mai@Z?FFkAMAIKODKdQBIqsGwtxAs?rTvkyMB{AqkKOCfCAu_{TGBAQMlZJUECYgOEFOCwWWAPkTSWHDcSkd_@OcIOIdQSGP@GODKZqFWUOpAJlh@aUGKJC`DXQQ?To`?_sCMsa?GIGxPggD_]ojjAAf??Zd|Zcaafqadko`A?DWNwoGGaAAj_APQUEXSD`J~`BU?kHECC__sNovT_C`hcBWob@baAcC`ece_DTHWO@gGEQ?_UbRAAK_VWg@CPA@?rsICCIYpigSOjCccFgUY[TArGngey?EOwKP?sEr{LqwG}[anAO}`_D~OI_o`gGbOhO?oBeIcOZuCW@?@HQCSHgHtGDqCrNPoS\^lCYC?YuCKK_p?KDTIHcqHLa?GOWEdCg?O@?ckJTMMDvSG?g}wiqOlc@{Y@q`EOEgZISgLgHs_sUkgPJqxadCw`oDaeM[uFHaiCEhpby{a?wpCRkYR,False,0.0065441132
~?@c{W?mPa?UBK?me@M[eSPCmsPegNqg\\kW_R@Kx?xri`hL[?DL_KRg_I@DBC?aCgFGBQCG@]WMePcH_FL[gDKPS?wcuZOcZriGc?aocGGGgflDqI\O_Jh?iXwvToY_@tCAhABDId@P_RoEf_c?ycec@dECd{B[AU@gQJuPPYqcIJQATMkEwee_KH?gWwCfCArgP@dcpR[zbTCPwIuCQGcEc@?ACb_yOba`GX}KsG_[kiUavgsycW?MKdAHfNu\EGCeIDJyPCoAOOos_LtrEST`on_ioMDO@_?adTcM?CRIOZpW|L@PoVkAGANqKY?OEcDHqMZaPV?Gy?hCcB_aGM\BCsSLmQOjWC?acUj]XsK`]yWeBFT@gU^U@nG_HB@aIGD??SJH@OGQOCCdEM{KW\oCF?HkSMfbaMF}@_u`H|RGleES{atQ?Ty}JMOBtcf?CSWC@dXZT?g?_Co?BcRXqWkHasgZWQLEoH`dY@G?CJHb@_DsDIcF_CkxOnO?XcGQVCEKA@G_AGEEwJSdG|ALSHCOrMO@JeGkAS?hHf?gs[EoTVBo`U[LeS{oD?SCxuC_p|I]zqC?[CcG@cgeoAPcO_ak]PBOJGc`@Hc?oC[?AIDFCCML`?cxqlCBG@GoJBCbeKaondWW`TpUCAU?SE`G?Q?hT?`MGPIW?a]w?SGAGcWdQ_KGwufcHasUil?f?{P[osU@@GV\a?_M?g@RENFWtDCATUDOGLgmEGc?W_EJB??G_A@WOQO{?|fIBb\Eo[GFBE_@CXrgQAKCl{yJFwnCDgCK?XJGOS\KGGCgPGglWpisYG@iAGJJ~OB_TK[AI,False,0.0064761639
~?@co@j_B[rOGSbQFchtDXmPT_RfH`Sa`Gl`D@hKoyzHC_?`BcHIaW?g@pLNsLFEUogOW_RgP@?FYp?eBp?_wm`G?IQf?P@QJG?@Op@ORjlcUo_hciiomC[CGETR@@OO`^P?BwXDW_soIa?B?dSWACTq?VLBOOGTc`?o^AR@isg??GWRKSBigfaLu?bDDH?Rz`qA`nCCGp?jZCOLKkGMt?PsPYnk@hZdKTOg`\PJeO@PIOgL[_gYHcYk_DH_UUvI?A?geo?I?im??lTCO@CrB_KqN?FO?oQD_CAMRfgSO@EsG?r@?BL@@VDPOPWjdTAWp@IXhEOQDQWtEDQpG[RG?EgEmsFC@_KAO?SYPU?WbR?Tr`CDdUm`zODAGn`eAAZHWsc]\mGDJJ^A?gGOZnEo|aq_pAJW?DI_A`OPErAvoG_IWEYDOd@\`Y?ktFIaS?]ACZxRDP?bEGOWUCqE?MAQX@`kp_k?]g[?[Y@yzen?XwzXJyC_oGir?X|HHBwKPG?UoRMVZQFUA}@qC[@ZFfGWHiiFn|?QQHC`JWTgG@sD?ObiKGGGJ``XcGiL_uobjas?RXogdfQvGYPuv?O@I@S@OIb__IRuGqCJoKkQjx@k?E{COE?GgDDUyWASjc_YsO?_o_wzGE?KFFSSO_P_bqcOO`BIzPhPG_GyqHpaEZZ@AE~DQU@WofjACeZo\ALKhh|BESdY@CQR@GACY?Q]ERaEqoD`RUHDMSJHf_ZnvB@GUFECYHGU[SAZo@bQGAtOerVGQUmosaQGRoe?XqF_couUS?Po?XG{_IjEECxSBO?XEA@@iWKE`XXMkACAJWxCD,False,0.0065088272
~?@cH@kgIk_h?EN?GfnWA?k^a`q]SGGl_LKGDx`koqcCL~O}PKhbEC@@_@EjUQ?k@gsoCaAwA?[MSGHDGCVC`DAG]_PsOOqygc]?awQgD_wdaO__?P?g_]MDoCbOki`dca`BoBaoGG`iBP_FL_iceSMiPO_c_q_VJ?EH^mDpQxUPhHYbSkQrG_xRJT_WbKhooUlfAXiPw@co`@P@hoUG?FO_o`Acg[oUp?BFBbG`ohCMmrGAhS@?^oJYAOu\O_RP`hKk[EHkH`?MOTCt_QAAIA}fTH_P?eRScI_FAPHZVSYAFeRH?lS`E?QcLOgZQ@J`HK_F`XhhHJebBPamnJkdBAHaRK}u??poOEjZCRWyIggO?r?`GIC?C\qSI[?n``bsWHERKI@mebz_WGAIrqXaqDAGVQYx]BaSUlS?kIWhgHOqhcKaILPCKxQby___grIW?JqBju]MbClqJwo}hAdSKAAQPO|C@ACHEBCoNoGQ`dFg@PCsHFO@gIoEDo|QQGdfY@hU[gc@jHH?_`koEL_@ByXG_CxYO[`O?OZUO?Ung{q}ECBBIC@WdhCQyI?EgSDA`utGC``?Vp_CIioHsPT@kx_jPQA@JQ?HQKGcB@`}hoWt?wO`Qoc|IfDtHwiRa@A@@_UT?`QGESc`t|\P@WCECAMpqNxWaSCECGdjdp@o@T[Oc@XBPYYACac_O`JHGq_EqETJUJCs`XQChbXSguOggxK?zSi{cWoW`CCa??@BxDWuKb`JeCaarpgOybGAO`_rKc`DCGAW@`@OCA_nOgqwWI_ZRO_CPpH@wur@_QC?w??GqhYDoHdaOBAGppjVG,False,0.0065200329
~?@cG``CEQmhY_H@L?SGdEqDh_uUmCHOoyOJ_BVWUJ?hE{XPKoOtPfPRj_Xy_\_@@jIMIOMe@RCA@t??RG@Akd\ygK|\d[GS?OAUwIouFoEAvYtgcoodyHx^paHJuCaKY@sBlG@A?_I_CfSMCYB@Z]A@@qiMzEONLQD_IjeAjDOG@dRi_DqAOAA`MbJokaWIXnICmG_ULusBFoKSRhY[_?uWOlWa[dAbi@`?Fw?OAcd}RIDAOgCpHiEHN_O?UfiI[?_@oOPY_S@iqkJc??OIyPJAiq?HOEc?e?GEOJALIPg?Fo_UOBYaLOqha?g@?@@G?cG_osg?AyySOHod[KHgOMCBSgcWPDKz_?_AKGxs?fScIUeG?pfADOcAv@fg]LLR~tCpGHCcqexpR?Q_KgpE@SA?RsqmCqSWj`DHgI?K_KGAK\DD_ynAWWLpcZ_AIcl{AoGK?OWtw?uk_rdk_tRA[]@pI|??hC?_J@EWjPOdA?@?oWOf?VY?aBemKQ?Xca`aADLFWOY[ljA|_AlpfqUolHHKoEhEOBJJZwBA{SB@H?sGH@LHLOxSPOqGc_b@E`W\gxLdmtCsQmDGBo?_TulWORcZ?KCwaWKHR_OODOFIgkCMhUV@uI@rCpOYht?NUoOKtB{?agoVIBmTACjAGDuC~Dt?gNGxSTLP^Mgh?bpGaBpCBBeSq`_PJAkODCC?_dGTgTV_\C`Td@~@GCQgEuDAPI?_GabOKCYO[h_?aH[BgaEk`ASWO]?]P?HcTb_qJ?`GDl?doq?Dv_oAd_[PcIQEcOc~Y`CKwJkdgi~HjS@CODgb_TlsRSVO?kTC{CeBE,False,0.0064771175
~?@criUMkNiGOB\aG|_pVPfJgEVOEJAkRI|EKtIAGR_@KUD?_pYDS`@q?oAAmqW?aBHdcAgc?Sg@HFI`r?aCwg[?P_ZLICwWo^C?GfrhPW|xPw?dPP\f?iBGOk?AbE_?wO^F`CW_{YPgLG@rH?HomuGuCwRY_lIOSoMoW]?GcaIKLu?MCgfAK?oo_hADw?zCxWW@ZaFoOhAEQtjwow?@BAfHgKfWIFDa_q@_XxwK?KKegK?g`_RhcO?toIGKfIGR@?QAPXsBs`LVAnOSrOewtfz\ssD_CSbQhBW_lSG?PHukpK_G_BRV@|OSEQ`@[GdSDXDU?wEkIDY?L?MxOwIIW_aw@p`y_QQcBYlblf@Ata_POoAOUz?GbWDCoIEoj^?jZWIi@`_GGPXYEFhSQbbAScIJmcyM\??Xe?cTPF@AoAVAANYBCo_k?pS{EiA_dHphF@^HPp``K?Ou_To`QQB?Q@`CK`PGGRGQK~Tg_I@LFkA{a`aP_a_?`gG`CS?RDPaXAaLo@[aH?ui]?MoaOECDqKmho?UoEG?tHIC@wh?C?rcCDbyQPBl?h``dt^ak]WpRw[@|@HbPINA`hwBD`PO_NTDARCUBU@[T_SM?CCj?pBhAXCGaHwt_OxP[?R_CImaEc@I?}aKsXaAAX?hAQRe[UAYDk_YjnuoIe@AeIdobXTM`CqCILhP@~e`P@JrEEGOOkDYy_OncACBMWxJhOACHY?jCs{qgg?R@PcJ@Pi|PBIiW@rRIs???EtD`??PGODGEc@?nCoG@BQJxWP?qxJ@HbCjToHcBbCbh[bLP\XKYeOI[K?Y_iGuP[GATlOBqK,False,0.0064759254
~?@cK@oCQ?lWdJLGRRGy@?{Os}CO?dJPYgiLhmbO?cEAOaY?SOAiL`ofX?@_drObFEAWe[pB_zOD@GT`yAef?GBPHoG[DHj@aGAHYCG`C_ap@CsHG?kGOeCEocEVfR_ISh?_sYD?rO?Ea_N?{Zc_HERoUweBSB?q?D_aIJ?W@OCTSc@gdeOGogQPRVfAGaW[RgO\gSeED?cgWWhhFsOHY??XKI_DPPPO?ioOFKiOr`?@{SGTKFR?[AC`tEFE?AmceMQhO`?DZHBclccpDhK_X[rDEITcC??WBTjGDIHMK@S?FcrkS@TErBBDgM[IQk@[FOEuEJVf@c|_R`jAklepWWp?CCSCDBLQw`AxI?WtKJpToptGe`ahpUODPKoCk}n?Hwu[yBAYgGCuOKBx`WABqUPCZ?CkI`_h?AQ@Y?CS^XSAt?_?w?qkWhKCSPvEGp@`X?WQI_s@ReOUghR???t\TH_bOt?LR{ROJwPtHS?GJ^^?OS_?lQGRHQiwrMeoH__aUJ_Pr?Kc@Q_pTE??WqYM@gU}@KW\WIiVoKOebyeGGHkY@Y@BGVOgOdMLpwA_bgA_?fi@oWo`pgjaHiB@BtO`OUH?l_g[e?fWolu?iO\?cHt`?LHD\RSLw?D_LTH?iCeQjEx?\QTHmoQHiA@V~auga?DZFWC_?\gacghKp?p@KN_cK~^KSXq{bQyFEvpiT?BOPoyUIEAgWJFpMB?c?WQl_IBEkIGiGDX?BCiI`EWeHi?[g?[UKsXm??_yZKZY{[DFWLSWXQYTbdgAV\CKGJr_CoD`@IWoiqeyPDFcxgwT@LOW\S_R|RT__LCOoOhBL,False,0.006485939
~?@cS@OV?ux_KNXIcSM?oM??ZECGXADk\oaK[iCZSadWP}MG?YLGO?BZIRPBpCjH`jGgilAeHM_RPIz`AdcNIOOak`Z[w\PaBIWNw[MOKSSaKi@j\G_[`Ahc_fERH@_Gw?OcRBJ}Z?@_JZOi_i^gKqGGDCIC@IWh@hGS?r@d^KE@i[gMcZPGib`gBACOoImnb?_Osnc@DOAK@?ZBYA\IKQPGiWOCv[c_OOaShOZX?QDMXBa@ZOXOKHEXKm?E{gygOgD@?cSo@cEEjRgGPLG?_ehwWAOU[M@zhIA|SOD[oSZoEMhVtE_R\TCHCuoTn?{at[oHSFLOASkmyOPA?pcxCnGEJA?CCWGdCmJXiHGq_g_OOo?[_xC`AScBa?Y_FGexBPGW|L@bUEc{di\AAvHpB?Dqqe]fxsGGAVOqGgd??_O?@JIp?SS?[gQ??rSPDSbxIDCgCUi]AvCRZ_ynUD?yPNoEAQQ_JSJA?BoAGgcgtcR`WNQvCOAHa?_X@FRobEPPzdR?PI@?|_U?qDLdkC?OB?mIACgQupBedETkkAILZCEH^EB?p]@EZHMiqGWUOOPAWHm`dH??Xi?IlR??hLCWrCgGJPCoC@OMbo@iE`uoXG_F?pO?ArGKC?foYfIEFS@QbTqT_SB_uB@@[RkqEFTJoW~QHtc?CepA?WqkDcBME@PY^tpORMGQ@yb??GCsRx_P_BYX@gCJCgmSq\c_scPC?Q@A?A?}IDFDGgAGDwUBMoKqlIeUCVOmSyDSc`\cVAlmXKGG]VG}KS?@^k?[GOY`ur[mcEbOOXBGaXSsp?dm_PuS?pl?iWAE@CB_iJ?eC,False,0.0064430237
~?@c@LaKUWDAwJEYsNRODTQZh[Db?F@KDA{JM`@_agJd?@WKW@\X@aSEd@?pL{PqXEwv[d@J`oDgBsTCxaOcBAM_PwJvuChvD_?g?_yI?`UH{D_CYILb?HGRhuQGgb`pFc?CpqH_Ui`j[@iGe?`PSAsHGXjSdG_aAe?b?Umg|MO?BWGCpO`gIuS?[ha?`@[Y`SW_`HFOOwlJjMPsGGiopG@oODol@X?AiUAOIKW_mp`BRGq[@UdB{vsC@r?O@HWj?GZadaw~@mO_S@_sBD?YIaeEGD?_GCUWOQs??K?XQMMur@Od?SpYXKabLMw^Se?PJNBQOGOwc{VW?aXHCG@l_thCC@_zQWeDCL[AGPJwPkpdjBwDoT_s_OIOqBWIbVO`?`BLGiAKzCOABOeLaCm^HCZgEBEG@OT?I_RQi[_R_?Wl\Cej?iL?\KodA@@@{SOaM?TOfUBTDAh?kHh_BiQeW?bs?I`T`c[ScGK_gP`ks_DFaOAzIE_NbCDumLyH_?`NgoRISwXq`KKLP?BPGJ?xc|}HHcoLBAIQOgP_Gt_SgaOCIYZ`ilGbShIPPHv?UJ_GTo?H@`XoQ]qIjC_MESKagh`oL_@CPPJBgWm@?UEaXXq?gG`dXBC`A_gDeJe@CGk]flEEsH_pWQACSL?[IODiBoO?KmqQCpIM`kG_XHgyIx\`IWKCH]w?oDqPKJhMIDxvtwJfeDuaAKV_d{@@Gc@EpdSa?|BgZTGADKuGCM@lP}TEB?PsL???wySJ@Kdh~cloK@y?dGQs`u?s`eKceA?qKAke?P[JJMpCOxa?MQB`QPwWfG?DCjcDDLWZ[z?Si,False,0.0065639019
~?@crhKy\P_R}PQA?NoWG?OhcZohiGm|qkGQLfPE?HvLSG?DQSq_M@?AAPgO?OYaB?EPan_[S]g_aslaI?qVs^O[?KQwS`[EQBg?KKgC_YpTKd?gB`[G@p??A[SHo{Us]`[\W@{_aICEgFQsL_m\koKOeKehkocm@_IaLOPmIAvGp`QSALFELSQTDW?TjPpOlT?oGLXGG|GODyR]Gf`OMKDaRg??_C?AV_FYaIhUoGEGAOoosfo?~[c_hYKSAStuo?CyckW[_WKBt?GKl@PBf_OSWAPiR?caJeIcSSrkEisoDCfG@OBg@jO[B_YlidxlEU?R??B?{?@Eve_FU?`UJ_?[{_MQOAta?]YhZaPi@aIeTl?YG_SIWYH??`XC_CsLaAgkrP??LCGL_NpYCFJTwAahcI???cI_A`OqAE@`FPmJIZT?P]OSxKcQ?DK^G\ogvPCPVGxJBKGZXLsoY`\C]OoyU]WH@@ML[L?fZTVMCoQM??@AGo_[eFp{fdiN@JUezgCSeCc?lzQ@@`gm_nP[GOEccbtgH??gu@KIO@q_cJq`C?[ClUwAXqEAOOxNjpfK?IlOnLVGaH?loCDpc`]_kESpsMyI?_I`BQXQ_``iC_DIWnMrGAC[OpGRCWPCJC?Noclob`bomg?[LWqgM_HR^yBAQ?A?INuO_MEH?wcAQX?EQBAaCRp??POmcw]kqw@_XISbWLJHIASjCQGeLbZahhh\McIK]iqKoW`tOcAXDwOwv`kOI??Sggw?k@LYzQ@rCcS?`EO?F?ICuGQBJjOgDvk??b@iAlODVTN`I?^JPG`o_AOAhGwK??CK[@YAf,False,0.0064570904
~?@ciGI_?b_S?c@S@_`O?HaXM_TGD_RSYOBdU_REGKB`Uco?YW\LCq?cwJ_Bk_q@UYoGRgtx?cSlDQGmwwaAOjsg_Cc@akg_CMSkMGPs?GOJ@ocPOHAGKsB[gLU[?CU?T@NAxfXCDmOeBCW|CCS?_LewOI_wcLqYCOsCM@P_@yBPBhE`SsyGQ~}Q~clH]PVQOAg`@Q^?EX?{XU_a@CD@pco@FAATQHGG|crFKQy_kAONB@wkloVApxCKH_`PCB`KOOFyssRiCkRmWBSWIXObCa@cM@?F[wS@cc?E?g@oNjS_swMboOwTkQT?kW|s`@WgGqDBTQgG@qAG`xd}IhK\dtUvHQGCLAHW@Dkx`gO?LcOSmQcJSAiEh[_CNCzfDX??VHOZhPQ_I_sCmz_GWSf@HFRZhDBgXEgcZ_oGGATakFlBNQzoGMjH{_cErsFJhSQ??GKUb?UqbCTGcgK@WHQPCIImPU@@?]aHiXCpGDAKGB[CGDCAWYERXOa?@KCQoqoHM?DF@KGGXiAGAYBSO@cQGYyG`gwouCNqQ?MCRWkC[HyCyxGHOP{?[CccS@GIXcT?COkV}`ACESWBJsO?VJSoooP?E{ck@@CXaGQiF?B`{sM`PLVXID@s`pFHHFbHwPhAC`elY`?Qic|@?xE`]CGSbS?Rs@EOIN@?cjCI@PDGRfQ`ayA@PAu@uw?PNO\MOH`aIEVs??ETAwd}OG_B]VqBW\UT?PPoqIj?aPIg?BDlgfQao^G`mPGo@oP?_hXTwiHQw^JP_?PPUWJ?jSMxG@jCKT@NL{T?oRK_WiDDSR`OboVcJFjKuWWlZTiCUgFmK,False,0.0064530373
~?@c?JFW@?EI`TpQMpHSpE?wTEtLSWYoKAw@HSGPUsSl_?@sdC?qG?A_t]?qVuY??gTD_Mm[__?YcsB_tEKSKeiDJga??y`GZffQdMQADca@AoTRt_k[q_O\PAQ?GgSgPRZ`h[OTRJQA`B[PzsHiItzg\Vt]G`fF?ijIC[LA?_gFg\Kh?RXopOCSnrSu_ALMzCyP?L]SI`?`b?HObfLwYMIhGE`xCF?ZDRcLGA_?hFEQ[BY`E?_dLKtoPFPRcCJg?Cb?DiyPSHIGAbERAhkck[GBBLB@H\`acUGNEMHWotI[PGrEKhQPVIBTokRoGcTBe?g_DH{@I??CX`@Fo`iWh[DBE?A@DIqQAh{S__GHK[|MIe`@XY_QwQt@PiO_aO^DiMggOA?Wg@woI@_[P?sGseDMOcGPoaBaL?KP{cE{ocdhFoMDcOP`TAgGK@iWSKagGc?Y?OGoNra`NwMH~P?SfViS}JkFadS?KAJHDFyfSStx|?_@@toMBtO_D@OPNRH_GPpw|aPqOZTXQa]lICSJ?Oej?zXaXbIOPBTsM_CAd?kRxCc[CePGloCZ??AuGtAde@DP?I?SkOs?kzGsJRaLB`WLhaQ?@MoE}GAC?LKjESeCPg_BKOHHP`daaKQ?_MEUcILEdSXaGoJCQFjBDmOG?gkAioYEHSQGqDKH]VdFKjOb_ihlSXJcGpcbSiewO?c?OO?DGr?AIgae_sOFKOMHbkwB?ACsC\QKAS?Tq@iRQJOOV@Qi|Z@OCakDDFANO?WACpupoKGEPyIUH`?AeXWwT?jYCO@zOaX~Hhwz@XH?NSIo@a_D__CVG@PC@hQ_s,False,0.0077512264
~?@cW_?UJ{CqAhmKCEAM?PGlotgiCn{@UsDA\PUDSHK?b]CC`agwiDF@YK?_CLWgUA?Acjw@C@UKcq]d@XxHCIZ?F[RMeR?SC|sjAcXI?G@QcmVH?QeJWHEIWWxaKaoYE@aA^ONBO?@yRacKVSgAGUwAXd`bNe?On~AKZgFpE?xAb@`bDbcPOHB[SIkAc`aCy@N?S[?qX?AOcwmZCq?@G?EICjoKpApSFbwG?yY}_AR?`@Sw[fKB{?AQuByP_OkES`?VCjF?NpGqZJpF_KBLQY_ImPPoP@uDZHQ`COx]\T`a_\?G[@t?KP\ybFaoZsKAwjCKEJO?__QS_w_Y?o?xU?A_LqqIBHkGoPSr[W?oGDSahYEJsECsVf{GON?zC\AX?uaxCirRIgDiBX@hhG?I?h{oLJlG_BDClTOOP[h`H`ieYAtDcf?G?fLCe?YQ@UOH_?KdgpA|w?DGccwH?TR?_PvGTHSPOEkGrpFG_GhIQaOS?OWQX?AQXLGK?CQiK?hddXDIACgA[G?rOScIqA@ApcC?GJAadRcnICSLQI@m]rGCR?N@?yTR`nP_[ScHEBPgAPhHOiGPdtD?JJLQJFP??_uItGdRBIwQpUOCc?CBFA~GLG@?c?wUvvAktKwBzPoLusB?gAGaM_SVqFximCdSt_mOvEh_JBL@KGJ@gPY?GdGCPEICPS_sUd@[?Ac??o@G\aGG`{WajtIiV?P@g?Ax`_So@EH?C?jbDym@NSDAIS{OPuGSeOB@QOE]C@V?iefo\gSzPOaFHm_]oX_CsrYALvxZx?_XuScu?L_xyWCsYOAcGV@iGtb{Ox^?j[SgA,False,0.0064640045
~?@ciaa?DEMApICB?[~RHQcxOwQOEYDWraQWjAOoKlGAcRhOL`TgkcwDFQ?AqYd_ZKSMWKb|XMPGa_hLcYMSOAZSX^Bc@Cg?aHWU`G@pgAWGhCYIcAso[a~omm|c`L_g@CUHOacCUJJ`KCXDZD^aT_TO__coGJW]bYoh?YXPKEBbZoF^MJkCIprsODGgcEM_S`_oK__G[ocWFIJoGwO[kDyGj@cPrHuC??e_AKM?tP?Vc?v?FKHOGxPShKPcQ@_SCdaOGV?VSRT?OoBSI?CM?LKkAC~?oonmhC\_mSsokKGETBkGKQoz\AACPwPeJa@IzHbSxga`HOIFpGAO`?L\@W?{tnQCAIBACKLCYq_~aJC@CpaoI}SQOGMAF_TPToEO}GK@xqgIIEHwg???F?GLqAqqL@PAi?KCkaGh`e[?Suq`OoFO{R?QXDZxRQwes_aGJ|Mcx@gIO?F?GdhVEL?GAoGhRMwkfoyfGxWTJUc`RmR]c?PEBB{gKO_?U?b??jc`?o??H??Y`Wrq`d_@NOHDMbWHGDpVHoa_O`Axg_\?yj_dK__@GJOKnHhG{m?[GuDZySwUHXHm?P`qGE?bDFuHbm?HOgNzAqg?yQDGgpfEC]MCQY@@@O`dCHgYJoBDD@gCbAo`?IzGaKoK?YDh@gB@TFcHE@gOuRKudOVfCQZJ?h?KXqQFeGI?TekOePQc_P`W{?CQUOIOWQSfp?TqYmo}_PiHvEB@BnAU{G_AJOA__EaId@cGMG@Mzco@DqK?ATKDOESpEpEuHkgRCGO?pJMOYdTGA@mgP[mgYMTRa_`Tgf[EJB[auoDPD_`?QcPAz,False,0.0064470768
~?@cAK?fFSLOqGZyPEoi?~sUkNioJqsGaCk[C\iGoMhyI_tCQGMa@o]]?aCRH?OC_RSfOCWgmQPBG[]HdnOa[oQDJf^@fT?`WY`?kA\oCA@?Sh]_`JR?GvjHCGmECGDG_CMPAXHIVl_QUiTWmGQbhIK`KrK]A??HG[_OD@`Cx_?AQGQLJm@CQ__@cQ?{d?po?hC@@AGp?zS?SBeqOh[wiPC?GYf?OHsrcXg@\E@?uFHkoA??KnObnGFtLu|dgEG?abzeHKCk@wMUfh?Ck\iuxGUq_?aHP?t@BL_{BIEV]_@H_P_LPIlsXD\JK?rfUJpkBaACAJCE{_afSrSopAysMtcX`KPssEDO]KaQjUg?rPOe_ovSLGCGC?BEGHCytS{Rw_Dw|?OY`@?bO`tHAHWMq\FEiG?__qltDCw[jO?gJ@a`YOGC??aJSCmeBJuhRhHLCwCApGza?o?KnDa{_pofADKO@S`ZnoO`ApX??AEf@b^`hF}Bek?RIbWb@ORol@HaC_X?IrAG|TTwegHY_G?JO_o?__hUdsTO?~QgBWdOX]o@[VHA]KsM_B@BSO?qHIH~OjIwULWPI[YIbOocIsRWLG^CsICHCpm??[CEI?dGCL_kWI_}TnNKACKGFO{CDd\brcLHKTbNUHtFafYOOLQV`c?A?w?SugsUcrC`LAoqTYA?@cBTBCCewNgEcC@@dUAoNTqAgJ_`QTlmoFPOSTB\leI?WMCVdA?Az@EAB^g?AuSG??gGAPl@MX^PP]?LHMEaoQnKCKOCy_???{@S?YCP_DwG?sROXLHQom?GAOAWA?AOPoIYDV@c@BAkDCM[M,False,0.0064780712
~?@cARAHBOkZK?V?R?RuhL@S`oMi{iOMR`kdTZPjBSWA@^CW`A\EWWLGoDBchdHw_Ot`jDk?gEgrHDfpgGGkW?_f?_APi?CwSk?oqIaOqK??Y_?EYCSAG?X_aiM]FLLaRBlAiLPgPU[@L}YGDT?WoqQO`AIEbSe`Dkd`R?M]_Ho|roBH_VPhtSCODa_I@aCCT?CXDOLdCpPOUD?\wN?RJTL{YQfg?`PvE_yOSoEcYBp?TEU[NOBDEAO_BHsxAMEtOGAlDw?JyTOOObVc@?cqTR@?BjDooKyKEeI@WGF_AIXGIHGLWK?HAOcCCM\X@Px?hOcaCO^bWSsHBq?gYRNCOfICccio{cIvhsAoxawABIpBGWhGiUQcHdOsYOQuuMEt`DClESxkDWWxoY]aCEGya?fZe??CfGAYODIm__Edo`AdcCSm?FQKXEa?O@EP^_fGWONsOMUF_TO`_SS?kkProK@r?e]O_A?w@{ABqAIjOAoHF_AQNGDWeKOcDVKkKDG`X?CT``BKisCEdhO?u^fPK[BgKCPBCdgH?A\iHVCSS]@CdaVBdo_@@OPGnHNTE@A?GWCwLOXb?gh@?[d_`bB?[@E`KpJgGSEDMq?rsi`iqdQIi_jSPIi`?WSNIHG`AdQGX??AoJW@__K?`OHHM{gAU]aO\jRs?BDESI@[@bGpKiIea[UG[_]O_MHhPfCDEDnHhwP@c_De`aoJpANISbKxU^whoDJJqHASWPk|_eiOKmiJIuOQCKGGZDG?CwyS?XWcTY{u_LFoMObAEIFAqBCkEy[kLjth}Iq?F_A_E?EoSd`HRhs]ICDmZQUfCSCSW,False,0.0065000057
