g6,attribute,time,total - 0.63445
g6,isEdgeTransitive
~?@c??????OA??O??O?O??C?CQ?GO?????O???@??A????A?????G??_????????????????????A??????CGK?????????@?A?????????O???????????????_A????A?GO???AAA???????GGO?C???CK?G?????Q???@O?????@???O?G?A?A????C??O???OAC?@??A?????G????A????_??C_?AC??B??C????_A????H???????@@C@O?@?`O???G_??????????o???O????@????C?CO??????????@C??????????_?C???@a??A??????C@@G??G?__????OO_??@C???A?O??????_????@G?_@O????@???????????__?A?@???????????????C?@??GC?O_E???AA????O?W??C???A?????????GG?H??????O??_I???????????HO??OC??@OG?O??????C_???O?@@?g??O?_?G???A??O???C????_?G??dK???_??@?????B???C?????????????????cO???????AA_???AG???AO?G????????W???????G?A??C??GA?CG@?????_??A_??AC?A?C????????????????C??????O???A?????C????????G?g`O????????????C?????????GC???@?@?O?C????OG??@O??????C?_GO?G??G????A?G???cA?????@???O???c@@??C???P_?C??????????G?C????IG??o?????@??????_A????,False,0.1811461449
~?@c?O???????????_A???O?A??@??????????????????A????_??G??_?@????C?G?????????A???_@???????OO?C??_G?????G???_?A?@?C?@????????CC?????????_?H??????????@??????C?????A????OO?@?AD??????A???????A?@?G??_????GB??K???O???O?@C?C???O?????_?CC????CGG?C???_B??G???????G?_G?A??_?_???O??G?CO_?AC?_????O@?????????OO???o_O@O_??C??G????????_?G??GAA????????O?????????_????P??@_??????????????C?_???GA???????A@?AA?????A?????CC???@??@?`??G?@O?AW???????????????OE??_??A_?????O?__??????????C??C?????g???O???c?_?G????a????OG@????@??@?H???G?C?CC?O???C@AS????c?_????@?P?G?@???G_C?P??????@????????_ACCC???G_??I????????@?CA??A???????C_??????A????@A?????A?G?O?O???_??A?@?????O@@??@????P??G?H?__???I????G??????O??@O??g??_@?????C??????D?C????????O?ACGA??????O??O???????@?O??_??O??G???O????B?????@G?OC????????O??_AO??????O???A???????A???A_????@??????????C???????@A,False,0.0075600147
~?@c??C???_C??@A???@???Q???@@????O??????H?@??????Q@?AEO????D?G@??????GO????@_???????????WBD???G???OG_???O`?@????G????@????C????C??@??C@?????CA?A?K??@G@?OO???@??_??@?O?Q?_???_C@??G_C??????GG?????????@?????_??_???@???????P????????????@??G???O?????W?A?_??????O??????????_?C????????@?????????_??O???C??@?????G?k????C????????AA?A_????@?GAC?C??CC???????A??C?C?????O_@C?????G??@_W?__??????AB@????O?__GC??????????C????????A????O?O?????????@?O_?????K???AC??@???S_??????_?????K??QO?AC?????C???????@???CC??C?????_?_O?????C????_??????G????????@_GO?O????_??????A?@_?????????_?O????_??????O????@?????????????OG?Aw??O???G???????O??_????AG?C???O???O???????I???@????O`G??G@???P?@O???P??A??O?A????O_?_????S?B???????G?_?????C_@?@@??O???????G?G??C@?????????????????G@??C??G??????????O???_?__????A????????_???A??G__?C????C_??C??C_?????C?_??C?_@??????,False,0.0048890114
~?@c?_??CG??????Og?@?_A???C@?C??AaA??O???G??A????_????????c?A???????A????C????C???@??_???????????????K??O?_????A??????????A?????AO??@???_????GA???????@???@?WO??_?OWP?????G@?????O?G?@?H??D??C???G??_?????O????????CO????????????@??__????@??????U??O????????????A??????A????O??O????????GGA??????G??????K???A???A??O??D_?O??G??G?A?????_?I??????GG@?C??G??GC?????G?O??_??A@?C?_??????__???A??_??@??_?O?@?@I????@???@@???G????@AG???????@A?????C@?OG??_????????C???C?C?????@?@O????????O???????_?????Bc????I??????A?G@??A?O???????@??a???G????A@???GC?????_EOD??????C?@??????????G@?`C????C?G???A??C?A????G_?A?@GOG?O?C?C????????_A??g_G@????????_?????A?????@???@?????cO?_?B???@??????O??????????K??????O?CO?c????C????????C????`??oC?A??????????C?????C?O?????d????G????G?????O_GC?@?OO??G????????G@?CC??`???G?????G????@G?????G???O????????GO???OC??G???C_,False,0.0047180653
~?@c??????CA????g?_??????@??????G??@?Ac???????I???????@?G??`????@?????G??_?G???????A?OC?C??????G?AADC?@G?????????o???@????__???_GK??O????_????????O?????A??????O??G??W??COG??C????@???@???C?O?????i??H??????A_?????????A?????OB??????C?@?C????g??????_????O_?????O???AC??O?C@??C?@??@???C??@???G?_?o??O????GAA???@?G_?????????A?@?_?E?????C??@??????O???CC?AG_?G???????S?????C??????O?D?????G??OO?C????O????@???A??????G???A??O@?????O????A?????@H????G????????G_??_CG???I?A?????S?????????_??C??_A??_?_@????G???O????_??CE?????_??@?C?????G??A???@??A??????????????_???O?????a?_?C?O???C?O?????O??@??K???????O????@?A???_????@_???????CO???_????????O?O??_?C?_??_S?BO?G?????O?O?A??????G?E???@@??@_???C????I?BC????E?A??????@???_?AO?????@C?Q???G???G????????????O_?O??G??????????_?O?O???O???@@??????_@????C??O??_@???A????A?????D@??D???o?G?OC????@???CO??,False,0.0046658516
~?@c???O@?A?@??C_???????____C?????_g??@?A????O??A?????????@?_??G??O??_????????OC???`?O`c?a?????@????AC?AH??A?O??@A??????????????Ca??????A????????W???????@O?????GG?????g??_OO_????A??@G?????G???@??????????????????_?A??O?G?_B??????????????@????G??G???H?@?@?_?G?@G?C???G??A??????????A??o?G??`O?CG??G?@O?G_??????????????I??A?_??CA??????C?????A?c@A?_???????G?_????AE??KO??????????O_??K@?G??O???OC?OO?A???C?GCG@O????_@?????O????????_C@??@???????????????????CA???@AC?????????A??????C????OA???@??????O???????????????G?@??O??@?GC??C???????????A???C???_????????????C?_?????O?_?????_AC???????O?o???@A??@??_G??_???PG??G??C??@??_???O_G?_GG?O???@???????O@???????G???@AA?A??@GI???A?????OG?_?????@???????P?O???O???AGO????A_??Q?GF?A???@??????`?A??C???C?@???@????AO?G???C???????_?@??H???@????????????A???_?O???O?O??S???O??????????????????O_?_O?O???,False,0.0047500134
~?@cC??@??????O??_???@?C?@_??????B?O????????A?????_E??C?????C?@?CI?A???A?????@A???@?????GGG_???????D??O???A???S????G@A???H??Y????????????G_D?????????@@?????????X???_???C???????`????@????OE?C????O?????@????A?_A??????Oo???????????????S?_???????????@???D?A?D???O????????A??C??_?_?????G?_???AGC_A?OC?C??C???G????O??O??@??G??_???O?@?????_?O????S????????G????????????_@??A???_??????A???????C????G?CC????????O??????O???????A?O???IA?G`?????@??@AO?????????????G???@?GDO?O?C???O????G?_O?????????????HA?O?aC????????@?@A?????CO?@????G???G_?G???__?????C?A?????__?O??????????GG@??@??CO??@??A?@?????IW?_???W?@_??T?AG??a??W?AH?C?????_??C?G?O??G????A???_??G???????@@?G???G_?@A??C_??A_?????O???A?A???G????????C?B??@?C????O?P?A???????????????_?????O????G??????G?????A??_??????_G?????????`???????o????????Q???o????A@?CAC??_??C?A??????_???O?C?OA???@?,False,0.0045731068
~?@cA???G??@?O??G??Q??C??a??GG???@??????_@???????O??????C?????_G???????G??????BGC??G??????_???@_?????A?_??????????????????????@????CG?A??QG???O?????O?C???????I???????O???????_?A??G?C?C??????@???o???@??@O??@??A???[???@???@CG?C?????_?_?C???_O?@?GA?_??ACAc?????A@???@?@????G?@???????????OAG???C?A???????G??A??@?G??????@??S?G?gA??O????a?OI_????????C_???`???????O??_???_??C??_`???G???_?C????G??@?O_?????OC???@?EAG????CP????O@????????_SO???O??G???G???@?????@@?_?C????????????@??W?C?@C????????C?C??@_??????C?AC?_?????@?OG??@??@??@??????O?????????@?O?????????????_????A?????_O??????@??????G???????G???C?????????OS???????B?@C?A?@?G??_??@?SC????A?????__??@????@??W?AC????_O?????AC?A????gG??@????@?A?A@?AC???OC?????a?_@??G@???????@G????C?O?_???????c????C???_??@????A_??G?@???@???O??C????A?O??????C???G???????G?C?G?__????CC?AC?????????C@??O?,False,0.004597187
~?@c?@?????????G??????C????B???@?@???_??@?A?CG????a?????_O??@?????????A?H???????T?@?G?O??_?A@??A???GA?C?_?????????????_??????C??????@??A???CC??_?????????C?_??S@?O@?????????????g_?QA????????@???A?DA??????C?G????A?_?????O?C?????@???OGGO??C?OA????G??@???????????C??C??O@??_?A??A?CG?K???A???O???WE?G???????O?@????O??O??_??????K??G??????????????C???A?@?????_O?G?c???O?A?G@?@?`??S????G??@?o?C@D??G??C??_?P????gO????C???@????C??C?CO?A???????o???CA?__G?G??C??A????????@????G???C??@??????O??G??A?_?@O????O??GA????????O??_?@?????DGA????????????????????G??_??_??@??C??C??C?????A??@A?????O??A?????A?????G??@??G_????C???@a??@??A?????A??A???_???O?_????C??AGW?GCA??OA???????@?????????????OGC@?????????P@G???_????O?@_?A????A???????@???@???????_?OG???G???????????A??????AO????@???@?cC_???????????@A??CO?_?C????G?OACG????CA?G?`O??G???G???_????@???,False,0.0045681
~?@c????_????_O???OO???C???????_????_?G?_??O???c?GA??????C??????o?G?GC?????B???G?M?_A????A_A???????@?????BA?_??C???AO@?????????O??CA??OO???????????_?????????GC?????????????????@?I?C??????_???O???????O??_?W??A??????????G???oO?_@??O?C?????????_?_@?@??????@???A??O_???????????@?????_@????o@@??C?Og?????G????AC??@??AA???CC?@@@B????C??_?o??????_OO?G?@??K?@?__G?????????@A???????C??_O???C??O?????O??O???O?A???@???_?_?????????C??????_?O???AGC???CG?_e@CCO???C?????C?@????`?HA_??O????????C@??G?C????_????????????@O???GC???d?????C???????_@C???C@??A???OO?G??A????_?CDO??????????????O@????AA?C??G?????O_?????_??W??@C???????????O?@O??_?????????C?@AC??A???????C?????CG`?G???Go?@H??????O?KA????@?@??G?GQ???O?O?O????????CK?????@?_?????O?_?C???????????G?????@???????????????????@??a??O??_?o?_????OC?G?_????@???????@??????_c??????????????S??@?????,False,0.0051150322
~?@c??`?A???????@??????_??A??????????A????_O_?????_?E?G?OG???C???a?G?_?GA??G@??CB????C?O??@?????G??G_????G???G_??BGo?????C?Go??????_?C?G??????????????_??_?????????C?????????????aO_?C???????OO??C??G???A???O?????C??`C?G???A??D?E???G????????C?????C????C?GA???_??HA???????G_???_AAB????????@?AC?oG?c???KC???????A??a???A?C???????I???I???O?W??GA????O???@???@?????CG?AO??A?????QDA???????_???????@???????_?K??U?O????????????????A??GOG_?GC?C?????OGO??????????_????AO?@????????_???@??@??????G???????????HO???????A?_?W?A??????????G?cQQ??????A???????A??????_???O??????A??_@??O???C?@@GA????????C???O???_?G?O?@O?????????????C??C????@E???C???G?????????????????????c_?CC??A?_?I???????_???_??????C????A????G???G??????@_A?cG????@AC?C_C???C?OO?????_A???????A_@?C??C??A?G???A??_?????????P????@??O???O??OG?B???I?O???????A???G?G??@???????A???OQ???????G,False,0.005199194
~?@c??O???????D?????`?????G??G??O????C?@???A???@???????O???????C?K??C?@G??``???O?@??????????????????????????????C??CCCO????G?EO????@?????O__?????O?H?A?????????????@?K???????_?G???????@????_??G????_?A??G???G?????A???AA`?@G_?????D?GA??????GA????A?_????_????@??????G??G?K?_?A???????G????G??_?W_??G?????????????Ca????G??????C???aKO??G@??????G?????Q??????????????G???????@?????_??_???G??@???????????????????????CG_??`??@GCG?G??_?????????G????A??C@_?@?A?OG??????????@????C??A?????O?G???O??_@????????????_L???????A??????????Og???C???????C??`??K?@?IG???A_A????C???????????_???????A????????__??G??PC????K????A??O@?????c?@?A_??_O??O?O`?_??A_?G??????A?A??B?C??C????Co_???F????AO?????EOIG??g???@??C@??O???_???G??C?@A???A???A???E??????C????DCW?????C????W??????@CG?_?????????????AGC?A??G????K?????????G??C?GA?_G?_@O??A??OPO_??_?O??A??_???C????,False,0.0047049522
~?@cG???A?????A?A@???????@G??A_??_????G?????__???A??E???G?G???O??C??G??????@C????A?D????Aa???G??????@??@????C????_??@??G???????_??????O?G?A?@?????_OC?GO?G??G_??`???????????????_@?_?C???@??AC??@????C?A?CED?????????A???_?D?G??????C????????_???????????C?????????C?@?P_@C@?C?@???????????O????A???_??A???????????????O???????cG??GC???_???A??????????C????O?G???????G?????????G????????C??_???_??G??????????G?????W?I???O@??DC?A?????CC?g??????W?@???????@?_@?O?P?A?O@O??@?A?_AG??OO?g????a???_CA?G???_O????????@??H??????@??????????_????A???G?????G???G?__?O?_A?_CC???@?????C???????aG??_???D???C?C?_O@?G?C???@????O?B_???`_???O??????BO???G????O???????G?_??H?OA????@??????C????C?????@?A????????A????????A?????????AA??D?gH????_????G@????IC??SA???O@?C??G??????G???O???Q???O@??O??????????G?G??G???Gg?????AT??????????_H??????_G??_????G??G@?_????g??O,False,0.0048241615
~?@cA@?O???????_G_?G?CG??AP???H??AC????A???O?E?C???????E?O?CO????CG@A@??C????????????O???_??????C?I????????_???g_??O?????C?????C?????@????A??????????????????@@A??G?????_???G??_oI?????C????A?@G??????@???_KACAo???G????A??C__?A??????O??_@???C?????????????_??AG@??@???O???????OA????????_??????A?C????????o?S???G????GGGA???c??????C??????G?A?C?????????_O_?Q?G?C???_G@?@???Q?C??B???_?g@_?O@??_????_??@G???????????????_????@DA?A???GGAO??W??G??????C???IO????????@?C????????????????o????A??A??????A@?G?_??G???????`?C?????A@?O????????COP?OO????C?`???Q??Gc?@??@????C??????????_????@???C????@G???_G?CCO?????????_??_??H?G?__AO??????BO??K???A?O????????????C???OA????????G??????AA?GC???????_??????????G??O????????B?O???G???????_?_A?W_?????????@C???@OS_????_G???????_??????@????????????????g????G?????G?????@???GG??A????G????????G??A?_?????]`????,False,0.0053949356
~?@c@????_?C???@A?O???s?O???a?G@_??G???P??A??????c??????????G????CA?_?O?COC@?C??@??O??AC???????O????GA?O?@??@??????????????OI???????A????O??????????@???C???C????A????A???@?GGC?_???C???????O?G???W???G?G?????O@??_??O???????A?_????`?A?O?G?GO?a?_?G?@?????????HCO??G???_O??C????OG?????A?C?@?@_???????G??@_C??????????OH??g_????A?G?C?????????@?@_???????B???OG?G????@????G?_???CC????????@???_???????G_??Gp?@??????O??G????@?_C@???_??@?a??C??OH?A???@`_????????????????@??????@?O?????????????CGO?G?G?C??GA???_?????A???A?A????@?@A???????????????G??C????????C?????c???@A??A?@A??_??__??C?O?@?@?G??A???????G?G???????????@????AO???????G???O???C???O??????@??????????AA???O??O??a?A?O?o?G?P????????O?A????????A????S????Ga?????CB????@G?C????O????A?_???@G_C?@???G?@?gO????@???G?????C?@G?????G???@?????_?O?G????A????A??Q_???????@?????O?O????P?C????G?G,False,0.0046570301
~?@c?????@???@??@???????A??????G?A??????@???G????????A?????O???O?_???O@?GCOC??????C???????G????_?????O?G???GA??????O?g?e_???????GC?A???__A??????C???W???@G?O??G_???G????????_??CAO??A???????_?????????A?O?__??G??C????gO?????O@??????@?????Cg?@@?????G?_?aHG???O??C??????A??G???????S??????@G?_??A?G???w??A?Q???????A???_???????????G?G????????O?_?G?C??I@?????CA??????E_??C???gA????g?A???????AG??_????C@??A?`?A?@?C????G????A???????O_???AOC?????A_???O?????OGO??O??O??C????C???G???_@OG???G?@?C?P??_?O??C?C?O??G??A????A?EG????A??????g???A????G??????O??????????????_?A???O???CAKCC???????????O??A????GC??????C??O?AA????_CS`??OC?_A??????AGC?@?????GG_?_C_???????A????_G?_??????@@A?????????C???????????OD_??A?????_@??@??C????CC????????C?I??C??G?????O?G???G?????A???G???????`?@G?@C??????????G????@????G?K?CA???c??C???@????A_?????O????@????O???????,False,0.0045979023
~?@c?????@????G??C???@?????????CA?????I??O??????O?????OGA???A?_??????C??G??A?H?A??CO@??CO????C????G????G????????O??@???c????a???g??O??a@???@C??G?A?????GO??????????D???OG???????????????????C???A????????@GO_@O???_?O??K?O??G?G@?g??_?????????????_I?_?H??C?@??[?W???@?CG???C??O??A?C???????O???????O???????E???????C???????C@O?G??????????????D???GO???O???O???G??C??c???@??????A??_?C_?????????I?O?@_???_?_???AG??@????????????O???`????????PC????@?G???g??a?O?H?????C?????@??K???O?A_??????????A???__??@????c_??G?O??G???????G?????CC??_??AK????_A???O??C????EC?????G??@_??A?????C?????HcO???A?@???DG@?????A???Q?????QGA??????@??????????O??A???C???@??????_???G??G??C????G?O?_A?O??A?C??G??????O??O???@?????C????K?????????K???W??W?A???_???A???A?????????A????AC?A???W??C???????@?C??C??C???AO?A??G????C????O?S???O?C??CG???CC????O????A??E?@@????GO??O?,False,0.0045671463
~?@c???????O????_??????????_??A?_COO?P???@@??__?????G?OC??_??A??_????_CO_??G?A_B_???`???G??????AGC???_????_?@OC??@??????O????_???A??????C??G?AA?A????B?A?G??_??????A????????_??????OO?C???C??C??A???A??G?@?G?O???O???????D??GC?????????@???@OC?_?@???A????C????GG???????G?O@??????C?????O??_??????????G????_??????c???A??????@??????????G?_???????J?????C?O?K??????B?????????O?????C???G????????????AA???@??@O???_@??O@??????G?O???@??@A????O?_???D?_O??E_?????@??O?Q??????A??????GG??GA??O??O?_A?C@?DO???G?@K??WO?????_??????????AJO?G??????O?O??_GAO??????O?Gg??O@_?_@?G?C??O???@??????@G?A?@A??A?????C?????@?X?A??????_AA?G?G_?G??@?_G???_?G??_???????D?????G?C?A?????G_?A???@?????????????O??????_???A_????????_?@CC?GC???G??a@@?????H?G?W????????????@A??A????_?G?????????????????A???????O???E?W????????C?@G?O???c????OA??????????@??G?G??????O????????,False,0.0045211315
~?@c????????????C???@??O??c?????????????G???G?????????@?c???Q???A????C??_G?A?Q??K??G??g??O?O?O????A_??H`????????????G?bGA?a??AC_?@??_?OGG??????????O????????O???C????????????C_??????????????G?????G??????A????_?????G????_G?@???_????_?????????@??????????O??G????_?_??G?C????????G???@??O?_??G??????@?????G???q??D?AG??C??????O?C???O?G??????_?C?????O?A???A?_????A?G??G??????CC?GG????S???C??C???????@?_A???G??I?G??CO?a??????G?A_?????_??A?G?????_?CoG???????????????D????_???@H???@???A??A??@???????w??B??????WH?O???????C????????CA???_?BC??O@???E?????A_??O????K????G@Y??????D????C????_???????????????????K????????oC?????_G???@_?A???@oGO??A??g??_??GO????@?@C?G????????CGO?__?O@G??C???O???????G?A???A???O?_?_????o?O???OS???O??O?C_?G?`?A_?B?????BO@???A???????????_G?S???@G?_???OWP?_?????A??????????@??????????C??_?????@???????CC???@A_????????,False,0.0045778751
~?@c?????_?@?@?????@?_G??_????GC?D??CG????_????????G??????????A?@????@AG?????O????Oo?@????C????G???????_?????O?C??o?@?????????O????O???????__????@????????G?oG??E????_????O???_O_?O??????OO?A??O????????????_?????????A??_??C????GO?????G???G???????O?@?a_??@??q?g@_G????C????A?C????_C?G@??G????????O?O???B????????C???A??_A?????C?G??A?@K@???????????cc?@__???????????_?????G???????????O????O????@C?_PA?G?????@?C???????AO??`??????IE??????C?GO?@???????AO???O????A????????A_??_????????_??A????@?O??????C]@?CG????G_?G???S??C?DA??C?????????O??????????EO????????@??????O????????@?????`??????_??G?A??????????O?G??O?_D@O?H???g??G??????G?@?C_P??_?????WG?GG???@H????Ga????C?A?????A?G??????G??CO????@CO?C@????AA??_?????????@??G???@???CA????_????O????_@?G?DA?@?????_??@?????A?G????????O??????@????Q?C?_?????A??H????@@???O?Q??_CG????????A_?G@A?CC???,False,0.0045468807
~?@cC?A?AC????GC_??G???OO???????????a???G?_??????OA??`???A_???E???GK@???@_C?_?C?O?C??Q????AI@?????A?????O@?C?c????O??CAC?O?O?????CO??A??A??HO_?????_????_?i???????O??OAG@?CG?K???_?o?_O?????C??GG??????????A??I??CCO_???A?????@?????A?CAG?_???@?AG??????I?G?????O?????O@@???O????O????????O??C?????AG??AC???O?@???GOA????O???G????@??O??C??G????????A?G?C???@???O???????C_??????????G?G??????G?@????????D??O??A??@GO???C???????????CA??G????G?C????????G???S_??GOA?Q???O???A??@???A??????????G?@?@??A???O???A?????????????A?????????????@????????@???@??AS?Q?A?@??GO????_?????O?C?C????G???@??O??__???@??A??W????????????OS?@O?????_?????c??K??A????C?o_A???C?C_?????O???@?????A???O??????????G???OG????????G??@??????????????A?O?????GG???CA??????A?_??O??????C??A??????????CO?AC??????O???_EG?BA???O??W???????????C@O??A_??_???@?S??C??A???????????O???O???,False,0.0045959949
~?@c?????C???????@C????????C?C?G??C??_???O???_??IAk???C???AEGAA?A??????A??????C??????????????C?O???G????OAG?????@?C???A??????_??_??G????G?@A?@_?OC?Gc????O??w?_????@K?????A???cO???AG???A?????O?????????C?????_???A?@?@?O?_O???W??A???????A????_???Q???????AO????C?o??O??@????_?????o???QA????G??G???_????A???G?C??G??????C????g???????????????G????????_?@??_?OC@?GO@_????o??AO`?oO??@??@??_@???AI????????O_????O??C??W?????C?O??D??@?@?????G???A?AC?C?G??????????????G??Gc?????????@???BwAC??C?K?O@??????A????G_G????C???????G?C???O???_?_????@????O??@???OC??????G????G???@????_?????????A???B???A??????O????????_???C??G?????A?A???K????AAA??G????OA???????A???_???C??OKC????C?A??O????A?D???????D??@_????????O_HA???????????O?O??G?????C???@?????aC?????C??C??GDG???_??@????????@????OP???????????AA@??@???_?????????O????_G???_?@?????O?_??OC??_??C@???,False,0.0046029091
~?@c?????O@_AI?????@@????@???????G????@????A??O??@__?????C???????????A@?gCG?@PG?????D???G?A???O?_O_@????????@?@??C????G?G???????G?P?_????C?Q??@G?????@???K??a?@?????GG?????????CO?O?P??AO?C??@?????_???G@????c??AG??PO??A?????@p?_?@??????_C??@G?????G??O????A??????????A???G?????G??A???CO??A?????????????C???????A???C?A?@???????@@?_C??????????????O???@????????????????_???O?????O???????????O?????G?g???AC?DC?AOPG???_C??A???@?P??GG??C????D??????A???cO?@????C??_?G????A`???_?A??O_?O??O??????C??_?A?Y???A????GGO???_???C??@????G??CE?????O???????_O??A?????@?_@a?A???O????G??????_??@???o??_?G?????CG??CO?C?????G?OA??O@??O?????????A???O???_??@?????_????@GA@A?????????_C???G?????A??C@?@?GAc????????C???@??????????CGC????@??G???_Q?G????????O?????????CO??C?_?????C?G_??????????@?????????_@?O???G????G_?O?C??_?OG???K?????A????O???????????A??OCO?,False,0.0046000481
~?@c_????C?O????@????G???G?GC??C?????_?OOB????????????????O??C???O??@PO??O?????_C????E??@@A?_?_??_??????A?@?????@?@??????A????@A??C?@?????G???_??A????O??O?A??????CG??A???@?AGE_A???GG??????G?C@?PG??C?G?g?QA???_A??AC?OC?????E???COCC_?@???????G???????????OA???I?G????????KS@????g????G???G_???O??G?A?@?_O?A?????????????AC???????__??@????????GAO?@???O??A?p???_??????G?O?????@??OG????????I??G??@?M?AO??????????A????O@??????????AGo?A?CA??C?????C?O?O?????@???????O?????G????CGOB?????????????_O????????ASC_??C??_???A????_????@???????G@????_?@?A?A?_?O?_??_???????_G@?????????????A??AC?C?????@???AQ???_???????A???C??@?OO????????????_???????????????????????@@_??A???_????C????c_??_?C?????OC?@??????????C?_??????????@I??????G?O?CO@???O??_?A??O?OA?????@?@????????????X????????_@??????K??????H_?????BG???O?????@??_???O??????????O?_?GA?O??_@CO__,False,0.0046491623
~?@c?????????????_A?????????O?COO???C?GA@S???Ag????C???C??G???C?A_CO???????o??_???L@OA??@?GC??????HC?_?????S??????s?OC?O?@G??@??O@_??@???G??????_??C???S??O?C?_????????@?G???H???@???C??G_???O?O??ACO?????CI?????_C?????AC???G@@S?A?@??G??C????g???O??OGA?O@A??O??C????E?????A??@???????????????OA????_????O@??Q????I?C???A?????OG??_?G??O???O?A???OP??A????????E??????@D`??????C????????C?O?O??@AG?????@??G_??O??O??G`??O????@????_@??_?????G??_C??_?????C@???????????????B????????????????????_?@?????????C???A???????a????????O?????``O???@?????A?????C??C???CO???????G?A???????p?????G???A?O????W?????c?_???????P_??_??A??c?_C?C?A????@????A??O?????????k??CK??G?C?_??C???O??????C????G_???_??_?????????????I??CG?????@@@?C???????@?A??OH???O?A?OG?@?O??C??????Ca?????_O??C?????????_??A?????G?????_????????????@???A??????????????????????@????????GG??O,False,0.0045750141
~?@c???O?@??_?o????G?_C????G????????GC_???????O??A??@@????A?A????C???Q?A??S??C@B??O????@??@_?@??O???????????GC???O?C@??G?@G????AG@?_??S????????????????O@?C@???G????@?C@C????_???G???????????a???@@?@O?p??_?????C?@?????@_??O????G?_?????E_??O?_O??B???????C@??O????_G???A@?AG???@?G?E?????????G?__?????????????A?a????@_A???????????????G?@??I??A???C?O??????Q?_??C?????OG?C??A???O_??O????G???_O?H??o?_?????A?G??????AA???A?G??_??????A???G????C?_A???@?_??????_???@???G?S???@?@?G??????O????@?G???_?C????????????_?I???????O?????????C????C?????A_E????o??O???A?e?E?_?@????????@G?__??A?CO????????????AO????????DOGO?O??A?C_????????????_???????C?E?_?o?????????A???????A??@?@????O??@??????O???a???@???????C?????GG????A?@B?O?C???A??????G??G_??A?@?@?C???G??_@???QI???G??G??C?OA???A????@????????_??G?_?@??O????AO??G???aO????G??????G??C???????????????,False,0.004611969
~?@c???OAo_??AA@?_??O????OC???@?C???G????H??@???????_????????G??O?C?O??????C?o?_????_??O@???A???@O??G????????@????A?????????@??????????AGO???@?????_O????_@???_???????c?A?????@?????????_???C????????????GO??G_?????O_??_??G??????????_??_??_?C?????????S_????A?A?C?A?O??????O??????C?????G?????@????????????????@????????@?????C??G?????G?C????G?@?O????C??@???????????C???O???C?C@???G?@A??????A???@?C@?????_O??@?@??I_D_G?????C?G?O????O?C?`???_??O???????_??@A??A??O?_??C??SA@???@????????AOA?O??????O????_?????@I??@??O?@???O?`GA??C???_?????????_OO???G?_?_C_?????O_????O?G?_???G????????_O??????O?W?AOC?_?I?CAC?@????????O_????????G?P???????E???K??_C@???OGA?G????????C?O????OgC?_C??C?AA_?@A?G???o@???@?????A??@GO???EO???????????A??????@??????C???@?A??_????CA???C`??@G???G?_CG?A??A?D__?A????_???G??Q??????????@@???@O?A?????????_O??C_????D?????,False,0.0046050549
~?@c????_@??@??C?A??A?_??O?????????C???O????????????P_???C?????O??O?B????A??A?O????@????CC@????????@??CADAG?CC?G?????????___A????G@???G??????C??????D@C?G??@?????OA?g?????C???_????C???????????_???_???G?G?C?@_?_??C_@??o?O????O????????_?????KA??CK?????????@K???????????O?G?????@????G????????G?????C???A????AW????A@?C?_??_????C?G??G????O???A??????@??G??IC?o?_???????_A???_??@?O?????C?????????O??????T?????_B??G????O???@O???G???????G??????????c??G????o@???_C?@?WA?GO?@??GC??c?_??C??A?G???OA??????G???????????C?@@G?_???A??CA???????????O?????????C_O???@???????A?_????__C??oG?????O?????G?OA?[??AWA???G????????O???_G???????@??_??G?O?W??????_?@?G@???A???@???o?o?@?_???????CC??_????G???????_CO?_?????c???O???O?????I?????????O????AG?G?????_??B@??_??@C?i??????C??C?G@?A???O???@?G_????????????C????????O?Gc?C????????A??????@_SC?????G??G?C?????,False,0.0046169758
~?@c?_O??g?_CAA??O????G?_G??????C??????????G??????????????a_?????G?????AG??_?_?????????_C?G??_?CCC_??@?A??????GH?_???@????@????????_?O??@@?A??????_?_???O??@GG????????G???????@????O???O???O?AO?GG????????A????????@????????????????C??@????A????????????O?KCA?@??_??O??????G_??????????????????Q????@?C?????C?gC???_???R?AOAKA??GCC?????C?_@??O??C????_????a?G??@????_?T??O?O???????@?@??????????G??B??@?A??????????_?C?AC??G_O?c??OAG_?_?SA???@????@?????g??????@???@A??`???[???????_?C??cOG???????OS?_????@?O??????G??A??????????A??OC????????_?_G?O?????????A??????C??A?G?@????K?I????_G???S?C??C??C??A??P??@???W???_????@O???????????@?C?GC?A?????C??`ACG???GA?O?@???????I?C?A???@@A??@?A???AO???A?????A???????G????????A???S_???????G???@??_?@??@???P???????O???@?@????C??o?????A??A?????_???????????O??_?????????????@G????g???g?__A??G??O_??_???@K??O,False,0.0046019554
~?@c?C?O@G@?????_??????????CG????H?C??G????C?`???A?????????k??@@???Q?EA???Cc?_????????G_?A_@??????CW?OO?G????????C??????@???????O????__@?????????C???_?????_B@?OG??????????C?@?`A?????CO?G?K????????????O??C???C?????_G?????@???@????_C????GW????_?O?@??OI????_O???P???TCG??????_??@?A?GO??????????????????????LO???G????O?????OO??G??@??O??_?????????????G??A?A@??A????A??????????O???????????G???@??CC????C???_A?O?????A?OO??GC?????????CC??????????@????O???A@??O??OC???G??B?A@????O??????O?????@?@?????O?o???O??O?????_??_?????GA?O?O?`?G????????_?G_??G@???@????@???G?O????[?????O?_GWS????O?@S???????D?@???????????????G_??_?C_G?????C???O??O???????_????????????@?_??@A????????oA?_????O?????g???A???@?C???@OI???A???????????G?@???_???CE???QCC???C?????A_?C???`a?@?O????D??G?????W??????G??OA?O???_O?G@???_c???C???G?????????????????A?????O???A????q,False,0.0064730644
~?@cC???A?o???A????o??C???_??????AC??A???@?_?????_A???????aAO?@???OO???????_?@???G?O??????????G??_??????_?A????C?????G@?????I??@????@?_PO??_GA?C?????C??????gC????C?O?Cq??@G??????????O??G??A???C_C??_??c????_OA?C????A???@??????O??C?C??@?????????????????@O??G????@a????????C???????U????????O_?????C??_???@C???@?O???@A????@?_@?????C???O@O@?????O??A???C??C?????W??????O???????C?@????@???C?@C??_????C????????????????C??????A????C@?@???G????_@???C?G???@???????A?????O??????????_?C???@?_?_O?GK?A??HA?C????A????????_????@O???cC?_A?O??G??@?_@?_??B?A?_??C??GAO?@?C??OG?????cO?G??OK????G?A??C??????A?????GO?K??????G????@??_C???_?????????????@??C`?D??A?????????@@CIGG?????????C???????G_??G????A??????@????????????@??_??G?@??????_???G??@??AO???????O????@?_???O?CCA??S_????C@?C??A_C????C??O?A??@???_??__?I????@?A?@??_??????OP?_??O?????O?_???C??,False,0.0048029423
~?@c??_??O??I_??`?O??_???A??A???????GC??K_???????G?_?A?????????????G????@??@O@C@C???O???????????S??????????@?@??O??????G?????G?e??????????_O?????????G?????G@????AG?????@?????@G???@_?G????O??G?????C???????G??D?G??G_?????A_?????O?S_G?_??????@O_???G????O????_?G??@?????O@G_???G_??C??O?a??_A?O?_?_?_?C??????????AGC?@??S@??O?_????g????g?A?????????_?P???GOGG_?@?C@?O????????A??g???????_OCHC???_?@??????_???_G?OO?????C??????OA@?????HE?@????????O?????K?????????A_?G@?_???????????A??C??????????A?O???C????WG?????A?A?G??G?????????????C???????_??????_???C?A???oC???C???????s?????GO??????O?????????@??????OI??C?A?????@???D?OG?@??????????????????CgO_?G?????C??????_?G???C????@_??G?C@@???_??I?C???C???OCA??O???AC?????c????CC?C????a?O?C???o??@??????Y????_?@@?_??????_??????C??????????????C?????_@??????????A???@?_C??O?????d_?A?O??CC?@AACG??????,False,0.0045850277
~?@c????????O?A??G??????GG_?????@`??@???????C?????G??????_KC???????C?????????_??G?A???G??CA?_???G??AE?@G???O????A@???????GC?C??aGA_@_G?CG??????G???C??A??O?GG?????O?G???OA?_A???????????A?_?AQ????_????_???OC???S??G@A????AG?_????`?GO???A?????_G????A??A?????????@?A??@???@???C????@?_???A?GO?????O??@???O????_?????_GCGC@O???????C@?_??????@????Y???G?????O???OC?????`???O??_???O???????A?C??????C??C@G@????C???????A?_?A?????????????????G?_?O?C????G_??CA?A??O????_aG?OA_?H???????@??c?????O???????O??D?O?_A??OA????O?AQ???????????????_A?????A???????????????????O????_????@_????GG????g@?????@?G?@?_C?GO????????WAD_???_????O???@??@???G???O????????@?????A?@????A????@?G????_?OCG?@??????????_????????@?????@CA????P?G????????_??CA??????????GH_???_???A???????@A????D?aA?CAA????OC????A?AA?a????????????C???_??B??_????A?C?????CGG???@????C@???K??A?_,False,0.0045959949
~?@c????_?_????@O????G????????????O???c?????@??????C???_?O????_?????AH?????@???????_??????????A??G?A??C?G??G_C??????A??????O?@CG???@@????????A???O??OGAg??C?GE??@??????????_??g?????C???????????A@???O?C?@??????CCG?????_??C?????A????G?????GCC??????_???GO???C?P@???_???G_????????A??g?OE?????????@O?_??????CA??G?C??E?C???????C???O?W??????@??@?????C???C_C?????C???CO?@?C?@?AA?C???A??????????GO?????I?G??@??E?@?????????CGC?DO????C????_???C?c?O_?AP`O??_?????D??????eA?????C????C??a???@??OW??????CG_@_?A__?????@GG???????OO??????_??????????????GB??????W????A_????G??@I??_??A??_O?O@?????_????@?OC?A_A????_???????????A??????G????????I_?B????@????????_?????????@??GO???????C?_??????C?I@?CTO?????G?????SO?????_@A??O?c??O?CG?@??C???O??????O????????K?_?????S??C?@????O???@?????G???????@_?G?????A??AO???????@???????Aa???_??????????OGC?????A?_?O?O,False,0.0046319962
~?@c??G??OC??A????????C?????@??????P_??HW?_???A?C_??C????OCO@???????CG?????@????C??????????????o??@???G????????O?AOG??????????????A?@C?A?C@???????????_G??A_C_b??`G?A???O?C??CC????@?@???A???G?????????????????ACIO??O??@?_??G??_?_C_?O??????G?A????????G???P?G???A???????????_@???M?_@??E?G???G?A???@@????H?_???P??a????E?????????G???????????A?O?O?SOC?a?G??????????A???__??O_????O?????A?AAC?@_?????????G?a??CG??????O??O_????@??????A@??C????????????????I???????G????????G???G?????C??OG??C???????O????C???@????Q?P@?C???B????????A????C???g??OC??????????A???OA?@O?_??C???G?@A_???????????AG???@????????@?????O????O???OO??O????@CG??C??g?AO????O??_??CC???G?@G?@?????@?@_O???O?C??_?AA??_C?OCAO?????????A??????G?A????AoCC??_???A?_?A????????@?????_?@??A????C??AC@????G?C??????A_??O???__???O???OCGO?????G????GA?@?????G?O????C???O?????G???G????@???,False,0.0079169273
~?@c_???????O???G??A??O???@?O@?A_?@??_?????O@???@??G?o???_?????????@??GCO@?OOO????????????GO?@???C???????????OG??G??@GC?A????_???@?????_?????O?K?????AOO??A??G??????C??C?CA???????C?????OC?????????A????_?G???A?????A_???????I??????A?C??????_????????_??OO?????????E?G???C???A??????A?????A????G???oC???_??_???C??????????????C???Ah????G??????A?AO_????A?OP@C????_G?_??C@?????OA???????G?????GGA????A??a_??C?_?O???Q??????A?????@????G?G??????????@?G_???_????A@??O??????????_????????C???C???_??G?????@_@@???u?????_??U???A???_@?O?G?O?AS?O?OA????@?????H@?????????@?G?????_?@????C???OO???@???@??C?OC?????????C??G?_??G???W??G??????_???E?????_????P??A??g?????I?JC@K????O??????A?????G?????????G@?????C?????@????g???????@?@@@???_C?@?CIO?_????????A?_GO?@?P?????@?_??????????????A??@??G????DC???AW_?I@??????O_?C??_??@??O`_???@A??@?O??@C???????O?????,False,0.0044708252
~?@c???????_I@?@A?????A???A?O@O???O?c????????_?_A??C??A???????C????A?O??@??????@A???????@???@?C??C????@?D?@?_A???@?A?_???c???CG??@?@??O??????????????O?OG?C?????C??O_A@??????D????cC????OA@O??a??????CG????_???@?@?@?a_C???I??I?OH????G????????@??H????C???A???A??????GO???A???????G?????????A?OO??@????Ao???????????????????G?@???????A?????GA????I?C????G??A???????????????C?A?O???_????_O??@?C??????G?@G???C_GOO??G?O??????C????@A_???????G???C?G_`G??@?????C?C???E?AAOCO?_??????@??C?E??A???????????????_A??O??A?G????????????G??A?????_?C???????????G?_g?@O????C??AA?CC?GO?Q???_??????BAA?C??????C????GH?????????????????????????@????????????A??????D???CGC??????OC????@??CO??_??????C?G??O?C??????C?_???WC????????C?C??O?C?????G?_??C???@???_?????Cg?S????OG???AP???_?C?A?????O??????O????I_???@?O???A?_??O?K??Gc??????????@C??A_?@?E@G@???????A??_???,False,0.00406003
~?@c?_??O???S?@C???????????H?????Q??_OB?????????_???O?O?@?A???H??_????_???GC_?Ca??@G??????C?G??????C??O??????G??_???????A?O?A???_??????@?????????????G?C?A???????????O?GA????A???????????C??C?A?????QGC?g?O?????A??_??G??????@@??????C????OOMG????C??C??P??KGO??????A?G?C_???O??G??C???_?AG??COA__@@????_??_@???@A???_??@?C??????@?_@O???g??AC?_G??E????S???O??GO??_?O?G????K?A???C???_??G???C??AA??GCB?W???_???????@??????O??GO?????????G??A?G???_@???_??G????_????C??????G??????OG????W???????????????????C?@?O@??GG???K??C???????????O_A??_?o?G?????C???C?????CE???????????@??AO???OA_?Go??????Q_????????AG???@O?G?O??O??C??C????A??CCO???????????GA??????_A?_????????CC??P????@??_???@_???O??CAOCO???????????A??OA?????????????????@?????_???A????CGSC????G????????C??_????O????O?????_?????????c?????G_C??@G?GG?@????@???G???C????H?Aa??G?O?????????????,False,0.0048220158
~?@c???@?@G???C??A??CAC?@?????g_???A@?????@?G?????_??????W?C??????_?????C??G???CC??????_??A?O??O?@??????@?A?_?@?@?@???@???C???C@_?GG??A?????????G?????C?O????????CO?????_?????_A??G@?AO?????????????QA@H?_????O?????g????_??????????C???s??????O_a???????????_?@G??GO??O??_@??__?O?????????A???O??A?_??AG?__G???G?????@Gg?????O?h??????C??????AO???_A????@????K??O?@A???????????G?GG????O????CA??????@C??_A????C??OO?AA_?O???G??CA??AB?G????`???????O????G????A????O???OO??A????@????????E??????????A??G??A????OC@O???AW??????A?_????O_?O??@??CO????????????A__?@??_??????C???@?@?G???`?C????????A???A@_?????G??????????_?????????A???????????????G??CAG?G?O????G?_??_?????O????G@@??_?_C?????C??C__S?????C?A?GCGA?A??C????C????????@???O???G?_????C???????_@A???@???????H?C????_???@C@G????????_gA??Ao?a??a???W????D?A?????KA????O?????@???????A?O???C??????,False,0.0040988922
~?@c?????O?G_?@????@C?@?????G??_C?????qC?????ga???C??CH???????C???O?@??GG?????OGAGG?A?_????O????O????_??????????????C??G????@?_?O??@???C?C?O?????O??G?????????@?_?G???C@???@???????O???c???C???WC????????C???G?????@G???OCA????@???@?@O_??A???????G?Q????????A???O?`?????@??C??????C???@???A??@??????????@?????@?A??????C????G?O?`???A_?O??????A????k????A????????_????_?????@A?@??A??@?A???_?G??CA??????A??????@?o?????CG?GA???G??????A??_????G??????_G??G???@??C????O?????AOA?C_???e?O???_??????????????????o????GBG_???G?_??WO?????G?A??O????????_CG??@?????@?AO_??O???????GCA?P?A????O@????@?O?_????????A???G???O???????_??@???GG??@???????_?g@?g????C?O?A?@?@?@C???p????A?_????O??????C????@??????_C?O?@?@??O??????????????@C?????A??@???C?????????_O????C?@?_???O?h?_??????????_G??@O?@_?@?Q?G?A??Ca?????????_?@?@??_??G_C???????_A@?E?A????G???GO@@???,False,0.0045669079
~?@c?????????CA?C?_EA?O???????C???GC?@???O?G???O??????Q?????@???A_@???O?????AA???C@??????CA????@?g??????????O?@???A????W??@????????g?G_??@??_??G@C???G??C??C???A?????????G???????c?@???????c??A???C???@???A??A?@???????????P??????O?_?????@???????????????G??A??@??W?@?G?_?_GG????@???????CC?G????A???A???????_O??_???????????C??????????G????c`?????G??????????K_CGoA???G?????O_??GG?O????_A????@?_????AO???@?`?C?_O_CA?????????OC?C????S??@W????_???????@????????AE?O?O??A???O?????????`??????@?C?OC_?????A??????@?????@???O??????C????C??O?G??d?K?A???????C?O??????C?A?????????D_???C@O??GG?????????G??AG?????????C?_???C????????????O??O`????_A??Oa????C????`?@?kO??????O?_???AG?@??A??SICC?D??????_???O__?AC?SO_???G?O?_????O?@??A???????@???C?G??_C????E?????????????O??AA?Q???O?????AC?????A`?G??@??????A?O?G?G?G????????????OA???OG??????_??O_??@O???,False,0.0041151047
~?@c???????_?????_?A???a?Q@WBG?????_???H??????????C????_????????A@???C??A??A@??GC???????????????a?????AO????A??C?C????O????`O?@@??????@?????????????O??CO?????OC@??B_??????_?CG??QG??????C???AG?G???_@????_???CoO?GW?G@?????_A??_G?A???P@??G?G??_?O????????????????????G?CC???@_???A?@G????C???@??????_???_?????????AA?@??_????A?????_C?????@_O???W??????OA?A??G??@?GC?OA????????H??????????C??P??????????YG???G???CG??@?GK???????????CG??A??GA?@???G???O??_??????_??GA??@??A???PA?O_O??__???O??G??@???????A??????O??C??_??G?????O????????G??@_?CO?????G?@??@_G??_????C??????CC@??_?_CO?@???A?????C????????O@??????G?????????????O??C?OC????O?????????G???????cC?A???_???????????C???O?SGA??G??@???C?OG??G????????@G?????G??C??A@A?????@???S??????@_??????COC?????G?????@???????A?_?A?A?CACAO????????@O???????AA@?????OB?A??????GSG??@O????C?A__????AC???O??O,False,0.003975153
~?@c?O??O?????????O?A??@???C????_?O?_?G??O@A`OG?????A_?????Q??_??????AO???????????_O@???O?_?????OG???K??C???@???_`????@???????????`?_?????????@_???K???????@_G?OOG?_@??????o????H???_??A?O@?Q????@?A?????A??@@C????????_??O_??G????EC??????B??@????O???????A????_@??????????W??OO??@??_?????c???G@?G???A??G?A?????__?A??????????????C??GO????????G?gC????????GG????????@???G?O?A???A?C?G@???_???_??C????????G????AO?_??_???????????C????K@CG_????@???O?CO?A?C??@??@???_???G???C??G???A???????????G????_???G?AEG@?????????C???C?IO???_O?????_?A@C????C??_?????????C???GA??????????????????G?_?C?????O??GG?????????????PO???HO????@C????????K?????????C????_?GC??DAO??w?A???????@???_?_Q?G????????ACA???O??????@????????OC????GW??????C???O?G_?@???_???O?CqC?????G??_????O?@???O????G???????@????????G??As?@??_?_?@????CA??G???CA????C?O_??a???_?OG???AO?G?CC??,False,0.0038251877
~?@c???O???I??????????G????@???O???O_C?C???@C??H?????????A???????@GA???_G?GCG?C?A?????W?B??A?A?????h?O????_??????A????H????CA?????A????AG?_????C????G???????C?_O?????O??????GA??G?????B????G?G?O?G??OO?@????_O???????C??A??@??G??@????O???G????@??G?G??_??????O?C??????????????????A???B?????CC???O????_???_?G?G??`??????K_?G????????O?GP??????G?@????@GACA?????G????????????H?_cq??@C??@_???B_C???_??_?O??OEG?_??AG@???????A????A???????????A?@o??G?????_?G?KG?A???Q????C??A???A_??????C???A?????_?@G??????G?@???????_C??????GO@????C???A_???????????AA???A???@?C??G?O????????????????A???????????o@_????@???O????C?????ACA?????????OK????????G????_GC???????_???A????_A??@?_O???????O???C?????????AOOCK?????C?O?C_??????O???A?G?O??????CG?H?P?G??????_G??A?@??????O?O_???????????????C??G?AC????B???Oo???G??????O@??O???Q?U@????@????A??O??G??C???A?C?_X?G?,False,0.003827095
~?@c????A????O????????D?@_B@??A?O?O??_?A????CG??O???O?O??G???????????_A??O??????@?????????@??AC????????@??A??OAG??????O????Y??_???O????I???Go?CO?_?????D?A??@???A?_?G??????@_L?G??????A???A?@?A???O??C??_?O???C???????_?G??A???????A_g?A???O?G???GG?O?A???A??@?O???c_???_???AG_AC?????????????G???@?????KW???A??_???@?W?C@???????C????A??????OE?E?C??O?_???G???_???G???????_?@??A?????????O?C????????A?C???C????????G????????????????????G???_??a?????????A???AG????G?????@G_???a?O????A?@?`?_C????????A?_?PO???JC?A??_?_????O????O?_?CG?@?A?@?C???????CA??C???@????C??AO???G?????????????????????C?I??A??A?O?@P??????G??B???A??????A?@??O@??????@?????KO????_????@???O?C?_????A???O???A???????QG_O????????O??IC?????????_????d???O?@????GAA???A?O????_??S??P@K?G????Gg??@???C?????AGg?????????C??@A?????????????AOC???????????BA??????Ca???????O???G?????C??,False,0.0037968159
~?@c????????G?@?@@?????@?C?AC???O?????OCGCO??????GGQ?????????GO?GG?????DC?@E??O???@@C???E??AO???p??GC?A??????C??????G?O?@_???@?????@???????GG??A???OOaC?_@GA????O?????O???_??@g??????B??????????Gq?_????????OC????????KO??G?G????@??????????C???????@??C????C_???????A???????_?????B???_????OSO?????????????@????????C?DC????_CG??A?A?C????OA?A????__??Z?ACG???@?????G??AA?G?@OC????OC???????????_?G?B?@G??A??c?Gc???????@????C?O??@G_??????G??????C??????__@??C@A@??H?????????????C??G?AA??_C???????G???`??CG???@?@??C?A?????????C??_??????@@????A???????????????I????C???O???????O?A?O?????????????G???C????@???????CO?p?O_?C?G??????C?G???O?????_???B??????????_???_???????????@???????A@??G??C?@????????_??_?GO???C?O??_?OG??????o??A????C???????IcO??c????oAA??????C????P?O??G?????CA?@?????__???????A?????_???@?????O??C??__?????B??????C?A??A_?@????@?,False,0.0043809414
~?@c??????????????O??O???????_???C_@??OA??S??CA???????Oo????G??O????????AO?C???@???G??????a?A@C?@?OA?B?A_????E???@??I?????GG???_?G?????O??O??????_??????????OG???????@?????Ga??G????O?A??????_?????A?????I??S??O??????????A?O??_CA???????@??@??????@?_?????AOA??????GA_??_?@?@???????OC@?????A?_?OA?O??G?C????G?A????????_????????G???@H????????@?M??????????O@C_??C???O?CO?_????????CC????@????Q?__G??????@??????????????O@C?A????O??OO?G??@??????_??CA???????O???@??I???@?????CG?O???C??G?@????G?O???_@?O@?????A??????@?@?A???C?A??@?G?@??????????????????O??????a?????Q?????CC?_H??Y@C?O??K?O????G???O?C??_?O?@???@?A???Q@??????_??cG?@??????????@O??GC?A???AA?G?OG????????C???O??__@??A_??D??O?????CGC???AC?C?????_????_?O???B??AAO??????????O??????????@A?C?E???@?????A????C????O???A????C??AQ???K???A?_@G?@??_???????G_@?C???GA?????G?????_???_C??_????,False,0.0038659573
~?@c?_????????C?G?_CG??O????????C??????????????G_??????G?K??_????GCC???????_G?????A??CC?@?A?????C?OO??????C?A???C`?????????D?G?O???????OA@??????????CC???A??@?_GA??????o????????O_?G?C@???Ca???_?@@A?@??AG????O??C??O?????????A?CG??????_??G??B???A@?C?@C???@???_@@?????@OG?C???ACG?A??G?C?G?O?O??AA?G??GG???IC?_???A@_C@c?C?C????g????G???GAG??_???G?OO????@??_?@?O?????O_?A???????????A??G???@???G???????I???O??d???g?LO?U???OGG?????CA???AC_?_?A????@G??@??_????@????O?@C???????OOA`????_???W?O??GG???????_????E????????????A_????G???????O?G??A???O?G???C????C???????C??@?O???I???A_??????@??cOG???E?G?A??_?????O??G?????C?PO??_?????????@_??????????G?O?????A?G??O?_?O??O??????A????@???_??O?@???????????????O???_K?????A?G???_?O?_@?????_???G??????????_???G@???C_????O???OC?A???????O?C???????????????@???????C??G?????????????@G??????????????_?????O,False,0.0038490295
~?@c?OC?_A????@?E??C??C?_??A??????@C????O?_?????O???????A@???O???CK?A_?????_???_??_??????@?S?_??@GA??C?OA?@_C??O???????_?G??????A?C???????@?????????????????G????????C?_??????`O??????@_???C??C?O?O??@??????O?????CC???C?E???G??????_??????_?GO?AAO?C??????????????O?@??????R????????@_??????????O_?????@?Q?O?G???_?????c?????C????IO????c??G?AO?????AAO???COA??@GQ???_????????????@????????_@_?????O??H????O?C?????D?A?AO@g?O????????Q?@?O??@??a?_?OO??????????@??_??D??????????????????A??Q??C??W??A??A??????C??????_O??G??G????AO??_`??OA?A????DG@?O?_?@?????G????????????G????????G????_O????????G????o?????A?_OGC?_??A?O?O???W?????OG??@??@?D????G?C_?????C????A???_??????G@@A?C??C?@H???@?C???????????????O?????????C???????`????C?G@??G?_????g?A???O????OaC?????GO??G????????C??????A?O????QA????@???G???????Oo??__??X??AC??????_K_??@??????????_A?A@?,False,0.0038259029
~?@cO?_A?C?C?????B??????????O????????CQ?G???@?????_?OG??_@?O?@?A????O@?????C???C_??????????g??G_?@??@?`??????A???????OC??_???Oao????o?I_?@C?????A???G???O????_????C@????C?????G??OA`??????????????C????K?G??????CG@@A??a??????????????????G????O@?????C??_???_?????????_?G@?????G_EC?_@????C???A?@??????O????G???G@?AO?????????@O????G????G????A????C??????_????C_?????????@A_@??_????A??C?@??O???A??paO?G????OA???O??`???A????????CP???G?????A???A????????O??????????G????E?????o?????A????C??AQ???O????_?????O??_?A????K_???O_B?O???G??C?????@C_EA?A?????O???AA?G?C????????A???????G?A?A_???_????A???C?_?????OaCO@????_C???I?wG????AO?????G????G???????_???????C?O???@@?G??O????????_??G??G??@??_??_??C_C?C??????_?????_?_????G_@???????O?@??GCG?C???C????C?????????????C??????I????????D????????_C_O?C?????_??_G???G?GGO?_?C????O?????C_???G_???????G?_AG?,False,0.003813982
~?@c?O??K?CAC???@????????????AOP????I??O??A??G???CE?????????????O?????????_?O????A??@GDC???????G????????????????????W????C@?_????K?G?O?C_H?a????O????O??????????C_???????G?_?????O????O??AG???C?????????AQ???C??????A???G?????G??A?C?C?C?????A????P???G??????@?_?????AA?????????GGAC?G?O??G@?????????G?A???????@??O????Q????????@??W?A??D?????????_??GG????_???A?C@???O_?@?G?_???__@?_AR??A???G?O????@????OAg??????????_`A?C???_?K???????@????_@?????A?G??C???O???????????_C_??????????G?????G???_??C????_??@??????AG??G???@??`ACA????O?O?O??_?a??P_??????C?C?C???@????Q???????C_????O?H?PO?@??????@?_?@CC@G?????O???????G?A?O?cO??????C?O?????c@@?S@O@?@?O?????A???A???????O??????@??A?A@C??OA???C??????????C_??G?A???@???????????A???GA?OA?????????????_???_???CW?OD?????A???????X??????@?@CG??AG??C?G?????????O?_??????X???_Q??????O?????_?_?C?@??????????,False,0.003839016
~?@c__?AKA??C??_?????????C??_?CI??__CO???@?D?????O?O???_?????O??_???O?I@?????A?C?O?????????@A?AC?_?O????G??@?D?????E??o?????????G?????O???@??C?@????@??K?_?????????????@??_A??G???O??????????QG?O?O?@???A?????G??????O??CC??A?O??O@?_???C?OS???G?A?WC_??_????O???a????@????????????????@O?A???@???@?O??C???G?????C???B????????O??????@??C_?C???@??O???????_?G?G?????AC??_@O???O@??G?aO??????C???G??A??_???G????GC@??G?????????G??@???__?__?C??C@???C??????A?C?GA???????????O????OO?O????A??O@H?K???????C????????C_G??????I???@@??G????????O???_??C??O?D???????????O??????@O??A@?????G??????????@@??A??????????????????@??????@????A??O?@?B??@???GO???????G????G@C_??????O?C???????C??????????GGA@???AO??O????????A?@@???O??????A??@???A???I?C??OO?C???AAa???OOA?????c??GAOC?G??@C?OO@?@c??CC???????_?????A_???????O@????????????@?H????O???c??C?G???????AWG??,False,0.0052230358
~?@c?@??@C??????A?_?B???A_???O????@_??G???????????A?????????E????O??G??IA???A?G??@G?AC?_???ACA?A???????A_O?C?_???????AG????@??????D?A@???????c??????????_????GG?_???????????C??HC??A?@?G????GO?@?_???????_???G@????O_?C??@???C?O???O???c???MO??????????O??????O???O???A_GA??O?OO????CO??O?@A??????@?@`?A???@???????C?C??????G???????????_????@??????C???A_?_???????C?AA?G?_??C?????C???????C???D@?OAO????@?P?_?OG??OK??????_?A??????OC?_?O????@C???B?@?????_G???A?C?O?GC??@??????????_@??P???G?C???G??C??O?????C??D??A????????OCG???@?@O@??????????????????A?OK??@?A??G?A??GC???_O???O??_O?????_?G?O??@??H????C?????@?AA_A??????G?????G????????_??G??????????AA??@???D?CK??A??????A??O?A??_??@????A?O?C????????@?@??G??C???????G????GA???O????????O??G??????????K???c?????A???_??a??A?@?G?QGA?????????????O???@????A???????A??O??_CO?C???C??_?A?C???C???Ca?@?,False,0.0045239925
~?@c?????_@???_C??????A???????????????????????C???????C??????????C???O?I??O?@??@G???_G???AC??O????????o??aG?G?????????I_???OOG???????????_??????Q@c??C?G_???C@??C?????@??@????????????????@?????????O??G??????SI????A??O????O?????AA????cC?A?A???G??????????????_??OC@???????G_?????G?G?O????W?????C?_??????C??O?OC_??C????_A???????@???O??O?OKB???G???O??????O??????A??A?Kc@????????W?A???@??G@?????????_OgOD??GG?????????????????O?????A???O???A?????C??A????`???O?C???_?_?__??????????????_??????G????__??O????_???A???Ac?HG????????_G????_G???????C???`iC?A_?????C?K???C??_?`?????C?@@????_G@_E@????????@??????CG_??_??WC_?????A???A??????????A?@????A?A??O???????C???@?@???G?????C????????_C??Ag????????????@C????_??A?O?????@G?_?????????@AO????C`????_@??@???_?C??@_???P?A?A?????C??_CO?O??A?G??O?????Og??GC???R??A@?O???_???ECO?B??O???G???@_?@g?G???,False,0.0045130253
~?@c??A?_??O??_?a?GC@o????SPOA???O??????C`???????O?CC???@GC???O??OA?K????_???A?@?D??A@??H??G??????O?OA???????????????_???????????C??C??????_???A_????O?G??_O?????C????????????G?A@??????????C???C????????A????CG?G????@???A?C??????G??AO???????????????O???@???G??GOCG???o@??????_W_???_?O?AGC???a???O?_@??G@?GOG?@??????GO???C??????O???c?????_???C??????_???C???A??????????R??????C??G?o_@????O??O??@?@?_???AOG??C?AG?O??O_G???G????????A?E@????G???A?G??????C??????????@??????????O??CO?????AS???A??OA????E?????G??O??????_??C??O@?@?@A???O?????D?O???_@??G????????G????A?P??_@?GA????G???G?@ao???_???AG?@aC?G?G??G?????????G??G????EOA??G???C????????????????????????_??G?A?@???A?O_??????????_???_?A?G???A???????O?AG??A?????C_?@W?G?????????B????GC????_???@?G?G??AE?_????????@??G???_?A???????A???????????O?????O??????g??????O@@????A??Q?????Go??AA??,False,0.0044260025
~?@cO??A_?A??GG?S??????A??a???O?????O_???????????@?O?G?GA????OO????????GB???????O?C??????A???_?O???_O_OO????????A???????@G?@???GO???????@???@?C??????A????CO???O?G?_?GC?G??A??????G?_??E???_C????@???C?A???@????C???PO?G?@???OC?A???A????????????????????O?`??_???O?????_@?A???G???O?????@?@C????AA??G??G_AO??W?_`?P??@A????????O???????A???@??_??C??O???????K?@B??CIC?????O?????????@??CC????O_??????I?O?K?????????C?C?G??OC????????C?_??C???GQi??CA?BC???A??C????????G?????@??????G?@???????C????????????@o__??G??????GA??G?GO??????C??E???_??A??????????@???G???@???@K@?_c?????_a???AO?O??C???????????A??????o??A????C????I????C?O???G???G????CA??G???????G??P???????`????__?????_??C?O?????????A????????G???????????_?_?????@??__C??????G??O?A?????A??A?B??@?C@??A_????????????GCC????W?W??C?????C?Ca???_??????@???W??@??@?G??????G@???IC?@???????KO?G???,False,0.0044958591
~?@cBO??????O??_@???O@??????C??_A?_????E?O_C????P????????I????AK?A?AGC??C?A????_??A?CC@??@??G??_??c??_???AO@????OD?C??OO???O????C???_A?A????G?Gg????B????`??_?_????O??@G?Q????_????????AA??@?OCQ?_Q???OgF?????@???C???????@??????A?OOW????_?????@???C????????????????_@??????????????A?Q???G??A????C??????C?_C?AG??????????GI?A?@??C??????@O??CC????C??@AAGCG?c???_??_?????A????@?S???O?G??C???B??@??????????A???????AO?C?????????????????????O????A?@??@?_????C?????????????G?????D???@C??O?@?????GG?@????C????????C??????A?@????P????????_?????_??_???_???????CG?A?_?????????G?????AO?C??GA?A?O????a?@GA?????????_OAA?O???@??G_?????C???gc?S@????@??@@_???OIA???????A?A???A?_?????GO_?????????????_??????G?G?GC?OA??????????O????O@???A???A?????????????@WC??A?A_??_C??G_?CO@?A??aG?A_??????G????????_?????OA??????????????????????????G???????G?C?????G???,False,0.005687952
~?@c??????_?c@???????@?q?O????_????CO???GI???O??@?C???A???A?A?OG????G????????O????C?G????@A???O???@?@???????A??@?_????A??_O@?@_?GA?_???????O????G???G????B?????C??O??O?GOA?S????????@A?????O?_?G???????AG???G???C?????G?G???OA????????????O?????O@C????G??A??KW?????A??????@????O???@??????????????????G?????A??A??????A??G???W?@@????@???_@?@C_???_C?????O??CG@C???G?????????AA??????Oo???OC?????????E??GP???????o?????_?C?G???W@??@?_C??????G?????????@??G??????????_Q???@?G??GG??A@@????????O????G?O?OOA?GA?????@C?A?H?????????????A?????????G?AOO???????_????G???@????????G??_???????B???G???_??_??????S??G???@???C????@????_C??@?DG???GO_?_???_??J????YO???@???????C@?G?A@??????A??Wo?oWC?CG?O??????????@?CC?C?O???????AO?@??_?????????@G????G????????G?????_@@C?O??????_??@???CC@??_??G??C??????`???A_????@W??_??G@A????GC????C?AH??C??????_??O????????,False,0.0043859482
~?@cKO???O??O??????HA?C???O????????@G?O?A?S??@@???????????????@???G_????????_G?@??C?gA???A??E_?OG??????cO???????I??????????_O?CO???@C?G????@?A?G?A??@@???????C?BC????C_?O??????????@???O???O?????@???A????@?c???_????????????AO?@?????G??C??G????????_O??O??Gg??O??OCC?A????YA??A?CA@??????O??O??T??C??????????????@???O??????@@??G???_??P??@??????_??_?G???????????????OGO??g?????O???@???O??O???C???OO?O??A?O??@C?K????A?????A???????K?????Q?AA?C??????G??@_?C??G???H???AC??????A??G?CO?_?????????OO?@@?A?OC???@?????OO?O??O?O???`?????????C?C????A@?C?A_???????AF_A???A??????????????????OCA?????S?@??GGE?a????AC????A?????????????A@???????????????????DG?E??Q?O_??GC??DC????????G??O?D????G?G???G????????GA?D???CB?????????A_????A???C????????A?C??C?O????????@??AC?G@??????G???_?A_??CG?@_????C?????A?????????????????A????_?PC???G?_?C?@?????????_????,False,0.0044801235
~?@c?????O?W?????A?AC??_?G??_???A??????G????C???__?????@Q??CC??G?????C??????___???????????A???WA@???@??A?@???_C?_????????A????_??_?@?G?G?????????G?Q?????C_?????O????@???O????G?????H????????@????????????????CO???????_@????????G_???_?_?????P????O_????A?G?@?????O????O??????C??A_@??A_O????????_?????????????@?????PA??_????????????????G?G??AGO@A?e??Hh??A?CG?????C????G?A?@_??G_O?D?@?G??????@_?A??CO??A???O??G???????????O??????@@???????????????C??O???_???K????_?CG??????????GA?O??A??A@???????????D???_???????_??CCO?????C??@?GQ?_?G?A?A??@??OQG???_????_??????OC???O???g??C????O?C?????Go?A??????A?O?AO?A??_G??????B???A????_??????_C????C@?G??G???H??A??A???@??G_?????_??O??????A??GG?_??C@O???????_??C?@??????KQ??A?????_?G??_?????C??A?D??O???????O_???????c?O???@???Q??A__??@GO????O??@OO???_@_C???O????@?O?@????GA???E?@?A??????KG???????D??C?,False,0.0044710636
~?@c???A???C??O?_?GC?????@??A???G??_??H??O?????@?????C??????_?@???C????GG?C????C?@?G??_??O_??????????C??A??AAC??O?????__OA???O?A_??????????C??CO?????_O_GA?O??????G?????????A??C_????A????????_??????????G???C??G@??I???@?@C?C????O?????C??A?????C??????_O?SK@????_o?O??_???????????c?cCO_??????`????CO??O?????CQ??G????g???_?????@C???????????????W?AQ?A?A?@????????@???A@??????????C????C???????G?O??O@???@GG???????O???O?_???G???W????????@?A_???A?COG???????C????CCGO@A?C????@C???????A???W?????O?O?????`?A??O????????A??????O?B?O????C?O?C?????????A_?AA?AA?c??OA?O@???????????????_?@???????AA???????a??O????GSA?PA?????c??@??O??G_?????A?O??????C??????C???G?A??C@?C????O?GP????G?????????OA??B????????__?????????@C?????_`?A??????o???O?O???o?OAC?G???A_G??O@????A??C?AG??????G?A?????OC??A@????????@_C@??G??????@_??`??@??????????????@?I?@?@???????,False,0.0043108463
~?@c??OG?_?GC??`????G??C??????_?????A?_?G?G??_C???????????@????????@@?C??????C?@??__O??????@????A???O???AA????A???C?@?O??C??????Eg??????????A??G_?_????O?G?h???K??F?_?????C????@?@?AP_?_????G?_G???CA???????GCG?????@??GB??????H????????CB??@????G??_?C?@O@???????O???OH?A?????????@????B?@@???????A?????????G?Ao?C?_??Q??@???_C????CO?????_?G?C??I??G????G?C????GC?@??@CC???C????a?CO??O?????Q?_E?????????????????????????A?G@?????KA???AG??????????S?@?@????O???_???AO????C?A???_???I??@???O?A?G@???????G?_??O???G????G@@?????????????a????????O???_O??????D???@o?_??????GAO???O@??????A?_???I?O?c?_@?O????@??G??????????K?????AC???O?@????G????OG???????G?????W??CG?C?????O????O?????@?@??@??C???AA__?A?G???????W__?A@?@?G@?CA@?@?????????A????_?_C???A???_C??@??GCO?O?????O@???C?????????????????A????????_?G??????????O??C????@?????????????_??????@??O?,False,0.0043609142
~?@c??E?????????????????o???O?AD?G?A???BG???A??_????_??@`???????????????????G?????_???????????@_G?@?G@_g@???A??_?????????_?OG??????O????_@?????a????????????O?@??OA??_??g???_?C???G??__??_???C?@???K???C????????_C?@_?C??@_?????E????S??@?????OC???G@?@P?s????????????????C??A?cA??C??C???????g?????????_O@_??????_??_?O????W@O????????C???A?????g???????????O???C????C??`??O?G???PO??????????a???????C@?????C?A__?????????Go?C??????o????H??A???GC???A??_???GC??????_?a?O?????_?C??_???OO???_????G??O?@????a??g@???_???P?Aw??????????G??g????????????C????_????????O?a????????@ACC????C???????G???????`????????_????G_A_A?G?E?_??@?O??????B???Q??CC?????@A???_A??????O?A?????@O????A?????????C??O?@?????O?GG???????????A?Q??@C?G??O?_???????GGC?@?`??C????????????GA?????_??GA??A???_??OG??G????????O?A????A?????O?_??G?C?CC??CC??Q?C?A??I?????AD??G??CG????,False,0.004338026
~?@c_?????O?_??????E?`???@???A@?C????????O?OO???Q?A??O????????O?_???C?O?????AC?????O?O????C????A??@?ACA???A?O???????????DC??@???e?O?_????????????OG?k???_OO?__?????????????O_????B?A???@??????e??o???COO??????G??S??????@C?????_A??S?_??????`??_A???G???S??_C??e?O??@@????????????????O??????C?????O??????W??A??????O????????@??????????@?????A???AO???A??O????C???????????O????WG?@????O?O?C????C???C??g????O@?G?????O@?P??????@??_?O????B??@???G??????????????????G??????_@?G?GO????@??????_G?????????@?????A??O????????A?A??AA??G_o????A??@???????_?_????@????AI@??C??G_?????????@????A?O??b?G?C????A???_????????_?A???O???GOG????????????O???B??@K???C_?O???@??A??@@??????G?????_@G_ACC???OG?OA??_????o????O??@???????@@?C???G??????????A??C????_????@?C??@G???????G_O?_?O???????ag??????OE?C?g???????GO??????S??_?O??_?_AOOsC??@???C???_???A??????OO?_O?,False,0.0043299198
~?@c?O???????O????a@??????????GC?????????oG_G????_?GCO??????_??????OO?_?????????G????????O????O??_A???AGG??_??????G?????O??_????O???Q@_????????????`?C????P????O???P??_??????@G??@??@??_`?_?@?O??????C@??G??????`?@??@??@_C?G??????CC?@???????C?????C??A?O???????a?@????_???O???????A????C_???_?????????@???Oo????GA?????????????????@??O??`CA????OCCA?_OA??O?????????????????@?@??G?_??????I?C_A??_?????a??O???????????????????@D?????GA?C?_??A????????G??????AA???G????GC???@@??CG??c?????OGG?A?CC??C??@??????????@????C??@???????????DGIG??????@??C?????O?G??@???????????_?????OCQ?OC?C@???O?B???????G?GAC??G??CG??GC??????@CA??C?G???A?????G?????@OP????AO???G?G???_GO????????C??_?????G?_???_???@????O??@????A??????A???AD??a?G????A???????G????P?G?_??H???G???_???H_?_??_TG???@GDC???O??????AQ??????@???????????A??C?GO??B?A??@??O????`?b???????C???OCO,False,0.0044038296
~?@c?O??A??@???C?@`A??????????@?G??OS???G???G??G??_??????C??????GC???O??G?O?????????C??A????_O???O??????g?????G?????????A????A????????DG??????_????????@???G??C?????????C?????A???AG??A?????C???W??A???C?????C???????C?G_?GG?G????????CA???@?@???PA?A?O???C????????C_?????????@?GC?????????@??C@??C?_A@Q@?@?@?????O????@?????K?????H@??????_???A?@?@???????A@C??G???O????O?_?@?@?O??@@??__?????G_?@????_??G??@???W??@??G????????????@a???@?????C?O???G??C?_??GC?O??O?G?O????@??_??O?_A@@???????`?C?????@A@?g??????????C???_@??D???OO?_????@??CG??c_?_@???????@???_A?O??O??A?????????G?B?OG_?WA????C??A?A?CG??????????????@????????????_?a??????O???????P???B??Q?G?_G??P???????????????????????@??????????????_?GB_?@????????C?o_g??O??????_???G?????????C?GO?????CHGC??_??????O_??????A?B????I_????????OQ@??O?_C?O@A_C?O??????C?C?C????G???_?S????G???A????``,False,0.0044291019
~?@c????C????C_???????????O?@?GOC?????CA?CO?????A_????_??????????A?O?????????_?E???C????O??C???C@?????O???_?G?@G?_???@??G?G???????C??_CB??A???????GG??GA???C@??AO?_?GC????C?????_A??A???@??????C???@I??O????C?AC?@??@?GC_@A??O??__?????????@??GG_??????@???????????_???_??????????G???C????OH@??????HA??K????@??G???G?G?????????????AK?????OGA@C???O?O????????G????????C?????C??????A??@??C???_?B??????@??CA????K?_????CCO??G?C_G????_????A??@????A?????_?G?@???????AAC??C@W??GA????????@??G??O???C@???_???????C_??_???A_A??G?C_??_?XA?????????W??????????????A??A@?C????????o????_????????_??AI?G_????????@G??????????????_?kI?A?_??????CG?A`???a??O?_??A???????????C??????JO?C?G?O????C?@K@?????H?_C???_GO??G??A_??@??????O????C?_???????_??C??g???cC?A??????????_???_???G?????A????A?@?????a??????G?@G?????C???aO??C???G??H?_??????@?????_???????????O?A?c,False,0.0044128895
~?@c?????`??G?A?C??????????O?????G??????????C?????C????D?B???Ya_?C????????????????A@??_?????_???????????????????@??_@G??????GO???????@???????????@?OWOC???@?Cg?AA?OK?A?O???O???A?G??G?O???????A?@??Oo??_?OAE?@_?@A??_?@?@??_C???A???_????aC???A???@?@?????_????????????????G????G??R?@C??????GO???????????P?C??GW????????C?P@?????OG_???A@??????G??@?B????C??G??_??I?o??????C@??????????@G??AO?????C????C??_???O????@??A??_@???A??????G???????????????G???????@????G??Q????????_??D?_??G?G???BA???????????@???A?Hg??????@OC_????????_????????C?????G?g?????O?C?_C?S???????????G????C`??_O????GK?P????@?OA????K??EA??_?????????A?????O?@??`a???WH????@??????c??@?O?????@????????CO??????@?AOA???C????C?????_??_???O????@G??????@????A???_?????????G?_AA?E??O???????A??????@O??O?@K??_??_??????O???@????OC?A@????GB?_?C?????A???????O?????@???_B????_?PK?@?_???,False,0.0044090748
~?@c??????C???????????@?Ho???????O???C??????G?C??G@????C??A???????G?????O?O?_??G@???@O??Go???????????G?????O??????A??_?????????S?O?_??????G???A?????OO?????AC???O?C_?O???????????@????_?@C?????A?O@?????A??C???????cC?????????????????C?G????@?@??O?G??ACAAP???So????@???@??A_??????C??????G???????P????C???C?????AK?O_??G??B?AA@O???????@??_???G?G??_??C_?@?@?G??G_????GG??A??????????O_??_?????????????_????__?g?????_?????????CO??@O???????????C?????G???_??????A???G???_?W??????A?@?C??o??????O@G??C??_O??????oA???o?@@?G???G?@????B??????O??C??_???A?c?A?CC?O??@??O?_A@?????@?A????O????E??????G?_??@????????Q???@Cc?G?AG?????_???g?????K???O????G??W???A@?GOB???????GA?AG??@GO???@?????@G??_c?A?c??O???G@EI?A???O?@????????_O?O?A????O?_?O?????????E?_?A??@o???C??????????????A???????@????????????@?D?G?????????GO?A?????AOG??H_?????_?P????_????@????,False,0.004379034
~?@c???_??O???@@????????_?@E?A?????????????????c?????????C????H????@?`?Q???????C?OAa????P??????AD???????A????G?A_A?QG???_??@??C?????G???C??????C@??OOO_??????AA??????P?_???C?????????O????G????AO?_???G????A????????P????_????A??Q????????@????G?????A?????????GA??@????YP?O??G__C?CCA??????????????O?_???????????O??????A?@??ACCA??G?O???C?????AO??G?A???A??C???A@??C?a?A??C?C?@??A?C?????G?A??IA????Q??OC???AGW???@_??_O_??C??G??g????B?C??O_??A@?@?????????????????@_??@??O???@?CI???????????A?????A???????AAA?@_??g??????????A?_?o???G??_G???_????a???_G?????@??_??????????????????G?O???G??_C_????O?????O?_G????????_??GG?A???G?G@???P????C?G??@??S?A???GB??@????????@_???C?????A????GC???C?????????????????A?C??A?????_g??O??????????C?G?SgO???Ac??_@??????A???????A???G`??????DD?_??@???GCG?O???????A??O?G??????????G????????O??a????_??C??@??A?A?@?G?,False,0.0044131279
~?@ca??AOC????G????C??????O__???????????O??????O_??E??@?C?@G?????_D_????????????C??????G??C????@?CA????A????????AG_???_??_?O???????C???????AC??a??A?????????_??G??????`G??A?@??GW??????W@??_???@??????I??@??C???C???AC?O?A?AG?IC?a????OG??????????G??A?G@????O???B????????C???@KC????_?G????????????_???A?_???????????D?A????CQ?????@????C???_??????_??O__????????@?O???@G????C??@G?_K??OO??A??E??@???C???????C?????G????????????@???DC?CA??EA????_?G???_@??????_@????D?Q????CA????A?_A????O???????????????_??????C??@?????A??_@W???@O??C?????_??G???@A??G?@??????G???A_?O????_?@???????????@O????_?@_???????G???????????C?`?_???????A??@?????@O????????C????O???A?@_??A??A????B@??GA?????????????????????G?????OGG__G?A?G?G@CC?@GC???@GG_?C????????G?_?C???@???_?_????O`C_?@?O???O?_C@???@?I???C??C????????????O@A????_??G?CC????G@S????G???C_AO???Q??????O?,False,0.0044109821
~?@c??o?????G????G??AC??C???W?C???I?O??G?J__?S??????@?GA???????????????o????????G?O???????C???????A??@?A???C?????????A??????Gc??A?@??G???????@???????????AG????????@????@@?@???????A??_?_?????????@??C?@?????S????G??????@??????@????_G?@??C???_??@?G??GG???CG?????@_C?????????O?????@?K????H?QGCA?G?????O?_??Q??????C???C???????????CC?WC????AO??G?????????@?GC??_??GK??G?????????O?????O??@???AA???A??@????_????O??????A??O_o??????????D??__??_?A??O@?A?_?G?C???_??????G??C?S?D_O?????_P?G?@??????C@?AOO????????@?O??????C??D????????????@A?D????_????@?????????O??C?@???????_O?G??O??c?_W?G????C@_?????FG?_?@?G????????????????E?A?????OO???_??O@Q????????@??`O????AO????D@O???@???G?@???__OA???????C?A?@??O??A?S?A_?HO?A??????_??_A?@????A????_??O?????A????@?@???_O_???O?????????G?G?_??_???C??G?A????G??G????C????????AO????????CG?????GO@C??O????O???O,False,0.0045239925
~?@c?AC??CG????O?_??????????????C??A?O??A????????????C???????B?????????????????A?A????C????O??GA????C??O?_??C?????????G?AO????@A`????A??C?@??G??????CQ??O????A?O?A?C?c??????????GG??@???@??CA????@??C????A???????SAGA???GGA@??_??_??GC???C??@C??_????GI????_A?AO@_GA???`B?????????????C??????_?C????@H????@??_?????????C????A_??O?G@?????C@G?_C??????????GO???C?W?IA????A@BA?????_C?A?OP???GGH?C?_?S?G???GC???????P?O????_????C??G?????C??K?@G???????A???????@??A??????????A?????CAG_O_????@?A??_?????????@?_????A?????O??????O?@A?_???O??_?????_???_????G???????`??????`COA???????A??????C??CG???O????Ob???G???S?C???A??_???C?O????GCG?????C??C???????????A??OS???S?A?????oC?_O???@?????????_??A???Q??_??C?????????A???_?G??Q?????A??????????????CG?A?C?O@???????????OG?A??????O??D???C?_??CE???A??A??G?????????????GAC????C???????`???????????O??A?@??_?SOg,False,0.0045471191
~?@c?_??C????B?GG?G?@_?A?GO???@C?O_???P?o???????CCC????????`??????????@?_??A??????AAC??????SG??????CD??q???E?????G???@????C??_???GC????C?G??????????S???CCG?@???A?????@??????GG?G????A??@O_???????????@?BS??????c????q?G?c?????????@??????W????_?CG?????G?????C?_GO?S??G????OG????OO?????C???G???@?_??A??????O??A?????????A?@I??`A????????@?_?D??C?????B???O?????????O??_?OG????_C??@?A?G???A?@??AO??????G_A??OC?_?OG?@?O??A?B???????????@???@_o?????G_COQ_???WO??A???????_?_???W????????????????@O?????????g???A???????????g?A??@??H?????_?G???G??????@????C???_a?@???O?OA?????????A?A?_???GAA?O????O?O???T???IC??A?C?A????????@?????A?????C???_????G??_?????????O????????A??GQ??P??GG??_???????a?????@?AG?_?@??C??O????GC???????????????????A???`A?????O???O_??????_????????????C_???????????C?@?????????????K?_P???????K????G?A???????C???_???A???DA?????@,False,0.0044531822
~?@c?@O?A??AA??C???O?AC?????O????@????@?@@??????????G???H???????C???????????a?O???G?????????CO_??????AG?C?O????@O??O??????????C?C???P??Oo?o???@_C??G??C??????G????C???????C???????@_????CG???????C?A?????????_G???a????C????_??O_?A?@?GA?CGA???????@??OO@???@??????????AI???????A?????????????????G@?C??????_??G??C????G????_??S?????@a@A?????CG??_C??????O?????????A?@?G????C?@???@COG??????@??C??G????A??S??_???@A????????C??G??G??_@????????A??@?_???????O??????????W??CA_?????a?@C?CA????????C`_?P?_?K???gO??GC??A???????A??G????_cC???CCA?A???A????G?G?????????GR?D????????_?@_?O???AA???C?C_?a_?@???C_???@C???????G_dG?c?AG???S????????GO????@?c????????AC???O????A?????A????O??C??????P???CC??????@????AO?_G???O????C????GG????A_A@G?????????????_?@???@??G??????????_??????__?????CPGA_I???_???????O?G?????_?????????@O@??????__??O????????W?????OOA?,False,0.0044560432
~?@c?_?A?????O??OG??C??G_???????o???G?G?O??????OH?????G???@OO???O???_@???__G??????????GC??????O???G?GG_??GOKo??A??????A?CP@??_?G???G?C??G?????A@??????A??CC??_?_??C????@???_??E??C_?@B??_?A?????????CQ???@?????@???????_?A?????????@?C???C???????????@A?????O????????GCH?C??G@_?O????????P??????O??CO@??????????@????WA????C???C???????????CA?O?_???O??ACG??O???[?O????B@C?C_A?@???A???O??A????G??@?G@?????????O???????A???@??GC?OO?AA????????C?G?????A??@??@A?C???GAG@C??@C??_??????????O??????????????????????????c???P?GA??AG???????c_???A???????CS??D??????_?G?O??B?????OC???@O??????A?O??????O??A??C????????C??????O@A??c???_??@??O????G@GO???????G??????C????G??A???A?????_?gO?????AOO?G???G????A??A????????A?__??O?G_?_G??@??????????????C??@???O????O?????a??????????OO??????????A???o_???C??A@B?@?DQ????OA??????Q@??@??_???????G????_?G??????@?P????,False,0.0044169426
~?@cOa_?@?????C?O?_A??@O????A??C?_????????S??????????@????GC????O?O??????_?CO???O???_???A??a?@??C???C?O?????????OA??GC???????_@??CO?????g????A_???@??@????G???A?_@?????????@B????????????AG??_?G???G?????C?????G?a????AG???????@?O?A?G_C??????????OO??A???_?@C?????R_G?O??_???????@OAO??@???A??G?????_C?????OOA????????C@O??????????_??O??_????`???????????????`????????????A@??CG?C???g????H??C?G???C??@????????AA@??_O?G????C@???_A?C??A?????C????G??????CA????????O??O???????G??@???@oo??C??????????????????@?a????????????G???G?@???A?????OA?@?????_???@A_???G?A_??????????G???CYA?GC?????????B@??C??????G??@???C?S????C?C??_AC?????B??????A?G@?????SA_?A?O??CP?OC@???@O???C???G??O_G???A??C?_?????@?C??????GOAG??Cg?@G????H??O@O??B?????G??????????E@???OC???A?????_?_?????????OG????C???@@??????C_????????@???AA????????AO?@???G?A????_???oP?@???G?????,False,0.0043599606
~?@c?aO?GG??O????O?????_???????????@???_????O?????_???@??A??_???O?R??G??C?C?????????_@??????_?????@C???G????_???_?????@@????O?W??c@?????_`???C??A@GA??o????G@G??A???O?????????@?AG??????@????AG????C@oX???G@??@?????@G???B?@??Ga???????????????C??C????gG??@?C???O?O???@??_?????w??G????@?JC??K?@_??@??jA?O?R????O????????_C????_?o?`??O`????Oo???`??c??@?C??`CC???@?G?A?C??????AC?????@????C?????O??????_?_????????????OI?????@???@?????????????????????C???@??????A???O_C??_????????@???A?O?A?@??A???O???_?????_?O????_?????C???OC?C?????O?????????????A????@??????_?????_??_??AG_P?????C_????C??C?@A?A?O?_?Q_?????CO???A?????A???_????GAO?O?@?????????_O?@???`?????????????C??C?G??C??????????????A????@??????_???????_????O???????@?????A????HAo?C??@@A?@??????_???A?G???A?????????GG?????????A????G????_@?A?????A?????@@???L???C@????A???C@??a?@OO_?????,False,0.0044100285
~?@c??Oc???O?A???A???A?????A??????A?A?S?ACA@???G??@??@?_?O??A?a?C???????_??????????O???????@??A?_???????????G?????@???A?_CC??_???????C???_?????A??_??????????AO?C????O???_ACG????G????????C?????G???_??O?G???????GO?@S??????????????O??CCA???????????A??@??@o?G?????G???K??_O??????????A@????????EA?O??A???OO????@?_?`@????C???G?_?????@??C???O???????C??C??????G???G@?G@?G??_?C??????_@?????GG??????_?????P??PA?O??@?AC??????oC_@O??????O?GGGC????I????A???_C??_?????A????A??@??GCb???G??????_???_???@????????????I?GG???CO????_g??????????O?????AA???G????a???????_?CO????A@????C?????????????C?O??C?@@????????GAS?GA???????????_????AC?_?A??Ao?G??G???@O??@???_???????@?__??_??@???????P??@?_?????????A???????C_?_?G?@CWOGO?????A?@GA???A?O?????o?????_O???O_??A?O??a??C??A?_a??C??A?????O?????O?C???@?Ca_?A@????h??????C???@?????OC???????A?????C??_?G??A,False,0.0044209957
~?@c????????????O?@?A?C????_G_?OG?@?????_??????_?_?G??A?_O??????A@?????_??????[???AA_???@G?S?????????A_??????AG??????o?G?K????????C?G?CW???????????????A??C?O??AG?O??????OO?@?GOC?C??A@?G??O??O??G??????@??@???A?????????????G?_??????????????GAA?G??__?_??@C?C????????Q??A?_?????OA??????????__??????G?A???????????????????CO?_????????G@?A?????C??C?????????????G?C???????A?????@G???_?A?_@????A???GE_?G_??_?@?G@_??H@??????????????OH??O?@?_??@?????A???@?_?S???GC??GDC?H??_OC@???_?????????????????Q??A???_O@???a????O??@A???O??_???C??_@???_A?A@????????@????????_????SC????????????????????@?@????@c???????A?????A??????@O??Aj???????@???_?????_??C?GC???????@??A???????P???K@??OG???A???oA_@????_?Og?C?`???G?AG?GA?_??GG??@????G??C??CD???????G?????_A??C?????_?C??O???A??????G????O????_????????@???@?C??@A??@?@?@???P???????A???A??H@??G?I?O?O?C@G??,False,0.0043580532
~?@c??G??@?G????????S?G????C??O?C??C?[AD?O?????????g?????@????AO?A???@?C?GA??GO??GG?C??????????G??__?O?C_?G??A???G?@??C?C?@C?_????O_?G?????A???????OO??O??????????????C??AH?A?C????@??????A?G?A?????G@???????@???_?@?????????G????????????????O??O??G?G?????_?C???A?????@_????o????????????????@???OC??j?G??A@?B_??????????????????C??????_???C??O?@G?OO???P_?TG??GC?A?AC@??????????_?g???OC????@?@S???O??G?C????O??c??C@G???O??????????????G@?????P?????C??_????@???A@A??O_?@?????O????????AO?????CC????O?????????????A???A??O???_??O?????A?G?[????A_O???@?C?A????Q???@O???@?A???????O??_??????_????O??OGO??????C?????C??????GG???C?C?????@OO???????OB??A??C??G??C@??K?@??C?O????????????O?_?g?@????????B_@????G?O??????IO????G?????A??O_Q????C?C?CC_C???_???A@??A?_??CC???O???????????_??G?@??????_?_?O??????????@?O??GA??G?C????G?????A?@??O??AG?GA????@?@,False,0.0055999756
~?@c?????_?K???????__???O?O????????????G?G???@????A???????Q??A??G?[????D?g???O?GC??????_???????????O????CA??_?????C??????C??D_????G??A_C?A?A?_????????C?O??O??????A?????????O_?GG_????O????a??_??_?????KG???A?????????C???S?D@G????@A?????A?C??O?O???@????????????????@??????GP?_?????Aa??OA???????@???????@?`G?A?????????@????@????E????A?????@O???_?????CG?G?P?_CG@??a?????A??G??@??????C???@?G@C??IC??O???C?A??????_?????@CC??O???@?????OO@????C_C????G??CC????C?@_???????????_?????????G????G???GQ???C?G@???O@???????o?A?????C?????@?G?????S_???_??@???C?_???GO?O????@_AC????P????C?????_?????????O?AI@?O_C?Og??SC?GG@?H??K????_???????????GC????gG@?C???????????S?????G??????????G??_???_O???????????????@??P???@???_@??@??H???_??A???@?????@?@??O????????????@?GA????????C???@????_?M?C?ggO_??????_C??_????@_??????????_?????C?A?G_H?@?_?A???????C?O???,False,0.004283905
~?@c??_??G?_?A???_?G?@`???????G?????G?C??????AOE@GA??@AC@?@@B???@?G???????????@AY?OC???C?@??A??w?O????AH????_????????H??@??@??GC????G??C??G?????_G???????C????????H??@G??????_???????????????C??c@????C???O?_???????_??AAGA???AS?_?A?????????OG???????A?????_??G?????A???G_??A????C??C?G???A????CG????SA????A?O????????O@?????@???G??????A?????????????@??C??_O??G??_?O??c????AG??@????_C??D_?A??????E?????O???????????_???@????_???K?A_??????_?A??G@???G@???@??@??G????g?????A?_??_?O????????OO??O_????????CC??????A?_??????O????????C?G?GAG???????_oO????????C?C????C@?????O?D?@?_O??GA?@??@?G?????GOSO?A????????O?????GC?@?C?????@???C?????????G???O?????????_????????Q????C????_????G????shAc?_?G?????_G??`?OA?O??_?????????`O?????C???_@A@????I??????A?K??C????_???????????_@G??o?AO???????G???G??????@????G?@?K????????C?????????__???O?@?C?O???O_?????,False,0.0044159889
~?@c?????OO???_????????????_??????_?`???_?@?E???D?_A?C??@??G??__??A@?@?G?A?E?B?A?????????OgO??B??D????????OC????????`??@?C????O??????O????@?????G??_@_?a????g?????????G??S?????_?_????_???????O??T??O????????AGOO??A???????O???S?G???O????@?O???????????@cK?????????[?GCC?????O??????????w????O?cA???A?O??????????????__?_???a????@?C_???C????CO?A??C?B_A?????A??G????O???C?O??????O?_??H??@O???CG???A????????????@@?C??A?O?A?????????_?G??????@??A???C??????A?????@G?O???A?_???_??G?????G???O??O???????G??O??O????????????@?A???????????CCO??_@???O_?C?????O???G?????O??O??G?A@????@?OC_@?????C?_?????O??????????A?G??C???????O???@???????_c????_????OG_C?????@C?`???????PA????G???????OC?????@???@?G???C????G??@????A??_G_@?????@???????C????GAG?_?_@?G??@???@?P????BA????GC??C`???@???????G???c????????C?OG???GA??G_????O@@?@GA@_????_????O??C????__???G??,False,0.004368782
~?@c???C?_?@?G????????C??@?G?C?AO??_??O?C????????C?C??C??????CG??????????O_???A?O??J?????????G?__???@?A??CG??@?????_O????G_C?C????A?????CS???_???G?C???C???A??_E?a?G??C__a???C???O???O????????G??????EC?O??_C??W?????A?G???????G??G?C??????A??G??c?a??????@?@G???_??@A??G?????O?CA???C?????O?O?GA?O??G???????????????????_??G??oO????_??A????O??O????O??????_?A?A_?O??@????????@???C??????GA_?_C?__?????????_??@A???@@?????G???G@????????G??????_???P??O@????_??????????_???GO??_????A@?_A?_????C@??O?I????GO???C?_??a@_??????G???C???c????????_A??A?D??G?@?O?@????_?G?C_??C??c_???OG??@?G??????A???@??????????????A_??_?C?C??IC@??A??C??????????AG??????????G?A???????????G_@??????O?C???_?_???Q?????????????_???O??_C????????G????c?E_???O??A?@???O?C?????@???C????A???G_???@?_??O?????`?A????C??????IC??????????_?CO??`G??????@D??A?@??C???_?????O?AC??A?O,False,0.004404068
~?@cO???_????O?_?_?O????W??@??@???A???????????_?????C??_?????????O????????_??????AG?????o?C???G???????G?A?????_?_?O???O??D??????_??_?_A????W????????G@?GC??O?????K????A??G????CG????G?????G??_@??????C???C??_???_????_????__AO??????A??C??O??G????????C?WG???O_?GC?C??O??A????GP?????CC??O?G??B????CC?O?O????GCS?????C??????A??K????G@_?G???????A??P?_??A?????_?????_A???C??????A?????C???@?OW????A?C????A?????AA??????OC????O???AO??????E????`????@???????C???O??@G??C?????`??@????C??@?G?C???O????C??????O?_????E??O????k????????A??CA_??@?????O???G?G??A?????G?C?I???@???????G????????A??????_?????C?A?_B???OK?????@??????_????G?@O???O??G???A?AOP?????@???????????B?g???O???G???@?G?E???o?O????OA?CQ???????_?J?O????C?G_O???G?@???O???????A?G?????????H_AG?????G?AEO?O?W????G?__??_??K?????_??????AG@@??OG???C????A???????C??A???_?K?????C???????@??oA???,False,0.0043599606
~?@c?????G?????????GO?_?O???WC??`G??C?????????????@????????k???K??GG????_O??????@?O?CGC?C?G?C??????AO???_O???GO?????_?????_?O?O??_??????O_?a??G??O??_???????o???@OG??KO????GA?I?????@???????C???????????????O?????A???@??????O????@G?G????O???????CC?@_?@_????_???@O??A???????G????_????GAA???@????????@G????????????????G?????OA???_@?????_??A??g??C???WC??@A??AA_?G_@?GO??o@?????A??_A???????????gQ@????O?C??A?C?C??OO????C?@???????OC??GhC?_??G???????G???CC??????k??g??G_?A???????I?A???_?S?OW?????A??????H?????G???????????_????C?A???G?????????_@??????????I?A???@???????A??GO????????O???P?OO@??????A????O??@?_??A?????????GA_??_@??A??a???T_?????????T??C???H_?????OC??O??????G????????W???????OO??G????????BO?@@?_G???????CC@_????????????@E???????????_A?O???????_??????A??A???@?O?????A??@G????O?K??QCA?G?????AO??G@???I@???????????C?????????c??G,False,0.0044038296
~?@c????????????O??????S??a?@@??C????????????C?????C??A?@??K?????c???@_G???????C????@_??Q??G?????C?@CA??B?C_O?????@P?A??O???????@?C?_G???????????C???????O???????`C???_???@?????G??????????????_?_??O????????__O??????@@??????_??G?????A???????G?A_??C_??G?@?_???DA???[????@O__??????C????_C????O_?C??????????G_??G@???A??????O?O???_??GO???????_???_????O?O???OO?_???????????G?CO_?C@?G??H?????C??A?A?CC???G?@G????_?G???P?_?????@??`??????H????GC???G????@O????G??W??????????CH???C?_???????a?OO`A?OCC???????GPC????W????O?A?O????@?????A?GO???CG?A??O???__?_O?Q?????@???AO??????C????A??????A?????G??????????G????????@?????_?_@??????O???_G????G?@??A?@?_?????????@???K???G?C?????@???O???@O???C?????C???EO?GE?????????C????????O???????@??G?????AA???O??????????O?_?O??C?_AA???@?????CCG??G????OOBG?_????AG?????GK???C??`??r??????O?_OO_O??????@??C?G_??,False,0.0043239594
~?@c@????G??O??????COCSC?C@??A???AOA_A??_??G????????ICGC??G?G????o???A??_??????_?GG???C???I?_O?cC?A@??????????@@??????CA??????@C?????????????C?O?????AG?A?????????F??????C?G??????@??CG??C????C?????S@??@_??????_G?????G???O????????A?C??_Ag???????O_?????_@_?A??C???????????A??G????C??A`???????@gO@G@?O??_@???@_???O????????????U?C??_????????G_??_?G?????gCA????AA????A????_??????????O??`??????_?C?@??O???C?@A????O?C?@????I??_O?O???C?_???G?????@?_????????C??????DC???AA??A??????????@??????????@??????G??????C???OG????A?CG?G???CC@??W@A_?G?????__???????C@o?C????O?????????????G?@?G?A?A???@????@A???????????????@????C?O????GO???????????????A???P?_??O?????KO?????G@?????cO??C??????I???????@??????@???O?@_????A??????????_?????@??O??G??A???O????@B??????_??okOAO??A????C??o????`_????A???C_?O@CG??G????????OA?O????W?????????????A???AA????_?O@_A,False,0.0043730736
~?@c????_???A????G???@?????@?@O??g???G????O?_??A??Ac???????????????G???_O???????_??@?C????_G?g???_??????C????????_????O@??G????_???P?GC???_????????????g???C?c?@G?@???_???_C????@??@???A????G?G_@????????C???????AGGOC??@?C?????????????O@????@?C???D?????????@?GG???????A????G??E?????????O@?I??????@@WA????A@???????????_???????@?@???O??A?__?_??OA?_??OCC_???QGO?W?A??_????????@??????????????@????_OO?????AcAD?o??G??A????G?CA???????AG?????C?????G??O?AOG????????_??C??@@?????????KG??O?@??S???__???G????_C?_?A???????????O?_A??OCA??AOD?A?GD@????????O??A???CIA?_@?O?????B?GG??A????????????GG@?`????A?O@??????AO?????????B????????G??????_A?@_????C?O???A?C??P?G??_?????G????OG?????????????AOO??Hg??????O????_???G?????????A???OC???????????@????AC??C????????C?????_G?????????O?c????A???????g??????O??????A@???A?????ACKC?_?O?C?AA????DA????CG_??OG,False,0.00522089
~?@c??GO?A???AOAGc??D?_?_????GSO??A??G??CG?`IC???G????O???????@????A??@[C?A??A?@C?????@????_C?????C?O?G??C?????????@?C?A????????O???O?_???W????????@????AA????C??????C??A_??o???o????G???`?????G????????@???????G@???@@@????@??????????G???a?G??e???C????G?????G?A??????@??_?????A??_???A???@???A???OC_O????Q?C?A???_A???_?_O??@??@?C???????????A??B???O????????_??????@???G??O?O?????__?????A_????D???????????C????a?AO??????????????H?O?A??????W?????_??_A?G?@???O???????@_Q??@???????g??_???????Q???Q?????O??A??????GW?A???o??G??C??A??A?G???G?????A??_?_?@?????Chc????@???O??G??_?@O@??@?K???C????@??OO?_???????????????@@??I?????O?????G??H?_????_?????_@??????????G???@????C????c????_O???????@A@??????O?`?????????A??A?????O??G????_S?@C????G????C?G??????O????????O????G?A????????A????G???E?_?C??????AGGG??O?O?????C_E????????CC@@???@????_W?A?????G,False,0.0044071674
~?@c????OC????A?I?????OO????g??G???O?_???G???@I?@C_?????@G??????`??C??A?C?DA?A?????C??????O?????_G????A?C@_?@???G??_A??????G???O?C???CG??G???A??OE?_??????O?K?G?O???OCO????O??????A??@D???O?G?????@???@O?O??????????????@????_??GC????CCG??_G????????C?G?G??O?G??O`????_C??????C??_???????C?C??????C???_??????K??????O?????_???O@???@?_?????@???????????_????????_??@???????@???????????G?@?A?G?G????@?HO???????O???C?E??O????????G?C?????????AO?C???D????A??_????_????????G@??????_??@?A@?A?g??CA??????OAO?A?O??????CGAC????A????X__?_??A??????????????C??@??@IA?????C????_?KG??a???O??G????????????????????G?????_?G?????@_G?G???????AC?A??O??@??A?@????C?G????_??O_???G???????_A?OGAO?G??O??A?????A?????????GG??O??_?@_A???????_G?O?_G?????AOG???DS???C????@??@K??@????_???O?????????G?E?_??_?O@??????_@g??_C??_CC??G@?@A???@_??O????????G?????????????O?C,False,0.0043861866
~?@c_H?_?@?C@??A???A??__??G_AC???A@???_???????_@???O?@??o???C??_??@G?????A?????????C??@????????????????????@?A?????????o???A?G?@?@?_???????????O???D?_C??IG?@?????C?@??_????C@???@????????c?@?????O???????????G??????O?G??GG?????G????C?CO??????AA?@?????A???P??_?G?????_??_??????????_??G?@?????@????????GC??A?C??Q__@?@?G?GC?????C???_?????O?G??_KG???????O?????C??????AG????_????A??W@_????????_S?????A_??CG??A??K?A?A???????OA???C???_C??C??G??C?@_????O???????C??????????O?????????CGA????@????OO?_??E???O?c???_?GA???@?P??G???_G??????????????A?G??????@???????Ca?O????????_G???O??CC??_???????C??A??@???G_?????CO????????C??_CO?_?OA__???????C????H?????????A?G??????A??O???????????G????????__Y_???????G??S_?CAG?_C?A?C?@C??????????OA????@AG??G_???????GaG??@?@?G???O?Qg?????O?_??@OO??G??????????H???A???C???A__???G??A??O@?O?B??C??@A_???A????O???,False,0.0044050217
~?@c???A_??S???????????????@????_?GA???A???O??????d????OC?????????????AA????OPO???A?@?????G?O_????A???????@?C?@??????A?@?OG??@?G??PC????G_??@O?A?@?AEO?@????????G??????AP_??????O???????@_??????????CCG???@????C?????G????????AC????????C?????_?????????C????????????AC?@?G?WAAO???S?A?????????????O?A??O????A????G????KG?O?????@???O??A??O???_???????gOOG???????O???G_C?AG??_AO?????A????C?W??@@??__??G????G???OA?__?O@??OOU??IG??W??????????C?_????????o?hO?????AG?????????o???G??@O_??????O@?O??_?????GHCC?????O_?Q?C??????????A??@??O????a????_????@??_???????A???G??BO?A_@?????A???@????????????S?`?A???O??O?c@A????I???????@?O???????@Ac???W??@??A?????O???????W????C@??????Q??_?@?????C?G?????????????G?C@??????????_??_?A??A???????G?????OG??????????????K?O??G?O??_??C???O?A???????I??????O?C?o?????I?OG????o????_??????C_A???G?A????R???????_??A??_,False,0.0043880939
~?@c??_?_????G?G??@C????_?C?G??????GCOK???????O????????????????O?????????c???C???C[????A???@?C?C????C__A????C????B?@@?Oa?AK?P????GA????O???C?G?_O???O@???????c?O?O????G???????O???B??G?????O?g_?AO_?L_g???A?a?C_???G?G?_???O???G__O???????????@?O????C??A?C??????????O??????????_?@???B????????????????H???????O??????@?G??????C?C??B???????@??O????_?c?_C?C??????C??@??@G??D????????G?G??????????CG?@??C??CG??????`???_A??G??@Wo??????_???C?a??????CO@????????????????????aCO????@?A???????????????????_??C???O??????????A??????_????OCQKC??AO?A??cG???????A??S???o??C?i????C??_??????K??C?_?C?????BO?D?????GAO?????A?G??????G???O???_?G??????A?O???????O??????????@?AG??@??WA??????A?????@@??_G?C??????E?????Q@H???C???@O??????C@???????@??A????OO??GI@???????G????O?????????OH?C????_???A??????G?GG???@???C???_??K?????C????????????????A_?A??Q??_?????@??,False,0.0044300556
~?@c??_???A??A???O_????????????????O?G??GG?????????????????O??GC@@O???G?A?????????????????A??@A???????????CK??O???????_??????GC?O?O@??_????????A?@????G_??CP?C@C?@??????????@?_?A????@????E?_??@?@C??O????@???@?G????O?S?????_???????C?GC?C?A??E?@@?AOO??????@A?W????????O????????????????OA??O??A@???_A???C?AC??????G?OO?_?K__???GC????D?@@?@[G???G????C????????G?A?@O@???C????OC????O??A?????????@?????ACK??????A??_?????C@OC??C????E???OG??????????O???C??C??O????_??GC???_??A???_??????_????????????????CM??_?????????C?OA@?GC???AG?????????O?G??????_???O?S?H???KO?????????C?_??AS????OC@?_??A??????G?C??A???C????????@???????_??_?CIA???O???@??AG?@G?C@????C??_@?@??G???C???????????IC?????????????????G????IO????I@A???B???????PCS?@?_????@@?????????????C??G???O?G?@????@K??O?????????O?}???????__?@?c???O???_???E?`C????????A????_??_??????Q?OG?????,False,0.0043430328
~?@c??C????????OC?_??A@???K??????????_???G?_????@??A?G??CACO?_G???G???C?G?G??O???O???G??KA????????GB???????S??C????@W?????????_?O?_?C?A??C_O??????OCO?G????????????@A???_W???OG?CO???A@c?A??????@?_???A???GC????????C??o?O????@????@A???C?????S??G?@C??G???C??@????D???????A??C????G????@?????????w???I?A?R????A?A??O??@??O@AG????S???HA?W?????????????C?????????__???O?A??@????O?O?_??????@????G???C???_???????O??G_????_?gA@?CGO???OW?????__@_GA????????C?_??_?????????a?????????G??????@?????@???A??C?O???__?_???_G?@?????O??C?????A???O???O?????O????W?C?@????????A?????A_???A??A??B??O????@??O????@????????G?_????G??G????????C??????G?C???_???????????K_@G?G???_?@????????Q??A????A?`???`O?_??????????C????CG?O??C?@??????GGc??????????_G??C???H?A??@C???C_????CG??C????GO??????O???@????C_??C_@??_?????????A?`????_C?O??H?????_??_??@???@?A??G????????,False,0.0043809414
~?@c??_?C??A???HQ????O???????_S????CG?G?G??????@??O??g???OO????OO??G?C??@@?@???cC????????O??QA??????CC?????@??A?@??_???????CO???H???G??_?K???O?O??OD?H@G????????@???????C?????A?A??????G@???????????O?OS_??U???????O???????G?O?CC?O???_?C??????????O?@???H????????CG?G???@??@??O@??A??@??????????C?????@?_?@????C???CG???A??OAO?????_A?W?A???__?@_?_???C?????????_ACOD_??????@??G?@?????c??OO??CQ???@??O?@@????????????O?????G??????@??????@A?????_????@??OGC????e?OC???S????K?C????A??????O??????B????????@G?C?????C?@?@?dOO?????????????_O?????OO?@??D???????G??O????O??????@??????GOCCC????_?_??????_?_?_?????CIc??@?OG@???????????????__???????A??????_?????????????????????C?O????????@?????O?????????????????_?OC????????GGC??????A??C???H??????S???G???_??E?W?c?O?????C??C??S?????BOO??A??G????A??AG???g?A???A????___C???_@?????DO?A?@??G??????????O??,False,0.0042951107
~?@c?C?_@???@?OG??OGOOA_C????GSGO@K??O??C?C????_?C??AO?`???A_?@Q_????G?OG?OCM??A?_????C??G?????????????@????_GC??C???O???K?C?????A?_??O??@?H??_Gq????@?@@?O??G?R??C??C????????G@O????A??OG?????G?A????@?????????????C?_W???A????G__???????C?_O????O????????????????_O?_????O????A???????@???A?K?????g????_???CA?????OG_????G????G??????????????????O????A???CO?????aA?_?_O???????G@OC??????_?E????A?????@???A???????O??@?G@??AA??O_???O?G??Q?????????`??????@?????_?A??????????C??_?????@AC_???G???@?_GC?????@???????O???@??O??????B?GA??O???????O???????_?G?????AP????_?????????A????OAAA????????C???A?@O?CO??C????G?Q??????C?????_@????W??????_??????O@WD????A?C?????OG_????A?????_?A?????_??????GC???_???????????????_A???E???GA??@?????GHO@??????????I??_?A@w?????????@A???@AO????G?????O????G????????????O??????C?A???????????D???A???G????C??C????CA???,False,0.0042748451
~?@c@?G?????A?C???????????O????@??c?@???C?G???H??QC???????_??????D???_??O?????OG?C??????_?????A??@A????_???GG???@O_@_?????????O??W??A??????????C@????????????????_??????A?A??_???@CG??A@?O???????G?E?oAE?????__C??P???A?????????????a???O???OA???JA?_????PC??O???_A?????@??????_?C@_?_?????O????_??????G?W????O?C?O???@?????A?????_?@?A??G????Q????AKA_????a?G?C??ECC???_??D@??A???G??????????A?g???C???A????_???AAGO_?????AS????OA@C?A??A?`?????????????G@??_???????G???????O???_?Oc_??G??G?_???O_C???I???_?D??????????D??G?C????????_A?_A?????????????_?C????K????@?@A??@???_GA??@????????O????O???G??CCC???OCC_???????O?__??????????CE???G?A???O????O__C??C`?@????????_???????????????@GA???????????????Q?Ac?@???????AGG@?????A???O_????G???_??????@_????A?????????aP??_????O@?????G??????????__?@???@???????C`GAO?????????????G??g?@?????@???_?????O?????,False,0.0042898655
